%!PS-Adobe-2.0 EPSF-1.2
%%Creator: MATLAB, The MathWorks, Inc. Version 8.3.0.532 (R2014a). Operating System: Darwin 13.3.0 Darwin Kernel Version 13.3.0: Tue Jun  3 21:27:35 PDT 2014; root:xnu-2422.110.17~1/RELEASE_X86_64 x86_64.
%%Title: ./figure_noise_char.eps
%%CreationDate: 09/05/2014  17:32:19
%%DocumentNeededFonts: Helvetica
%%DocumentProcessColors: Cyan Magenta Yellow Black
%%Extensions: CMYK
%%Pages: 1
%%BoundingBox:    76   215   555   589
%%EndComments

%%BeginProlog
% MathWorks dictionary
/MathWorks 160 dict begin
% definition operators
/bdef {bind def} bind def
/ldef {load def} bind def
/xdef {exch def} bdef
/xstore {exch store} bdef
% operator abbreviations
/c  /clip ldef
/cc /concat ldef
/cp /closepath ldef
/gr /grestore ldef
/gs /gsave ldef
/mt /moveto ldef
/np /newpath ldef
/cm /currentmatrix ldef
/sm /setmatrix ldef
/rm /rmoveto ldef
/rl /rlineto ldef
/s {show newpath} bdef
/sc {setcmykcolor} bdef
/sr /setrgbcolor ldef
/sg /setgray ldef
/w /setlinewidth ldef
/j /setlinejoin ldef
/cap /setlinecap ldef
/rc {rectclip} bdef
/rf {rectfill} bdef
% page state control
/pgsv () def
/bpage {/pgsv save def} bdef
/epage {pgsv restore} bdef
/bplot /gsave ldef
/eplot {stroke grestore} bdef
% orientation switch
/portraitMode 0 def /landscapeMode 1 def /rotateMode 2 def
% coordinate system mappings
/dpi2point 0 def
% font control
/FontSize 0 def
/FMS {/FontSize xstore findfont [FontSize 0 0 FontSize neg 0 0]
  makefont setfont} bdef
/reencode {exch dup where {pop load} {pop StandardEncoding} ifelse
  exch dup 3 1 roll findfont dup length dict begin
  { 1 index /FID ne {def}{pop pop} ifelse } forall
  /Encoding exch def currentdict end definefont pop} bdef
/isroman {findfont /CharStrings get /Agrave known} bdef
/FMSR {3 1 roll 1 index dup isroman {reencode} {pop pop} ifelse
  exch FMS} bdef
/csm {1 dpi2point div -1 dpi2point div scale neg translate
 dup landscapeMode eq {pop -90 rotate}
  {rotateMode eq {90 rotate} if} ifelse} bdef
% line types: solid, dotted, dashed, dotdash
/SO { [] 0 setdash } bdef
/DO { [.5 dpi2point mul 4 dpi2point mul] 0 setdash } bdef
/DA { [6 dpi2point mul] 0 setdash } bdef
/DD { [.5 dpi2point mul 4 dpi2point mul 6 dpi2point mul 4
  dpi2point mul] 0 setdash } bdef
% macros for lines and objects
/L {lineto stroke} bdef
/MP {3 1 roll moveto 1 sub {rlineto} repeat} bdef
/AP {{rlineto} repeat} bdef
/PDlw -1 def
/W {/PDlw currentlinewidth def setlinewidth} def
/PP {closepath eofill} bdef
/DP {closepath stroke} bdef
/MR {4 -2 roll moveto dup  0 exch rlineto exch 0 rlineto
  neg 0 exch rlineto closepath} bdef
/FR {MR stroke} bdef
/PR {MR fill} bdef
/L1i {{currentfile picstr readhexstring pop} image} bdef
/tMatrix matrix def
/MakeOval {newpath tMatrix currentmatrix pop translate scale
0 0 1 0 360 arc tMatrix setmatrix} bdef
/FO {MakeOval stroke} bdef
/PO {MakeOval fill} bdef
/PD {currentlinewidth 2 div 0 360 arc fill
   PDlw -1 eq not {PDlw w /PDlw -1 def} if} def
/FA {newpath tMatrix currentmatrix pop translate scale
  0 0 1 5 -2 roll arc tMatrix setmatrix stroke} bdef
/PA {newpath tMatrix currentmatrix pop	translate 0 0 moveto scale
  0 0 1 5 -2 roll arc closepath tMatrix setmatrix fill} bdef
/FAn {newpath tMatrix currentmatrix pop translate scale
  0 0 1 5 -2 roll arcn tMatrix setmatrix stroke} bdef
/PAn {newpath tMatrix currentmatrix pop translate 0 0 moveto scale
  0 0 1 5 -2 roll arcn closepath tMatrix setmatrix fill} bdef
/vradius 0 def /hradius 0 def /lry 0 def
/lrx 0 def /uly 0 def /ulx 0 def /rad 0 def
/MRR {/vradius xdef /hradius xdef /lry xdef /lrx xdef /uly xdef
  /ulx xdef newpath tMatrix currentmatrix pop ulx hradius add uly
  vradius add translate hradius vradius scale 0 0 1 180 270 arc 
  tMatrix setmatrix lrx hradius sub uly vradius add translate
  hradius vradius scale 0 0 1 270 360 arc tMatrix setmatrix
  lrx hradius sub lry vradius sub translate hradius vradius scale
  0 0 1 0 90 arc tMatrix setmatrix ulx hradius add lry vradius sub
  translate hradius vradius scale 0 0 1 90 180 arc tMatrix setmatrix
  closepath} bdef
/FRR {MRR stroke } bdef
/PRR {MRR fill } bdef
/MlrRR {/lry xdef /lrx xdef /uly xdef /ulx xdef /rad lry uly sub 2 div def
  newpath tMatrix currentmatrix pop ulx rad add uly rad add translate
  rad rad scale 0 0 1 90 270 arc tMatrix setmatrix lrx rad sub lry rad
  sub translate rad rad scale 0 0 1 270 90 arc tMatrix setmatrix
  closepath} bdef
/FlrRR {MlrRR stroke } bdef
/PlrRR {MlrRR fill } bdef
/MtbRR {/lry xdef /lrx xdef /uly xdef /ulx xdef /rad lrx ulx sub 2 div def
  newpath tMatrix currentmatrix pop ulx rad add uly rad add translate
  rad rad scale 0 0 1 180 360 arc tMatrix setmatrix lrx rad sub lry rad
  sub translate rad rad scale 0 0 1 0 180 arc tMatrix setmatrix
  closepath} bdef
/FtbRR {MtbRR stroke } bdef
/PtbRR {MtbRR fill } bdef
/stri 6 array def /dtri 6 array def
/smat 6 array def /dmat 6 array def
/tmat1 6 array def /tmat2 6 array def /dif 3 array def
/asub {/ind2 exch def /ind1 exch def dup dup
  ind1 get exch ind2 get sub exch } bdef
/tri_to_matrix {
  2 0 asub 3 1 asub 4 0 asub 5 1 asub
  dup 0 get exch 1 get 7 -1 roll astore } bdef
/compute_transform {
  dmat dtri tri_to_matrix tmat1 invertmatrix 
  smat stri tri_to_matrix tmat2 concatmatrix } bdef
/ds {stri astore pop} bdef
/dt {dtri astore pop} bdef
/db {2 copy /cols xdef /rows xdef mul dup 3 mul string
  currentfile exch readhexstring pop
  dup 0 3 index getinterval /rbmap xdef
  dup 2 index dup getinterval /gbmap xdef
  1 index dup 2 mul exch getinterval /bbmap xdef pop pop}bdef
/it {gs np dtri aload pop moveto lineto lineto cp c
  cols rows 8 compute_transform 
  rbmap gbmap bbmap true 3 colorimage gr}bdef
/il {newpath moveto lineto stroke}bdef
currentdict end def
%%EndProlog

%%BeginSetup
MathWorks begin

0 cap

end
%%EndSetup

%%Page: 1 1
%%BeginPageSetup
%%PageBoundingBox:    76   215   555   589
MathWorks begin
bpage
%%EndPageSetup

%%BeginObject: obj1
bplot

/dpi2point 12 def
portraitMode 0216 7344 csm

  699   274  5748  4488 MR c np
85 dict begin %Colortable dictionary
/c0 { 0.000000 0.000000 0.000000 sr} bdef
/c1 { 1.000000 1.000000 1.000000 sr} bdef
/c2 { 0.900000 0.000000 0.000000 sr} bdef
/c3 { 0.000000 0.820000 0.000000 sr} bdef
/c4 { 0.000000 0.000000 0.800000 sr} bdef
/c5 { 0.910000 0.820000 0.320000 sr} bdef
/c6 { 1.000000 0.260000 0.820000 sr} bdef
/c7 { 0.000000 0.820000 0.820000 sr} bdef
c0
1 j
1 sg
   0    0 6924 5187 PR
6 w
0 4227 5365 0 0 -4227 900 4616 4 MP
PP
-5365 0 0 4227 5365 0 0 -4227 900 4616 5 MP stroke
4 w
DO
SO
6 w
0 sg
 900 4616 mt 6265 4616 L
 900  389 mt 6265  389 L
 900 4616 mt  900  389 L
6265 4616 mt 6265  389 L
 900 4616 mt 6265 4616 L
 900 4616 mt  900  389 L
 900 4616 mt  900 4562 L
 900  389 mt  900  442 L
%%IncludeResource: font Helvetica
/Helvetica /ISOLatin1Encoding 120 FMSR

 867 4761 mt 
(0) s
1436 4616 mt 1436 4562 L
1436  389 mt 1436  442 L
1336 4761 mt 
(100) s
1973 4616 mt 1973 4562 L
1973  389 mt 1973  442 L
1873 4761 mt 
(200) s
2509 4616 mt 2509 4562 L
2509  389 mt 2509  442 L
2409 4761 mt 
(300) s
3046 4616 mt 3046 4562 L
3046  389 mt 3046  442 L
2946 4761 mt 
(400) s
3582 4616 mt 3582 4562 L
3582  389 mt 3582  442 L
3482 4761 mt 
(500) s
4119 4616 mt 4119 4562 L
4119  389 mt 4119  442 L
4019 4761 mt 
(600) s
4655 4616 mt 4655 4562 L
4655  389 mt 4655  442 L
4555 4761 mt 
(700) s
5192 4616 mt 5192 4562 L
5192  389 mt 5192  442 L
5092 4761 mt 
(800) s
5728 4616 mt 5728 4562 L
5728  389 mt 5728  442 L
5628 4761 mt 
(900) s
6265 4616 mt 6265 4562 L
6265  389 mt 6265  442 L
6132 4761 mt 
(1000) s
 900 4616 mt  953 4616 L
6265 4616 mt 6211 4616 L
 799 4660 mt 
(0) s
 900 3770 mt  953 3770 L
6265 3770 mt 6211 3770 L
 699 3814 mt 
(0.5) s
 900 2925 mt  953 2925 L
6265 2925 mt 6211 2925 L
 799 2969 mt 
(1) s
 900 2079 mt  953 2079 L
6265 2079 mt 6211 2079 L
 699 2123 mt 
(1.5) s
 900 1234 mt  953 1234 L
6265 1234 mt 6211 1234 L
 799 1278 mt 
(2) s
 900  389 mt  953  389 L
6265  389 mt 6211  389 L
 699  433 mt 
(2.5) s
 900 4616 mt 6265 4616 L
 900  389 mt 6265  389 L
 900 4616 mt  900  389 L
6265 4616 mt 6265  389 L
gs 900 389 5366 4228 MR c np
/c8 { 0.000000 0.000000 1.000000 sr} bdef
c8
27 -9 27 -3 27 -1 27 -5 27 -2 26 -5 27 -3 27 -3 
27 -7 27 -2 27 -8 26 -6 27 -2 27 -4 27 -3 27 -4 
27 -2 26 -1 27 -5 27 -3 27 -4 27 -2 26 -7 27 -8 
27 -1 27 -11 27 -20 27 -5 26 -1 27 -1 27 -4 27 -2 
27 -6 27 -21 26 -19 27 -4 27 -3 27 -1 27 -6 26 -6 
27 -11 27 -7 27 -2 27 -9 27 -3 26 -11 27 -20 27 -6 
27 -4 27 -5 27 0 26 -2 27 -2 27 -15 27 -6 27 -1 
27 -6 26 -4 27 -5 27 -4 27 -2 27 -5 26 -7 27 -8 
27 -3 27 -4 27 -4 27 -1 26 -14 27 -13 27 -2 27 -2 
27 -4 27 -3 26 -3 27 -5 27 -7 27 -5 27 -1 26 -3 
27 -2 27 -2 27 -4 27 -9 27 -3 26 -2 27 -3 27 -3 
27 -10 27 -10 27 -2 26 -14 27 -13 27 -3 27 -2 27 -3 
27 -1 26 -3 27 -7 3609 4059 100 MP stroke
27 -9 27 -3 27 -1 26 -2 27 -3 27 -7 27 -9 27 -10 
27 -2 26 -2 27 -4 27 -2 27 -14 27 -23 27 -2 26 -3 
27 -3 27 -1 27 -2 27 -1 26 -4 27 -7 27 -13 27 -3 
27 -1 27 0 26 -1 27 -2 27 -4 27 -2 27 -4 27 -2 
26 -1 27 -1 27 -8 27 -4 27 -6 27 -11 26 0 27 -1 
27 -1 27 -3 27 -19 26 -14 27 -1 27 -7 27 -7 27 -6 
27 -2 26 -3 27 -5 27 -5 27 -1 27 -1 27 -6 26 -13 
27 -3 27 -4 27 -11 27 -8 26 -3 27 0 27 -1 27 -3 
27 -8 27 -4 26 -2 27 -2 27 -1 27 -1 27 -9 27 -3 
26 -3 27 -4 27 -5 27 -3 27 -4 27 -6 26 -11 27 -5 
27 -1 27 -3 27 -3 26 -2 27 -8 27 -6 27 -3 27 -2 
27 -9 26 -9 27 -8 27 -8 27 -5 27 -2 27 -2 26 -11 
27 -10 27 -10 27 -28 953 4565 100 MP stroke
27 -35 26 -15 900 4615 3 MP stroke
/c9 { 1.000000 0.000000 0.000000 sr} bdef
c9
27 -5 27 -3 27 -2 27 -5 27 -5 26 -5 27 -3 27 -2 
27 -2 27 -2 27 -7 26 -5 27 -3 27 -6 27 -4 27 -9 
27 -6 26 -2 27 -4 27 -3 27 -6 27 -7 26 -9 27 -16 
27 -3 27 -11 27 -18 27 -7 26 -2 27 -4 27 -8 27 -4 
27 -11 27 -40 26 -22 27 -7 27 -5 27 -1 27 -3 26 -6 
27 -18 27 -17 27 -3 27 -8 27 -2 26 -13 27 -16 27 -4 
27 -7 27 -4 27 -1 26 -2 27 -4 27 -22 27 -11 27 -7 
27 -14 26 -8 27 -6 27 -3 27 -2 27 -12 26 -18 27 -17 
27 -4 27 -12 27 -8 27 -9 26 -38 27 -39 27 -8 27 -4 
27 -6 27 -3 26 -7 27 -26 27 -34 27 -15 27 -2 26 -11 
27 -7 27 -6 27 -22 27 -28 27 -8 26 -3 27 -5 27 -13 
27 -20 27 -19 27 -4 26 -38 27 -38 27 -3 27 -9 27 0 
27 -2 26 -9 27 -32 3609 1696 100 MP stroke
27 -29 27 -4 27 -15 26 -7 27 -18 27 -31 27 -18 27 -8 
27 -3 26 -6 27 -22 27 -21 27 -82 27 -77 27 -9 26 -22 
27 -19 27 -13 27 -34 27 -29 26 -40 27 -15 27 -83 27 -46 
27 -14 27 -9 26 -8 27 -18 27 -13 27 -2 27 -20 27 -20 
26 -11 27 -76 27 -75 27 -14 27 -17 27 -34 26 -12 27 -2 
27 -3 27 -36 27 -152 26 -32 27 -17 27 -37 27 -141 27 -82 
27 -54 26 -8 27 -6 27 -20 27 -58 27 -29 27 -202 26 -69 
27 -24 27 -18 27 -95 27 -46 26 -10 27 -12 27 -92 27 -22 
27 -46 27 -57 26 -104 27 -48 27 -30 27 -10 27 -11 27 -38 
26 -16 27 -15 27 -9 27 -5 27 -3 27 -18 26 -5 27 -9 
27 -42 27 -25 27 -7 26 -9 27 -2 27 -9 27 -24 27 -6 
27 -22 26 -26 27 -3 27 -10 27 -5 27 -12 27 -4 26 -2 
27 -6 27 -1 27 -6 953 4602 100 MP stroke
27 -6 26 -7 900 4615 3 MP stroke
0 sg
27 -10 27 -3 27 -1 27 -5 27 -2 26 -5 27 -3 27 -5 
27 -6 27 -3 27 -8 26 -7 27 -2 27 -4 27 -3 27 -5 
27 -2 26 -1 27 -5 27 -4 27 -4 27 -1 26 -8 27 -9 
27 -1 27 -12 27 -21 27 -6 26 -1 27 -1 27 -5 27 -2 
27 -6 27 -23 26 -21 27 -4 27 -4 27 -1 27 -7 26 -5 
27 -13 27 -8 27 -2 27 -10 27 -3 26 -12 27 -23 27 -7 
27 -5 27 -4 27 -1 26 -2 27 -2 27 -17 27 -7 27 -1 
27 -7 26 -5 27 -5 27 -5 27 -2 27 -6 26 -8 27 -10 
27 -2 27 -5 27 -4 27 -1 26 -16 27 -16 27 -2 27 -3 
27 -4 27 -3 26 -5 27 -5 27 -8 27 -7 27 -1 26 -4 
27 -2 27 -3 27 -5 27 -5 27 -6 26 -3 27 -2 27 -2 
27 -11 27 -10 27 -1 26 -11 27 -19 27 -3 27 -4 27 -4 
27 -2 26 -5 27 -7 3609 4180 100 MP stroke
27 -10 27 -5 27 -1 26 -1 27 -6 27 -12 27 -7 27 -3 
27 -2 26 -1 27 -6 27 -3 27 -19 27 -34 27 -2 26 -4 
27 -5 27 -4 27 -5 27 -2 26 -2 27 -7 27 -18 27 -6 
27 -3 27 -3 26 -1 27 -1 27 -5 27 -3 27 -4 27 -2 
26 -1 27 -4 27 -13 27 -2 27 -1 27 -4 26 -1 27 -1 
27 -2 27 -4 27 -19 26 -7 27 -6 27 -10 27 -19 27 -10 
27 -3 26 -1 27 -1 27 -1 27 -5 27 -4 27 -13 26 -7 
27 -1 27 -3 27 -5 27 -9 26 -2 27 -1 27 -4 27 -2 
27 -2 27 -2 26 -4 27 -3 27 0 27 -1 27 -1 27 -3 
26 -2 27 -1 27 -1 27 -1 27 -1 27 -4 26 -1 27 -2 
27 -3 27 -3 27 -4 26 0 27 0 27 -1 27 -1 27 -3 
27 -2 26 -3 27 -2 27 -4 27 -2 27 -2 27 -3 26 -2 
27 -1 27 -4 27 -3 953 4605 100 MP stroke
27 -2 26 -8 900 4615 3 MP stroke
DD
c8
27 -5 27 -1 27 -1 27 -6 27 -6 26 -5 27 -3 27 -3 
27 -3 27 -1 27 -4 26 -8 27 -2 27 -7 27 -3 27 -8 
27 -4 26 -1 27 -2 27 -7 27 -4 27 -3 26 -5 27 -12 
27 -3 27 -6 27 -14 27 -11 26 -2 27 -3 27 -3 27 -2 
27 -6 27 -22 26 -18 27 -2 27 -3 27 -1 27 -2 26 -4 
27 -13 27 -11 27 -3 27 -9 27 -3 26 -12 27 -17 27 -3 
27 -4 27 -8 27 -1 26 -2 27 -2 27 -14 27 -7 27 -3 
27 -6 26 -9 27 -4 27 -1 27 -1 27 -10 26 -8 27 -8 
27 -2 27 -4 27 -3 27 -3 26 -13 27 -22 27 -6 27 -1 
27 -4 27 -2 26 -2 27 -9 27 -11 27 -7 27 -1 26 -6 
27 -4 27 -3 27 -7 27 -8 27 -3 26 -1 27 -4 27 -6 
27 -8 27 -15 27 -1 26 -15 27 -16 27 -3 27 -2 27 -1 
27 0 26 -3 27 -6 3609 4052 100 MP stroke
27 -8 27 -3 27 -1 26 -4 27 -5 27 -12 27 -6 27 -4 
27 -1 26 -1 27 -2 27 -4 27 -10 27 -25 27 -3 26 -8 
27 -5 27 -4 27 -1 27 -3 26 -2 27 -5 27 -10 27 -5 
27 -1 27 -1 26 -1 27 0 27 -5 27 -4 27 -2 27 -2 
26 0 27 0 27 -9 27 -6 27 -5 27 -7 26 -1 27 -2 
27 -1 27 -4 27 -20 26 -15 27 -1 27 -6 27 -6 27 -10 
27 -2 26 -3 27 -4 27 -6 27 -1 27 -2 27 -7 26 -15 
27 -2 27 -2 27 -9 27 -10 26 -2 27 0 27 -2 27 -5 
27 -6 27 -2 26 -3 27 -5 27 -1 27 -1 27 -7 27 -2 
26 -4 27 -3 27 -5 27 -1 27 -5 27 -7 26 -11 27 -5 
27 -1 27 -5 27 -4 26 -1 27 -8 27 -5 27 -4 27 -1 
27 -9 26 -8 27 -10 27 -7 27 -5 27 -2 27 -2 26 -12 
27 -10 27 -9 27 -30 953 4566 100 MP stroke
27 -34 26 -15 900 4615 3 MP stroke
c9
27 -5 27 -2 27 -2 27 -5 27 -4 26 -4 27 -3 27 -2 
27 -2 27 -2 27 -7 26 -4 27 -2 27 -8 27 -4 27 -8 
27 -5 26 -2 27 -4 27 -4 27 -6 27 -7 26 -8 27 -15 
27 -3 27 -10 27 -18 27 -7 26 -2 27 -4 27 -8 27 -4 
27 -11 27 -40 26 -22 27 -5 27 -6 27 -1 27 -2 26 -5 
27 -17 27 -18 27 -3 27 -9 27 -2 26 -12 27 -14 27 -4 
27 -8 27 -6 27 -1 26 -3 27 -4 27 -21 27 -9 27 -7 
27 -14 26 -9 27 -6 27 -3 27 -2 27 -14 26 -17 27 -15 
27 -5 27 -11 27 -9 27 -9 26 -38 27 -39 27 -10 27 -4 
27 -5 27 -3 26 -5 27 -26 27 -34 27 -13 27 -3 26 -11 
27 -6 27 -6 27 -22 27 -28 27 -7 26 -3 27 -6 27 -13 
27 -20 27 -18 27 -5 26 -40 27 -36 27 -3 27 -6 27 -1 
27 -1 26 -10 27 -32 3609 1705 100 MP stroke
27 -30 27 -5 27 -13 26 -9 27 -17 27 -30 27 -18 27 -8 
27 -3 26 -6 27 -20 27 -21 27 -80 27 -76 27 -10 26 -22 
27 -21 27 -13 27 -32 27 -27 26 -41 27 -15 27 -78 27 -45 
27 -13 27 -8 26 -9 27 -20 27 -13 27 -3 27 -20 27 -20 
26 -11 27 -76 27 -73 27 -15 27 -20 27 -34 26 -11 27 -2 
27 -2 27 -40 27 -157 26 -32 27 -14 27 -37 27 -141 27 -78 
27 -55 26 -8 27 -6 27 -19 27 -53 27 -30 27 -213 26 -69 
27 -23 27 -19 27 -99 27 -42 26 -9 27 -12 27 -95 27 -23 
27 -42 27 -55 26 -107 27 -51 27 -35 27 -7 27 -10 27 -37 
26 -15 27 -17 27 -7 27 -3 27 -3 27 -20 26 -5 27 -10 
27 -38 27 -23 27 -7 26 -8 27 -3 27 -9 27 -22 27 -6 
27 -25 26 -24 27 -3 27 -7 27 -6 27 -9 27 -3 26 -2 
27 -8 27 -1 27 -5 953 4602 100 MP stroke
27 -6 26 -7 900 4615 3 MP stroke
0 sg
27 -5 27 -1 27 -1 27 -7 27 -6 26 -3 27 -3 27 -1 
27 -2 27 0 27 -6 26 -5 27 -2 27 -8 27 -3 27 -10 
27 -5 26 0 27 -3 27 -8 27 -6 27 -3 26 -6 27 -12 
27 -3 27 -6 27 -16 27 -13 26 -1 27 -4 27 -3 27 -2 
27 -7 27 -25 26 -20 27 -2 27 -4 27 -1 27 -2 26 -4 
27 -15 27 -13 27 -2 27 -10 27 -4 26 -13 27 -20 27 -3 
27 -4 27 -10 27 -1 26 -2 27 -3 27 -15 27 -8 27 -4 
27 -7 26 -11 27 -3 27 -2 27 -1 27 -12 26 -9 27 -6 
27 -3 27 -3 27 -4 27 -3 26 -14 27 -27 27 -9 27 -2 
27 -6 27 -1 26 -2 27 -3 27 -12 27 -2 27 -2 26 -10 
27 -2 27 -4 27 -10 27 -7 27 -2 26 -1 27 -7 27 -5 
27 -8 27 -7 27 -1 26 -15 27 -14 27 -3 27 -2 27 -1 
27 -1 26 -9 27 -9 3609 4172 100 MP stroke
27 -9 27 -4 27 -1 26 -8 27 -7 27 -15 27 -4 27 -6 
27 -1 26 -2 27 -3 27 -3 27 -11 27 -32 27 -8 26 -8 
27 -8 27 -9 27 -2 27 -2 26 -1 27 -4 27 -4 27 -3 
27 -1 27 -1 26 -2 27 -1 27 -7 27 -7 27 -3 27 -3 
26 -1 27 -4 27 -9 27 -1 27 -5 27 -4 26 -1 27 0 
27 -1 27 -6 27 -29 26 -7 27 -1 27 -5 27 -16 27 -7 
27 -7 26 -2 27 -1 27 -2 27 -2 27 -1 27 -22 26 -5 
27 -4 27 -2 27 -7 27 -11 26 -1 27 -2 27 -5 27 -3 
27 -4 27 -1 26 -5 27 -6 27 -3 27 -4 27 -1 27 -3 
26 -1 27 -2 27 -1 27 0 27 0 27 -4 26 -1 27 -2 
27 -3 27 -2 27 -3 26 -3 27 -1 27 0 27 -3 27 -2 
27 -2 26 -1 27 -2 27 -3 27 -2 27 -2 27 -2 26 -1 
27 -4 27 -3 27 -2 953 4605 100 MP stroke
27 -3 26 -7 900 4615 3 MP stroke
DO
c8
27 -3 27 -3 27 -2 27 -7 27 -4 26 -3 27 -1 27 -1 
27 -1 27 -2 27 -8 26 -4 27 -2 27 -6 27 -3 27 -4 
27 -5 26 -1 27 -2 27 -5 27 -3 27 -4 26 -4 27 -6 
27 -2 27 -7 27 -12 27 -8 26 -1 27 -3 27 -7 27 -2 
27 -5 27 -24 26 -11 27 -2 27 -1 27 -1 27 -2 26 -6 
27 -12 27 -6 27 -2 27 -7 27 -1 26 -5 27 -4 27 -4 
27 -9 27 -5 27 -1 26 -3 27 -3 27 -9 27 -2 27 -6 
27 -9 26 -4 27 -5 27 -2 27 0 27 -7 26 -10 27 -16 
27 -3 27 -4 27 -3 27 -5 26 -15 27 -15 27 -1 27 -2 
27 -4 27 -3 26 -3 27 -10 27 -8 27 -7 27 -4 26 -4 
27 -2 27 -1 27 -3 27 -8 27 -2 26 -2 27 -4 27 -4 
27 -8 27 -9 27 -2 26 -14 27 -12 27 -1 27 -3 27 -1 
27 0 26 -2 27 -6 3609 4074 100 MP stroke
27 -6 27 -2 27 -1 26 -5 27 -4 27 -9 27 -4 27 -5 
27 -1 26 -1 27 -2 27 -3 27 -9 27 -18 27 -2 26 -7 
27 -6 27 -3 27 -3 27 -1 26 -1 27 -4 27 -11 27 -5 
27 0 27 -1 26 -1 27 0 27 -4 27 -4 27 -3 27 -3 
26 0 27 -1 27 -9 27 -5 27 -3 27 -9 26 -1 27 -1 
27 -1 27 -2 27 -17 26 -17 27 -1 27 -5 27 -8 27 -7 
27 -3 26 -3 27 -2 27 -6 27 -1 27 -1 27 -8 26 -13 
27 -3 27 -5 27 -12 27 -9 26 -2 27 0 27 -1 27 -3 
27 -9 27 -4 26 -4 27 -4 27 -1 27 -2 27 -8 27 -3 
26 -3 27 -4 27 -5 27 -2 27 -4 27 -5 26 -13 27 -5 
27 -2 27 -4 27 -4 26 -1 27 -7 27 -5 27 -3 27 -1 
27 -9 26 -7 27 -9 27 -7 27 -5 27 -2 27 -2 26 -12 
27 -9 27 -10 27 -28 953 4565 100 MP stroke
27 -35 26 -15 900 4615 3 MP stroke
c9
27 -5 27 -2 27 -2 27 -5 27 -3 26 -5 27 -3 27 -3 
27 -2 27 -2 27 -8 26 -5 27 -2 27 -7 27 -4 27 -8 
27 -5 26 -2 27 -5 27 -3 27 -5 27 -6 26 -10 27 -16 
27 -3 27 -10 27 -18 27 -6 26 -2 27 -3 27 -9 27 -4 
27 -10 27 -39 26 -22 27 -7 27 -5 27 -1 27 -3 26 -6 
27 -17 27 -17 27 -3 27 -8 27 -2 26 -13 27 -15 27 -5 
27 -6 27 -6 27 0 26 -2 27 -4 27 -23 27 -10 27 -7 
27 -14 26 -8 27 -6 27 -2 27 -2 27 -12 26 -17 27 -16 
27 -5 27 -12 27 -8 27 -10 26 -38 27 -38 27 -9 27 -4 
27 -6 27 -3 26 -6 27 -26 27 -33 27 -14 27 -2 26 -11 
27 -7 27 -6 27 -21 27 -29 27 -7 26 -3 27 -6 27 -14 
27 -20 27 -20 27 -4 26 -41 27 -38 27 -3 27 -7 27 0 
27 -1 26 -9 27 -32 3609 1699 100 MP stroke
27 -28 27 -4 27 -13 26 -8 27 -17 27 -28 27 -19 27 -10 
27 -3 26 -7 27 -22 27 -21 27 -80 27 -74 27 -10 26 -23 
27 -19 27 -11 27 -32 27 -27 26 -42 27 -16 27 -82 27 -46 
27 -14 27 -8 26 -7 27 -20 27 -14 27 -2 27 -19 27 -20 
26 -11 27 -77 27 -73 27 -15 27 -21 27 -33 26 -11 27 -2 
27 -3 27 -37 27 -157 26 -32 27 -17 27 -35 27 -136 27 -83 
27 -58 26 -8 27 -7 27 -21 27 -57 27 -30 27 -207 26 -68 
27 -24 27 -16 27 -92 27 -41 26 -9 27 -11 27 -98 27 -23 
27 -46 27 -59 26 -105 27 -49 27 -37 27 -9 27 -11 27 -36 
26 -15 27 -15 27 -7 27 -3 27 -3 27 -18 26 -5 27 -9 
27 -41 27 -23 27 -8 26 -10 27 -2 27 -10 27 -23 27 -7 
27 -22 26 -24 27 -2 27 -7 27 -6 27 -11 27 -5 26 -2 
27 -7 27 -2 27 -5 953 4602 100 MP stroke
27 -6 26 -7 900 4615 3 MP stroke
0 sg
27 -4 27 -4 27 -2 27 -7 27 -5 26 -2 27 -2 27 -1 
27 -1 27 -2 27 -9 26 -4 27 -2 27 -5 27 -4 27 -4 
27 -4 26 -1 27 -4 27 -4 27 -2 27 -4 26 -6 27 -7 
27 -2 27 -8 27 -13 27 -7 26 -2 27 -2 27 -5 27 -3 
27 -5 27 -25 26 -14 27 -2 27 -1 27 -1 27 -2 26 -8 
27 -14 27 -6 27 -2 27 -9 27 -1 26 -5 27 -5 27 -4 
27 -11 27 -6 27 0 26 -3 27 -4 27 -11 27 -2 27 -8 
27 -10 26 -4 27 -2 27 -1 27 -2 27 -6 26 -11 27 -21 
27 -4 27 -3 27 -3 27 -8 26 -16 27 -17 27 -1 27 -3 
27 -6 27 -1 26 -3 27 -9 27 -7 27 -6 27 -4 26 -6 
27 -3 27 -1 27 -4 27 -8 27 -2 26 -4 27 -8 27 -4 
27 -11 27 -12 27 -2 26 -18 27 -17 27 -3 27 -3 27 -1 
27 0 26 -3 27 -9 3609 4209 100 MP stroke
27 -5 27 -1 27 -2 26 -6 27 -5 27 -10 27 -7 27 -8 
27 -2 26 -1 27 -3 27 -6 27 -6 27 -13 27 -6 26 -8 
27 -2 27 -2 27 -1 27 -1 26 -4 27 -8 27 -12 27 -3 
27 -2 27 -1 26 -1 27 -3 27 -8 27 0 27 -1 27 -3 
26 -1 27 -4 27 -9 27 -2 27 -8 27 -6 26 0 27 0 
27 -3 27 -4 27 -27 26 -8 27 -6 27 -7 27 -12 27 -7 
27 -11 26 -1 27 -2 27 -3 27 -3 27 -3 27 -18 26 -8 
27 -2 27 -1 27 -4 27 -7 26 -1 27 -1 27 -10 27 -2 
27 -1 27 -3 26 -5 27 -3 27 -3 27 -1 27 -1 27 -2 
26 -2 27 -1 27 -1 27 0 27 0 27 -3 26 0 27 -2 
27 -3 27 -2 27 -4 26 0 27 -1 27 0 27 -3 27 -5 
27 -1 26 -2 27 -3 27 -4 27 -1 27 -3 27 -4 26 -2 
27 -2 27 -4 27 -2 953 4605 100 MP stroke
27 -3 26 -7 900 4615 3 MP stroke
DA
c8
27 -5 27 -2 27 -2 27 -6 27 -9 26 -3 27 -2 27 -1 
27 -2 27 -3 27 -10 26 -6 27 -2 27 -2 27 -2 27 -4 
27 -6 26 -3 27 -4 27 -3 27 -3 27 -2 26 -5 27 -8 
27 -4 27 -5 27 -11 27 -6 26 -1 27 -5 27 -6 27 -1 
27 -5 27 -20 26 -11 27 -2 27 -3 27 0 27 -2 26 -3 
27 -9 27 -9 27 -1 27 -11 27 -2 26 -11 27 -12 27 -1 
27 -5 27 -7 27 -1 26 -2 27 -2 27 -12 27 -3 27 -4 
27 -9 26 -9 27 -3 27 -2 27 -1 27 -5 26 -10 27 -13 
27 -3 27 -4 27 -3 27 -2 26 -19 27 -18 27 -4 27 -5 
27 -3 27 -2 26 -3 27 -10 27 -10 27 -7 27 -1 26 -4 
27 -4 27 -5 27 -4 27 -14 27 -7 26 -1 27 -2 27 -3 
27 -7 27 -15 27 -1 26 -13 27 -16 27 -4 27 -3 27 -1 
27 -1 26 -4 27 -7 3609 4052 100 MP stroke
27 -5 27 -2 27 -1 26 -6 27 -3 27 -12 27 -7 27 -4 
27 0 26 -1 27 -4 27 -4 27 -9 27 -24 27 -4 26 -10 
27 -5 27 -2 27 -1 27 -2 26 -3 27 -7 27 -14 27 -6 
27 -1 27 -1 26 -2 27 -1 27 -6 27 -5 27 -1 27 -2 
26 0 27 -2 27 -10 27 -6 27 -6 27 -11 26 -1 27 -1 
27 -1 27 -3 27 -18 26 -13 27 -1 27 -6 27 -7 27 -8 
27 -2 26 -2 27 -4 27 -5 27 -1 27 -1 27 -8 26 -13 
27 -3 27 -3 27 -11 27 -9 26 -2 27 0 27 -1 27 -4 
27 -9 27 -3 26 -2 27 -3 27 0 27 -2 27 -7 27 -2 
26 -4 27 -2 27 -6 27 -2 27 -5 27 -7 26 -10 27 -4 
27 -1 27 -4 27 -4 26 -1 27 -8 27 -5 27 -3 27 -1 
27 -9 26 -8 27 -8 27 -6 27 -6 27 -2 27 -2 26 -12 
27 -9 27 -10 27 -29 953 4566 100 MP stroke
27 -34 26 -15 900 4615 3 MP stroke
c9
27 -5 27 -2 27 -1 27 -5 27 -4 26 -6 27 -3 27 -2 
27 -2 27 -1 27 -8 26 -4 27 -3 27 -7 27 -4 27 -8 
27 -5 26 -1 27 -5 27 -3 27 -6 27 -6 26 -9 27 -15 
27 -2 27 -11 27 -17 27 -7 26 -2 27 -3 27 -8 27 -3 
27 -11 27 -39 26 -21 27 -6 27 -5 27 0 27 -2 26 -6 
27 -18 27 -16 27 -3 27 -9 27 -2 26 -13 27 -15 27 -4 
27 -8 27 -6 27 0 26 -3 27 -4 27 -21 27 -11 27 -6 
27 -15 26 -8 27 -6 27 -3 27 -2 27 -12 26 -16 27 -15 
27 -4 27 -12 27 -9 27 -8 26 -40 27 -38 27 -9 27 -4 
27 -6 27 -4 26 -5 27 -26 27 -33 27 -15 27 -2 26 -10 
27 -7 27 -6 27 -20 27 -30 27 -7 26 -3 27 -5 27 -13 
27 -19 27 -19 27 -6 26 -42 27 -36 27 -3 27 -7 27 0 
27 -1 26 -10 27 -34 3609 1655 100 MP stroke
27 -31 27 -4 27 -12 26 -8 27 -16 27 -28 27 -20 27 -10 
27 -3 26 -7 27 -22 27 -22 27 -83 27 -77 27 -11 26 -21 
27 -20 27 -11 27 -33 27 -27 26 -43 27 -17 27 -83 27 -44 
27 -14 27 -8 26 -10 27 -21 27 -15 27 -2 27 -19 27 -21 
26 -12 27 -79 27 -75 27 -16 27 -21 27 -36 26 -11 27 -3 
27 -3 27 -39 27 -156 26 -34 27 -15 27 -38 27 -143 27 -81 
27 -55 26 -7 27 -6 27 -19 27 -60 27 -31 27 -209 26 -68 
27 -22 27 -16 27 -101 27 -42 26 -12 27 -11 27 -94 27 -23 
27 -45 27 -54 26 -112 27 -50 27 -32 27 -9 27 -10 27 -36 
26 -17 27 -17 27 -9 27 -3 27 -2 27 -17 26 -5 27 -10 
27 -43 27 -23 27 -7 26 -9 27 -2 27 -9 27 -24 27 -6 
27 -27 26 -24 27 -1 27 -7 27 -7 27 -9 27 -4 26 -2 
27 -7 27 -2 27 -5 953 4602 100 MP stroke
27 -6 26 -7 900 4615 3 MP stroke
0 sg
27 -5 27 -3 27 -1 27 -7 27 -9 26 -3 27 -2 27 -1 
27 -1 27 -3 27 -11 26 -6 27 -2 27 -3 27 -2 27 -4 
27 -5 26 -2 27 -5 27 -4 27 -2 27 -2 26 -5 27 -8 
27 -4 27 -6 27 -10 27 -7 26 -2 27 -3 27 -6 27 -1 
27 -5 27 -22 26 -11 27 -2 27 -2 27 0 27 -2 26 -3 
27 -11 27 -8 27 -2 27 -12 27 -2 26 -12 27 -12 27 -2 
27 -5 27 -8 27 -1 26 -2 27 -3 27 -12 27 -3 27 -4 
27 -10 26 -10 27 -3 27 -2 27 -1 27 -6 26 -10 27 -14 
27 -3 27 -5 27 -3 27 -2 26 -20 27 -21 27 -3 27 -6 
27 -4 27 -2 26 -3 27 -10 27 -11 27 -8 27 -1 26 -5 
27 -3 27 -6 27 -5 27 -15 27 -8 26 0 27 -3 27 -3 
27 -8 27 -17 27 -1 26 -15 27 -18 27 -4 27 -4 27 -2 
27 0 26 -5 27 -9 3609 4127 100 MP stroke
27 -5 27 -2 27 -2 26 -6 27 -3 27 -14 27 -9 27 -4 
27 -1 26 -1 27 -5 27 -4 27 -12 27 -28 27 -6 26 -12 
27 -6 27 -2 27 -2 27 -1 26 -5 27 -9 27 -18 27 -8 
27 -1 27 -2 26 -3 27 -1 27 -8 27 -5 27 -2 27 -2 
26 -1 27 -3 27 -13 27 -6 27 -8 27 -13 26 -3 27 0 
27 -3 27 -4 27 -24 26 -12 27 -2 27 -6 27 -18 27 -10 
27 -5 26 -1 27 -1 27 -1 27 -6 27 -2 27 -18 26 -7 
27 -1 27 -2 27 -14 27 -12 26 -3 27 -2 27 -5 27 -2 
27 -2 27 0 26 -10 27 -7 27 -1 27 -3 27 -3 27 -3 
26 -1 27 -2 27 -2 27 -1 27 0 27 -2 26 -1 27 -1 
27 -2 27 -2 27 -4 26 -1 27 -1 27 -1 27 -3 27 -2 
27 -3 26 -3 27 0 27 -3 27 -1 27 -2 27 -3 26 -1 
27 -4 27 -3 27 -4 953 4606 100 MP stroke
27 -2 26 -7 900 4615 3 MP stroke
SO
gr


end %%Color Dict

eplot
%%EndObject

epage
end

showpage

%%Trailer
%%EOF
