%!PS-Adobe-2.0 EPSF-1.2
%%Creator: MATLAB, The MathWorks, Inc. Version 8.3.0.532 (R2014a). Operating System: Darwin 13.3.0 Darwin Kernel Version 13.3.0: Tue Jun  3 21:27:35 PDT 2014; root:xnu-2422.110.17~1/RELEASE_X86_64 x86_64.
%%Title: ./figure_hist_char.eps
%%CreationDate: 09/05/2014  16:47:39
%%DocumentNeededFonts: Helvetica
%%DocumentProcessColors: Cyan Magenta Yellow Black
%%Extensions: CMYK
%%Pages: 1
%%BoundingBox:    76   179   555   616
%%EndComments

%%BeginProlog
% MathWorks dictionary
/MathWorks 160 dict begin
% definition operators
/bdef {bind def} bind def
/ldef {load def} bind def
/xdef {exch def} bdef
/xstore {exch store} bdef
% operator abbreviations
/c  /clip ldef
/cc /concat ldef
/cp /closepath ldef
/gr /grestore ldef
/gs /gsave ldef
/mt /moveto ldef
/np /newpath ldef
/cm /currentmatrix ldef
/sm /setmatrix ldef
/rm /rmoveto ldef
/rl /rlineto ldef
/s {show newpath} bdef
/sc {setcmykcolor} bdef
/sr /setrgbcolor ldef
/sg /setgray ldef
/w /setlinewidth ldef
/j /setlinejoin ldef
/cap /setlinecap ldef
/rc {rectclip} bdef
/rf {rectfill} bdef
% page state control
/pgsv () def
/bpage {/pgsv save def} bdef
/epage {pgsv restore} bdef
/bplot /gsave ldef
/eplot {stroke grestore} bdef
% orientation switch
/portraitMode 0 def /landscapeMode 1 def /rotateMode 2 def
% coordinate system mappings
/dpi2point 0 def
% font control
/FontSize 0 def
/FMS {/FontSize xstore findfont [FontSize 0 0 FontSize neg 0 0]
  makefont setfont} bdef
/reencode {exch dup where {pop load} {pop StandardEncoding} ifelse
  exch dup 3 1 roll findfont dup length dict begin
  { 1 index /FID ne {def}{pop pop} ifelse } forall
  /Encoding exch def currentdict end definefont pop} bdef
/isroman {findfont /CharStrings get /Agrave known} bdef
/FMSR {3 1 roll 1 index dup isroman {reencode} {pop pop} ifelse
  exch FMS} bdef
/csm {1 dpi2point div -1 dpi2point div scale neg translate
 dup landscapeMode eq {pop -90 rotate}
  {rotateMode eq {90 rotate} if} ifelse} bdef
% line types: solid, dotted, dashed, dotdash
/SO { [] 0 setdash } bdef
/DO { [.5 dpi2point mul 4 dpi2point mul] 0 setdash } bdef
/DA { [6 dpi2point mul] 0 setdash } bdef
/DD { [.5 dpi2point mul 4 dpi2point mul 6 dpi2point mul 4
  dpi2point mul] 0 setdash } bdef
% macros for lines and objects
/L {lineto stroke} bdef
/MP {3 1 roll moveto 1 sub {rlineto} repeat} bdef
/AP {{rlineto} repeat} bdef
/PDlw -1 def
/W {/PDlw currentlinewidth def setlinewidth} def
/PP {closepath eofill} bdef
/DP {closepath stroke} bdef
/MR {4 -2 roll moveto dup  0 exch rlineto exch 0 rlineto
  neg 0 exch rlineto closepath} bdef
/FR {MR stroke} bdef
/PR {MR fill} bdef
/L1i {{currentfile picstr readhexstring pop} image} bdef
/tMatrix matrix def
/MakeOval {newpath tMatrix currentmatrix pop translate scale
0 0 1 0 360 arc tMatrix setmatrix} bdef
/FO {MakeOval stroke} bdef
/PO {MakeOval fill} bdef
/PD {currentlinewidth 2 div 0 360 arc fill
   PDlw -1 eq not {PDlw w /PDlw -1 def} if} def
/FA {newpath tMatrix currentmatrix pop translate scale
  0 0 1 5 -2 roll arc tMatrix setmatrix stroke} bdef
/PA {newpath tMatrix currentmatrix pop	translate 0 0 moveto scale
  0 0 1 5 -2 roll arc closepath tMatrix setmatrix fill} bdef
/FAn {newpath tMatrix currentmatrix pop translate scale
  0 0 1 5 -2 roll arcn tMatrix setmatrix stroke} bdef
/PAn {newpath tMatrix currentmatrix pop translate 0 0 moveto scale
  0 0 1 5 -2 roll arcn closepath tMatrix setmatrix fill} bdef
/vradius 0 def /hradius 0 def /lry 0 def
/lrx 0 def /uly 0 def /ulx 0 def /rad 0 def
/MRR {/vradius xdef /hradius xdef /lry xdef /lrx xdef /uly xdef
  /ulx xdef newpath tMatrix currentmatrix pop ulx hradius add uly
  vradius add translate hradius vradius scale 0 0 1 180 270 arc 
  tMatrix setmatrix lrx hradius sub uly vradius add translate
  hradius vradius scale 0 0 1 270 360 arc tMatrix setmatrix
  lrx hradius sub lry vradius sub translate hradius vradius scale
  0 0 1 0 90 arc tMatrix setmatrix ulx hradius add lry vradius sub
  translate hradius vradius scale 0 0 1 90 180 arc tMatrix setmatrix
  closepath} bdef
/FRR {MRR stroke } bdef
/PRR {MRR fill } bdef
/MlrRR {/lry xdef /lrx xdef /uly xdef /ulx xdef /rad lry uly sub 2 div def
  newpath tMatrix currentmatrix pop ulx rad add uly rad add translate
  rad rad scale 0 0 1 90 270 arc tMatrix setmatrix lrx rad sub lry rad
  sub translate rad rad scale 0 0 1 270 90 arc tMatrix setmatrix
  closepath} bdef
/FlrRR {MlrRR stroke } bdef
/PlrRR {MlrRR fill } bdef
/MtbRR {/lry xdef /lrx xdef /uly xdef /ulx xdef /rad lrx ulx sub 2 div def
  newpath tMatrix currentmatrix pop ulx rad add uly rad add translate
  rad rad scale 0 0 1 180 360 arc tMatrix setmatrix lrx rad sub lry rad
  sub translate rad rad scale 0 0 1 0 180 arc tMatrix setmatrix
  closepath} bdef
/FtbRR {MtbRR stroke } bdef
/PtbRR {MtbRR fill } bdef
/stri 6 array def /dtri 6 array def
/smat 6 array def /dmat 6 array def
/tmat1 6 array def /tmat2 6 array def /dif 3 array def
/asub {/ind2 exch def /ind1 exch def dup dup
  ind1 get exch ind2 get sub exch } bdef
/tri_to_matrix {
  2 0 asub 3 1 asub 4 0 asub 5 1 asub
  dup 0 get exch 1 get 7 -1 roll astore } bdef
/compute_transform {
  dmat dtri tri_to_matrix tmat1 invertmatrix 
  smat stri tri_to_matrix tmat2 concatmatrix } bdef
/ds {stri astore pop} bdef
/dt {dtri astore pop} bdef
/db {2 copy /cols xdef /rows xdef mul dup 3 mul string
  currentfile exch readhexstring pop
  dup 0 3 index getinterval /rbmap xdef
  dup 2 index dup getinterval /gbmap xdef
  1 index dup 2 mul exch getinterval /bbmap xdef pop pop}bdef
/it {gs np dtri aload pop moveto lineto lineto cp c
  cols rows 8 compute_transform 
  rbmap gbmap bbmap true 3 colorimage gr}bdef
/il {newpath moveto lineto stroke}bdef
currentdict end def
%%EndProlog

%%BeginSetup
MathWorks begin

0 cap

end
%%EndSetup

%%Page: 1 1
%%BeginPageSetup
%%PageBoundingBox:    76   179   555   616
MathWorks begin
bpage
%%EndPageSetup

%%BeginObject: obj1
bplot

/dpi2point 12 def
portraitMode 0216 7344 csm

  699   -48  5748  5234 MR c np
85 dict begin %Colortable dictionary
/c0 { 0.000000 0.000000 0.000000 sr} bdef
/c1 { 1.000000 1.000000 1.000000 sr} bdef
/c2 { 0.900000 0.000000 0.000000 sr} bdef
/c3 { 0.000000 0.820000 0.000000 sr} bdef
/c4 { 0.000000 0.000000 0.800000 sr} bdef
/c5 { 0.910000 0.820000 0.320000 sr} bdef
/c6 { 1.000000 0.260000 0.820000 sr} bdef
/c7 { 0.000000 0.820000 0.820000 sr} bdef
c0
1 j
1 sg
   0    0 6924 5187 PR
6 w
0 3901 5365 0 0 -3901 900 4523 4 MP
PP
-5365 0 0 3901 5365 0 0 -3901 900 4523 5 MP stroke
4 w
DO
SO
6 w
0 sg
 900 4523 mt 6265 4523 L
 900  622 mt 6265  622 L
 900 4523 mt  900  622 L
6265 4523 mt 6265  622 L
 900 4523 mt 6265 4523 L
 900 4523 mt  900  622 L
 900 4523 mt  900 4469 L
 900  622 mt  900  675 L
%%IncludeResource: font Helvetica
/Helvetica /ISOLatin1Encoding 120 FMSR

 867 4668 mt 
(0) s
1436 4523 mt 1436 4469 L
1436  622 mt 1436  675 L
1336 4668 mt 
(100) s
1973 4523 mt 1973 4469 L
1973  622 mt 1973  675 L
1873 4668 mt 
(200) s
2509 4523 mt 2509 4469 L
2509  622 mt 2509  675 L
2409 4668 mt 
(300) s
3046 4523 mt 3046 4469 L
3046  622 mt 3046  675 L
2946 4668 mt 
(400) s
3582 4523 mt 3582 4469 L
3582  622 mt 3582  675 L
3482 4668 mt 
(500) s
4119 4523 mt 4119 4469 L
4119  622 mt 4119  675 L
4019 4668 mt 
(600) s
4655 4523 mt 4655 4469 L
4655  622 mt 4655  675 L
4555 4668 mt 
(700) s
5192 4523 mt 5192 4469 L
5192  622 mt 5192  675 L
5092 4668 mt 
(800) s
5728 4523 mt 5728 4469 L
5728  622 mt 5728  675 L
5628 4668 mt 
(900) s
6265 4523 mt 6265 4469 L
6265  622 mt 6265  675 L
6132 4668 mt 
(1000) s
 900 4523 mt  953 4523 L
6265 4523 mt 6211 4523 L
 799 4567 mt 
(0) s
 900 4132 mt  953 4132 L
6265 4132 mt 6211 4132 L
 699 4176 mt 
(0.2) s
 900 3742 mt  953 3742 L
6265 3742 mt 6211 3742 L
 699 3786 mt 
(0.4) s
 900 3352 mt  953 3352 L
6265 3352 mt 6211 3352 L
 699 3396 mt 
(0.6) s
 900 2962 mt  953 2962 L
6265 2962 mt 6211 2962 L
 699 3006 mt 
(0.8) s
 900 2572 mt  953 2572 L
6265 2572 mt 6211 2572 L
 799 2616 mt 
(1) s
 900 2182 mt  953 2182 L
6265 2182 mt 6211 2182 L
 699 2226 mt 
(1.2) s
 900 1792 mt  953 1792 L
6265 1792 mt 6211 1792 L
 699 1836 mt 
(1.4) s
 900 1402 mt  953 1402 L
6265 1402 mt 6211 1402 L
 699 1446 mt 
(1.6) s
 900 1012 mt  953 1012 L
6265 1012 mt 6211 1012 L
 699 1056 mt 
(1.8) s
 900  622 mt  953  622 L
6265  622 mt 6211  622 L
 799  666 mt 
(2) s
 900 4523 mt 6265 4523 L
 900  622 mt 6265  622 L
 900 4523 mt  900  622 L
6265 4523 mt 6265  622 L
gs 900 622 5366 3902 MR c np
/c8 { 0.000000 0.000000 1.000000 sr} bdef
c8
27 -5 27 -3 27 0 27 -6 27 -7 26 -2 27 -1 27 -1 
27 -1 27 -2 27 -8 26 -4 27 -4 27 -9 27 -4 27 -8 
27 -5 26 -1 27 -5 27 -6 27 -3 27 -2 26 -7 27 -10 
27 -3 27 -4 27 -17 27 -15 26 -2 27 -7 27 -7 27 -3 
27 -9 27 -28 26 -18 27 -3 27 -6 27 -2 27 -4 26 -8 
27 -10 27 -9 27 -2 27 -7 27 -1 26 -9 27 -12 27 -6 
27 -7 27 -5 27 -1 26 -5 27 -4 27 -14 27 -5 27 -2 
27 -10 26 -9 27 -4 27 -2 27 -2 27 -12 26 -7 27 -6 
27 -1 27 -5 27 -7 27 -4 26 -28 27 -24 27 -4 27 -2 
27 -7 27 -1 26 -3 27 -9 27 -10 27 -4 27 -2 26 -5 
27 -4 27 -3 27 -8 27 -8 27 -3 26 -5 27 -4 27 -5 
27 -8 27 -11 27 -2 26 -15 27 -15 27 -3 27 -2 27 -1 
27 0 26 -3 27 -9 3609 3893 100 MP stroke
27 -7 27 -1 27 -1 26 -6 27 -3 27 -7 27 -5 27 -8 
27 -1 26 -1 27 -3 27 -4 27 -12 27 -21 27 -4 26 -14 
27 -6 27 -3 27 0 27 -1 26 -2 27 -7 27 -12 27 -5 
27 -1 27 -1 26 -1 27 -1 27 -8 27 -4 27 -1 27 0 
26 -1 27 -1 27 -10 27 -7 27 -8 27 -9 26 -2 27 -1 
27 -1 27 -3 27 -22 26 -17 27 0 27 -7 27 -8 27 -8 
27 -2 26 -3 27 -3 27 -5 27 0 27 -3 27 -8 26 -16 
27 -3 27 -5 27 -14 27 -10 26 -2 27 -1 27 -1 27 -5 
27 -10 27 -2 26 -2 27 -5 27 -1 27 -3 27 -9 27 -3 
26 -6 27 -4 27 -8 27 -1 27 -6 27 -7 26 -13 27 -4 
27 -1 27 -4 27 -5 26 -2 27 -10 27 -6 27 -4 27 -1 
27 -11 26 -9 27 -11 27 -8 27 -6 27 -2 27 -2 26 -13 
27 -11 27 -11 27 -33 953 4464 100 MP stroke
27 -41 26 -17 900 4522 3 MP stroke
/c9 { 1.000000 0.000000 0.000000 sr} bdef
c9
5 -1 27 -10 26 -46 27 -45 27 -11 27 -5 27 -6 27 -4 
26 -7 27 -30 27 -37 27 -15 27 -3 26 -12 27 -7 27 -7 
27 -25 27 -35 27 -9 26 -4 27 -7 27 -17 27 -22 27 -23 
27 -5 26 -46 27 -44 27 -3 27 -9 27 0 27 -2 26 -9 
27 -37 27 -37 27 -5 27 -16 26 -10 27 -21 27 -36 27 -20 
27 -9 27 -3 26 -8 27 -25 27 -23 27 -96 27 -88 27 -11 
26 -26 27 -23 27 -13 27 -38 27 -33 26 -51 27 -18 27 -93 
27 -56 27 -16 27 -10 26 -8 27 -23 27 -15 27 -2 27 -23 
27 -23 26 -15 27 -88 27 -84 27 -20 27 -22 27 -38 26 -15 
27 -3 27 -3 27 -44 27 -173 26 -36 27 -17 27 -39 27 -162 
27 -94 27 -62 26 -10 27 -7 27 -25 27 -63 27 -34 27 -237 
26 -80 27 -28 27 -21 27 -112 27 -50 26 -10 27 -13 27 -105 
27 -26 27 -51 27 -65 1838 3896 100 MP stroke
26 -118 27 -53 27 -38 27 -9 27 -10 27 -37 26 -17 27 -21 
27 -8 27 -4 27 -3 27 -24 26 -6 27 -10 27 -48 27 -27 
27 -6 26 -13 27 -3 27 -11 27 -25 27 -6 27 -31 26 -30 
27 -2 27 -8 27 -8 27 -12 27 -5 26 -2 27 -8 27 -2 
27 -7 27 -6 26 -8 900 4522 36 MP stroke
0 sg
27 -6 27 -3 27 -1 27 -6 27 -7 26 -2 27 -1 27 -1 
27 -2 27 -2 27 -8 26 -5 27 -4 27 -9 27 -5 27 -8 
27 -6 26 -1 27 -6 27 -5 27 -4 27 -2 26 -8 27 -11 
27 -3 27 -5 27 -17 27 -17 26 -2 27 -8 27 -7 27 -4 
27 -10 27 -30 26 -20 27 -3 27 -7 27 -2 27 -5 26 -9 
27 -11 27 -10 27 -2 27 -8 27 -2 26 -10 27 -13 27 -6 
27 -7 27 -5 27 -1 26 -6 27 -4 27 -18 27 -6 27 -2 
27 -10 26 -11 27 -4 27 -1 27 -3 27 -13 26 -9 27 -7 
27 -1 27 -5 27 -9 27 -4 26 -34 27 -30 27 -4 27 -3 
27 -9 27 -1 26 -3 27 -9 27 -9 27 -3 27 -3 26 -5 
27 -5 27 -3 27 -10 27 -12 27 -5 26 -8 27 -6 27 -6 
27 -11 27 -14 27 -2 26 -18 27 -21 27 -5 27 -4 27 -1 
27 0 26 -3 27 -12 3609 4066 100 MP stroke
27 -11 27 -2 27 -1 26 -8 27 -5 27 -10 27 -6 27 -10 
27 -1 26 -2 27 -4 27 -3 27 -20 27 -26 27 -6 26 -12 
27 -8 27 -3 27 -1 27 -2 26 -12 27 -2 27 -11 27 -10 
27 -6 27 -2 26 0 27 -4 27 -3 27 0 27 0 27 -1 
26 -3 27 -5 27 -11 27 -12 27 -4 27 -7 26 -5 27 0 
27 -1 27 -3 27 -12 26 -5 27 -4 27 -1 27 -18 27 -11 
27 -5 26 -2 27 -1 27 -4 27 -4 27 -2 27 -16 26 -4 
27 -5 27 -1 27 -6 27 -8 26 0 27 -1 27 -2 27 -2 
27 -4 27 -2 26 -3 27 -2 27 -1 27 -2 27 0 27 -3 
26 -2 27 -3 27 -2 27 -1 27 -1 27 -6 26 -1 27 -3 
27 -3 27 -2 27 -4 26 -1 27 -1 27 -1 27 -3 27 -4 
27 -4 26 -4 27 -1 27 -3 27 -2 27 -3 27 -3 26 -2 
27 -3 27 -5 27 -3 953 4511 100 MP stroke
27 -3 26 -8 900 4522 3 MP stroke
DO
c8
27 -6 27 -2 27 -1 27 -6 27 -6 26 -2 27 -1 27 -2 
27 -1 27 -2 27 -8 26 -4 27 -4 27 -8 27 -4 27 -7 
27 -6 26 -1 27 -5 27 -5 27 -3 27 -3 26 -7 27 -9 
27 -3 27 -3 27 -16 27 -14 26 -2 27 -8 27 -8 27 -3 
27 -9 27 -29 26 -18 27 -3 27 -7 27 -1 27 -4 26 -7 
27 -10 27 -10 27 -1 27 -8 27 -2 26 -9 27 -12 27 -5 
27 -7 27 -5 27 -1 26 -5 27 -4 27 -14 27 -5 27 -2 
27 -11 26 -8 27 -5 27 -1 27 -2 27 -10 26 -7 27 -7 
27 -1 27 -5 27 -8 27 -5 26 -29 27 -24 27 -3 27 -3 
27 -8 27 -1 26 -3 27 -10 27 -11 27 -4 27 -2 26 -5 
27 -5 27 -2 27 -8 27 -9 27 -3 26 -5 27 -4 27 -5 
27 -10 27 -11 27 -1 26 -13 27 -14 27 -3 27 -4 27 -1 
27 0 26 -3 27 -8 3609 3898 100 MP stroke
27 -6 27 -1 27 -1 26 -7 27 -3 27 -7 27 -5 27 -7 
27 -1 26 -1 27 -1 27 -4 27 -12 27 -21 27 -4 26 -16 
27 -7 27 -3 27 -2 27 -1 26 -2 27 -6 27 -14 27 -5 
27 -1 27 -1 26 -1 27 0 27 -7 27 -4 27 -1 27 0 
26 -1 27 -1 27 -10 27 -7 27 -8 27 -9 26 0 27 -2 
27 -2 27 -2 27 -24 26 -14 27 -1 27 -5 27 -9 27 -5 
27 -3 26 -3 27 -4 27 -5 27 -1 27 -3 27 -10 26 -11 
27 -3 27 -6 27 -13 27 -8 26 -2 27 -1 27 -1 27 -4 
27 -10 27 -4 26 -4 27 -3 27 -2 27 -3 27 -9 27 -3 
26 -7 27 -3 27 -8 27 -1 27 -6 27 -8 26 -14 27 -5 
27 0 27 -4 27 -5 26 -2 27 -10 27 -6 27 -6 27 -1 
27 -7 26 -7 27 -11 27 -7 27 -8 27 -4 27 -2 26 -13 
27 -10 27 -10 27 -33 953 4464 100 MP stroke
27 -40 26 -18 900 4522 3 MP stroke
c9
8 -2 27 -10 26 -46 27 -46 27 -10 27 -5 27 -6 27 -4 
26 -7 27 -30 27 -38 27 -14 27 -3 26 -12 27 -7 27 -7 
27 -25 27 -36 27 -9 26 -4 27 -7 27 -16 27 -23 27 -22 
27 -5 26 -47 27 -43 27 -4 27 -8 27 -1 27 -2 26 -8 
27 -37 27 -37 27 -5 27 -17 26 -9 27 -21 27 -36 27 -20 
27 -10 27 -3 26 -7 27 -25 27 -24 27 -96 27 -87 27 -12 
26 -26 27 -23 27 -13 27 -38 27 -32 26 -51 27 -18 27 -93 
27 -56 27 -16 27 -10 26 -9 27 -23 27 -14 27 -2 27 -23 
27 -24 26 -14 27 -89 27 -84 27 -20 27 -21 27 -39 26 -14 
27 -4 27 -2 27 -45 27 -172 26 -37 27 -16 27 -40 27 -161 
27 -94 27 -63 26 -10 27 -7 27 -24 27 -63 27 -34 27 -237 
26 -80 27 -29 27 -20 27 -112 27 -51 26 -10 27 -12 27 -105 
27 -27 27 -50 27 -66 1838 3898 100 MP stroke
26 -118 27 -54 27 -38 27 -9 27 -9 27 -37 26 -17 27 -21 
27 -9 27 -4 27 -3 27 -23 26 -7 27 -9 27 -48 27 -28 
27 -6 26 -12 27 -3 27 -11 27 -25 27 -6 27 -31 26 -30 
27 -2 27 -7 27 -8 27 -11 27 -4 26 -3 27 -8 27 -1 
27 -7 27 -6 26 -9 900 4522 36 MP stroke
0 sg
27 -5 27 -4 27 0 27 -6 27 -7 26 -2 27 -1 27 -2 
27 -1 27 -3 27 -8 26 -5 27 -4 27 -8 27 -5 27 -8 
27 -6 26 -1 27 -6 27 -5 27 -4 27 -2 26 -8 27 -10 
27 -3 27 -4 27 -17 27 -15 26 -2 27 -9 27 -8 27 -4 
27 -10 27 -32 26 -20 27 -3 27 -8 27 -1 27 -4 26 -8 
27 -12 27 -11 27 -2 27 -8 27 -2 26 -11 27 -13 27 -5 
27 -6 27 -5 27 -2 26 -6 27 -4 27 -18 27 -6 27 -2 
27 -11 26 -10 27 -4 27 -1 27 -3 27 -11 26 -9 27 -7 
27 -1 27 -6 27 -9 27 -5 26 -36 27 -30 27 -5 27 -3 
27 -10 27 -2 26 -4 27 -11 27 -11 27 -3 27 -3 26 -5 
27 -5 27 -4 27 -11 27 -12 27 -4 26 -9 27 -6 27 -6 
27 -13 27 -14 27 -2 26 -17 27 -20 27 -5 27 -5 27 -1 
27 -1 26 -3 27 -11 3609 4084 100 MP stroke
27 -9 27 -2 27 -2 26 -10 27 -5 27 -11 27 -5 27 -7 
27 -1 26 -1 27 -3 27 -3 27 -21 27 -26 27 -6 26 -15 
27 -9 27 -3 27 -2 27 -4 26 -13 27 -2 27 -11 27 -12 
27 -7 27 -2 26 -1 27 -3 27 -2 27 -1 27 -1 27 -1 
26 -3 27 -5 27 -11 27 -13 27 -5 27 -6 26 -3 27 -1 
27 -1 27 -5 27 -12 26 -4 27 -2 27 -2 27 -15 27 -8 
27 -4 26 -3 27 -1 27 -4 27 -1 27 -2 27 -14 26 -3 
27 -5 27 -1 27 -4 27 -4 26 -1 27 -1 27 -3 27 -3 
27 -3 27 -5 26 -2 27 -1 27 -2 27 -2 27 -1 27 -1 
26 -2 27 -3 27 -2 27 -1 27 -1 27 -6 26 -1 27 -2 
27 -1 27 -3 27 -3 26 0 27 -1 27 -1 27 -2 27 -3 
27 -2 26 -3 27 -1 27 -3 27 -1 27 -2 27 -3 26 -2 
27 -3 27 -3 27 -4 953 4511 100 MP stroke
27 -2 26 -9 900 4522 3 MP stroke
gr

DO
%%IncludeResource: font Helvetica
/Helvetica /ISOLatin1Encoding 480 FMSR

2527 5076 mt 
(frequency) s
%%IncludeResource: font Helvetica
/Helvetica /ISOLatin1Encoding 240 FMSR

1763  223 mt 
(L2 norm of the difference between) s
1158  500 mt 
(estimated characteristic function and true one) s
SO

end %%Color Dict

eplot
%%EndObject

epage
end

showpage

%%Trailer
%%EOF
