\relax 
\@writefile{toc}{\contentsline {section}{\numberline {1}Effect of the function hist.m}{1}}
\@writefile{lof}{\contentsline {figure}{\numberline {1}{\ignorespaces Empirical CDF of samples of $Y_1$ and $Y_2$ with different bin sizes. $Bin = 0:0.0001:1$(Solid) and $Bin=0:0.00001:1$(dash-dotted).\relax }}{1}}
\providecommand*\caption@xref[2]{\@setref\relax\@undefined{#1}}
\newlabel{fig:hist_CDF}{{1}{1}{Empirical CDF of samples of $Y_1$ and $Y_2$ with different bin sizes. $Bin = 0:0.0001:1$(Solid) and $Bin=0:0.00001:1$(dash-dotted).\relax }{}{}}
\@writefile{toc}{\contentsline {section}{\numberline {2}Effect of different samples of noises}{1}}
\@writefile{lof}{\contentsline {figure}{\numberline {2}{\ignorespaces LEFT: Optimal $\alpha $ with monotonous constraint for different bin sizes. $Bin = 0:0.0001:1$(Solid) and $Bin=0:0.00001:1$(dash-dotted). RIGHT: L2 norm of the difference between the estimated characteristic function of Y and the characteristic function of X with different sizes of bin and different sizes of noise. Different line types indicate different sizes of bin. $\sigma ^2_1 = 1.4 \times 10^{-6}$ (Blue); $\sigma ^2_2 = 2.3 \times 10^{-5}$ (Red); and convex combination by $\alpha \phi _{\mathaccentV {hat}05E{Y}_2}+(1-\alpha ) \phi _{Y_1}$.\relax }}{2}}
\newlabel{fig:hist_comparison}{{2}{2}{LEFT: Optimal $\alpha $ with monotonous constraint for different bin sizes. $Bin = 0:0.0001:1$(Solid) and $Bin=0:0.00001:1$(dash-dotted). RIGHT: L2 norm of the difference between the estimated characteristic function of Y and the characteristic function of X with different sizes of bin and different sizes of noise. Different line types indicate different sizes of bin. $\sigma ^2_1 = 1.4 \times 10^{-6}$ (Blue); $\sigma ^2_2 = 2.3 \times 10^{-5}$ (Red); and convex combination by $\alpha \phi _{\hat {Y}_2}+(1-\alpha ) \phi _{Y_1}$.\relax }{}{}}
\@writefile{lof}{\contentsline {figure}{\numberline {3}{\ignorespaces LEFT: Optimal $\alpha $ based on different noise samples (different colors) under the same variances. RIGHT: L2 norm of the difference between the estimated characteristic function of Y and the characteristic function of X with different samples of noise (different line type).\relax }}{2}}
\newlabel{fig:noise_comparison}{{3}{2}{LEFT: Optimal $\alpha $ based on different noise samples (different colors) under the same variances. RIGHT: L2 norm of the difference between the estimated characteristic function of Y and the characteristic function of X with different samples of noise (different line type).\relax }{}{}}
