%!PS-Adobe-2.0 EPSF-1.2
%%Creator: MATLAB, The MathWorks, Inc. Version 8.0.0.783 (R2012b). Operating System: Darwin 13.3.0 Darwin Kernel Version 13.3.0: Tue Jun  3 21:27:35 PDT 2014; root:xnu-2422.110.17~1/RELEASE_X86_64 x86_64.
%%Title: ./complex_simulation2.eps
%%CreationDate: 08/10/2014  16:36:00
%%DocumentNeededFonts: Helvetica
%%DocumentProcessColors: Cyan Magenta Yellow Black
%%Extensions: CMYK
%%Pages: 1
%%BoundingBox:    79   215   547   591
%%EndComments

%%BeginProlog
% MathWorks dictionary
/MathWorks 160 dict begin
% definition operators
/bdef {bind def} bind def
/ldef {load def} bind def
/xdef {exch def} bdef
/xstore {exch store} bdef
% operator abbreviations
/c  /clip ldef
/cc /concat ldef
/cp /closepath ldef
/gr /grestore ldef
/gs /gsave ldef
/mt /moveto ldef
/np /newpath ldef
/cm /currentmatrix ldef
/sm /setmatrix ldef
/rm /rmoveto ldef
/rl /rlineto ldef
/s {show newpath} bdef
/sc {setcmykcolor} bdef
/sr /setrgbcolor ldef
/sg /setgray ldef
/w /setlinewidth ldef
/j /setlinejoin ldef
/cap /setlinecap ldef
/rc {rectclip} bdef
/rf {rectfill} bdef
% page state control
/pgsv () def
/bpage {/pgsv save def} bdef
/epage {pgsv restore} bdef
/bplot /gsave ldef
/eplot {stroke grestore} bdef
% orientation switch
/portraitMode 0 def /landscapeMode 1 def /rotateMode 2 def
% coordinate system mappings
/dpi2point 0 def
% font control
/FontSize 0 def
/FMS {/FontSize xstore findfont [FontSize 0 0 FontSize neg 0 0]
  makefont setfont} bdef
/reencode {exch dup where {pop load} {pop StandardEncoding} ifelse
  exch dup 3 1 roll findfont dup length dict begin
  { 1 index /FID ne {def}{pop pop} ifelse } forall
  /Encoding exch def currentdict end definefont pop} bdef
/isroman {findfont /CharStrings get /Agrave known} bdef
/FMSR {3 1 roll 1 index dup isroman {reencode} {pop pop} ifelse
  exch FMS} bdef
/csm {1 dpi2point div -1 dpi2point div scale neg translate
 dup landscapeMode eq {pop -90 rotate}
  {rotateMode eq {90 rotate} if} ifelse} bdef
% line types: solid, dotted, dashed, dotdash
/SO { [] 0 setdash } bdef
/DO { [.5 dpi2point mul 4 dpi2point mul] 0 setdash } bdef
/DA { [6 dpi2point mul] 0 setdash } bdef
/DD { [.5 dpi2point mul 4 dpi2point mul 6 dpi2point mul 4
  dpi2point mul] 0 setdash } bdef
% macros for lines and objects
/L {lineto stroke} bdef
/MP {3 1 roll moveto 1 sub {rlineto} repeat} bdef
/AP {{rlineto} repeat} bdef
/PDlw -1 def
/W {/PDlw currentlinewidth def setlinewidth} def
/PP {closepath eofill} bdef
/DP {closepath stroke} bdef
/MR {4 -2 roll moveto dup  0 exch rlineto exch 0 rlineto
  neg 0 exch rlineto closepath} bdef
/FR {MR stroke} bdef
/PR {MR fill} bdef
/L1i {{currentfile picstr readhexstring pop} image} bdef
/tMatrix matrix def
/MakeOval {newpath tMatrix currentmatrix pop translate scale
0 0 1 0 360 arc tMatrix setmatrix} bdef
/FO {MakeOval stroke} bdef
/PO {MakeOval fill} bdef
/PD {currentlinewidth 2 div 0 360 arc fill
   PDlw -1 eq not {PDlw w /PDlw -1 def} if} def
/FA {newpath tMatrix currentmatrix pop translate scale
  0 0 1 5 -2 roll arc tMatrix setmatrix stroke} bdef
/PA {newpath tMatrix currentmatrix pop	translate 0 0 moveto scale
  0 0 1 5 -2 roll arc closepath tMatrix setmatrix fill} bdef
/FAn {newpath tMatrix currentmatrix pop translate scale
  0 0 1 5 -2 roll arcn tMatrix setmatrix stroke} bdef
/PAn {newpath tMatrix currentmatrix pop translate 0 0 moveto scale
  0 0 1 5 -2 roll arcn closepath tMatrix setmatrix fill} bdef
/vradius 0 def /hradius 0 def /lry 0 def
/lrx 0 def /uly 0 def /ulx 0 def /rad 0 def
/MRR {/vradius xdef /hradius xdef /lry xdef /lrx xdef /uly xdef
  /ulx xdef newpath tMatrix currentmatrix pop ulx hradius add uly
  vradius add translate hradius vradius scale 0 0 1 180 270 arc 
  tMatrix setmatrix lrx hradius sub uly vradius add translate
  hradius vradius scale 0 0 1 270 360 arc tMatrix setmatrix
  lrx hradius sub lry vradius sub translate hradius vradius scale
  0 0 1 0 90 arc tMatrix setmatrix ulx hradius add lry vradius sub
  translate hradius vradius scale 0 0 1 90 180 arc tMatrix setmatrix
  closepath} bdef
/FRR {MRR stroke } bdef
/PRR {MRR fill } bdef
/MlrRR {/lry xdef /lrx xdef /uly xdef /ulx xdef /rad lry uly sub 2 div def
  newpath tMatrix currentmatrix pop ulx rad add uly rad add translate
  rad rad scale 0 0 1 90 270 arc tMatrix setmatrix lrx rad sub lry rad
  sub translate rad rad scale 0 0 1 270 90 arc tMatrix setmatrix
  closepath} bdef
/FlrRR {MlrRR stroke } bdef
/PlrRR {MlrRR fill } bdef
/MtbRR {/lry xdef /lrx xdef /uly xdef /ulx xdef /rad lrx ulx sub 2 div def
  newpath tMatrix currentmatrix pop ulx rad add uly rad add translate
  rad rad scale 0 0 1 180 360 arc tMatrix setmatrix lrx rad sub lry rad
  sub translate rad rad scale 0 0 1 0 180 arc tMatrix setmatrix
  closepath} bdef
/FtbRR {MtbRR stroke } bdef
/PtbRR {MtbRR fill } bdef
/stri 6 array def /dtri 6 array def
/smat 6 array def /dmat 6 array def
/tmat1 6 array def /tmat2 6 array def /dif 3 array def
/asub {/ind2 exch def /ind1 exch def dup dup
  ind1 get exch ind2 get sub exch } bdef
/tri_to_matrix {
  2 0 asub 3 1 asub 4 0 asub 5 1 asub
  dup 0 get exch 1 get 7 -1 roll astore } bdef
/compute_transform {
  dmat dtri tri_to_matrix tmat1 invertmatrix 
  smat stri tri_to_matrix tmat2 concatmatrix } bdef
/ds {stri astore pop} bdef
/dt {dtri astore pop} bdef
/db {2 copy /cols xdef /rows xdef mul dup 3 mul string
  currentfile exch readhexstring pop
  dup 0 3 index getinterval /rbmap xdef
  dup 2 index dup getinterval /gbmap xdef
  1 index dup 2 mul exch getinterval /bbmap xdef pop pop}bdef
/it {gs np dtri aload pop moveto lineto lineto cp c
  cols rows 8 compute_transform 
  rbmap gbmap bbmap true 3 colorimage gr}bdef
/il {newpath moveto lineto stroke}bdef
currentdict end def
%%EndProlog

%%BeginSetup
MathWorks begin

0 cap

end
%%EndSetup

%%Page: 1 1
%%BeginPageSetup
%%PageBoundingBox:    79   215   547   591
MathWorks begin
bpage
%%EndPageSetup

%%BeginObject: obj1
bplot

/dpi2point 12 def
portraitMode 0216 7344 csm

  732   247  5623  4515 MR c np
85 dict begin %Colortable dictionary
/c0 { 0.000000 0.000000 0.000000 sr} bdef
/c1 { 1.000000 1.000000 1.000000 sr} bdef
/c2 { 0.900000 0.000000 0.000000 sr} bdef
/c3 { 0.000000 0.820000 0.000000 sr} bdef
/c4 { 0.000000 0.000000 0.800000 sr} bdef
/c5 { 0.910000 0.820000 0.320000 sr} bdef
/c6 { 1.000000 0.260000 0.820000 sr} bdef
/c7 { 0.000000 0.820000 0.820000 sr} bdef
c0
1 j
1 sg
   0    0 6924 5187 PR
6 w
0 4227 5364 0 0 -4227 900 4616 4 MP
PP
-5364 0 0 4227 5364 0 0 -4227 900 4616 5 MP stroke
4 w
DO
SO
6 w
0 sg
 900 4616 mt 6264 4616 L
 900  389 mt 6264  389 L
 900 4616 mt  900  389 L
6264 4616 mt 6264  389 L
 900 4616 mt 6264 4616 L
 900 4616 mt  900  389 L
 900 4616 mt  900 4562 L
 900  389 mt  900  442 L
%%IncludeResource: font Helvetica
/Helvetica /ISOLatin1Encoding 120 FMSR

 817 4761 mt 
(0.8) s
1436 4616 mt 1436 4562 L
1436  389 mt 1436  442 L
1320 4761 mt 
(0.82) s
1973 4616 mt 1973 4562 L
1973  389 mt 1973  442 L
1857 4761 mt 
(0.84) s
2509 4616 mt 2509 4562 L
2509  389 mt 2509  442 L
2393 4761 mt 
(0.86) s
3045 4616 mt 3045 4562 L
3045  389 mt 3045  442 L
2929 4761 mt 
(0.88) s
3582 4616 mt 3582 4562 L
3582  389 mt 3582  442 L
3499 4761 mt 
(0.9) s
4119 4616 mt 4119 4562 L
4119  389 mt 4119  442 L
4003 4761 mt 
(0.92) s
4655 4616 mt 4655 4562 L
4655  389 mt 4655  442 L
4539 4761 mt 
(0.94) s
5191 4616 mt 5191 4562 L
5191  389 mt 5191  442 L
5075 4761 mt 
(0.96) s
5728 4616 mt 5728 4562 L
5728  389 mt 5728  442 L
5612 4761 mt 
(0.98) s
6265 4616 mt 6265 4562 L
6265  389 mt 6265  442 L
6232 4761 mt 
(1) s
 900 4616 mt  953 4616 L
6265 4616 mt 6211 4616 L
 799 4660 mt 
(0) s
 900 3207 mt  953 3207 L
6265 3207 mt 6211 3207 L
 799 3251 mt 
(5) s
 900 1798 mt  953 1798 L
6265 1798 mt 6211 1798 L
 732 1842 mt 
(10) s
 900  389 mt  953  389 L
6265  389 mt 6211  389 L
 732  433 mt 
(15) s
 900 4616 mt 6264 4616 L
 900  389 mt 6264  389 L
 900 4616 mt  900  389 L
6264 4616 mt 6264  389 L
gs 900 389 5366 4228 MR c np
/c8 { 0.000000 0.000000 1.000000 sr} bdef
c8
2 0 26 0 27 0 27 3 27 0 27 6 26 -6 27 28 
27 26 27 -6 27 90 27 26 26 163 27 104 27 186 27 232 
27 157 27 127 26 288 27 8 27 118 27 43 27 17 26 200 
27 67 27 282 27 34 27 62 27 237 26 45 27 115 27 -307 
27 -268 27 -155 27 -259 26 -310 27 -366 27 -302 27 -214 27 -197 
27 -107 26 -71 27 -34 27 -19 27 -28 27 -12 26 3 27 -6 
27 0 27 0 27 0 27 0 26 0 27 9 27 3 27 42 
27 17 27 110 26 90 27 110 27 254 27 372 27 39 26 228 
27 172 27 14 27 -76 27 -79 27 -248 26 -242 27 -166 27 -198 
27 -191 27 -68 27 -87 26 -71 27 0 27 -14 27 -14 27 25 
27 37 26 45 27 42 27 79 27 122 27 138 26 248 27 141 
27 138 27 211 27 0 27 101 26 6 27 -169 27 -107 27 -214 
27 -186 27 -192 26 -141 3636 4286 100 MP stroke
27 -160 27 -54 27 -34 27 -48 26 -14 27 -8 27 -9 27 6 
27 -6 27 -3 26 0 27 0 27 0 27 0 27 0 27 0 
26 0 27 0 27 0 27 0 27 0 27 0 26 0 27 0 
27 0 27 0 27 0 26 0 27 0 27 0 27 0 27 0 
27 0 26 0 27 0 27 0 27 0 27 0 27 0 26 0 
27 0 27 0 27 0 27 0 26 0 27 0 27 0 27 0 
27 0 27 0 26 0 27 0 27 0 27 0 27 0 27 0 
26 0 27 3 27 0 27 3 27 17 27 14 26 82 27 65 
27 110 27 50 27 260 26 414 27 355 27 482 27 282 27 177 
27 248 26 34 27 -20 27 -180 27 -288 27 -535 27 -304 26 -296 
27 -358 27 -166 27 -181 27 -152 26 -37 27 -28 27 -22 27 -12 
27 -11 27 -6 26 0 27 0 27 0 27 0 27 0 27 0 
26 0 27 0 27 0 980 4616 100 MP stroke
27 0 27 0 26 0 900 4616 4 MP stroke
DD
0 sg
2 0 26 0 27 0 27 0 27 0 27 0 26 0 27 0 
27 1 27 2 27 8 27 22 26 50 27 103 27 183 27 281 
27 367 27 397 26 336 27 177 27 -29 27 -203 27 -270 26 -196 
27 -4 27 236 27 441 27 543 27 524 26 387 27 154 27 -147 
27 -452 27 -667 27 -725 26 -624 27 -440 27 -256 27 -125 27 -50 
26 -18 27 -5 27 -1 27 0 27 0 27 0 26 0 27 0 
27 0 27 0 27 0 27 0 26 0 27 0 27 0 27 0 
27 0 27 3 26 13 27 44 27 124 27 277 27 486 26 647 
27 609 27 294 27 -176 27 -551 27 -663 26 -539 27 -329 27 -157 
27 -59 27 -18 27 -4 26 -1 27 0 27 0 27 0 27 0 
26 0 27 3 27 8 27 23 27 55 27 119 26 214 27 329 
27 422 27 433 27 324 27 103 26 -154 27 -356 27 -440 27 -408 
27 -306 27 -192 26 -103 3636 4541 100 MP stroke
27 -47 27 -19 27 -6 27 -2 26 0 27 0 27 0 27 0 
27 0 27 0 26 0 27 0 27 0 27 0 27 0 27 0 
26 -1 27 0 27 0 27 0 27 0 26 0 27 0 27 0 
27 0 27 0 27 0 26 0 27 0 27 0 27 0 27 0 
27 0 26 0 27 0 27 0 27 0 27 0 27 0 26 0 
27 0 27 0 27 0 27 0 26 0 27 0 27 0 27 0 
27 0 27 0 26 0 27 0 27 1 27 0 27 0 27 0 
26 0 27 0 27 0 27 0 27 0 26 0 27 0 27 1 
27 8 27 28 27 86 26 220 27 448 27 734 27 940 27 903 
27 567 26 57 27 -414 27 -697 27 -777 27 -708 27 -561 26 -390 
27 -235 27 -123 27 -56 27 -22 26 -7 27 -2 27 0 27 0 
27 0 27 0 26 0 27 0 27 0 27 0 27 0 27 0 
26 0 27 -1 27 0 980 4616 100 MP stroke
27 0 27 0 26 0 900 4616 4 MP stroke
gr

DD
 883 4659 mt 
( ) s
6249  431 mt 
( ) s
SO
1 sg
0 612 1439 0 0 -612 4767 1061 4 MP
PP
-1439 0 0 612 1439 0 0 -612 4767 1061 5 MP stroke
4 w
DO
SO
6 w
0 sg
4767 1061 mt 6206 1061 L
4767  449 mt 6206  449 L
4767 1061 mt 4767  449 L
6206 1061 mt 6206  449 L
4767 1061 mt 6206 1061 L
4767 1061 mt 4767  449 L
4767 1061 mt 6206 1061 L
4767  449 mt 6206  449 L
4767 1061 mt 4767  449 L
6206 1061 mt 6206  449 L
%%IncludeResource: font Helvetica
/Helvetica /ISOLatin1Encoding 240 FMSR

5224  697 mt 
(PDF of y) s
gs 4767 449 1440 613 MR c np
c8
351 0 4837 611 2 MP stroke
gr

c8
0 sg
5224  984 mt 
(PDF of x) s
gs 4767 449 1440 613 MR c np
DD
351 0 4837 898 2 MP stroke
SO
gr


end %%Color Dict

eplot
%%EndObject

epage
end

showpage

%%Trailer
%%EOF
