%!PS-Adobe-2.0 EPSF-1.2
%%Creator: MATLAB, The MathWorks, Inc. Version 8.0.0.783 (R2012b). Operating System: Darwin 13.3.0 Darwin Kernel Version 13.3.0: Tue Jun  3 21:27:35 PDT 2014; root:xnu-2422.110.17~1/RELEASE_X86_64 x86_64.
%%Title: ./figure_cdf_zoomin.eps
%%CreationDate: 08/10/2014  16:37:10
%%DocumentNeededFonts: Helvetica
%%DocumentProcessColors: Cyan Magenta Yellow Black
%%Extensions: CMYK
%%Pages: 1
%%BoundingBox:    70   215   553   591
%%EndComments

%%BeginProlog
% MathWorks dictionary
/MathWorks 160 dict begin
% definition operators
/bdef {bind def} bind def
/ldef {load def} bind def
/xdef {exch def} bdef
/xstore {exch store} bdef
% operator abbreviations
/c  /clip ldef
/cc /concat ldef
/cp /closepath ldef
/gr /grestore ldef
/gs /gsave ldef
/mt /moveto ldef
/np /newpath ldef
/cm /currentmatrix ldef
/sm /setmatrix ldef
/rm /rmoveto ldef
/rl /rlineto ldef
/s {show newpath} bdef
/sc {setcmykcolor} bdef
/sr /setrgbcolor ldef
/sg /setgray ldef
/w /setlinewidth ldef
/j /setlinejoin ldef
/cap /setlinecap ldef
/rc {rectclip} bdef
/rf {rectfill} bdef
% page state control
/pgsv () def
/bpage {/pgsv save def} bdef
/epage {pgsv restore} bdef
/bplot /gsave ldef
/eplot {stroke grestore} bdef
% orientation switch
/portraitMode 0 def /landscapeMode 1 def /rotateMode 2 def
% coordinate system mappings
/dpi2point 0 def
% font control
/FontSize 0 def
/FMS {/FontSize xstore findfont [FontSize 0 0 FontSize neg 0 0]
  makefont setfont} bdef
/reencode {exch dup where {pop load} {pop StandardEncoding} ifelse
  exch dup 3 1 roll findfont dup length dict begin
  { 1 index /FID ne {def}{pop pop} ifelse } forall
  /Encoding exch def currentdict end definefont pop} bdef
/isroman {findfont /CharStrings get /Agrave known} bdef
/FMSR {3 1 roll 1 index dup isroman {reencode} {pop pop} ifelse
  exch FMS} bdef
/csm {1 dpi2point div -1 dpi2point div scale neg translate
 dup landscapeMode eq {pop -90 rotate}
  {rotateMode eq {90 rotate} if} ifelse} bdef
% line types: solid, dotted, dashed, dotdash
/SO { [] 0 setdash } bdef
/DO { [.5 dpi2point mul 4 dpi2point mul] 0 setdash } bdef
/DA { [6 dpi2point mul] 0 setdash } bdef
/DD { [.5 dpi2point mul 4 dpi2point mul 6 dpi2point mul 4
  dpi2point mul] 0 setdash } bdef
% macros for lines and objects
/L {lineto stroke} bdef
/MP {3 1 roll moveto 1 sub {rlineto} repeat} bdef
/AP {{rlineto} repeat} bdef
/PDlw -1 def
/W {/PDlw currentlinewidth def setlinewidth} def
/PP {closepath eofill} bdef
/DP {closepath stroke} bdef
/MR {4 -2 roll moveto dup  0 exch rlineto exch 0 rlineto
  neg 0 exch rlineto closepath} bdef
/FR {MR stroke} bdef
/PR {MR fill} bdef
/L1i {{currentfile picstr readhexstring pop} image} bdef
/tMatrix matrix def
/MakeOval {newpath tMatrix currentmatrix pop translate scale
0 0 1 0 360 arc tMatrix setmatrix} bdef
/FO {MakeOval stroke} bdef
/PO {MakeOval fill} bdef
/PD {currentlinewidth 2 div 0 360 arc fill
   PDlw -1 eq not {PDlw w /PDlw -1 def} if} def
/FA {newpath tMatrix currentmatrix pop translate scale
  0 0 1 5 -2 roll arc tMatrix setmatrix stroke} bdef
/PA {newpath tMatrix currentmatrix pop	translate 0 0 moveto scale
  0 0 1 5 -2 roll arc closepath tMatrix setmatrix fill} bdef
/FAn {newpath tMatrix currentmatrix pop translate scale
  0 0 1 5 -2 roll arcn tMatrix setmatrix stroke} bdef
/PAn {newpath tMatrix currentmatrix pop translate 0 0 moveto scale
  0 0 1 5 -2 roll arcn closepath tMatrix setmatrix fill} bdef
/vradius 0 def /hradius 0 def /lry 0 def
/lrx 0 def /uly 0 def /ulx 0 def /rad 0 def
/MRR {/vradius xdef /hradius xdef /lry xdef /lrx xdef /uly xdef
  /ulx xdef newpath tMatrix currentmatrix pop ulx hradius add uly
  vradius add translate hradius vradius scale 0 0 1 180 270 arc 
  tMatrix setmatrix lrx hradius sub uly vradius add translate
  hradius vradius scale 0 0 1 270 360 arc tMatrix setmatrix
  lrx hradius sub lry vradius sub translate hradius vradius scale
  0 0 1 0 90 arc tMatrix setmatrix ulx hradius add lry vradius sub
  translate hradius vradius scale 0 0 1 90 180 arc tMatrix setmatrix
  closepath} bdef
/FRR {MRR stroke } bdef
/PRR {MRR fill } bdef
/MlrRR {/lry xdef /lrx xdef /uly xdef /ulx xdef /rad lry uly sub 2 div def
  newpath tMatrix currentmatrix pop ulx rad add uly rad add translate
  rad rad scale 0 0 1 90 270 arc tMatrix setmatrix lrx rad sub lry rad
  sub translate rad rad scale 0 0 1 270 90 arc tMatrix setmatrix
  closepath} bdef
/FlrRR {MlrRR stroke } bdef
/PlrRR {MlrRR fill } bdef
/MtbRR {/lry xdef /lrx xdef /uly xdef /ulx xdef /rad lrx ulx sub 2 div def
  newpath tMatrix currentmatrix pop ulx rad add uly rad add translate
  rad rad scale 0 0 1 180 360 arc tMatrix setmatrix lrx rad sub lry rad
  sub translate rad rad scale 0 0 1 0 180 arc tMatrix setmatrix
  closepath} bdef
/FtbRR {MtbRR stroke } bdef
/PtbRR {MtbRR fill } bdef
/stri 6 array def /dtri 6 array def
/smat 6 array def /dmat 6 array def
/tmat1 6 array def /tmat2 6 array def /dif 3 array def
/asub {/ind2 exch def /ind1 exch def dup dup
  ind1 get exch ind2 get sub exch } bdef
/tri_to_matrix {
  2 0 asub 3 1 asub 4 0 asub 5 1 asub
  dup 0 get exch 1 get 7 -1 roll astore } bdef
/compute_transform {
  dmat dtri tri_to_matrix tmat1 invertmatrix 
  smat stri tri_to_matrix tmat2 concatmatrix } bdef
/ds {stri astore pop} bdef
/dt {dtri astore pop} bdef
/db {2 copy /cols xdef /rows xdef mul dup 3 mul string
  currentfile exch readhexstring pop
  dup 0 3 index getinterval /rbmap xdef
  dup 2 index dup getinterval /gbmap xdef
  1 index dup 2 mul exch getinterval /bbmap xdef pop pop}bdef
/it {gs np dtri aload pop moveto lineto lineto cp c
  cols rows 8 compute_transform 
  rbmap gbmap bbmap true 3 colorimage gr}bdef
/il {newpath moveto lineto stroke}bdef
currentdict end def
%%EndProlog

%%BeginSetup
MathWorks begin

0 cap

end
%%EndSetup

%%Page: 1 1
%%BeginPageSetup
%%PageBoundingBox:    70   215   553   591
MathWorks begin
bpage
%%EndPageSetup

%%BeginObject: obj1
bplot

/dpi2point 12 def
portraitMode 0216 7344 csm

  632   247  5799  4515 MR c np
85 dict begin %Colortable dictionary
/c0 { 0.000000 0.000000 0.000000 sr} bdef
/c1 { 1.000000 1.000000 1.000000 sr} bdef
/c2 { 0.900000 0.000000 0.000000 sr} bdef
/c3 { 0.000000 0.820000 0.000000 sr} bdef
/c4 { 0.000000 0.000000 0.800000 sr} bdef
/c5 { 0.910000 0.820000 0.320000 sr} bdef
/c6 { 1.000000 0.260000 0.820000 sr} bdef
/c7 { 0.000000 0.820000 0.820000 sr} bdef
c0
1 j
1 sg
   0    0 6924 5187 PR
6 w
0 4227 5365 0 0 -4227 900 4616 4 MP
PP
-5365 0 0 4227 5365 0 0 -4227 900 4616 5 MP stroke
4 w
DO
SO
6 w
0 sg
 900 4616 mt 6265 4616 L
 900  389 mt 6265  389 L
 900 4616 mt  900  389 L
6265 4616 mt 6265  389 L
 900 4616 mt 6265 4616 L
 900 4616 mt  900  389 L
 900 4616 mt  900 4562 L
 900  389 mt  900  442 L
%%IncludeResource: font Helvetica
/Helvetica /ISOLatin1Encoding 120 FMSR

 817 4761 mt 
(0.2) s
1570 4616 mt 1570 4562 L
1570  389 mt 1570  442 L
1454 4761 mt 
(0.21) s
2241 4616 mt 2241 4562 L
2241  389 mt 2241  442 L
2125 4761 mt 
(0.22) s
2911 4616 mt 2911 4562 L
2911  389 mt 2911  442 L
2795 4761 mt 
(0.23) s
3582 4616 mt 3582 4562 L
3582  389 mt 3582  442 L
3466 4761 mt 
(0.24) s
4253 4616 mt 4253 4562 L
4253  389 mt 4253  442 L
4137 4761 mt 
(0.25) s
4923 4616 mt 4923 4562 L
4923  389 mt 4923  442 L
4807 4761 mt 
(0.26) s
5594 4616 mt 5594 4562 L
5594  389 mt 5594  442 L
5478 4761 mt 
(0.27) s
6265 4616 mt 6265 4562 L
6265  389 mt 6265  442 L
6149 4761 mt 
(0.28) s
 900 4616 mt  953 4616 L
6265 4616 mt 6211 4616 L
 699 4660 mt 
(0.2) s
 900 4193 mt  953 4193 L
6265 4193 mt 6211 4193 L
 632 4237 mt 
(0.21) s
 900 3770 mt  953 3770 L
6265 3770 mt 6211 3770 L
 632 3814 mt 
(0.22) s
 900 3347 mt  953 3347 L
6265 3347 mt 6211 3347 L
 632 3391 mt 
(0.23) s
 900 2925 mt  953 2925 L
6265 2925 mt 6211 2925 L
 632 2969 mt 
(0.24) s
 900 2502 mt  953 2502 L
6265 2502 mt 6211 2502 L
 632 2546 mt 
(0.25) s
 900 2079 mt  953 2079 L
6265 2079 mt 6211 2079 L
 632 2123 mt 
(0.26) s
 900 1657 mt  953 1657 L
6265 1657 mt 6211 1657 L
 632 1701 mt 
(0.27) s
 900 1234 mt  953 1234 L
6265 1234 mt 6211 1234 L
 632 1278 mt 
(0.28) s
 900  811 mt  953  811 L
6265  811 mt 6211  811 L
 632  855 mt 
(0.29) s
 900 4616 mt 6265 4616 L
 900  389 mt 6265  389 L
 900 4616 mt  900  389 L
6265 4616 mt 6265  389 L
gs 900 389 5366 4228 MR c np
DD
50 -37 67 -97 67 -160 67 -230 67 -287 67 -313 67 -297 67 -245 
67 -177 67 -111 67 -61 67 -29 67 -12 67 -4 67 -1 67 -1 
68 0 67 0 67 0 67 0 67 0 67 0 67 0 67 0 
67 0 67 0 67 0 67 0 67 0 67 0 67 0 68 0 
67 0 67 0 67 0 67 0 67 0 67 0 67 0 67 0 
67 0 67 0 67 0 67 0 67 0 67 0 67 -205 68 -1783 
67 -176 67 0 67 0 67 0 67 0 67 0 67 0 67 0 
67 0 67 0 67 0 67 0 67 0 67 0 67 0 67 0 
900 4615 65 MP stroke
SO
/c8 { 1.000000 0.000000 0.000000 sr} bdef
c8
33 -88 67 -7 67 0 67 0 67 -2 67 -5 67 -10 67 -27 
68 -54 67 -101 67 -144 67 -227 67 -289 67 -308 67 -303 67 -232 
67 -174 67 -100 67 -63 67 -31 67 -17 67 -3 67 -3 67 0 
68 0 67 0 67 0 67 0 67 0 67 0 67 0 67 0 
67 0 67 0 67 0 67 0 67 0 67 0 67 0 67 0 
68 0 67 0 67 0 67 0 67 0 67 0 67 0 67 0 
67 0 67 0 67 0 67 0 67 -1 67 -25 67 -481 67 -1158 
58 -375 1915 4617 58 MP stroke
/c9 { 0.000000 0.000000 1.000000 sr} bdef
c9
12 -15 67 -60 67 -72 67 -82 68 -100 67 -121 67 -153 67 -183 
67 -204 67 -194 67 -203 67 -187 67 -145 67 -129 67 -106 67 -76 
67 -50 67 -35 67 -17 67 -10 68 -7 67 -2 67 -3 67 0 
67 0 67 0 67 0 67 0 67 0 67 0 67 0 67 0 
67 0 67 0 67 0 67 0 68 0 67 0 67 0 67 -1 
67 -1 67 -2 67 -4 67 -13 67 -26 67 -49 67 -78 67 -113 
67 -170 67 -214 67 -242 67 -269 68 -251 67 -220 67 -172 67 -111 
67 -84 67 -40 35 -14 1535 4617 60 MP stroke
gr

c9
0 sg
 883 4659 mt 
( ) s
6249  431 mt 
( ) s
1 sg
0 897 2812 0 0 -897 3394 4557 4 MP
PP
-2812 0 0 897 2812 0 0 -897 3394 4557 5 MP stroke
4 w
DO
SO
6 w
0 sg
3394 4557 mt 6206 4557 L
3394 3660 mt 6206 3660 L
3394 4557 mt 3394 3660 L
6206 4557 mt 6206 3660 L
3394 4557 mt 6206 4557 L
3394 4557 mt 3394 3660 L
3394 4557 mt 6206 4557 L
3394 3660 mt 6206 3660 L
3394 4557 mt 3394 3660 L
6206 4557 mt 6206 3660 L
%%IncludeResource: font Helvetica
/Helvetica /ISOLatin1Encoding 240 FMSR

3857 3907 mt 
(CDF of x) s
gs 3394 3660 2813 898 MR c np
DD
356 0 3465 3822 2 MP stroke
SO
gr

3857 4194 mt 
(CDF of y\(small noise\)) s
gs 3394 3660 2813 898 MR c np
c8
356 0 3465 4108 2 MP stroke
gr

c8
0 sg
3857 4481 mt 
(CDF of y\(large noise\)) s
gs 3394 3660 2813 898 MR c np
c9
356 0 3465 4394 2 MP stroke
gr

c9

end %%Color Dict

eplot
%%EndObject

epage
end

showpage

%%Trailer
%%EOF
