%!PS-Adobe-2.0 EPSF-1.2
%%Creator: MATLAB, The MathWorks, Inc. Version 8.0.0.783 (R2012b). Operating System: Darwin 13.3.0 Darwin Kernel Version 13.3.0: Tue Jun  3 21:27:35 PDT 2014; root:xnu-2422.110.17~1/RELEASE_X86_64 x86_64.
%%Title: ./final_x_distribution.eps
%%CreationDate: 08/14/2014  19:44:30
%%DocumentNeededFonts: Helvetica
%%DocumentProcessColors: Cyan Magenta Yellow Black
%%Extensions: CMYK
%%Pages: 1
%%BoundingBox:    79   215   546   614
%%EndComments

%%BeginProlog
% MathWorks dictionary
/MathWorks 160 dict begin
% definition operators
/bdef {bind def} bind def
/ldef {load def} bind def
/xdef {exch def} bdef
/xstore {exch store} bdef
% operator abbreviations
/c  /clip ldef
/cc /concat ldef
/cp /closepath ldef
/gr /grestore ldef
/gs /gsave ldef
/mt /moveto ldef
/np /newpath ldef
/cm /currentmatrix ldef
/sm /setmatrix ldef
/rm /rmoveto ldef
/rl /rlineto ldef
/s {show newpath} bdef
/sc {setcmykcolor} bdef
/sr /setrgbcolor ldef
/sg /setgray ldef
/w /setlinewidth ldef
/j /setlinejoin ldef
/cap /setlinecap ldef
/rc {rectclip} bdef
/rf {rectfill} bdef
% page state control
/pgsv () def
/bpage {/pgsv save def} bdef
/epage {pgsv restore} bdef
/bplot /gsave ldef
/eplot {stroke grestore} bdef
% orientation switch
/portraitMode 0 def /landscapeMode 1 def /rotateMode 2 def
% coordinate system mappings
/dpi2point 0 def
% font control
/FontSize 0 def
/FMS {/FontSize xstore findfont [FontSize 0 0 FontSize neg 0 0]
  makefont setfont} bdef
/reencode {exch dup where {pop load} {pop StandardEncoding} ifelse
  exch dup 3 1 roll findfont dup length dict begin
  { 1 index /FID ne {def}{pop pop} ifelse } forall
  /Encoding exch def currentdict end definefont pop} bdef
/isroman {findfont /CharStrings get /Agrave known} bdef
/FMSR {3 1 roll 1 index dup isroman {reencode} {pop pop} ifelse
  exch FMS} bdef
/csm {1 dpi2point div -1 dpi2point div scale neg translate
 dup landscapeMode eq {pop -90 rotate}
  {rotateMode eq {90 rotate} if} ifelse} bdef
% line types: solid, dotted, dashed, dotdash
/SO { [] 0 setdash } bdef
/DO { [.5 dpi2point mul 4 dpi2point mul] 0 setdash } bdef
/DA { [6 dpi2point mul] 0 setdash } bdef
/DD { [.5 dpi2point mul 4 dpi2point mul 6 dpi2point mul 4
  dpi2point mul] 0 setdash } bdef
% macros for lines and objects
/L {lineto stroke} bdef
/MP {3 1 roll moveto 1 sub {rlineto} repeat} bdef
/AP {{rlineto} repeat} bdef
/PDlw -1 def
/W {/PDlw currentlinewidth def setlinewidth} def
/PP {closepath eofill} bdef
/DP {closepath stroke} bdef
/MR {4 -2 roll moveto dup  0 exch rlineto exch 0 rlineto
  neg 0 exch rlineto closepath} bdef
/FR {MR stroke} bdef
/PR {MR fill} bdef
/L1i {{currentfile picstr readhexstring pop} image} bdef
/tMatrix matrix def
/MakeOval {newpath tMatrix currentmatrix pop translate scale
0 0 1 0 360 arc tMatrix setmatrix} bdef
/FO {MakeOval stroke} bdef
/PO {MakeOval fill} bdef
/PD {currentlinewidth 2 div 0 360 arc fill
   PDlw -1 eq not {PDlw w /PDlw -1 def} if} def
/FA {newpath tMatrix currentmatrix pop translate scale
  0 0 1 5 -2 roll arc tMatrix setmatrix stroke} bdef
/PA {newpath tMatrix currentmatrix pop	translate 0 0 moveto scale
  0 0 1 5 -2 roll arc closepath tMatrix setmatrix fill} bdef
/FAn {newpath tMatrix currentmatrix pop translate scale
  0 0 1 5 -2 roll arcn tMatrix setmatrix stroke} bdef
/PAn {newpath tMatrix currentmatrix pop translate 0 0 moveto scale
  0 0 1 5 -2 roll arcn closepath tMatrix setmatrix fill} bdef
/vradius 0 def /hradius 0 def /lry 0 def
/lrx 0 def /uly 0 def /ulx 0 def /rad 0 def
/MRR {/vradius xdef /hradius xdef /lry xdef /lrx xdef /uly xdef
  /ulx xdef newpath tMatrix currentmatrix pop ulx hradius add uly
  vradius add translate hradius vradius scale 0 0 1 180 270 arc 
  tMatrix setmatrix lrx hradius sub uly vradius add translate
  hradius vradius scale 0 0 1 270 360 arc tMatrix setmatrix
  lrx hradius sub lry vradius sub translate hradius vradius scale
  0 0 1 0 90 arc tMatrix setmatrix ulx hradius add lry vradius sub
  translate hradius vradius scale 0 0 1 90 180 arc tMatrix setmatrix
  closepath} bdef
/FRR {MRR stroke } bdef
/PRR {MRR fill } bdef
/MlrRR {/lry xdef /lrx xdef /uly xdef /ulx xdef /rad lry uly sub 2 div def
  newpath tMatrix currentmatrix pop ulx rad add uly rad add translate
  rad rad scale 0 0 1 90 270 arc tMatrix setmatrix lrx rad sub lry rad
  sub translate rad rad scale 0 0 1 270 90 arc tMatrix setmatrix
  closepath} bdef
/FlrRR {MlrRR stroke } bdef
/PlrRR {MlrRR fill } bdef
/MtbRR {/lry xdef /lrx xdef /uly xdef /ulx xdef /rad lrx ulx sub 2 div def
  newpath tMatrix currentmatrix pop ulx rad add uly rad add translate
  rad rad scale 0 0 1 180 360 arc tMatrix setmatrix lrx rad sub lry rad
  sub translate rad rad scale 0 0 1 0 180 arc tMatrix setmatrix
  closepath} bdef
/FtbRR {MtbRR stroke } bdef
/PtbRR {MtbRR fill } bdef
/stri 6 array def /dtri 6 array def
/smat 6 array def /dmat 6 array def
/tmat1 6 array def /tmat2 6 array def /dif 3 array def
/asub {/ind2 exch def /ind1 exch def dup dup
  ind1 get exch ind2 get sub exch } bdef
/tri_to_matrix {
  2 0 asub 3 1 asub 4 0 asub 5 1 asub
  dup 0 get exch 1 get 7 -1 roll astore } bdef
/compute_transform {
  dmat dtri tri_to_matrix tmat1 invertmatrix 
  smat stri tri_to_matrix tmat2 concatmatrix } bdef
/ds {stri astore pop} bdef
/dt {dtri astore pop} bdef
/db {2 copy /cols xdef /rows xdef mul dup 3 mul string
  currentfile exch readhexstring pop
  dup 0 3 index getinterval /rbmap xdef
  dup 2 index dup getinterval /gbmap xdef
  1 index dup 2 mul exch getinterval /bbmap xdef pop pop}bdef
/it {gs np dtri aload pop moveto lineto lineto cp c
  cols rows 8 compute_transform 
  rbmap gbmap bbmap true 3 colorimage gr}bdef
/il {newpath moveto lineto stroke}bdef
currentdict end def
%%EndProlog

%%BeginSetup
MathWorks begin

0 cap

end
%%EndSetup

%%Page: 1 1
%%BeginPageSetup
%%PageBoundingBox:    79   215   546   614
MathWorks begin
bpage
%%EndPageSetup

%%BeginObject: obj1
bplot

/dpi2point 12 def
portraitMode 0216 7344 csm

  732   -29  5615  4791 MR c np
85 dict begin %Colortable dictionary
/c0 { 0.000000 0.000000 0.000000 sr} bdef
/c1 { 1.000000 1.000000 1.000000 sr} bdef
/c2 { 0.900000 0.000000 0.000000 sr} bdef
/c3 { 0.000000 0.820000 0.000000 sr} bdef
/c4 { 0.000000 0.000000 0.800000 sr} bdef
/c5 { 0.910000 0.820000 0.320000 sr} bdef
/c6 { 1.000000 0.260000 0.820000 sr} bdef
/c7 { 0.000000 0.820000 0.820000 sr} bdef
c0
1 j
1 sg
   0    0 6924 5187 PR
6 w
0 4227 5365 0 0 -4227 900 4616 4 MP
PP
-5365 0 0 4227 5365 0 0 -4227 900 4616 5 MP stroke
4 w
DO
SO
6 w
0 sg
 900 4616 mt 6265 4616 L
 900  389 mt 6265  389 L
 900 4616 mt  900  389 L
6265 4616 mt 6265  389 L
 900 4616 mt 6265 4616 L
 900 4616 mt  900  389 L
 900 4616 mt  900 4562 L
 900  389 mt  900  442 L
%%IncludeResource: font Helvetica
/Helvetica /ISOLatin1Encoding 120 FMSR

 867 4761 mt 
(0) s
1436 4616 mt 1436 4562 L
1436  389 mt 1436  442 L
1353 4761 mt 
(0.1) s
1973 4616 mt 1973 4562 L
1973  389 mt 1973  442 L
1890 4761 mt 
(0.2) s
2509 4616 mt 2509 4562 L
2509  389 mt 2509  442 L
2426 4761 mt 
(0.3) s
3046 4616 mt 3046 4562 L
3046  389 mt 3046  442 L
2963 4761 mt 
(0.4) s
3582 4616 mt 3582 4562 L
3582  389 mt 3582  442 L
3499 4761 mt 
(0.5) s
4119 4616 mt 4119 4562 L
4119  389 mt 4119  442 L
4036 4761 mt 
(0.6) s
4655 4616 mt 4655 4562 L
4655  389 mt 4655  442 L
4572 4761 mt 
(0.7) s
5192 4616 mt 5192 4562 L
5192  389 mt 5192  442 L
5109 4761 mt 
(0.8) s
5728 4616 mt 5728 4562 L
5728  389 mt 5728  442 L
5645 4761 mt 
(0.9) s
6265 4616 mt 6265 4562 L
6265  389 mt 6265  442 L
6232 4761 mt 
(1) s
 900 4616 mt  953 4616 L
6265 4616 mt 6211 4616 L
 799 4660 mt 
(0) s
 900 4211 mt  953 4211 L
6265 4211 mt 6211 4211 L
 799 4255 mt 
(2) s
 900 3806 mt  953 3806 L
6265 3806 mt 6211 3806 L
 799 3850 mt 
(4) s
 900 3402 mt  953 3402 L
6265 3402 mt 6211 3402 L
 799 3446 mt 
(6) s
 900 2997 mt  953 2997 L
6265 2997 mt 6211 2997 L
 799 3041 mt 
(8) s
 900 2593 mt  953 2593 L
6265 2593 mt 6211 2593 L
 732 2637 mt 
(10) s
 900 2188 mt  953 2188 L
6265 2188 mt 6211 2188 L
 732 2232 mt 
(12) s
 900 1784 mt  953 1784 L
6265 1784 mt 6211 1784 L
 732 1828 mt 
(14) s
 900 1379 mt  953 1379 L
6265 1379 mt 6211 1379 L
 732 1423 mt 
(16) s
 900  975 mt  953  975 L
6265  975 mt 6211  975 L
 732 1019 mt 
(18) s
 900  570 mt  953  570 L
6265  570 mt 6211  570 L
 732  614 mt 
(20) s
 900 4616 mt 6265 4616 L
 900  389 mt 6265  389 L
 900 4616 mt  900  389 L
6265 4616 mt 6265  389 L
gs 900 389 5366 4228 MR c np
/c8 { 0.000000 0.000000 1.000000 sr} bdef
c8
1 0 6 0 5 0 6 0 5 0 5 0 6 0 5 0 
5 0 6 0 5 0 6 1 5 10 5 79 6 401 5 1082 
5 1320 6 182 5 -1068 5 -949 6 -237 5 124 6 165 5 94 
5 -10 6 -113 5 -187 5 -218 6 -209 5 -172 5 -123 6 -76 
5 -40 6 -14 5 7 5 23 6 38 5 56 5 74 6 91 
5 105 5 112 6 110 5 96 6 71 5 37 5 -1 6 -41 
5 -74 5 -98 6 -110 5 -112 5 -104 6 -90 5 -72 6 -55 
5 -39 5 -27 6 -17 5 -10 5 -6 6 -3 5 -2 5 -1 
6 0 5 0 6 0 5 0 5 0 6 0 5 0 5 0 
6 0 5 0 6 1 5 3 5 10 6 28 5 63 5 124 
6 207 5 289 5 328 6 283 5 143 6 -49 5 -223 5 -317 
6 -318 5 -250 5 -164 6 -91 5 -42 5 -17 6 -6 5 -2 
6 0 5 0 5 0 5739 4615 100 MP stroke
6 0 5 0 5 0 6 0 5 0 5 0 6 0 5 0 
6 0 5 -1 5 0 6 0 5 0 5 0 6 0 5 0 
5 0 6 0 5 0 6 0 5 1 5 0 6 0 5 0 
5 0 6 0 5 3 5 35 6 233 5 804 6 1334 5 635 
5 -873 6 -1298 5 -675 5 -173 6 -24 5 -1 6 0 5 0 
5 0 6 0 5 0 5 0 6 0 5 0 5 0 6 0 
5 5 6 18 5 60 5 158 6 317 5 480 5 514 6 313 
5 -61 5 -338 6 -94 5 851 6 1151 5 -430 5 -1615 6 -1024 
5 -270 5 -33 6 -2 5 0 5 0 6 0 5 0 6 0 
5 0 5 0 6 -1 5 0 5 0 6 0 5 0 5 0 
6 0 5 0 6 0 5 0 5 0 6 0 5 0 5 0 
6 0 5 0 5 0 6 0 5 0 6 0 5 0 5 0 
6 0 5 0 5 0 5208 4616 100 MP stroke
6 0 5 0 5 0 6 0 5 0 6 0 5 0 5 0 
6 0 5 0 5 0 6 0 5 0 6 0 5 0 5 0 
6 0 5 0 5 0 6 0 5 0 5 0 6 0 5 0 
6 0 5 0 5 0 6 0 5 0 5 0 6 0 5 0 
5 0 6 0 5 0 6 0 5 0 5 0 6 0 5 0 
5 0 6 0 5 0 5 0 6 0 5 0 6 0 5 0 
5 0 6 0 5 0 5 0 6 0 5 0 5 0 6 0 
5 0 6 0 5 0 5 0 6 0 5 0 5 0 6 0 
5 0 5 0 6 0 5 0 6 0 5 0 5 0 6 0 
5 0 5 0 6 0 5 0 6 0 5 0 5 0 6 0 
5 0 5 0 6 0 5 0 5 0 6 0 5 0 6 0 
5 0 5 0 6 1 5 0 5 0 6 0 5 0 5 0 
6 0 5 0 6 0 4676 4615 100 MP stroke
5 0 5 0 6 0 5 0 5 0 6 0 5 0 5 0 
6 0 5 0 6 0 5 1 5 2 6 4 5 7 5 13 
6 23 5 37 5 56 6 78 5 101 6 123 5 135 5 135 
6 118 5 85 5 37 6 -14 5 -65 5 -104 6 -127 5 -131 
6 -118 5 -93 5 -60 6 -22 5 16 5 52 6 82 5 105 
6 118 5 135 5 293 6 943 5 1656 5 605 6 -1376 5 -1512 
5 -629 6 -204 5 -124 6 -104 5 -86 5 -65 6 -48 5 -31 
5 -21 6 -12 5 -7 5 -4 6 -2 5 -1 6 0 5 0 
5 0 6 0 5 0 5 0 6 0 5 0 5 0 6 0 
5 0 6 0 5 0 5 0 6 0 5 0 5 0 6 0 
5 0 5 0 6 -1 5 0 6 0 5 0 5 0 6 0 
5 0 5 0 6 0 5 0 5 0 6 0 5 0 6 0 
5 0 5 1 6 0 4145 4615 100 MP stroke
5 0 5 0 6 0 5 0 5 0 6 0 5 0 6 0 
5 0 5 0 6 0 5 0 5 0 6 0 5 0 6 0 
5 0 5 0 6 0 5 0 5 0 6 1 5 2 5 3 
6 5 5 9 6 15 5 23 5 33 6 47 5 62 5 77 
6 91 5 100 5 104 6 97 5 81 6 56 5 24 5 -11 
6 -44 5 -72 5 -92 6 -102 5 -103 5 -95 6 -82 5 -65 
6 -46 5 -27 5 -4 6 23 5 54 5 91 6 128 5 159 
5 174 6 166 5 129 6 67 5 -8 5 -82 6 -140 5 -171 
5 -174 6 -155 5 -125 5 -90 6 -59 5 -36 6 -20 5 -10 
5 -5 6 -2 5 -1 5 0 6 0 5 0 6 0 5 0 
5 0 6 0 5 0 5 0 6 0 5 0 5 0 6 0 
5 0 6 0 5 0 5 -1 6 0 5 0 5 0 6 0 
5 0 5 0 6 0 3614 4616 100 MP stroke
5 0 6 0 5 0 5 0 6 0 5 0 5 0 6 0 
5 0 5 0 6 1 5 0 6 0 5 0 5 0 6 3 
5 49 5 338 6 1115 5 1484 5 68 6 -1446 5 -1174 6 -376 
5 -57 5 -4 6 0 5 0 5 0 6 0 5 0 5 -1 
6 0 5 0 6 0 5 0 5 0 6 0 5 0 5 0 
6 0 5 0 6 0 5 0 5 0 6 0 5 0 5 0 
6 0 5 0 5 0 6 0 5 0 6 0 5 0 5 0 
6 0 5 0 5 0 6 0 5 0 5 0 6 0 5 0 
6 0 5 0 5 0 6 0 5 0 5 0 6 0 5 0 
5 0 6 0 5 0 6 0 5 0 5 0 6 0 5 0 
5 0 6 0 5 0 5 0 6 0 5 0 6 0 5 0 
5 0 6 0 5 0 5 0 6 0 5 0 5 0 6 0 
5 0 6 0 5 0 3083 4616 100 MP stroke
5 0 6 0 5 0 5 0 6 0 5 0 5 0 6 0 
5 0 6 0 5 0 5 0 6 0 5 0 5 0 6 0 
5 0 6 0 5 0 5 0 6 0 5 0 5 0 6 0 
5 0 5 0 6 0 5 0 6 0 5 1 5 0 6 0 
5 0 5 0 6 0 5 0 5 0 6 0 5 0 6 0 
5 1 5 4 6 15 5 44 5 107 6 214 5 340 5 421 
6 373 5 170 6 -114 5 -342 5 -424 6 -363 5 -239 5 -125 
6 -51 5 -14 5 3 6 14 5 22 6 35 5 49 5 67 
6 83 5 99 5 110 6 112 5 105 5 88 6 63 5 36 
6 13 5 2 5 5 6 23 5 48 5 70 6 76 5 58 
6 14 5 -45 5 -109 6 -159 5 -185 5 -186 6 -164 5 -131 
5 -94 6 -62 5 -38 6 -20 5 -11 5 -5 6 -2 5 -1 
5 0 6 0 5 0 2552 4615 100 MP stroke
5 0 6 0 5 0 6 0 5 0 5 0 6 0 5 0 
5 0 6 0 5 0 5 0 6 0 5 -1 6 0 5 0 
5 0 6 0 5 0 5 0 6 0 5 0 5 0 6 0 
5 0 6 0 5 1 5 0 6 0 5 0 5 0 6 0 
5 0 5 0 6 0 5 0 6 0 5 0 5 0 6 0 
5 0 5 0 6 0 5 0 6 0 5 1 5 3 6 5 
5 11 5 18 6 32 5 49 5 73 6 98 5 123 6 141 
5 145 5 132 6 100 5 51 5 -6 6 -63 5 -108 5 -137 
6 -146 5 -137 6 -118 5 -90 5 -63 6 -36 5 -8 5 22 
6 57 5 99 5 142 6 181 5 199 6 187 5 139 5 60 
6 -33 5 -119 5 -176 6 -200 5 -189 5 -157 6 -115 5 -76 
6 -45 5 -25 5 -12 6 -6 5 -2 5 -1 6 0 5 0 
5 0 6 0 5 0 2021 4615 100 MP stroke
6 0 5 0 5 0 6 0 5 0 5 0 6 0 5 0 
5 0 6 0 5 -1 6 0 5 0 5 0 6 0 5 0 
5 0 6 0 5 0 6 0 5 0 5 0 6 0 5 0 
5 0 6 0 5 0 5 0 6 0 5 0 6 0 5 0 
5 0 6 0 5 0 5 0 6 0 5 0 5 0 6 0 
5 0 6 0 5 0 5 0 6 0 5 0 5 0 6 0 
5 0 5 0 6 0 5 0 6 0 5 0 5 0 6 0 
5 0 5 0 6 0 5 0 5 0 6 0 5 0 6 0 
5 0 5 0 6 0 5 0 5 0 6 0 5 0 5 0 
6 0 5 0 6 0 5 0 5 0 6 0 5 0 5 0 
6 0 5 0 6 0 5 0 5 0 6 0 5 0 5 0 
6 0 5 0 5 0 6 0 5 0 6 0 5 0 5 0 
6 0 5 0 5 0 1490 4616 100 MP stroke
6 0 5 0 5 0 6 0 5 0 6 0 5 0 5 1 
6 0 5 0 5 0 6 0 5 0 5 0 6 0 5 0 
6 0 5 0 5 0 6 0 5 0 5 0 6 0 5 0 
5 0 6 0 5 0 6 0 5 0 5 1 6 1 5 3 
5 5 6 8 5 14 5 22 6 33 5 47 6 62 5 79 
5 94 6 104 5 108 5 101 6 84 5 58 6 23 5 -14 
5 -48 6 -78 5 -98 5 -107 6 -106 5 -97 5 -83 6 -67 
5 -50 6 -35 5 -23 5 -13 6 -3 5 6 5 15 6 28 
5 42 5 60 6 79 5 97 6 112 5 117 5 114 6 96 
5 67 5 28 6 -14 5 -54 5 -87 6 -108 5 -118 6 -115 
5 -103 5 -86 6 -66 5 -49 5 -34 6 -22 5 -14 5 -8 
6 -4 5 -2 6 -2 5 0 5 0 6 0 5 0 5 0 
6 0 5 0 5 0 959 4615 100 MP stroke
6 0 5 0 6 0 5 0 5 0 6 0 5 0 5 0 
6 0 5 0 5 0 900 4615 12 MP stroke
gr

c8
0 sg
%%IncludeResource: font Helvetica
/Helvetica /ISOLatin1Encoding 240 FMSR

1656  267 mt 
(PDF of Baseline Random Variable X) s

end %%Color Dict

eplot
%%EndObject

epage
end

showpage

%%Trailer
%%EOF
