%!PS-Adobe-2.0 EPSF-1.2
%%Creator: MATLAB, The MathWorks, Inc. Version 8.0.0.783 (R2012b). Operating System: Darwin 13.3.0 Darwin Kernel Version 13.3.0: Tue Jun  3 21:27:35 PDT 2014; root:xnu-2422.110.17~1/RELEASE_X86_64 x86_64.
%%Title: ./final_unbroad_approx_zoomin.eps
%%CreationDate: 08/14/2014  14:47:48
%%DocumentNeededFonts: Helvetica
%%DocumentProcessColors: Cyan Magenta Yellow Black
%%Extensions: CMYK
%%Pages: 1
%%BoundingBox:    76   215   544   589
%%EndComments

%%BeginProlog
% MathWorks dictionary
/MathWorks 160 dict begin
% definition operators
/bdef {bind def} bind def
/ldef {load def} bind def
/xdef {exch def} bdef
/xstore {exch store} bdef
% operator abbreviations
/c  /clip ldef
/cc /concat ldef
/cp /closepath ldef
/gr /grestore ldef
/gs /gsave ldef
/mt /moveto ldef
/np /newpath ldef
/cm /currentmatrix ldef
/sm /setmatrix ldef
/rm /rmoveto ldef
/rl /rlineto ldef
/s {show newpath} bdef
/sc {setcmykcolor} bdef
/sr /setrgbcolor ldef
/sg /setgray ldef
/w /setlinewidth ldef
/j /setlinejoin ldef
/cap /setlinecap ldef
/rc {rectclip} bdef
/rf {rectfill} bdef
% page state control
/pgsv () def
/bpage {/pgsv save def} bdef
/epage {pgsv restore} bdef
/bplot /gsave ldef
/eplot {stroke grestore} bdef
% orientation switch
/portraitMode 0 def /landscapeMode 1 def /rotateMode 2 def
% coordinate system mappings
/dpi2point 0 def
% font control
/FontSize 0 def
/FMS {/FontSize xstore findfont [FontSize 0 0 FontSize neg 0 0]
  makefont setfont} bdef
/reencode {exch dup where {pop load} {pop StandardEncoding} ifelse
  exch dup 3 1 roll findfont dup length dict begin
  { 1 index /FID ne {def}{pop pop} ifelse } forall
  /Encoding exch def currentdict end definefont pop} bdef
/isroman {findfont /CharStrings get /Agrave known} bdef
/FMSR {3 1 roll 1 index dup isroman {reencode} {pop pop} ifelse
  exch FMS} bdef
/csm {1 dpi2point div -1 dpi2point div scale neg translate
 dup landscapeMode eq {pop -90 rotate}
  {rotateMode eq {90 rotate} if} ifelse} bdef
% line types: solid, dotted, dashed, dotdash
/SO { [] 0 setdash } bdef
/DO { [.5 dpi2point mul 4 dpi2point mul] 0 setdash } bdef
/DA { [6 dpi2point mul] 0 setdash } bdef
/DD { [.5 dpi2point mul 4 dpi2point mul 6 dpi2point mul 4
  dpi2point mul] 0 setdash } bdef
% macros for lines and objects
/L {lineto stroke} bdef
/MP {3 1 roll moveto 1 sub {rlineto} repeat} bdef
/AP {{rlineto} repeat} bdef
/PDlw -1 def
/W {/PDlw currentlinewidth def setlinewidth} def
/PP {closepath eofill} bdef
/DP {closepath stroke} bdef
/MR {4 -2 roll moveto dup  0 exch rlineto exch 0 rlineto
  neg 0 exch rlineto closepath} bdef
/FR {MR stroke} bdef
/PR {MR fill} bdef
/L1i {{currentfile picstr readhexstring pop} image} bdef
/tMatrix matrix def
/MakeOval {newpath tMatrix currentmatrix pop translate scale
0 0 1 0 360 arc tMatrix setmatrix} bdef
/FO {MakeOval stroke} bdef
/PO {MakeOval fill} bdef
/PD {currentlinewidth 2 div 0 360 arc fill
   PDlw -1 eq not {PDlw w /PDlw -1 def} if} def
/FA {newpath tMatrix currentmatrix pop translate scale
  0 0 1 5 -2 roll arc tMatrix setmatrix stroke} bdef
/PA {newpath tMatrix currentmatrix pop	translate 0 0 moveto scale
  0 0 1 5 -2 roll arc closepath tMatrix setmatrix fill} bdef
/FAn {newpath tMatrix currentmatrix pop translate scale
  0 0 1 5 -2 roll arcn tMatrix setmatrix stroke} bdef
/PAn {newpath tMatrix currentmatrix pop translate 0 0 moveto scale
  0 0 1 5 -2 roll arcn closepath tMatrix setmatrix fill} bdef
/vradius 0 def /hradius 0 def /lry 0 def
/lrx 0 def /uly 0 def /ulx 0 def /rad 0 def
/MRR {/vradius xdef /hradius xdef /lry xdef /lrx xdef /uly xdef
  /ulx xdef newpath tMatrix currentmatrix pop ulx hradius add uly
  vradius add translate hradius vradius scale 0 0 1 180 270 arc 
  tMatrix setmatrix lrx hradius sub uly vradius add translate
  hradius vradius scale 0 0 1 270 360 arc tMatrix setmatrix
  lrx hradius sub lry vradius sub translate hradius vradius scale
  0 0 1 0 90 arc tMatrix setmatrix ulx hradius add lry vradius sub
  translate hradius vradius scale 0 0 1 90 180 arc tMatrix setmatrix
  closepath} bdef
/FRR {MRR stroke } bdef
/PRR {MRR fill } bdef
/MlrRR {/lry xdef /lrx xdef /uly xdef /ulx xdef /rad lry uly sub 2 div def
  newpath tMatrix currentmatrix pop ulx rad add uly rad add translate
  rad rad scale 0 0 1 90 270 arc tMatrix setmatrix lrx rad sub lry rad
  sub translate rad rad scale 0 0 1 270 90 arc tMatrix setmatrix
  closepath} bdef
/FlrRR {MlrRR stroke } bdef
/PlrRR {MlrRR fill } bdef
/MtbRR {/lry xdef /lrx xdef /uly xdef /ulx xdef /rad lrx ulx sub 2 div def
  newpath tMatrix currentmatrix pop ulx rad add uly rad add translate
  rad rad scale 0 0 1 180 360 arc tMatrix setmatrix lrx rad sub lry rad
  sub translate rad rad scale 0 0 1 0 180 arc tMatrix setmatrix
  closepath} bdef
/FtbRR {MtbRR stroke } bdef
/PtbRR {MtbRR fill } bdef
/stri 6 array def /dtri 6 array def
/smat 6 array def /dmat 6 array def
/tmat1 6 array def /tmat2 6 array def /dif 3 array def
/asub {/ind2 exch def /ind1 exch def dup dup
  ind1 get exch ind2 get sub exch } bdef
/tri_to_matrix {
  2 0 asub 3 1 asub 4 0 asub 5 1 asub
  dup 0 get exch 1 get 7 -1 roll astore } bdef
/compute_transform {
  dmat dtri tri_to_matrix tmat1 invertmatrix 
  smat stri tri_to_matrix tmat2 concatmatrix } bdef
/ds {stri astore pop} bdef
/dt {dtri astore pop} bdef
/db {2 copy /cols xdef /rows xdef mul dup 3 mul string
  currentfile exch readhexstring pop
  dup 0 3 index getinterval /rbmap xdef
  dup 2 index dup getinterval /gbmap xdef
  1 index dup 2 mul exch getinterval /bbmap xdef pop pop}bdef
/it {gs np dtri aload pop moveto lineto lineto cp c
  cols rows 8 compute_transform 
  rbmap gbmap bbmap true 3 colorimage gr}bdef
/il {newpath moveto lineto stroke}bdef
currentdict end def
%%EndProlog

%%BeginSetup
MathWorks begin

0 cap

end
%%EndSetup

%%Page: 1 1
%%BeginPageSetup
%%PageBoundingBox:    76   215   544   589
MathWorks begin
bpage
%%EndPageSetup

%%BeginObject: obj1
bplot

/dpi2point 12 def
portraitMode 0216 7344 csm

  699   274  5616  4488 MR c np
85 dict begin %Colortable dictionary
/c0 { 0.000000 0.000000 0.000000 sr} bdef
/c1 { 1.000000 1.000000 1.000000 sr} bdef
/c2 { 0.900000 0.000000 0.000000 sr} bdef
/c3 { 0.000000 0.820000 0.000000 sr} bdef
/c4 { 0.000000 0.000000 0.800000 sr} bdef
/c5 { 0.910000 0.820000 0.320000 sr} bdef
/c6 { 1.000000 0.260000 0.820000 sr} bdef
/c7 { 0.000000 0.820000 0.820000 sr} bdef
c0
1 j
1 sg
   0    0 6924 5187 PR
6 w
0 4227 5364 0 0 -4227 900 4616 4 MP
PP
-5364 0 0 4227 5364 0 0 -4227 900 4616 5 MP stroke
4 w
DO
SO
6 w
0 sg
 900 4616 mt 6264 4616 L
 900  389 mt 6264  389 L
 900 4616 mt  900  389 L
6264 4616 mt 6264  389 L
 900 4616 mt 6264 4616 L
 900 4616 mt  900  389 L
 900 4616 mt  900 4562 L
 900  389 mt  900  442 L
%%IncludeResource: font Helvetica
/Helvetica /ISOLatin1Encoding 120 FMSR

 784 4761 mt 
(0.53) s
1387 4616 mt 1387 4562 L
1387  389 mt 1387  442 L
1237 4761 mt 
(0.535) s
1875 4616 mt 1875 4562 L
1875  389 mt 1875  442 L
1759 4761 mt 
(0.54) s
2363 4616 mt 2363 4562 L
2363  389 mt 2363  442 L
2213 4761 mt 
(0.545) s
2850 4616 mt 2850 4562 L
2850  389 mt 2850  442 L
2734 4761 mt 
(0.55) s
3338 4616 mt 3338 4562 L
3338  389 mt 3338  442 L
3188 4761 mt 
(0.555) s
3826 4616 mt 3826 4562 L
3826  389 mt 3826  442 L
3710 4761 mt 
(0.56) s
4314 4616 mt 4314 4562 L
4314  389 mt 4314  442 L
4164 4761 mt 
(0.565) s
4801 4616 mt 4801 4562 L
4801  389 mt 4801  442 L
4685 4761 mt 
(0.57) s
5289 4616 mt 5289 4562 L
5289  389 mt 5289  442 L
5139 4761 mt 
(0.575) s
5777 4616 mt 5777 4562 L
5777  389 mt 5777  442 L
5661 4761 mt 
(0.58) s
 900 4616 mt  953 4616 L
6265 4616 mt 6211 4616 L
 799 4660 mt 
(0) s
 900 4231 mt  953 4231 L
6265 4231 mt 6211 4231 L
 699 4275 mt 
(0.5) s
 900 3847 mt  953 3847 L
6265 3847 mt 6211 3847 L
 799 3891 mt 
(1) s
 900 3463 mt  953 3463 L
6265 3463 mt 6211 3463 L
 699 3507 mt 
(1.5) s
 900 3078 mt  953 3078 L
6265 3078 mt 6211 3078 L
 799 3122 mt 
(2) s
 900 2694 mt  953 2694 L
6265 2694 mt 6211 2694 L
 699 2738 mt 
(2.5) s
 900 2310 mt  953 2310 L
6265 2310 mt 6211 2310 L
 799 2354 mt 
(3) s
 900 1926 mt  953 1926 L
6265 1926 mt 6211 1926 L
 699 1970 mt 
(3.5) s
 900 1541 mt  953 1541 L
6265 1541 mt 6211 1541 L
 799 1585 mt 
(4) s
 900 1157 mt  953 1157 L
6265 1157 mt 6211 1157 L
 699 1201 mt 
(4.5) s
 900  773 mt  953  773 L
6265  773 mt 6211  773 L
 799  817 mt 
(5) s
 900  389 mt  953  389 L
6265  389 mt 6211  389 L
 699  433 mt 
(5.5) s
 900 4616 mt 6264 4616 L
 900  389 mt 6264  389 L
 900 4616 mt  900  389 L
6264 4616 mt 6264  389 L
gs 900 389 5366 4228 MR c np
18 w
2 0 97 115 98 122 97 70 98 1 97 -63 98 -107 97 -116 
98 -22 97 0 98 2 97 188 98 288 98 365 97 411 98 417 
97 389 98 332 97 255 98 165 97 73 98 -21 98 -114 97 -201 
98 -285 97 -355 98 -408 97 -430 98 -415 97 -353 98 -245 97 -58 
98 34 97 251 98 408 98 523 97 577 98 564 97 485 98 352 
97 186 98 10 97 -152 98 -283 98 -370 97 -415 98 -419 97 -397 
98 -356 97 -310 98 -263 97 -220 98 -175 97 -30 98 0 97 0 
900 4616 57 MP stroke
DD
/c8 { 1.000000 0.000000 0.000000 sr} bdef
c8
2 0 97 1 98 3 97 7 98 11 97 20 98 35 97 56 
98 87 97 127 98 177 97 235 98 293 98 346 97 382 98 393 
97 369 98 308 97 212 98 92 97 -41 98 -168 98 -275 97 -349 
98 -388 97 -389 98 -361 97 -311 98 -248 97 -177 98 -100 97 -15 
98 87 97 206 98 344 98 486 97 603 98 663 97 631 98 490 
97 256 98 -32 97 -313 98 -530 98 -649 97 -662 98 -591 97 -472 
98 -342 97 -225 98 -137 97 -76 98 -39 97 -18 98 -8 97 -4 
900 4614 57 MP stroke
SO
/c9 { 0.000000 0.000000 1.000000 sr} bdef
c9
2 0 97 0 98 62 97 84 98 -38 97 84 98 100 97 93 
98 161 97 15 98 331 97 46 98 300 98 123 97 207 98 146 
97 384 98 154 97 -107 98 199 97 -138 98 46 98 -353 97 215 
98 -423 97 -23 98 -261 97 69 98 -354 97 116 98 130 97 -169 
98 108 97 0 98 430 98 46 97 446 98 -31 97 239 98 99 
97 -61 98 -61 97 -146 98 -47 98 -107 97 -238 98 -500 97 161 
98 -422 97 -254 98 -200 97 -200 98 -115 97 -115 98 -39 97 -115 
900 4485 57 MP stroke
6 w
gr

c9

end %%Color Dict

eplot
%%EndObject

epage
end

showpage

%%Trailer
%%EOF
