\beamer@endinputifotherversion {3.26pt}
\beamer@sectionintoc {2}{Effect of Different Noise}{3}{0}{1}
\beamer@subsectionintoc {2}{1}{Stated Problem}{3}{0}{1}
\beamer@subsectionintoc {2}{2}{Unbroadening Process}{5}{0}{1}
\beamer@subsectionintoc {2}{3}{Combine Different Instrumental Broadening}{6}{0}{1}
