%!PS-Adobe-3.0 EPSF-3.0
%%DocumentNeededResources: font Helvetica
%%+ font Helvetica-Bold
%%+ font Helvetica-Oblique
%%+ font Helvetica-BoldOblique
%%+ font Symbol
%%Title: R Graphics Output
%%Creator: R Software
%%Pages: (atend)
%%BoundingBox: 0 0 600 600
%%EndComments
%%BeginProlog
/bp  { gs sRGB gs } def
% begin .ps.prolog
/gs  { gsave } bind def
/gr  { grestore } bind def
/ep  { showpage gr gr } bind def
/m   { moveto } bind def
/l  { rlineto } bind def
/np  { newpath } bind def
/cp  { closepath } bind def
/f   { fill } bind def
/o   { stroke } bind def
/c   { newpath 0 360 arc } bind def
/r   { 4 2 roll moveto 1 copy 3 -1 roll exch 0 exch rlineto 0 rlineto -1 mul 0 exch rlineto closepath } bind def
/p1  { stroke } bind def
/p2  { gsave bg fill grestore newpath } bind def
/p3  { gsave bg fill grestore stroke } bind def
/p6  { gsave bg eofill grestore newpath } bind def
/p7  { gsave bg eofill grestore stroke } bind def
/t   { 5 -2 roll moveto gsave rotate
       1 index stringwidth pop
       mul neg 0 rmoveto show grestore } bind def
/ta  { 4 -2 roll moveto gsave rotate show } bind def
/tb  { 2 -1 roll 0 rmoveto show } bind def
/cl  { grestore gsave newpath 3 index 3 index moveto 1 index
       4 -1 roll lineto  exch 1 index lineto lineto
       closepath clip newpath } bind def
/rgb { setrgbcolor } bind def
/s   { scalefont setfont } bind def
% end   .ps.prolog
/sRGB { [ /CIEBasedABC
          << /DecodeLMN
               [ { dup 0.03928 le
                        {12.92321 div}
                        {0.055 add 1.055 div 2.4 exp }
                     ifelse
                 } bind dup dup
               ]
             /MatrixLMN [0.412457 0.212673 0.019334
                         0.357576 0.715152 0.119192
                         0.180437 0.072175 0.950301]
             /WhitePoint [0.9505 1.0 1.0890]
           >>
         ] setcolorspace } bind def
/srgb { setcolor } bind def
% begin encoding
/WinAnsiEncoding [
 /.notdef /.notdef /.notdef /.notdef /.notdef /.notdef /.notdef /.notdef
 /.notdef /.notdef /.notdef /.notdef /.notdef /.notdef /.notdef /.notdef
 /.notdef /.notdef /.notdef /.notdef /.notdef /.notdef /.notdef /.notdef
 /.notdef /.notdef /.notdef /.notdef /.notdef /.notdef /.notdef /.notdef
 /space /exclam /quotedbl /numbersign /dollar /percent /ampersand /quoteright
 /parenleft /parenright /asterisk /plus /comma /minus /period /slash
 /zero /one /two /three /four /five /six /seven
 /eight /nine /colon /semicolon /less /equal /greater /question
 /at /A /B /C /D /E /F /G
 /H /I /J /K /L /M /N /O
 /P /Q /R /S /T /U /V /W
 /X /Y /Z /bracketleft /backslash /bracketright /asciicircum /underscore
 /grave /a /b /c /d /e /f /g
 /h /i /j /k /l /m /n /o
 /p /q /r /s /t /u /v /w
 /x /y /z /braceleft /bar /braceright /asciitilde /.notdef
 /Euro /.notdef /quotesinglbase /florin /quotedblbase /ellipsis /dagger /daggerdbl
 /circumflex /perthousand /Scaron /guilsinglleft /OE /.notdef /Zcaron /.notdef
 /.notdef /quoteleft /quoteright /quotedblleft /quotedblright /bullet /endash /emdash
 /tilde /trademark /scaron /guilsinglright /oe /.notdef /zcaron /Ydieresis
 /space /exclamdown /cent /sterling /currency /yen /brokenbar /section
 /dieresis /copyright /ordfeminine /guillemotleft /logicalnot /hyphen /registered /macron
 /degree /plusminus /twosuperior /threesuperior /acute /mu /paragraph /periodcentered
 /cedilla /onesuperior /ordmasculine /guillemotright /onequarter /onehalf /threequarters /questiondown
 /Agrave /Aacute /Acircumflex /Atilde /Adieresis /Aring /AE /Ccedilla
 /Egrave /Eacute /Ecircumflex /Edieresis /Igrave /Iacute /Icircumflex /Idieresis
 /Eth /Ntilde /Ograve /Oacute /Ocircumflex /Otilde /Odieresis /multiply
 /Oslash /Ugrave /Uacute /Ucircumflex /Udieresis /Yacute /Thorn /germandbls
 /agrave /aacute /acircumflex /atilde /adieresis /aring /ae /ccedilla
 /egrave /eacute /ecircumflex /edieresis /igrave /iacute /icircumflex /idieresis
 /eth /ntilde /ograve /oacute /ocircumflex /otilde /odieresis /divide
 /oslash /ugrave /uacute /ucircumflex /udieresis /yacute /thorn /ydieresis
]
 def
% end encoding
%%IncludeResource: font Helvetica
/Helvetica findfont
dup length dict begin
  {1 index /FID ne {def} {pop pop} ifelse} forall
  /Encoding WinAnsiEncoding def
  currentdict
  end
/Font1 exch definefont pop
%%IncludeResource: font Helvetica-Bold
/Helvetica-Bold findfont
dup length dict begin
  {1 index /FID ne {def} {pop pop} ifelse} forall
  /Encoding WinAnsiEncoding def
  currentdict
  end
/Font2 exch definefont pop
%%IncludeResource: font Helvetica-Oblique
/Helvetica-Oblique findfont
dup length dict begin
  {1 index /FID ne {def} {pop pop} ifelse} forall
  /Encoding WinAnsiEncoding def
  currentdict
  end
/Font3 exch definefont pop
%%IncludeResource: font Helvetica-BoldOblique
/Helvetica-BoldOblique findfont
dup length dict begin
  {1 index /FID ne {def} {pop pop} ifelse} forall
  /Encoding WinAnsiEncoding def
  currentdict
  end
/Font4 exch definefont pop
%%IncludeResource: font Symbol
/Symbol findfont
dup length dict begin
  {1 index /FID ne {def} {pop pop} ifelse} forall
  currentdict
  end
/Font5 exch definefont pop
%%EndProlog
%%Page: 1 1
bp
/bg { 1 1 1 srgb } def
0.00 0.00 600.00 600.00 r p2
59.04 73.44 569.76 540.96 cl
59.04 73.44 569.76 540.96 cl
0 0 0 srgb
0.75 setlinewidth
[] 0 setdash
1 setlinecap
1 setlinejoin
10.00 setmiterlimit
77.96 523.64 2.70 c p1
78.43 476.03 2.70 c p1
78.90 476.03 2.70 c p1
79.37 476.03 2.70 c p1
79.85 476.03 2.70 c p1
80.32 476.03 2.70 c p1
80.79 476.03 2.70 c p1
81.27 476.03 2.70 c p1
81.74 476.03 2.70 c p1
82.21 471.70 2.70 c p1
82.68 471.70 2.70 c p1
83.16 471.70 2.70 c p1
83.63 463.04 2.70 c p1
84.10 523.64 2.70 c p1
84.58 480.36 2.70 c p1
85.05 471.70 2.70 c p1
85.52 463.04 2.70 c p1
85.99 147.03 2.70 c p1
86.47 493.34 2.70 c p1
86.94 467.37 2.70 c p1
87.41 484.68 2.70 c p1
87.89 480.36 2.70 c p1
88.36 454.38 2.70 c p1
88.83 502.00 2.70 c p1
89.30 489.01 2.70 c p1
89.78 489.01 2.70 c p1
90.25 497.67 2.70 c p1
90.72 471.70 2.70 c p1
91.20 480.36 2.70 c p1
91.67 484.68 2.70 c p1
92.14 506.33 2.70 c p1
92.62 419.75 2.70 c p1
93.09 450.05 2.70 c p1
93.56 450.05 2.70 c p1
94.03 411.09 2.70 c p1
94.51 484.68 2.70 c p1
94.98 476.03 2.70 c p1
95.45 476.03 2.70 c p1
95.93 484.68 2.70 c p1
96.40 489.01 2.70 c p1
96.87 484.68 2.70 c p1
97.34 476.03 2.70 c p1
97.82 467.37 2.70 c p1
98.29 454.38 2.70 c p1
98.76 372.13 2.70 c p1
99.24 523.64 2.70 c p1
99.71 523.64 2.70 c p1
100.18 523.64 2.70 c p1
100.65 398.11 2.70 c p1
101.13 471.70 2.70 c p1
101.60 519.32 2.70 c p1
102.07 523.64 2.70 c p1
102.55 90.76 2.70 c p1
103.02 294.21 2.70 c p1
103.49 380.79 2.70 c p1
103.96 393.78 2.70 c p1
104.44 337.50 2.70 c p1
104.91 90.76 2.70 c p1
105.38 523.64 2.70 c p1
105.86 523.64 2.70 c p1
106.33 519.32 2.70 c p1
106.80 415.42 2.70 c p1
107.27 337.50 2.70 c p1
107.75 376.46 2.70 c p1
108.22 441.40 2.70 c p1
108.69 476.03 2.70 c p1
109.17 493.34 2.70 c p1
109.64 523.64 2.70 c p1
110.11 437.07 2.70 c p1
110.58 467.37 2.70 c p1
111.06 471.70 2.70 c p1
111.53 476.03 2.70 c p1
112.00 519.32 2.70 c p1
112.48 450.05 2.70 c p1
112.95 458.71 2.70 c p1
113.42 489.01 2.70 c p1
113.90 424.08 2.70 c p1
114.37 428.41 2.70 c p1
114.84 424.08 2.70 c p1
115.31 415.42 2.70 c p1
115.79 428.41 2.70 c p1
116.26 458.71 2.70 c p1
116.73 480.36 2.70 c p1
117.21 497.67 2.70 c p1
117.68 514.99 2.70 c p1
118.15 523.64 2.70 c p1
118.62 450.05 2.70 c p1
119.10 523.64 2.70 c p1
119.57 90.76 2.70 c p1
120.04 372.13 2.70 c p1
120.52 432.74 2.70 c p1
120.99 463.04 2.70 c p1
121.46 493.34 2.70 c p1
121.93 523.64 2.70 c p1
122.41 445.72 2.70 c p1
122.88 506.33 2.70 c p1
123.35 523.64 2.70 c p1
123.83 476.03 2.70 c p1
124.30 523.64 2.70 c p1
124.77 523.64 2.70 c p1
125.24 523.64 2.70 c p1
125.72 523.64 2.70 c p1
126.19 523.64 2.70 c p1
126.66 467.37 2.70 c p1
127.14 458.71 2.70 c p1
127.61 467.37 2.70 c p1
128.08 467.37 2.70 c p1
128.55 445.72 2.70 c p1
129.03 376.46 2.70 c p1
129.50 523.64 2.70 c p1
129.97 523.64 2.70 c p1
130.45 402.44 2.70 c p1
130.92 523.64 2.70 c p1
131.39 523.64 2.70 c p1
131.86 510.66 2.70 c p1
132.34 523.64 2.70 c p1
132.81 523.64 2.70 c p1
133.28 523.64 2.70 c p1
133.76 471.70 2.70 c p1
134.23 523.64 2.70 c p1
134.70 523.64 2.70 c p1
135.18 523.64 2.70 c p1
135.65 276.90 2.70 c p1
136.12 398.11 2.70 c p1
136.59 411.09 2.70 c p1
137.07 328.84 2.70 c p1
137.54 514.99 2.70 c p1
138.01 476.03 2.70 c p1
138.49 454.38 2.70 c p1
138.96 523.64 2.70 c p1
139.43 484.68 2.70 c p1
139.90 476.03 2.70 c p1
140.38 480.36 2.70 c p1
140.85 523.64 2.70 c p1
141.32 406.76 2.70 c p1
141.80 367.80 2.70 c p1
142.27 502.00 2.70 c p1
142.74 445.72 2.70 c p1
143.21 389.45 2.70 c p1
143.69 90.76 2.70 c p1
144.16 523.64 2.70 c p1
144.63 523.64 2.70 c p1
145.11 415.42 2.70 c p1
145.58 471.70 2.70 c p1
146.05 489.01 2.70 c p1
146.52 497.67 2.70 c p1
147.00 471.70 2.70 c p1
147.47 523.64 2.70 c p1
147.94 523.64 2.70 c p1
148.42 203.31 2.70 c p1
148.89 411.09 2.70 c p1
149.36 471.70 2.70 c p1
149.83 514.99 2.70 c p1
150.31 523.64 2.70 c p1
150.78 90.76 2.70 c p1
151.25 346.16 2.70 c p1
151.73 90.76 2.70 c p1
152.20 523.64 2.70 c p1
152.67 523.64 2.70 c p1
153.14 476.03 2.70 c p1
153.62 90.76 2.70 c p1
154.09 90.76 2.70 c p1
154.56 90.76 2.70 c p1
155.04 311.53 2.70 c p1
155.51 523.64 2.70 c p1
155.98 523.64 2.70 c p1
156.46 523.64 2.70 c p1
156.93 311.53 2.70 c p1
157.40 90.76 2.70 c p1
157.87 90.76 2.70 c p1
158.35 476.03 2.70 c p1
158.82 523.64 2.70 c p1
159.29 523.64 2.70 c p1
159.77 90.76 2.70 c p1
160.24 285.56 2.70 c p1
160.71 523.64 2.70 c p1
161.18 523.64 2.70 c p1
161.66 523.64 2.70 c p1
162.13 523.64 2.70 c p1
162.60 523.64 2.70 c p1
163.08 480.36 2.70 c p1
163.55 337.50 2.70 c p1
164.02 523.64 2.70 c p1
164.49 463.04 2.70 c p1
164.97 307.20 2.70 c p1
165.44 168.68 2.70 c p1
165.91 90.76 2.70 c p1
166.39 307.20 2.70 c p1
166.86 90.76 2.70 c p1
167.33 90.76 2.70 c p1
167.80 523.64 2.70 c p1
168.28 224.95 2.70 c p1
168.75 90.76 2.70 c p1
169.22 90.76 2.70 c p1
169.70 90.76 2.70 c p1
170.17 367.80 2.70 c p1
170.64 458.71 2.70 c p1
171.11 437.07 2.70 c p1
171.59 359.15 2.70 c p1
172.06 90.76 2.70 c p1
172.53 432.74 2.70 c p1
173.01 320.19 2.70 c p1
173.48 207.64 2.70 c p1
173.95 90.76 2.70 c p1
174.42 506.33 2.70 c p1
174.90 324.52 2.70 c p1
175.37 173.00 2.70 c p1
175.84 523.64 2.70 c p1
176.32 523.64 2.70 c p1
176.79 90.76 2.70 c p1
177.26 90.76 2.70 c p1
177.74 90.76 2.70 c p1
178.21 181.66 2.70 c p1
178.68 523.64 2.70 c p1
179.15 523.64 2.70 c p1
179.63 90.76 2.70 c p1
180.10 90.76 2.70 c p1
180.57 363.48 2.70 c p1
181.05 523.64 2.70 c p1
181.52 523.64 2.70 c p1
181.99 363.48 2.70 c p1
182.46 463.04 2.70 c p1
182.94 389.45 2.70 c p1
183.41 523.64 2.70 c p1
183.88 523.64 2.70 c p1
184.36 428.41 2.70 c p1
184.83 173.00 2.70 c p1
185.30 90.76 2.70 c p1
185.77 523.64 2.70 c p1
186.25 90.76 2.70 c p1
186.72 523.64 2.70 c p1
187.19 523.64 2.70 c p1
187.67 523.64 2.70 c p1
188.14 90.76 2.70 c p1
188.61 523.64 2.70 c p1
189.08 523.64 2.70 c p1
189.56 90.76 2.70 c p1
190.03 263.91 2.70 c p1
190.50 419.75 2.70 c p1
190.98 437.07 2.70 c p1
191.45 233.61 2.70 c p1
191.92 523.64 2.70 c p1
192.39 523.64 2.70 c p1
192.87 523.64 2.70 c p1
193.34 90.76 2.70 c p1
193.81 450.05 2.70 c p1
194.29 523.64 2.70 c p1
194.76 523.64 2.70 c p1
195.23 116.73 2.70 c p1
195.70 341.83 2.70 c p1
196.18 406.76 2.70 c p1
196.65 428.41 2.70 c p1
197.12 523.64 2.70 c p1
197.60 489.01 2.70 c p1
198.07 125.39 2.70 c p1
198.54 523.64 2.70 c p1
199.02 523.64 2.70 c p1
199.49 90.76 2.70 c p1
199.96 90.76 2.70 c p1
200.43 480.36 2.70 c p1
200.91 523.64 2.70 c p1
201.38 523.64 2.70 c p1
201.85 90.76 2.70 c p1
202.33 523.64 2.70 c p1
202.80 523.64 2.70 c p1
203.27 523.64 2.70 c p1
203.74 523.64 2.70 c p1
204.22 523.64 2.70 c p1
204.69 523.64 2.70 c p1
205.16 523.64 2.70 c p1
205.64 523.64 2.70 c p1
206.11 523.64 2.70 c p1
206.58 523.64 2.70 c p1
207.05 523.64 2.70 c p1
207.53 90.76 2.70 c p1
208.00 523.64 2.70 c p1
208.47 523.64 2.70 c p1
208.95 341.83 2.70 c p1
209.42 523.64 2.70 c p1
209.89 523.64 2.70 c p1
210.36 523.64 2.70 c p1
210.84 398.11 2.70 c p1
211.31 476.03 2.70 c p1
211.78 450.05 2.70 c p1
212.26 198.98 2.70 c p1
212.73 419.75 2.70 c p1
213.20 307.20 2.70 c p1
213.67 90.76 2.70 c p1
214.15 90.76 2.70 c p1
214.62 523.64 2.70 c p1
215.09 90.76 2.70 c p1
215.57 523.64 2.70 c p1
216.04 523.64 2.70 c p1
216.51 523.64 2.70 c p1
216.98 523.64 2.70 c p1
217.46 489.01 2.70 c p1
217.93 523.64 2.70 c p1
218.40 523.64 2.70 c p1
218.88 90.76 2.70 c p1
219.35 372.13 2.70 c p1
219.82 415.42 2.70 c p1
220.30 393.78 2.70 c p1
220.77 523.64 2.70 c p1
221.24 523.64 2.70 c p1
221.71 523.64 2.70 c p1
222.19 90.76 2.70 c p1
222.66 90.76 2.70 c p1
223.13 90.76 2.70 c p1
223.61 523.64 2.70 c p1
224.08 523.64 2.70 c p1
224.55 523.64 2.70 c p1
225.02 90.76 2.70 c p1
225.50 125.39 2.70 c p1
225.97 90.76 2.70 c p1
226.44 523.64 2.70 c p1
226.92 523.64 2.70 c p1
227.39 402.44 2.70 c p1
227.86 160.02 2.70 c p1
228.33 90.76 2.70 c p1
228.81 90.76 2.70 c p1
229.28 112.40 2.70 c p1
229.75 229.28 2.70 c p1
230.23 484.68 2.70 c p1
230.70 90.76 2.70 c p1
231.17 90.76 2.70 c p1
231.64 90.76 2.70 c p1
232.12 90.76 2.70 c p1
232.59 523.64 2.70 c p1
233.06 90.76 2.70 c p1
233.54 523.64 2.70 c p1
234.01 523.64 2.70 c p1
234.48 523.64 2.70 c p1
234.95 441.40 2.70 c p1
235.43 502.00 2.70 c p1
235.90 523.64 2.70 c p1
236.37 523.64 2.70 c p1
236.85 523.64 2.70 c p1
237.32 147.03 2.70 c p1
237.79 523.64 2.70 c p1
238.26 90.76 2.70 c p1
238.74 173.00 2.70 c p1
239.21 289.88 2.70 c p1
239.68 441.40 2.70 c p1
240.16 523.64 2.70 c p1
240.63 90.76 2.70 c p1
241.10 90.76 2.70 c p1
241.58 90.76 2.70 c p1
242.05 90.76 2.70 c p1
242.52 90.76 2.70 c p1
242.99 523.64 2.70 c p1
243.47 121.06 2.70 c p1
243.94 90.76 2.70 c p1
244.41 523.64 2.70 c p1
244.89 523.64 2.70 c p1
245.36 471.70 2.70 c p1
245.83 523.64 2.70 c p1
246.30 90.76 2.70 c p1
246.78 411.09 2.70 c p1
247.25 90.76 2.70 c p1
247.72 90.76 2.70 c p1
248.20 90.76 2.70 c p1
248.67 194.65 2.70 c p1
249.14 523.64 2.70 c p1
249.61 90.76 2.70 c p1
250.09 90.76 2.70 c p1
250.56 90.76 2.70 c p1
251.03 90.76 2.70 c p1
251.51 90.76 2.70 c p1
251.98 523.64 2.70 c p1
252.45 523.64 2.70 c p1
252.92 90.76 2.70 c p1
253.40 523.64 2.70 c p1
253.87 298.54 2.70 c p1
254.34 95.08 2.70 c p1
254.82 90.76 2.70 c p1
255.29 480.36 2.70 c p1
255.76 155.69 2.70 c p1
256.23 90.76 2.70 c p1
256.71 90.76 2.70 c p1
257.18 523.64 2.70 c p1
257.65 523.64 2.70 c p1
258.13 523.64 2.70 c p1
258.60 246.60 2.70 c p1
259.07 90.76 2.70 c p1
259.54 90.76 2.70 c p1
260.02 194.65 2.70 c p1
260.49 90.76 2.70 c p1
260.96 90.76 2.70 c p1
261.44 307.20 2.70 c p1
261.91 90.76 2.70 c p1
262.38 90.76 2.70 c p1
262.86 90.76 2.70 c p1
263.33 90.76 2.70 c p1
263.80 523.64 2.70 c p1
264.27 523.64 2.70 c p1
264.75 523.64 2.70 c p1
265.22 523.64 2.70 c p1
265.69 497.67 2.70 c p1
266.17 502.00 2.70 c p1
266.64 376.46 2.70 c p1
267.11 151.36 2.70 c p1
267.58 233.61 2.70 c p1
268.06 90.76 2.70 c p1
268.53 90.76 2.70 c p1
269.00 90.76 2.70 c p1
269.48 125.39 2.70 c p1
269.95 372.13 2.70 c p1
270.42 523.64 2.70 c p1
270.89 480.36 2.70 c p1
271.37 90.76 2.70 c p1
271.84 523.64 2.70 c p1
272.31 523.64 2.70 c p1
272.79 90.76 2.70 c p1
273.26 376.46 2.70 c p1
273.73 523.64 2.70 c p1
274.20 523.64 2.70 c p1
274.68 523.64 2.70 c p1
275.15 90.76 2.70 c p1
275.62 523.64 2.70 c p1
276.10 523.64 2.70 c p1
276.57 523.64 2.70 c p1
277.04 90.76 2.70 c p1
277.51 90.76 2.70 c p1
277.99 90.76 2.70 c p1
278.46 90.76 2.70 c p1
278.93 398.11 2.70 c p1
279.41 471.70 2.70 c p1
279.88 471.70 2.70 c p1
280.35 523.64 2.70 c p1
280.82 190.32 2.70 c p1
281.30 177.33 2.70 c p1
281.77 142.70 2.70 c p1
282.24 99.41 2.70 c p1
282.72 90.76 2.70 c p1
283.19 90.76 2.70 c p1
283.66 90.76 2.70 c p1
284.14 90.76 2.70 c p1
284.61 90.76 2.70 c p1
285.08 138.37 2.70 c p1
285.55 406.76 2.70 c p1
286.03 523.64 2.70 c p1
286.50 523.64 2.70 c p1
286.97 90.76 2.70 c p1
287.45 398.11 2.70 c p1
287.92 450.05 2.70 c p1
288.39 510.66 2.70 c p1
288.86 90.76 2.70 c p1
289.34 233.61 2.70 c p1
289.81 216.29 2.70 c p1
290.28 116.73 2.70 c p1
290.76 90.76 2.70 c p1
291.23 90.76 2.70 c p1
291.70 90.76 2.70 c p1
292.17 129.72 2.70 c p1
292.65 341.83 2.70 c p1
293.12 406.76 2.70 c p1
293.59 458.71 2.70 c p1
294.07 90.76 2.70 c p1
294.54 424.08 2.70 c p1
295.01 523.64 2.70 c p1
295.48 90.76 2.70 c p1
295.96 129.72 2.70 c p1
296.43 129.72 2.70 c p1
296.90 90.76 2.70 c p1
297.38 90.76 2.70 c p1
297.85 523.64 2.70 c p1
298.32 90.76 2.70 c p1
298.79 458.71 2.70 c p1
299.27 523.64 2.70 c p1
299.74 90.76 2.70 c p1
300.21 259.58 2.70 c p1
300.69 419.75 2.70 c p1
301.16 523.64 2.70 c p1
301.63 90.76 2.70 c p1
302.10 90.76 2.70 c p1
302.58 160.02 2.70 c p1
303.05 246.60 2.70 c p1
303.52 380.79 2.70 c p1
304.00 523.64 2.70 c p1
304.47 90.76 2.70 c p1
304.94 95.08 2.70 c p1
305.41 294.21 2.70 c p1
305.89 363.48 2.70 c p1
306.36 346.16 2.70 c p1
306.83 294.21 2.70 c p1
307.31 185.99 2.70 c p1
307.78 294.21 2.70 c p1
308.25 134.04 2.70 c p1
308.73 90.76 2.70 c p1
309.20 523.64 2.70 c p1
309.67 237.94 2.70 c p1
310.14 90.76 2.70 c p1
310.62 90.76 2.70 c p1
311.09 90.76 2.70 c p1
311.56 90.76 2.70 c p1
312.04 185.99 2.70 c p1
312.51 246.60 2.70 c p1
312.98 207.64 2.70 c p1
313.45 116.73 2.70 c p1
313.93 90.76 2.70 c p1
314.40 90.76 2.70 c p1
314.87 90.76 2.70 c p1
315.35 90.76 2.70 c p1
315.82 90.76 2.70 c p1
316.29 90.76 2.70 c p1
316.76 380.79 2.70 c p1
317.24 90.76 2.70 c p1
317.71 90.76 2.70 c p1
318.18 90.76 2.70 c p1
318.66 190.32 2.70 c p1
319.13 463.04 2.70 c p1
319.60 523.64 2.70 c p1
320.07 90.76 2.70 c p1
320.55 90.76 2.70 c p1
321.02 90.76 2.70 c p1
321.49 90.76 2.70 c p1
321.97 90.76 2.70 c p1
322.44 398.11 2.70 c p1
322.91 224.95 2.70 c p1
323.38 129.72 2.70 c p1
323.86 90.76 2.70 c p1
324.33 90.76 2.70 c p1
324.80 90.76 2.70 c p1
325.28 90.76 2.70 c p1
325.75 90.76 2.70 c p1
326.22 90.76 2.70 c p1
326.69 90.76 2.70 c p1
327.17 90.76 2.70 c p1
327.64 90.76 2.70 c p1
328.11 441.40 2.70 c p1
328.59 168.68 2.70 c p1
329.06 112.40 2.70 c p1
329.53 108.07 2.70 c p1
330.01 363.48 2.70 c p1
330.48 90.76 2.70 c p1
330.95 90.76 2.70 c p1
331.42 523.64 2.70 c p1
331.90 90.76 2.70 c p1
332.37 90.76 2.70 c p1
332.84 90.76 2.70 c p1
333.32 523.64 2.70 c p1
333.79 198.98 2.70 c p1
334.26 281.23 2.70 c p1
334.73 242.27 2.70 c p1
335.21 198.98 2.70 c p1
335.68 125.39 2.70 c p1
336.15 229.28 2.70 c p1
336.63 155.69 2.70 c p1
337.10 112.40 2.70 c p1
337.57 90.76 2.70 c p1
338.04 90.76 2.70 c p1
338.52 90.76 2.70 c p1
338.99 90.76 2.70 c p1
339.46 90.76 2.70 c p1
339.94 99.41 2.70 c p1
340.41 168.68 2.70 c p1
340.88 194.65 2.70 c p1
341.35 177.33 2.70 c p1
341.83 90.76 2.70 c p1
342.30 90.76 2.70 c p1
342.77 90.76 2.70 c p1
343.25 90.76 2.70 c p1
343.72 185.99 2.70 c p1
344.19 263.91 2.70 c p1
344.66 289.88 2.70 c p1
345.14 129.72 2.70 c p1
345.61 90.76 2.70 c p1
346.08 90.76 2.70 c p1
346.56 90.76 2.70 c p1
347.03 194.65 2.70 c p1
347.50 90.76 2.70 c p1
347.97 90.76 2.70 c p1
348.45 103.74 2.70 c p1
348.92 129.72 2.70 c p1
349.39 138.37 2.70 c p1
349.87 142.70 2.70 c p1
350.34 155.69 2.70 c p1
350.81 307.20 2.70 c p1
351.29 90.76 2.70 c p1
351.76 90.76 2.70 c p1
352.23 90.76 2.70 c p1
352.70 112.40 2.70 c p1
353.18 151.36 2.70 c p1
353.65 354.82 2.70 c p1
354.12 90.76 2.70 c p1
354.60 90.76 2.70 c p1
355.07 112.40 2.70 c p1
355.54 173.00 2.70 c p1
356.01 445.72 2.70 c p1
356.49 90.76 2.70 c p1
356.96 90.76 2.70 c p1
357.43 116.73 2.70 c p1
357.91 147.03 2.70 c p1
358.38 233.61 2.70 c p1
358.85 90.76 2.70 c p1
359.32 95.08 2.70 c p1
359.80 108.07 2.70 c p1
360.27 108.07 2.70 c p1
360.74 108.07 2.70 c p1
361.22 90.76 2.70 c p1
361.69 112.40 2.70 c p1
362.16 90.76 2.70 c p1
362.63 203.31 2.70 c p1
363.11 155.69 2.70 c p1
363.58 147.03 2.70 c p1
364.05 155.69 2.70 c p1
364.53 138.37 2.70 c p1
365.00 160.02 2.70 c p1
365.47 502.00 2.70 c p1
365.94 90.76 2.70 c p1
366.42 99.41 2.70 c p1
366.89 99.41 2.70 c p1
367.36 112.40 2.70 c p1
367.84 112.40 2.70 c p1
368.31 99.41 2.70 c p1
368.78 155.69 2.70 c p1
369.25 134.04 2.70 c p1
369.73 138.37 2.70 c p1
370.20 90.76 2.70 c p1
370.67 125.39 2.70 c p1
371.15 138.37 2.70 c p1
371.62 168.68 2.70 c p1
372.09 90.76 2.70 c p1
372.57 112.40 2.70 c p1
373.04 134.04 2.70 c p1
373.51 190.32 2.70 c p1
373.98 90.76 2.70 c p1
374.46 90.76 2.70 c p1
374.93 90.76 2.70 c p1
375.40 90.76 2.70 c p1
375.88 90.76 2.70 c p1
376.35 90.76 2.70 c p1
376.82 103.74 2.70 c p1
377.29 95.08 2.70 c p1
377.77 90.76 2.70 c p1
378.24 90.76 2.70 c p1
378.71 90.76 2.70 c p1
379.19 95.08 2.70 c p1
379.66 99.41 2.70 c p1
380.13 95.08 2.70 c p1
380.60 90.76 2.70 c p1
381.08 90.76 2.70 c p1
381.55 112.40 2.70 c p1
382.02 99.41 2.70 c p1
382.50 116.73 2.70 c p1
382.97 99.41 2.70 c p1
383.44 95.08 2.70 c p1
383.91 90.76 2.70 c p1
384.39 90.76 2.70 c p1
384.86 90.76 2.70 c p1
385.33 90.76 2.70 c p1
385.81 90.76 2.70 c p1
386.28 90.76 2.70 c p1
386.75 142.70 2.70 c p1
387.22 220.62 2.70 c p1
387.70 246.60 2.70 c p1
388.17 90.76 2.70 c p1
388.64 108.07 2.70 c p1
389.12 112.40 2.70 c p1
389.59 108.07 2.70 c p1
390.06 95.08 2.70 c p1
390.53 90.76 2.70 c p1
391.01 134.04 2.70 c p1
391.48 103.74 2.70 c p1
391.95 90.76 2.70 c p1
392.43 198.98 2.70 c p1
392.90 112.40 2.70 c p1
393.37 90.76 2.70 c p1
393.85 90.76 2.70 c p1
394.32 90.76 2.70 c p1
394.79 168.68 2.70 c p1
395.26 523.64 2.70 c p1
395.74 333.17 2.70 c p1
396.21 523.64 2.70 c p1
396.68 103.74 2.70 c p1
397.16 125.39 2.70 c p1
397.63 116.73 2.70 c p1
398.10 103.74 2.70 c p1
398.57 90.76 2.70 c p1
399.05 151.36 2.70 c p1
399.52 90.76 2.70 c p1
399.99 90.76 2.70 c p1
400.47 90.76 2.70 c p1
400.94 90.76 2.70 c p1
401.41 90.76 2.70 c p1
401.88 90.76 2.70 c p1
402.36 90.76 2.70 c p1
402.83 90.76 2.70 c p1
403.30 90.76 2.70 c p1
403.78 108.07 2.70 c p1
404.25 177.33 2.70 c p1
404.72 181.66 2.70 c p1
405.19 168.68 2.70 c p1
405.67 294.21 2.70 c p1
406.14 90.76 2.70 c p1
406.61 99.41 2.70 c p1
407.09 99.41 2.70 c p1
407.56 99.41 2.70 c p1
408.03 125.39 2.70 c p1
408.50 90.76 2.70 c p1
408.98 90.76 2.70 c p1
409.45 90.76 2.70 c p1
409.92 112.40 2.70 c p1
410.40 90.76 2.70 c p1
410.87 523.64 2.70 c p1
411.34 103.74 2.70 c p1
411.81 95.08 2.70 c p1
412.29 90.76 2.70 c p1
412.76 90.76 2.70 c p1
413.23 90.76 2.70 c p1
413.71 134.04 2.70 c p1
414.18 220.62 2.70 c p1
414.65 116.73 2.70 c p1
415.13 103.74 2.70 c p1
415.60 90.76 2.70 c p1
416.07 103.74 2.70 c p1
416.54 99.41 2.70 c p1
417.02 90.76 2.70 c p1
417.49 90.76 2.70 c p1
417.96 108.07 2.70 c p1
418.44 95.08 2.70 c p1
418.91 90.76 2.70 c p1
419.38 190.32 2.70 c p1
419.85 112.40 2.70 c p1
420.33 103.74 2.70 c p1
420.80 121.06 2.70 c p1
421.27 90.76 2.70 c p1
421.75 90.76 2.70 c p1
422.22 90.76 2.70 c p1
422.69 95.08 2.70 c p1
423.16 103.74 2.70 c p1
423.64 103.74 2.70 c p1
424.11 99.41 2.70 c p1
424.58 90.76 2.70 c p1
425.06 90.76 2.70 c p1
425.53 138.37 2.70 c p1
426.00 99.41 2.70 c p1
426.47 95.08 2.70 c p1
426.95 90.76 2.70 c p1
427.42 103.74 2.70 c p1
427.89 90.76 2.70 c p1
428.37 90.76 2.70 c p1
428.84 90.76 2.70 c p1
429.31 90.76 2.70 c p1
429.78 90.76 2.70 c p1
430.26 95.08 2.70 c p1
430.73 95.08 2.70 c p1
431.20 95.08 2.70 c p1
431.68 90.76 2.70 c p1
432.15 90.76 2.70 c p1
432.62 90.76 2.70 c p1
433.09 90.76 2.70 c p1
433.57 99.41 2.70 c p1
434.04 90.76 2.70 c p1
434.51 90.76 2.70 c p1
434.99 90.76 2.70 c p1
435.46 95.08 2.70 c p1
435.93 99.41 2.70 c p1
436.41 99.41 2.70 c p1
436.88 95.08 2.70 c p1
437.35 90.76 2.70 c p1
437.82 103.74 2.70 c p1
438.30 99.41 2.70 c p1
438.77 99.41 2.70 c p1
439.24 90.76 2.70 c p1
439.72 90.76 2.70 c p1
440.19 90.76 2.70 c p1
440.66 90.76 2.70 c p1
441.13 99.41 2.70 c p1
441.61 125.39 2.70 c p1
442.08 90.76 2.70 c p1
442.55 90.76 2.70 c p1
443.03 90.76 2.70 c p1
443.50 95.08 2.70 c p1
443.97 95.08 2.70 c p1
444.44 90.76 2.70 c p1
444.92 90.76 2.70 c p1
445.39 90.76 2.70 c p1
445.86 90.76 2.70 c p1
446.34 90.76 2.70 c p1
446.81 90.76 2.70 c p1
447.28 95.08 2.70 c p1
447.75 90.76 2.70 c p1
448.23 90.76 2.70 c p1
448.70 90.76 2.70 c p1
449.17 90.76 2.70 c p1
449.65 90.76 2.70 c p1
450.12 90.76 2.70 c p1
450.59 90.76 2.70 c p1
451.06 90.76 2.70 c p1
451.54 90.76 2.70 c p1
452.01 95.08 2.70 c p1
452.48 99.41 2.70 c p1
452.96 246.60 2.70 c p1
453.43 90.76 2.70 c p1
453.90 90.76 2.70 c p1
454.37 90.76 2.70 c p1
454.85 90.76 2.70 c p1
455.32 90.76 2.70 c p1
455.79 90.76 2.70 c p1
456.27 90.76 2.70 c p1
456.74 90.76 2.70 c p1
457.21 99.41 2.70 c p1
457.69 90.76 2.70 c p1
458.16 90.76 2.70 c p1
458.63 90.76 2.70 c p1
459.10 90.76 2.70 c p1
459.58 99.41 2.70 c p1
460.05 95.08 2.70 c p1
460.52 90.76 2.70 c p1
461.00 90.76 2.70 c p1
461.47 90.76 2.70 c p1
461.94 90.76 2.70 c p1
462.41 90.76 2.70 c p1
462.89 90.76 2.70 c p1
463.36 90.76 2.70 c p1
463.83 90.76 2.70 c p1
464.31 90.76 2.70 c p1
464.78 90.76 2.70 c p1
465.25 90.76 2.70 c p1
465.72 90.76 2.70 c p1
466.20 99.41 2.70 c p1
466.67 90.76 2.70 c p1
467.14 90.76 2.70 c p1
467.62 90.76 2.70 c p1
468.09 90.76 2.70 c p1
468.56 90.76 2.70 c p1
469.03 90.76 2.70 c p1
469.51 90.76 2.70 c p1
469.98 90.76 2.70 c p1
470.45 108.07 2.70 c p1
470.93 95.08 2.70 c p1
471.40 90.76 2.70 c p1
471.87 90.76 2.70 c p1
472.34 116.73 2.70 c p1
472.82 95.08 2.70 c p1
473.29 90.76 2.70 c p1
473.76 90.76 2.70 c p1
474.24 90.76 2.70 c p1
474.71 95.08 2.70 c p1
475.18 90.76 2.70 c p1
475.65 90.76 2.70 c p1
476.13 112.40 2.70 c p1
476.60 90.76 2.70 c p1
477.07 90.76 2.70 c p1
477.55 90.76 2.70 c p1
478.02 90.76 2.70 c p1
478.49 99.41 2.70 c p1
478.97 99.41 2.70 c p1
479.44 90.76 2.70 c p1
479.91 90.76 2.70 c p1
480.38 90.76 2.70 c p1
480.86 90.76 2.70 c p1
481.33 90.76 2.70 c p1
481.80 90.76 2.70 c p1
482.28 90.76 2.70 c p1
482.75 108.07 2.70 c p1
483.22 90.76 2.70 c p1
483.69 90.76 2.70 c p1
484.17 90.76 2.70 c p1
484.64 90.76 2.70 c p1
485.11 90.76 2.70 c p1
485.59 90.76 2.70 c p1
486.06 95.08 2.70 c p1
486.53 90.76 2.70 c p1
487.00 90.76 2.70 c p1
487.48 90.76 2.70 c p1
487.95 95.08 2.70 c p1
488.42 95.08 2.70 c p1
488.90 90.76 2.70 c p1
489.37 90.76 2.70 c p1
489.84 95.08 2.70 c p1
490.31 95.08 2.70 c p1
490.79 95.08 2.70 c p1
491.26 90.76 2.70 c p1
491.73 90.76 2.70 c p1
492.21 90.76 2.70 c p1
492.68 90.76 2.70 c p1
493.15 90.76 2.70 c p1
493.62 90.76 2.70 c p1
494.10 90.76 2.70 c p1
494.57 90.76 2.70 c p1
495.04 90.76 2.70 c p1
495.52 90.76 2.70 c p1
495.99 112.40 2.70 c p1
496.46 90.76 2.70 c p1
496.93 90.76 2.70 c p1
497.41 90.76 2.70 c p1
497.88 103.74 2.70 c p1
498.35 90.76 2.70 c p1
498.83 103.74 2.70 c p1
499.30 90.76 2.70 c p1
499.77 90.76 2.70 c p1
500.25 90.76 2.70 c p1
500.72 90.76 2.70 c p1
501.19 90.76 2.70 c p1
501.66 90.76 2.70 c p1
502.14 90.76 2.70 c p1
502.61 90.76 2.70 c p1
503.08 90.76 2.70 c p1
503.56 90.76 2.70 c p1
504.03 90.76 2.70 c p1
504.50 90.76 2.70 c p1
504.97 90.76 2.70 c p1
505.45 90.76 2.70 c p1
505.92 90.76 2.70 c p1
506.39 90.76 2.70 c p1
506.87 90.76 2.70 c p1
507.34 90.76 2.70 c p1
507.81 90.76 2.70 c p1
508.28 90.76 2.70 c p1
508.76 116.73 2.70 c p1
509.23 90.76 2.70 c p1
509.70 90.76 2.70 c p1
510.18 90.76 2.70 c p1
510.65 90.76 2.70 c p1
511.12 90.76 2.70 c p1
511.59 90.76 2.70 c p1
512.07 90.76 2.70 c p1
512.54 90.76 2.70 c p1
513.01 90.76 2.70 c p1
513.49 90.76 2.70 c p1
513.96 90.76 2.70 c p1
514.43 90.76 2.70 c p1
514.90 90.76 2.70 c p1
515.38 90.76 2.70 c p1
515.85 90.76 2.70 c p1
516.32 90.76 2.70 c p1
516.80 90.76 2.70 c p1
517.27 90.76 2.70 c p1
517.74 90.76 2.70 c p1
518.21 90.76 2.70 c p1
518.69 90.76 2.70 c p1
519.16 90.76 2.70 c p1
519.63 90.76 2.70 c p1
520.11 90.76 2.70 c p1
520.58 90.76 2.70 c p1
521.05 90.76 2.70 c p1
521.53 95.08 2.70 c p1
522.00 90.76 2.70 c p1
522.47 90.76 2.70 c p1
522.94 90.76 2.70 c p1
523.42 90.76 2.70 c p1
523.89 90.76 2.70 c p1
524.36 90.76 2.70 c p1
524.84 103.74 2.70 c p1
525.31 90.76 2.70 c p1
525.78 90.76 2.70 c p1
526.25 90.76 2.70 c p1
526.73 90.76 2.70 c p1
527.20 90.76 2.70 c p1
527.67 90.76 2.70 c p1
528.15 90.76 2.70 c p1
528.62 90.76 2.70 c p1
529.09 90.76 2.70 c p1
529.56 90.76 2.70 c p1
530.04 90.76 2.70 c p1
530.51 90.76 2.70 c p1
530.98 90.76 2.70 c p1
531.46 90.76 2.70 c p1
531.93 90.76 2.70 c p1
532.40 90.76 2.70 c p1
532.87 90.76 2.70 c p1
533.35 90.76 2.70 c p1
533.82 90.76 2.70 c p1
534.29 90.76 2.70 c p1
534.77 90.76 2.70 c p1
535.24 90.76 2.70 c p1
535.71 90.76 2.70 c p1
536.18 90.76 2.70 c p1
536.66 90.76 2.70 c p1
537.13 90.76 2.70 c p1
537.60 90.76 2.70 c p1
538.08 90.76 2.70 c p1
538.55 90.76 2.70 c p1
539.02 90.76 2.70 c p1
539.49 90.76 2.70 c p1
539.97 90.76 2.70 c p1
540.44 90.76 2.70 c p1
540.91 90.76 2.70 c p1
541.39 90.76 2.70 c p1
541.86 90.76 2.70 c p1
542.33 90.76 2.70 c p1
542.81 90.76 2.70 c p1
543.28 90.76 2.70 c p1
543.75 90.76 2.70 c p1
544.22 90.76 2.70 c p1
544.70 90.76 2.70 c p1
545.17 90.76 2.70 c p1
545.64 90.76 2.70 c p1
546.12 90.76 2.70 c p1
546.59 90.76 2.70 c p1
547.06 90.76 2.70 c p1
547.53 90.76 2.70 c p1
548.01 90.76 2.70 c p1
548.48 90.76 2.70 c p1
548.95 90.76 2.70 c p1
549.43 90.76 2.70 c p1
549.90 90.76 2.70 c p1
550.37 90.76 2.70 c p1
550.84 90.76 2.70 c p1
0.00 0.00 600.00 600.00 cl
0 0 0 srgb
0.75 setlinewidth
[] 0 setdash
1 setlinecap
1 setlinejoin
10.00 setmiterlimit
np
77.96 73.44 m
472.88 0 l
o
np
77.96 73.44 m
0 -7.20 l
o
np
172.53 73.44 m
0 -7.20 l
o
np
267.11 73.44 m
0 -7.20 l
o
np
361.69 73.44 m
0 -7.20 l
o
np
456.27 73.44 m
0 -7.20 l
o
np
550.84 73.44 m
0 -7.20 l
o
/Font1 findfont 16 s
77.96 47.52 (0) .5 0 t
172.53 47.52 (200) .5 0 t
267.11 47.52 (400) .5 0 t
361.69 47.52 (600) .5 0 t
456.27 47.52 (800) .5 0 t
550.84 47.52 (1000) .5 0 t
np
59.04 90.76 m
0 432.88 l
o
np
59.04 90.76 m
-7.20 0 l
o
np
59.04 177.33 m
-7.20 0 l
o
np
59.04 263.91 m
-7.20 0 l
o
np
59.04 350.49 m
-7.20 0 l
o
np
59.04 437.07 m
-7.20 0 l
o
np
59.04 523.64 m
-7.20 0 l
o
41.76 90.76 (0.0) .5 90 t
41.76 177.33 (0.2) .5 90 t
41.76 263.91 (0.4) .5 90 t
41.76 350.49 (0.6) .5 90 t
41.76 437.07 (0.8) .5 90 t
41.76 523.64 (1.0) .5 90 t
np
59.04 73.44 m
510.72 0 l
0 467.52 l
-510.72 0 l
0 -467.52 l
o
0.00 0.00 600.00 600.00 cl
/Font1 findfont 16 s
0 0 0 srgb
314.40 18.72 (t) .5 0 t
12.96 307.20 (Best Alpha) .5 90 t
ep
%%Trailer
%%Pages: 1
%%EOF
