%!PS-Adobe-3.0 EPSF-3.0
%%DocumentNeededResources: font Helvetica
%%+ font Helvetica-Bold
%%+ font Helvetica-Oblique
%%+ font Helvetica-BoldOblique
%%+ font Symbol
%%Title: R Graphics Output
%%Creator: R Software
%%Pages: (atend)
%%BoundingBox: 0 0 600 600
%%EndComments
%%BeginProlog
/bp  { gs sRGB gs } def
% begin .ps.prolog
/gs  { gsave } bind def
/gr  { grestore } bind def
/ep  { showpage gr gr } bind def
/m   { moveto } bind def
/l  { rlineto } bind def
/np  { newpath } bind def
/cp  { closepath } bind def
/f   { fill } bind def
/o   { stroke } bind def
/c   { newpath 0 360 arc } bind def
/r   { 4 2 roll moveto 1 copy 3 -1 roll exch 0 exch rlineto 0 rlineto -1 mul 0 exch rlineto closepath } bind def
/p1  { stroke } bind def
/p2  { gsave bg fill grestore newpath } bind def
/p3  { gsave bg fill grestore stroke } bind def
/p6  { gsave bg eofill grestore newpath } bind def
/p7  { gsave bg eofill grestore stroke } bind def
/t   { 5 -2 roll moveto gsave rotate
       1 index stringwidth pop
       mul neg 0 rmoveto show grestore } bind def
/ta  { 4 -2 roll moveto gsave rotate show } bind def
/tb  { 2 -1 roll 0 rmoveto show } bind def
/cl  { grestore gsave newpath 3 index 3 index moveto 1 index
       4 -1 roll lineto  exch 1 index lineto lineto
       closepath clip newpath } bind def
/rgb { setrgbcolor } bind def
/s   { scalefont setfont } bind def
% end   .ps.prolog
/sRGB { [ /CIEBasedABC
          << /DecodeLMN
               [ { dup 0.03928 le
                        {12.92321 div}
                        {0.055 add 1.055 div 2.4 exp }
                     ifelse
                 } bind dup dup
               ]
             /MatrixLMN [0.412457 0.212673 0.019334
                         0.357576 0.715152 0.119192
                         0.180437 0.072175 0.950301]
             /WhitePoint [0.9505 1.0 1.0890]
           >>
         ] setcolorspace } bind def
/srgb { setcolor } bind def
% begin encoding
/WinAnsiEncoding [
 /.notdef /.notdef /.notdef /.notdef /.notdef /.notdef /.notdef /.notdef
 /.notdef /.notdef /.notdef /.notdef /.notdef /.notdef /.notdef /.notdef
 /.notdef /.notdef /.notdef /.notdef /.notdef /.notdef /.notdef /.notdef
 /.notdef /.notdef /.notdef /.notdef /.notdef /.notdef /.notdef /.notdef
 /space /exclam /quotedbl /numbersign /dollar /percent /ampersand /quoteright
 /parenleft /parenright /asterisk /plus /comma /minus /period /slash
 /zero /one /two /three /four /five /six /seven
 /eight /nine /colon /semicolon /less /equal /greater /question
 /at /A /B /C /D /E /F /G
 /H /I /J /K /L /M /N /O
 /P /Q /R /S /T /U /V /W
 /X /Y /Z /bracketleft /backslash /bracketright /asciicircum /underscore
 /grave /a /b /c /d /e /f /g
 /h /i /j /k /l /m /n /o
 /p /q /r /s /t /u /v /w
 /x /y /z /braceleft /bar /braceright /asciitilde /.notdef
 /Euro /.notdef /quotesinglbase /florin /quotedblbase /ellipsis /dagger /daggerdbl
 /circumflex /perthousand /Scaron /guilsinglleft /OE /.notdef /Zcaron /.notdef
 /.notdef /quoteleft /quoteright /quotedblleft /quotedblright /bullet /endash /emdash
 /tilde /trademark /scaron /guilsinglright /oe /.notdef /zcaron /Ydieresis
 /space /exclamdown /cent /sterling /currency /yen /brokenbar /section
 /dieresis /copyright /ordfeminine /guillemotleft /logicalnot /hyphen /registered /macron
 /degree /plusminus /twosuperior /threesuperior /acute /mu /paragraph /periodcentered
 /cedilla /onesuperior /ordmasculine /guillemotright /onequarter /onehalf /threequarters /questiondown
 /Agrave /Aacute /Acircumflex /Atilde /Adieresis /Aring /AE /Ccedilla
 /Egrave /Eacute /Ecircumflex /Edieresis /Igrave /Iacute /Icircumflex /Idieresis
 /Eth /Ntilde /Ograve /Oacute /Ocircumflex /Otilde /Odieresis /multiply
 /Oslash /Ugrave /Uacute /Ucircumflex /Udieresis /Yacute /Thorn /germandbls
 /agrave /aacute /acircumflex /atilde /adieresis /aring /ae /ccedilla
 /egrave /eacute /ecircumflex /edieresis /igrave /iacute /icircumflex /idieresis
 /eth /ntilde /ograve /oacute /ocircumflex /otilde /odieresis /divide
 /oslash /ugrave /uacute /ucircumflex /udieresis /yacute /thorn /ydieresis
]
 def
% end encoding
%%IncludeResource: font Helvetica
/Helvetica findfont
dup length dict begin
  {1 index /FID ne {def} {pop pop} ifelse} forall
  /Encoding WinAnsiEncoding def
  currentdict
  end
/Font1 exch definefont pop
%%IncludeResource: font Helvetica-Bold
/Helvetica-Bold findfont
dup length dict begin
  {1 index /FID ne {def} {pop pop} ifelse} forall
  /Encoding WinAnsiEncoding def
  currentdict
  end
/Font2 exch definefont pop
%%IncludeResource: font Helvetica-Oblique
/Helvetica-Oblique findfont
dup length dict begin
  {1 index /FID ne {def} {pop pop} ifelse} forall
  /Encoding WinAnsiEncoding def
  currentdict
  end
/Font3 exch definefont pop
%%IncludeResource: font Helvetica-BoldOblique
/Helvetica-BoldOblique findfont
dup length dict begin
  {1 index /FID ne {def} {pop pop} ifelse} forall
  /Encoding WinAnsiEncoding def
  currentdict
  end
/Font4 exch definefont pop
%%IncludeResource: font Symbol
/Symbol findfont
dup length dict begin
  {1 index /FID ne {def} {pop pop} ifelse} forall
  currentdict
  end
/Font5 exch definefont pop
%%EndProlog
%%Page: 1 1
bp
/bg { 1 1 1 srgb } def
0.00 0.00 600.00 600.00 r p2
59.04 73.44 569.76 540.96 cl
59.04 73.44 569.76 540.96 cl
0 0 1 srgb
0.75 setlinewidth
[] 0 setdash
1 setlinecap
1 setlinejoin
10.00 setmiterlimit
np
79.15 600.00 m
0.70 -148.31 l
0.94 -195.51 l
0.95 -83.82 l
0.94 43.66 l
0.95 98.81 l
0.95 58.88 l
0.94 -24.21 l
0.95 -73.11 l
0.94 -49.51 l
0.95 18.84 l
0.94 67.76 l
0.95 54.23 l
0.95 -7.72 l
0.94 -61.47 l
0.95 -57.78 l
0.94 3.28 l
0.95 73.54 l
0.95 97.49 l
0.94 57.31 l
0.95 -15.34 l
0.94 -67.75 l
0.95 -68.68 l
0.94 -29.23 l
0.95 12.39 l
0.95 25.28 l
0.94 8.67 l
0.95 -14.37 l
0.94 -22.23 l
0.95 -13.62 l
0.94 -3.70 l
0.95 -3.99 l
0.95 -8.37 l
0.94 0 l
0.95 27.25 l
0.94 55.81 l
0.95 55.14 l
0.95 9.87 l
0.94 -60.21 l
0.95 -109.08 l
0.94 -98.58 l
0.95 -30.67 l
0.94 50.39 l
0.95 90.07 l
0.95 64.98 l
0.94 0.30 l
0.95 -51.32 l
0.94 -51.98 l
0.95 -7.03 l
0.94 42.73 l
0.95 57.22 l
0.95 30.45 l
0.94 -7.29 l
0.95 -18.53 l
0.94 6.88 l
0.95 42.09 l
0.94 46.88 l
0.95 3.64 l
0.95 -64.87 l
0.94 -111.58 l
0.95 -101.57 l
0.94 -38.96 l
0.95 36.73 l
0.95 80.55 l
0.94 73.37 l
0.95 30.64 l
0.94 -14.61 l
0.95 -37.76 l
0.94 -35.68 l
0.95 -20.16 l
0.95 -2.13 l
0.94 16.47 l
0.95 37.29 l
0.94 55.42 l
0.95 57.84 l
0.94 34.75 l
0.95 -7.35 l
0.95 -45.21 l
0.94 -54.80 l
0.95 -31.47 l
0.94 4.27 l
0.95 22.39 l
0.95 8.54 l
0.94 -23.09 l
0.95 -41.20 l
0.94 -24.74 l
0.95 17.51 l
0.94 52.74 l
0.95 51.50 l
0.95 13.57 l
0.94 -30.50 l
0.95 -44.48 l
0.94 -17.50 l
0.95 25.77 l
0.94 45.41 l
0.95 20.48 l
0.95 -31.71 l
0.94 -68.01 l
0.95 -54.42 l
0.94 5.21 l
173.48 279.55 lineto
0.94 94.90 l
0.95 61.22 l
0.95 -6.56 l
0.94 -62.67 l
0.95 -74.14 l
0.94 -42.50 l
0.95 2.54 l
0.95 29.53 l
0.94 28.55 l
0.95 13.33 l
0.94 3.91 l
0.95 7.28 l
0.94 13.20 l
0.95 7.17 l
0.95 -13.22 l
0.94 -34.46 l
0.95 -38.87 l
0.94 -21.06 l
0.95 6.51 l
0.94 23.96 l
0.95 20.64 l
0.95 3.46 l
0.94 -10.44 l
0.95 -9.31 l
0.94 3.41 l
0.95 13.84 l
0.95 11.53 l
0.94 -0.41 l
0.95 -8.67 l
0.94 -3.05 l
0.95 12.78 l
0.94 23.40 l
0.95 15.44 l
0.95 -9.46 l
0.94 -34.14 l
0.95 -39.18 l
0.94 -18.69 l
0.95 14.38 l
0.94 37.80 l
0.95 36.56 l
0.95 12.87 l
0.94 -17.24 l
0.95 -36.50 l
0.94 -37.43 l
0.95 -23.96 l
0.94 -5.06 l
0.95 12.24 l
0.95 24.67 l
0.94 30.24 l
0.95 26.70 l
0.94 14.07 l
0.95 -2.09 l
0.95 -11.81 l
0.94 -8.14 l
0.95 5.30 l
0.94 14.83 l
0.95 7.56 l
0.94 -15.80 l
0.95 -38.11 l
0.95 -38.25 l
0.94 -9.97 l
0.95 29.06 l
0.94 48.56 l
0.95 30.21 l
0.94 -14.38 l
0.95 -49.41 l
0.95 -42.35 l
0.94 7.71 l
0.95 65.44 l
0.94 84.67 l
0.95 45.23 l
0.95 -28.33 l
0.94 -83.29 l
0.95 -78.84 l
0.94 -18.53 l
0.95 51.49 l
0.94 78.02 l
0.95 42.14 l
0.95 -26.52 l
0.94 -74.05 l
0.95 -65.07 l
0.94 -9.79 l
0.95 46.10 l
0.94 59.39 l
0.95 23.81 l
0.95 -26.93 l
0.94 -48.35 l
0.95 -22.05 l
0.94 30.56 l
0.95 67.08 l
0.94 59.08 l
0.95 13.73 l
0.95 -34.45 l
0.94 -52.55 l
0.95 -34.36 l
0.94 -1.47 l
0.95 17.67 l
0.95 11.30 l
0.94 -9.37 l
268.06 309.55 lineto
0.94 -21.21 l
0.95 -7.67 l
0.94 3.55 l
0.95 6.84 l
0.95 8.91 l
0.94 18.92 l
0.95 34.73 l
0.94 40.70 l
0.95 21.30 l
0.94 -21.20 l
0.95 -62.61 l
0.95 -72.88 l
0.94 -40.86 l
0.95 13.84 l
0.94 53.71 l
0.95 52.17 l
0.95 14.79 l
0.94 -25.28 l
0.95 -34.80 l
0.94 -8.32 l
0.95 27.60 l
0.94 37.39 l
0.95 8.17 l
0.95 -37.52 l
0.94 -59.20 l
0.95 -32.47 l
0.94 28.48 l
0.95 79.54 l
0.94 80.16 l
0.95 25.30 l
0.95 -49.81 l
0.94 -95.65 l
0.95 -84.79 l
0.94 -30.31 l
0.95 26.70 l
0.94 49.04 l
0.95 29.38 l
0.95 -8.53 l
0.94 -31.65 l
0.95 -22.98 l
0.94 8.49 l
0.95 38.74 l
0.95 48.40 l
0.94 35.12 l
0.95 10.89 l
0.94 -9.94 l
0.95 -20.51 l
0.94 -22.16 l
0.95 -18.76 l
0.95 -12.26 l
0.94 -3.54 l
0.95 4.54 l
0.94 7.12 l
0.95 1.85 l
0.94 -6.87 l
0.95 -10.03 l
0.95 -2.22 l
0.94 11.25 l
0.95 16.81 l
0.94 4.43 l
0.95 -20.63 l
0.94 -38.21 l
0.95 -28.21 l
0.95 10.51 l
0.94 54.35 l
0.95 69.70 l
0.94 39.06 l
0.95 -22.09 l
0.95 -73.09 l
0.94 -76.87 l
0.95 -28.32 l
0.94 40.19 l
0.95 81.76 l
0.94 69.39 l
0.95 15.25 l
0.95 -39.77 l
0.94 -57.80 l
0.95 -31.79 l
0.94 11.95 l
0.95 37.12 l
0.94 26.83 l
0.95 -4.85 l
0.95 -27.36 l
0.94 -20.72 l
0.95 7.59 l
0.94 29.90 l
0.95 22.64 l
0.95 -13.04 l
0.94 -51.25 l
0.95 -61.76 l
0.94 -33.74 l
0.95 16.13 l
0.94 56.66 l
0.95 65.18 l
0.95 42.09 l
0.94 7.25 l
0.95 -17.04 l
0.94 -21.48 l
0.95 -12.63 l
362.63 324.11 lineto
0.95 -0.28 l
0.95 -1.82 l
0.94 -1.88 l
0.95 1.35 l
0.94 3.67 l
0.95 0.18 l
0.94 -8.13 l
0.95 -13.70 l
0.95 -9.13 l
0.94 5.05 l
0.95 18.94 l
0.94 20.52 l
0.95 5.63 l
0.95 -17.58 l
0.94 -34.09 l
0.95 -32.85 l
0.94 -14.66 l
0.95 9.13 l
0.94 25.48 l
0.95 28.37 l
0.95 21.09 l
0.94 11.12 l
0.95 3.26 l
0.94 -3.01 l
0.95 -10.40 l
0.94 -18.72 l
0.95 -23.17 l
0.95 -17.87 l
0.94 -1.53 l
0.95 19.89 l
0.94 35.99 l
0.95 38.10 l
0.95 24.43 l
0.94 0.55 l
0.95 -24.00 l
0.94 -40.32 l
0.95 -43.23 l
0.94 -32.33 l
0.95 -11.82 l
0.95 10.44 l
0.94 25.20 l
0.95 25.91 l
0.94 12.88 l
0.95 -5.57 l
0.94 -17.21 l
0.95 -13.67 l
0.95 3.37 l
0.94 22.70 l
0.95 31.03 l
0.94 22.48 l
0.95 2.82 l
0.94 -15.17 l
0.95 -21.21 l
0.95 -14.76 l
0.94 -4.13 l
0.95 1.49 l
0.94 -0.27 l
0.95 -3.82 l
0.95 -1.87 l
0.94 6.75 l
0.95 15.17 l
0.94 14.30 l
0.95 1.47 l
0.94 -15.95 l
0.95 -25.46 l
0.95 -19.35 l
0.94 -1.01 l
0.95 17.41 l
0.94 24.31 l
0.95 16.89 l
0.94 2.26 l
0.95 -9.49 l
0.95 -13.13 l
0.94 -10.88 l
0.95 -7.95 l
0.94 -6.32 l
0.95 -3.05 l
0.95 5.26 l
0.94 16.56 l
0.95 22.74 l
0.94 16.16 l
0.95 -2.17 l
0.94 -20.58 l
0.95 -24.33 l
0.95 -7.67 l
0.94 19.70 l
0.95 38.21 l
0.94 32.71 l
0.95 4.35 l
0.94 -29.32 l
0.95 -47.09 l
0.95 -39.46 l
0.94 -14.94 l
0.95 7.66 l
0.94 14.46 l
0.95 6.59 l
0.94 -2.43 l
0.95 0.44 l
0.95 15.88 l
457.21 326.87 lineto
0.95 31.07 l
0.94 10.82 l
0.95 -18.51 l
0.95 -37.81 l
0.94 -33.98 l
0.95 -9.58 l
0.94 19.08 l
0.95 33.63 l
0.94 26.06 l
0.95 2.96 l
0.95 -20.17 l
0.94 -29.69 l
0.95 -21.84 l
0.94 -3.34 l
0.95 14.08 l
0.94 20.95 l
0.95 14.50 l
0.95 -0.76 l
0.94 -15.90 l
0.95 -22.08 l
0.94 -14.91 l
0.95 2.65 l
0.95 20.99 l
0.94 28.88 l
0.95 20.46 l
0.94 -0.02 l
0.95 -20.01 l
0.94 -26.96 l
0.95 -17.53 l
0.95 -0.49 l
0.94 9.79 l
0.95 5.05 l
0.94 -9.32 l
0.95 -17.86 l
0.94 -7.77 l
0.95 18.88 l
0.95 44.38 l
0.94 47.60 l
0.95 21.05 l
0.94 -21.42 l
0.95 -52.89 l
0.94 -52.55 l
0.95 -21.26 l
0.95 18.75 l
0.94 40.13 l
0.95 30.32 l
0.94 -0.14 l
0.95 -26.72 l
0.95 -30.13 l
0.94 -10.20 l
0.95 15.68 l
0.94 27.46 l
0.95 17.92 l
0.94 -2.97 l
0.95 -17.79 l
0.95 -16.01 l
0.94 -1.56 l
0.95 12.15 l
0.94 14.05 l
0.95 4.23 l
0.94 -7.53 l
0.95 -10.87 l
0.95 -3.53 l
0.94 7.75 l
0.95 13.66 l
0.94 10.02 l
0.95 0.15 l
0.95 -9.16 l
0.94 -13.38 l
0.95 -12.54 l
0.94 -8.83 l
0.95 -3.21 l
0.94 5.03 l
0.95 15.23 l
0.95 22.73 l
0.94 20.83 l
0.95 6.69 l
0.94 -14.09 l
0.95 -29.17 l
0.94 -27.98 l
0.95 -10.42 l
0.95 11.81 l
0.94 23.28 l
0.95 16.54 l
0.94 -1.85 l
0.95 -16.46 l
0.94 -15.32 l
0.95 0.53 l
0.95 18.05 l
0.94 22.97 l
0.95 11.54 l
0.94 -6.70 l
0.95 -17.20 l
0.95 -12.56 l
0.94 1.45 l
0.95 11.20 l
0.94 7.10 l
0.95 -8.06 l
0.94 -21.24 l
551.79 274.81 lineto
0.95 -2.62 l
0.94 19.61 l
0.95 31.56 l
0.94 25.24 l
0.95 5.19 l
0.94 -15.70 l
0.95 -25.95 l
0.95 -22.61 l
0.94 -11.21 l
0.95 0.28 l
0.94 7.34 l
0.95 10.24 l
0.95 11.02 l
0.94 10.18 l
0.95 6.54 l
0.94 -0.12 l
0.95 -7.13 l
0.94 -10.21 l
0.95 -7.26 l
0.95 -0.60 l
0.94 4.57 l
0.95 4.72 l
0.94 1.12 l
0.95 -1.47 l
0.94 0.44 l
0.95 5.38 l
0.95 7.95 l
0.94 4.11 l
0.95 -4.38 l
0.94 -10.75 l
0.95 -9.21 l
0.94 -0.80 l
0.95 6.57 l
0.95 4.74 l
0.94 -6.88 l
0.95 -19.33 l
0.94 -20.68 l
0.95 -6.15 l
0.95 16.80 l
0.94 33.15 l
0.95 31.61 l
0.94 13.49 l
0.95 -8.46 l
0.94 -20.14 l
0.95 -16.90 l
0.95 -6.08 l
0.94 0.48 l
0.95 -2.63 l
0.94 -9.85 l
0.95 -10.39 l
0.92 0.94 l
o
0.00 0.00 600.00 600.00 cl
0 0 0 srgb
0.75 setlinewidth
[] 0 setdash
1 setlinecap
1 setlinejoin
10.00 setmiterlimit
np
77.96 73.44 m
472.88 0 l
o
np
77.96 73.44 m
0 -7.20 l
o
np
172.53 73.44 m
0 -7.20 l
o
np
267.11 73.44 m
0 -7.20 l
o
np
361.69 73.44 m
0 -7.20 l
o
np
456.27 73.44 m
0 -7.20 l
o
np
550.84 73.44 m
0 -7.20 l
o
/Font1 findfont 16 s
77.96 47.52 (0) .5 0 t
172.53 47.52 (100) .5 0 t
267.11 47.52 (200) .5 0 t
361.69 47.52 (300) .5 0 t
456.27 47.52 (400) .5 0 t
550.84 47.52 (500) .5 0 t
np
59.04 134.04 m
0 346.32 l
o
np
59.04 134.04 m
-7.20 0 l
o
np
59.04 220.62 m
-7.20 0 l
o
np
59.04 307.20 m
-7.20 0 l
o
np
59.04 393.78 m
-7.20 0 l
o
np
59.04 480.36 m
-7.20 0 l
o
41.76 134.04 (-0.4) .5 90 t
41.76 220.62 (-0.2) .5 90 t
41.76 307.20 (0.0) .5 90 t
41.76 393.78 (0.2) .5 90 t
41.76 480.36 (0.4) .5 90 t
np
59.04 73.44 m
510.72 0 l
0 467.52 l
-510.72 0 l
0 -467.52 l
o
0.00 0.00 600.00 600.00 cl
/Font1 findfont 16 s
0 0 0 srgb
314.40 18.72 (t) .5 0 t
12.96 213.39 (Re\(char) 90 ta
-0.160 (acter) tb
0.240 (iz) tb
-0.240 (ed function\)) tb gr
59.04 73.44 569.76 540.96 cl
0 0 0 srgb
0.75 setlinewidth
[] 0 setdash
1 setlinecap
1 setlinejoin
10.00 setmiterlimit
np
79.14 600.00 m
0.71 -152.85 l
0.94 -197.87 l
0.95 -83.13 l
0.94 47.64 l
0.95 104.06 l
0.95 62.33 l
0.94 -24.69 l
0.95 -77.14 l
0.94 -54.42 l
0.95 16.29 l
0.94 69.19 l
0.95 58.50 l
0.95 -3.62 l
0.94 -60.22 l
0.95 -59.85 l
0.94 -0.05 l
0.95 71.77 l
0.95 98.59 l
0.94 59.99 l
0.95 -13.98 l
0.94 -69.74 l
0.95 -73.35 l
0.94 -33.42 l
0.95 12.09 l
0.95 29.83 l
0.94 15.59 l
0.95 -9.37 l
0.94 -22.30 l
0.95 -18.53 l
0.94 -10.10 l
0.95 -7.81 l
0.95 -7.57 l
0.94 4.21 l
0.95 31.77 l
0.94 58.03 l
0.95 54.73 l
0.95 8.55 l
0.94 -60.45 l
0.95 -107.70 l
0.94 -96.87 l
0.95 -30.46 l
0.94 48.36 l
0.95 86.74 l
0.95 62.29 l
0.94 -0.31 l
0.95 -49.95 l
0.94 -49.94 l
0.95 -5.83 l
0.94 42.47 l
0.95 55.97 l
0.95 29.10 l
0.94 -8.16 l
0.95 -18.85 l
0.94 6.89 l
0.95 42.37 l
0.94 47.49 l
0.95 4.54 l
0.95 -64.02 l
0.94 -111.21 l
0.95 -101.71 l
0.94 -39.07 l
0.95 37.36 l
0.95 82.02 l
0.94 74.74 l
0.95 30.45 l
0.94 -17.21 l
0.95 -42.01 l
0.94 -39.49 l
0.95 -21.33 l
0.95 0.03 l
0.94 20.54 l
0.95 40.70 l
0.94 56.14 l
0.95 55.76 l
0.94 31.55 l
0.95 -9.64 l
0.95 -45.64 l
0.94 -54.06 l
0.95 -31.04 l
0.94 3.57 l
0.95 21.12 l
0.95 8.15 l
0.94 -21.57 l
0.95 -38.20 l
0.94 -21.98 l
0.95 18.19 l
0.94 50.72 l
0.95 47.89 l
0.95 10.50 l
0.94 -31.23 l
0.95 -42.47 l
0.94 -13.89 l
0.95 29.07 l
0.94 46.80 l
0.95 19.46 l
0.95 -34.39 l
0.94 -70.87 l
0.95 -56.09 l
0.94 5.33 l
173.48 275.70 lineto
0.94 96.31 l
0.95 61.41 l
0.95 -7.93 l
0.94 -64.69 l
0.95 -75.21 l
0.94 -41.44 l
0.95 5.50 l
0.95 32.75 l
0.94 30.06 l
0.95 12.33 l
0.94 1.49 l
0.95 5.65 l
0.94 13.99 l
0.95 10.05 l
0.95 -10.48 l
0.94 -34.16 l
0.95 -41.48 l
0.94 -24.62 l
0.95 5.05 l
0.94 26.19 l
0.95 25.33 l
0.95 7.17 l
0.94 -10.70 l
0.95 -13.76 l
0.94 -2.22 l
0.95 11.07 l
0.95 13.75 l
0.94 5.31 l
0.95 -3.35 l
0.94 -1.57 l
0.95 9.91 l
0.94 18.82 l
0.95 12.65 l
0.95 -8.78 l
0.94 -31.30 l
0.95 -37.03 l
0.94 -19.16 l
0.95 11.91 l
0.94 35.94 l
0.95 37.55 l
0.95 16.60 l
0.94 -13.23 l
0.95 -35.18 l
0.94 -39.83 l
0.95 -28.39 l
0.94 -8.36 l
0.95 12.31 l
0.95 27.81 l
0.94 33.98 l
0.95 28.35 l
0.94 12.58 l
0.95 -5.51 l
0.95 -14.85 l
0.94 -9.16 l
0.95 6.28 l
0.94 16.50 l
0.95 8.46 l
0.94 -16.15 l
0.95 -39.11 l
0.95 -38.89 l
0.94 -9.71 l
0.95 29.99 l
0.94 49.51 l
0.95 30.62 l
0.94 -14.56 l
0.95 -49.86 l
0.95 -42.70 l
0.94 7.61 l
0.95 65.43 l
0.94 84.40 l
0.95 44.41 l
0.95 -29.80 l
0.94 -85.04 l
0.95 -80.15 l
0.94 -18.55 l
0.95 53.19 l
0.94 80.98 l
0.95 44.99 l
0.95 -25.39 l
0.94 -75.46 l
0.95 -68.38 l
0.94 -13.21 l
0.95 44.49 l
0.94 60.31 l
0.95 26.34 l
0.95 -24.61 l
0.94 -47.70 l
0.95 -23.10 l
0.94 28.93 l
0.95 66.19 l
0.94 59.28 l
0.95 14.20 l
0.95 -34.81 l
0.94 -54.03 l
0.95 -35.99 l
0.94 -1.79 l
0.95 19.47 l
0.95 14.54 l
0.94 -6.41 l
268.06 313.19 lineto
0.94 -22.21 l
0.95 -9.74 l
0.94 1.95 l
0.95 6.56 l
0.95 9.64 l
0.94 19.64 l
0.95 34.59 l
0.94 39.65 l
0.95 19.95 l
0.94 -22.11 l
0.95 -62.69 l
0.95 -72.13 l
0.94 -39.46 l
0.95 15.64 l
0.94 55.45 l
0.95 53.15 l
0.95 14.33 l
0.94 -27.22 l
0.95 -37.32 l
0.94 -9.84 l
0.95 28.23 l
0.94 40.01 l
0.95 11.16 l
0.95 -36.11 l
0.94 -60.17 l
0.95 -34.85 l
0.94 26.68 l
0.95 79.69 l
0.94 81.83 l
0.95 26.59 l
0.95 -50.56 l
0.94 -98.25 l
0.95 -87.15 l
0.94 -29.97 l
0.95 30.36 l
0.94 54.04 l
0.95 32.38 l
0.95 -9.73 l
0.94 -36.36 l
0.95 -28.03 l
0.94 6.45 l
0.95 40.80 l
0.95 52.65 l
0.94 38.20 l
0.95 10.53 l
0.94 -13.42 l
0.95 -24.62 l
0.94 -24.22 l
0.95 -17.86 l
0.95 -9.58 l
0.94 -1.21 l
0.95 5.17 l
0.94 6.26 l
0.95 0.78 l
0.94 -6.93 l
0.95 -8.84 l
0.95 -0.48 l
0.94 12.51 l
0.95 16.88 l
0.94 3.15 l
0.95 -22.89 l
0.94 -40.65 l
0.95 -29.87 l
0.95 10.50 l
0.94 56.14 l
0.95 72.27 l
0.94 40.58 l
0.95 -23.14 l
0.95 -76.64 l
0.94 -80.87 l
0.95 -30.00 l
0.94 42.24 l
0.95 86.24 l
0.94 72.93 l
0.95 14.95 l
0.95 -43.85 l
0.94 -62.39 l
0.95 -32.72 l
0.94 16.35 l
0.95 44.36 l
0.94 31.84 l
0.95 -5.92 l
0.95 -34.04 l
0.94 -28.47 l
0.95 4.03 l
0.94 32.42 l
0.95 28.42 l
0.95 -9.14 l
0.94 -52.45 l
0.95 -66.74 l
0.94 -37.75 l
0.95 17.19 l
0.94 62.80 l
0.95 72.06 l
0.95 44.45 l
0.94 3.09 l
0.95 -24.89 l
0.94 -27.59 l
0.95 -13.12 l
362.63 318.29 lineto
0.95 5.62 l
0.95 1.17 l
0.94 -2.98 l
0.95 -1.60 l
0.94 2.09 l
0.95 1.31 l
0.94 -5.67 l
0.95 -12.53 l
0.95 -10.45 l
0.94 2.41 l
0.95 17.41 l
0.94 21.50 l
0.95 8.35 l
0.95 -15.19 l
0.94 -33.38 l
0.95 -33.33 l
0.94 -14.74 l
0.95 10.37 l
0.94 27.02 l
0.95 28.24 l
0.95 18.25 l
0.94 6.86 l
0.95 0.38 l
0.94 -2.63 l
0.95 -7.49 l
0.94 -16.12 l
0.95 -23.27 l
0.95 -20.33 l
0.94 -3.36 l
0.95 21.74 l
0.94 41.63 l
0.95 44.18 l
0.95 26.54 l
0.94 -3.09 l
0.95 -30.83 l
0.94 -45.30 l
0.95 -42.79 l
0.94 -27.23 l
0.95 -6.40 l
0.95 11.84 l
0.94 21.85 l
0.95 21.10 l
0.94 10.93 l
0.95 -3.12 l
0.94 -12.91 l
0.95 -11.88 l
0.95 0.40 l
0.94 16.81 l
0.95 26.74 l
0.94 23.08 l
0.95 7.53 l
0.94 -10.43 l
0.95 -20.39 l
0.95 -18.24 l
0.94 -8.41 l
0.95 0.64 l
0.94 3.63 l
0.95 2.04 l
0.95 1.38 l
0.94 4.89 l
0.95 9.76 l
0.94 9.49 l
0.95 0.38 l
0.94 -13.64 l
0.95 -23.02 l
0.95 -19.68 l
0.94 -3.97 l
0.95 14.91 l
0.94 25.37 l
0.95 21.66 l
0.94 7.31 l
0.95 -8.37 l
0.95 -17.50 l
0.94 -18.19 l
0.95 -13.53 l
0.94 -6.99 l
0.95 0.52 l
0.95 9.42 l
0.94 17.92 l
0.95 20.86 l
0.94 13.59 l
0.95 -2.44 l
0.94 -17.81 l
0.95 -20.71 l
0.95 -6.30 l
0.94 17.49 l
0.95 33.93 l
0.94 29.26 l
0.95 3.60 l
0.94 -27.93 l
0.95 -45.64 l
0.95 -39.41 l
0.94 -15.68 l
0.95 8.14 l
0.94 17.49 l
0.95 11.30 l
0.94 1.25 l
0.95 0.59 l
0.95 12.14 l
457.21 323.26 lineto
0.95 26.27 l
0.94 8.40 l
0.95 -18.97 l
0.95 -37.61 l
0.94 -33.77 l
0.95 -8.76 l
0.94 21.50 l
0.95 37.60 l
0.94 29.89 l
0.95 4.48 l
0.95 -21.94 l
0.94 -33.59 l
0.95 -25.21 l
0.94 -3.91 l
0.95 16.67 l
0.94 25.04 l
0.95 17.83 l
0.95 0.44 l
0.94 -16.63 l
0.95 -23.42 l
0.94 -15.61 l
0.95 3.09 l
0.95 22.31 l
0.94 30.30 l
0.95 21.11 l
0.94 -0.96 l
0.95 -22.93 l
0.94 -31.30 l
0.95 -21.62 l
0.95 -2.12 l
0.94 11.98 l
0.95 10.49 l
0.94 -3.09 l
0.95 -13.57 l
0.94 -6.56 l
0.95 18.22 l
0.95 43.93 l
0.94 48.21 l
0.95 21.15 l
0.94 -24.50 l
0.95 -59.99 l
0.94 -60.83 l
0.95 -25.36 l
0.95 22.88 l
0.94 51.60 l
0.95 43.08 l
0.94 6.65 l
0.95 -29.20 l
0.95 -38.62 l
0.94 -17.43 l
0.95 15.38 l
0.94 33.66 l
0.95 24.62 l
0.94 -2.46 l
0.95 -25.23 l
0.95 -26.70 l
0.94 -8.06 l
0.95 14.04 l
0.94 22.12 l
0.95 11.83 l
0.94 -5.99 l
0.95 -15.61 l
0.95 -9.70 l
0.94 5.41 l
0.95 16.16 l
0.94 13.38 l
0.95 -0.82 l
0.95 -15.80 l
0.94 -21.36 l
0.95 -15.00 l
0.94 -1.88 l
0.95 10.73 l
0.94 18.66 l
0.95 21.47 l
0.95 19.36 l
0.94 11.26 l
0.95 -3.43 l
0.94 -20.97 l
0.95 -32.77 l
0.94 -30.31 l
0.95 -12.55 l
0.95 11.00 l
0.94 25.72 l
0.95 22.43 l
0.94 4.81 l
0.95 -12.96 l
0.94 -17.19 l
0.95 -5.48 l
0.95 11.56 l
0.94 19.28 l
0.95 11.18 l
0.94 -5.90 l
0.95 -17.90 l
0.95 -15.72 l
0.94 -2.70 l
0.95 8.69 l
0.94 8.28 l
0.95 -2.67 l
0.94 -12.53 l
551.79 278.53 lineto
0.95 6.65 l
0.94 25.00 l
0.95 30.56 l
0.94 17.40 l
0.95 -6.74 l
0.94 -26.56 l
0.95 -30.92 l
0.95 -20.38 l
0.94 -4.71 l
0.95 6.21 l
0.94 9.75 l
0.95 9.91 l
0.95 10.83 l
0.94 11.24 l
0.95 6.15 l
0.94 -6.42 l
0.95 -20.48 l
0.94 -25.15 l
0.95 -13.85 l
0.95 8.41 l
0.94 27.06 l
0.95 29.04 l
0.94 13.56 l
0.95 -6.65 l
0.94 -15.55 l
0.95 -6.97 l
0.95 10.26 l
0.94 20.15 l
0.95 13.37 l
0.94 -4.76 l
0.95 -19.22 l
0.94 -18.88 l
0.95 -6.39 l
0.95 4.53 l
0.94 2.14 l
0.95 -11.56 l
0.94 -21.59 l
0.95 -13.27 l
0.95 13.45 l
0.94 41.44 l
0.95 49.02 l
0.94 27.54 l
0.95 -10.73 l
0.94 -41.55 l
0.95 -47.17 l
0.95 -28.94 l
0.94 -4.09 l
0.95 10.05 l
0.94 10.01 l
0.95 6.55 l
0.92 11.52 l
o
0.00 0.00 600.00 600.00 cl
0 0 0 srgb
0.75 setlinewidth
[] 0 setdash
1 setlinecap
1 setlinejoin
10.00 setmiterlimit
np
77.96 73.44 m
472.88 0 l
o
np
77.96 73.44 m
0 -7.20 l
o
np
172.53 73.44 m
0 -7.20 l
o
np
267.11 73.44 m
0 -7.20 l
o
np
361.69 73.44 m
0 -7.20 l
o
np
456.27 73.44 m
0 -7.20 l
o
np
550.84 73.44 m
0 -7.20 l
o
/Font1 findfont 16 s
77.96 47.52 (0) .5 0 t
172.53 47.52 (100) .5 0 t
267.11 47.52 (200) .5 0 t
361.69 47.52 (300) .5 0 t
456.27 47.52 (400) .5 0 t
550.84 47.52 (500) .5 0 t
np
59.04 134.04 m
0 346.32 l
o
np
59.04 134.04 m
-7.20 0 l
o
np
59.04 220.62 m
-7.20 0 l
o
np
59.04 307.20 m
-7.20 0 l
o
np
59.04 393.78 m
-7.20 0 l
o
np
59.04 480.36 m
-7.20 0 l
o
41.76 134.04 (-0.4) .5 90 t
41.76 220.62 (-0.2) .5 90 t
41.76 307.20 (0.0) .5 90 t
41.76 393.78 (0.2) .5 90 t
41.76 480.36 (0.4) .5 90 t
np
59.04 73.44 m
510.72 0 l
0 467.52 l
-510.72 0 l
0 -467.52 l
o
0.00 0.00 600.00 600.00 cl
59.04 73.44 569.76 540.96 cl
1 0 0 srgb
0.75 setlinewidth
[] 0 setdash
1 setlinecap
1 setlinejoin
10.00 setmiterlimit
np
79.14 600.00 m
0.71 -152.86 l
0.94 -197.85 l
0.95 -83.12 l
0.94 47.64 l
0.95 104.04 l
0.95 62.29 l
0.94 -24.69 l
0.95 -77.07 l
0.94 -54.36 l
0.95 16.29 l
0.94 69.10 l
0.95 58.39 l
0.95 -3.63 l
0.94 -60.09 l
0.95 -59.68 l
0.94 -0.03 l
0.95 71.54 l
0.95 98.19 l
0.94 59.68 l
0.95 -13.98 l
0.94 -69.44 l
0.95 -72.97 l
0.94 -33.21 l
0.95 12.02 l
0.95 29.61 l
0.94 15.46 l
0.95 -9.32 l
0.94 -22.10 l
0.95 -18.35 l
0.94 -9.99 l
0.95 -7.70 l
0.95 -7.45 l
0.94 4.18 l
0.95 31.38 l
0.94 57.20 l
0.95 53.87 l
0.95 8.32 l
0.94 -59.53 l
0.95 -105.87 l
0.94 -95.03 l
0.95 -29.73 l
0.94 47.54 l
0.95 85.02 l
0.95 60.95 l
0.94 -0.32 l
0.95 -48.75 l
0.94 -48.66 l
0.95 -5.59 l
0.94 41.40 l
0.95 54.44 l
0.95 28.23 l
0.94 -7.96 l
0.95 -18.28 l
0.94 6.65 l
0.95 40.90 l
0.94 45.73 l
0.95 4.24 l
0.95 -61.74 l
0.94 -106.93 l
0.95 -97.52 l
0.94 -37.23 l
0.95 36.03 l
0.95 78.60 l
0.94 71.43 l
0.95 29.03 l
0.94 -16.40 l
0.95 -39.93 l
0.94 -37.40 l
0.95 -20.09 l
0.95 0.17 l
0.94 19.54 l
0.95 38.48 l
0.94 52.89 l
0.95 52.37 l
0.94 29.47 l
0.95 -9.20 l
0.95 -42.81 l
0.94 -50.54 l
0.95 -28.91 l
0.94 3.37 l
0.95 19.67 l
0.95 7.56 l
0.94 -19.95 l
0.95 -35.22 l
0.94 -20.15 l
0.95 16.88 l
0.94 46.66 l
0.95 43.89 l
0.95 9.53 l
0.94 -28.57 l
0.95 -38.69 l
0.94 -12.57 l
0.95 26.44 l
0.94 42.37 l
0.95 17.51 l
0.95 -31.09 l
0.94 -63.75 l
0.95 -50.21 l
0.94 4.98 l
173.48 279.06 lineto
0.94 85.90 l
0.95 54.46 l
0.95 -7.29 l
0.94 -57.50 l
0.95 -66.51 l
0.94 -36.46 l
0.95 4.97 l
0.95 28.83 l
0.94 26.34 l
0.95 10.75 l
0.94 1.26 l
0.95 4.86 l
0.94 12.06 l
0.95 8.59 l
0.95 -9.13 l
0.94 -29.44 l
0.95 -35.56 l
0.94 -20.96 l
0.95 4.44 l
0.94 22.40 l
0.95 21.55 l
0.95 6.08 l
0.94 -9.03 l
0.95 -11.56 l
0.94 -1.80 l
0.95 9.32 l
0.95 11.49 l
0.94 4.42 l
0.95 -2.79 l
0.94 -1.30 l
0.95 8.17 l
0.94 15.45 l
0.95 10.29 l
0.95 -7.28 l
0.94 -25.58 l
0.95 -30.08 l
0.94 -15.43 l
0.95 9.76 l
0.94 29.03 l
0.95 30.14 l
0.95 13.20 l
0.94 -10.67 l
0.95 -28.04 l
0.94 -31.55 l
0.95 -22.32 l
0.94 -6.40 l
0.95 9.85 l
0.95 21.92 l
0.94 26.58 l
0.95 22.03 l
0.94 9.67 l
0.95 -4.35 l
0.95 -11.50 l
0.94 -7.06 l
0.95 4.77 l
0.94 12.52 l
0.95 6.33 l
0.94 -12.30 l
0.95 -29.52 l
0.95 -29.13 l
0.94 -7.12 l
0.95 22.52 l
0.94 36.84 l
0.95 22.61 l
0.94 -10.86 l
0.95 -36.69 l
0.95 -31.17 l
0.94 5.71 l
0.95 47.65 l
0.94 61.02 l
0.95 31.73 l
0.95 -21.77 l
0.94 -61.12 l
0.95 -57.16 l
0.94 -13.01 l
0.95 37.80 l
0.94 57.06 l
0.95 31.38 l
0.95 -18.03 l
0.94 -52.71 l
0.95 -47.39 l
0.94 -8.94 l
0.95 30.79 l
0.94 41.37 l
0.95 17.88 l
0.95 -16.86 l
0.94 -32.33 l
0.95 -15.51 l
0.94 19.52 l
0.95 44.21 l
0.94 39.26 l
0.95 9.07 l
0.95 -23.30 l
0.94 -35.72 l
0.95 -23.63 l
0.94 -1.17 l
0.95 12.61 l
0.95 9.32 l
0.94 -4.21 l
268.06 311.03 lineto
0.94 -14.15 l
0.95 -6.12 l
0.94 1.30 l
0.95 4.18 l
0.95 6.08 l
0.94 12.24 l
0.95 21.38 l
0.94 24.31 l
0.95 12.00 l
0.94 -13.81 l
0.95 -38.34 l
0.95 -43.70 l
0.94 -23.61 l
0.95 9.63 l
0.94 33.28 l
0.95 31.60 l
0.95 8.37 l
0.94 -16.14 l
0.95 -21.89 l
0.94 -5.68 l
0.95 16.43 l
0.94 23.06 l
0.95 6.28 l
0.95 -20.76 l
0.94 -34.22 l
0.95 -19.57 l
0.94 15.22 l
0.95 44.72 l
0.94 45.46 l
0.95 14.41 l
0.95 -28.24 l
0.94 -54.09 l
0.95 -47.48 l
0.94 -15.97 l
0.95 16.74 l
0.94 29.28 l
0.95 17.42 l
0.95 -5.14 l
0.94 -19.14 l
0.95 -14.57 l
0.94 3.62 l
0.95 21.43 l
0.95 27.34 l
0.94 19.61 l
0.95 5.23 l
0.94 -7.00 l
0.95 -12.59 l
0.94 -12.25 l
0.95 -8.93 l
0.95 -4.73 l
0.94 -0.52 l
0.95 2.63 l
0.94 3.12 l
0.95 0.43 l
0.94 -3.31 l
0.95 -4.18 l
0.95 -0.15 l
0.94 6.04 l
0.95 8.04 l
0.94 1.49 l
0.95 -10.70 l
0.94 -18.83 l
0.95 -13.62 l
0.95 5.07 l
0.94 25.86 l
0.95 32.88 l
0.94 18.19 l
0.95 -10.61 l
0.95 -34.35 l
0.94 -35.80 l
0.95 -12.97 l
0.94 18.83 l
0.95 37.76 l
0.94 31.54 l
0.95 6.23 l
0.95 -18.98 l
0.94 -26.63 l
0.95 -13.78 l
0.94 6.99 l
0.95 18.57 l
0.94 13.16 l
0.95 -2.55 l
0.95 -14.03 l
0.94 -11.59 l
0.95 1.68 l
0.94 13.07 l
0.95 11.31 l
0.95 -3.73 l
0.94 -20.74 l
0.95 -26.07 l
0.94 -14.46 l
0.95 6.95 l
0.94 24.37 l
0.95 27.59 l
0.95 16.77 l
0.94 0.98 l
0.95 -9.48 l
0.94 -10.38 l
0.95 -4.89 l
362.63 311.26 lineto
0.95 2.02 l
0.95 0.38 l
0.94 -1.11 l
0.95 -0.60 l
0.94 0.70 l
0.95 0.43 l
0.94 -2.03 l
0.95 -4.37 l
0.95 -3.60 l
0.94 0.85 l
0.95 5.95 l
0.94 7.24 l
0.95 2.73 l
0.95 -5.14 l
0.94 -11.10 l
0.95 -10.92 l
0.94 -4.71 l
0.95 3.49 l
0.94 8.81 l
0.95 9.06 l
0.95 5.77 l
0.94 2.11 l
0.95 0.04 l
0.94 -0.89 l
0.95 -2.37 l
0.94 -4.98 l
0.95 -7.08 l
0.95 -6.09 l
0.94 -0.92 l
0.95 6.55 l
0.94 12.32 l
0.95 12.88 l
0.95 7.57 l
0.94 -1.09 l
0.95 -9.02 l
0.94 -13.00 l
0.95 -12.10 l
0.94 -7.56 l
0.95 -1.66 l
0.95 3.40 l
0.94 6.08 l
0.95 5.79 l
0.94 2.96 l
0.95 -0.84 l
0.94 -3.42 l
0.95 -3.11 l
0.95 0.16 l
0.94 4.41 l
0.95 6.89 l
0.94 5.86 l
0.95 1.83 l
0.94 -2.73 l
0.95 -5.16 l
0.95 -4.55 l
0.94 -2.07 l
0.95 0.17 l
0.94 0.89 l
0.95 0.50 l
0.95 0.33 l
0.94 1.15 l
0.95 2.28 l
0.94 2.18 l
0.95 0.04 l
0.94 -3.17 l
0.95 -5.23 l
0.95 -4.41 l
0.94 -0.83 l
0.95 3.37 l
0.94 5.60 l
0.95 4.71 l
0.94 1.53 l
0.95 -1.85 l
0.95 -3.76 l
0.94 -3.84 l
0.95 -2.81 l
0.94 -1.41 l
0.95 0.16 l
0.95 1.98 l
0.94 3.65 l
0.95 4.18 l
0.94 2.67 l
0.95 -0.53 l
0.94 -3.53 l
0.95 -4.02 l
0.95 -1.20 l
0.94 3.36 l
0.95 6.40 l
0.94 5.41 l
0.95 0.57 l
0.94 -5.25 l
0.95 -8.38 l
0.95 -7.11 l
0.94 -2.74 l
0.95 1.54 l
0.94 3.16 l
0.95 2.02 l
0.94 0.26 l
0.95 0.13 l
0.95 2.10 l
457.21 309.90 lineto
0.95 4.37 l
0.94 1.32 l
0.95 -3.18 l
0.95 -6.16 l
0.94 -5.43 l
0.95 -1.34 l
0.94 3.47 l
0.95 5.93 l
0.94 4.63 l
0.95 0.63 l
0.95 -3.41 l
0.94 -5.11 l
0.95 -3.76 l
0.94 -0.53 l
0.95 2.50 l
0.94 3.68 l
0.95 2.57 l
0.95 0.04 l
0.94 -2.38 l
0.95 -3.30 l
0.94 -2.14 l
0.95 0.47 l
0.95 3.09 l
0.94 4.11 l
0.95 2.80 l
0.94 -0.18 l
0.95 -3.07 l
0.94 -4.09 l
0.95 -2.77 l
0.95 -0.23 l
0.94 1.56 l
0.95 1.34 l
0.94 -0.36 l
0.95 -1.65 l
0.94 -0.76 l
0.95 2.24 l
0.95 5.27 l
0.94 5.67 l
0.95 2.40 l
0.94 -2.95 l
0.95 -6.97 l
0.94 -6.92 l
0.95 -2.80 l
0.95 2.64 l
0.94 5.75 l
0.95 4.71 l
0.94 0.68 l
0.95 -3.18 l
0.95 -4.12 l
0.94 -1.81 l
0.95 1.64 l
0.94 3.49 l
0.95 2.50 l
0.94 -0.28 l
0.95 -2.56 l
0.95 -2.64 l
0.94 -0.77 l
0.95 1.38 l
0.94 2.14 l
0.95 1.11 l
0.94 -0.58 l
0.95 -1.47 l
0.95 -0.89 l
0.94 0.50 l
0.95 1.47 l
0.94 1.18 l
0.95 -0.10 l
0.95 -1.40 l
0.94 -1.85 l
0.95 -1.28 l
0.94 -0.13 l
0.95 0.93 l
0.94 1.56 l
0.95 1.77 l
0.95 1.55 l
0.94 0.87 l
0.95 -0.31 l
0.94 -1.69 l
0.95 -2.58 l
0.94 -2.33 l
0.95 -0.93 l
0.95 0.87 l
0.94 1.95 l
0.95 1.67 l
0.94 0.34 l
0.95 -0.95 l
0.94 -1.23 l
0.95 -0.37 l
0.95 0.82 l
0.94 1.34 l
0.95 0.76 l
0.94 -0.42 l
0.95 -1.21 l
0.95 -1.04 l
0.94 -0.16 l
0.95 0.58 l
0.94 0.54 l
0.95 -0.17 l
0.94 -0.78 l
551.79 305.42 lineto
0.95 0.43 l
0.94 1.53 l
0.95 1.83 l
0.94 1.01 l
0.95 -0.43 l
0.94 -1.57 l
0.95 -1.78 l
0.95 -1.15 l
0.94 -0.24 l
0.95 0.37 l
0.94 0.55 l
0.95 0.55 l
0.95 0.59 l
0.94 0.60 l
0.95 0.31 l
0.94 -0.34 l
0.95 -1.05 l
0.94 -1.27 l
0.95 -0.67 l
0.95 0.45 l
0.94 1.34 l
0.95 1.41 l
0.94 0.64 l
0.95 -0.33 l
0.94 -0.73 l
0.95 -0.33 l
0.95 0.47 l
0.94 0.90 l
0.95 0.58 l
0.94 -0.23 l
0.95 -0.85 l
0.94 -0.83 l
0.95 -0.27 l
0.95 0.20 l
0.94 0.09 l
0.95 -0.48 l
0.94 -0.87 l
0.95 -0.51 l
0.95 0.55 l
0.94 1.64 l
0.95 1.89 l
0.94 1.02 l
0.95 -0.44 l
0.94 -1.58 l
0.95 -1.75 l
0.95 -1.05 l
0.94 -0.13 l
0.95 0.38 l
0.94 0.37 l
0.95 0.24 l
0.92 0.40 l
o
0.00 0.00 600.00 600.00 cl
0 0 0 srgb
0.75 setlinewidth
[] 0 setdash
1 setlinecap
1 setlinejoin
10.00 setmiterlimit
np
77.96 73.44 m
472.88 0 l
o
np
77.96 73.44 m
0 -7.20 l
o
np
172.53 73.44 m
0 -7.20 l
o
np
267.11 73.44 m
0 -7.20 l
o
np
361.69 73.44 m
0 -7.20 l
o
np
456.27 73.44 m
0 -7.20 l
o
np
550.84 73.44 m
0 -7.20 l
o
/Font1 findfont 16 s
77.96 47.52 (0) .5 0 t
172.53 47.52 (100) .5 0 t
267.11 47.52 (200) .5 0 t
361.69 47.52 (300) .5 0 t
456.27 47.52 (400) .5 0 t
550.84 47.52 (500) .5 0 t
np
59.04 134.04 m
0 346.32 l
o
np
59.04 134.04 m
-7.20 0 l
o
np
59.04 220.62 m
-7.20 0 l
o
np
59.04 307.20 m
-7.20 0 l
o
np
59.04 393.78 m
-7.20 0 l
o
np
59.04 480.36 m
-7.20 0 l
o
41.76 134.04 (-0.4) .5 90 t
41.76 220.62 (-0.2) .5 90 t
41.76 307.20 (0.0) .5 90 t
41.76 393.78 (0.2) .5 90 t
41.76 480.36 (0.4) .5 90 t
np
59.04 73.44 m
510.72 0 l
0 467.52 l
-510.72 0 l
0 -467.52 l
o
0.00 0.00 600.00 600.00 cl
59.04 73.44 569.76 540.96 cl
0 0 1 srgb
0.75 setlinewidth
[] 0 setdash
1 setlinecap
1 setlinejoin
10.00 setmiterlimit
np
462.12 508.36 m
23.96 0 l
o
1 0 0 srgb
np
462.12 475.76 m
23.96 0 l
o
0 0 0 srgb
np
462.12 443.16 m
23.96 0 l
o
/Font1 findfont 16 s
498.05 502.62 (Y1) 0 0 t
498.05 470.02 (Y2) 0 0 t
498.05 437.42 (Y corrected) 0 0 t
ep
%%Trailer
%%Pages: 1
%%EOF
