%!PS-Adobe-2.0 EPSF-1.2
%%Creator: MATLAB, The MathWorks, Inc. Version 8.0.0.783 (R2012b). Operating System: Darwin 13.3.0 Darwin Kernel Version 13.3.0: Tue Jun  3 21:27:35 PDT 2014; root:xnu-2422.110.17~1/RELEASE_X86_64 x86_64.
%%Title: ./complex_simulation1.eps
%%CreationDate: 08/10/2014  16:34:38
%%DocumentNeededFonts: Helvetica
%%DocumentProcessColors: Cyan Magenta Yellow Black
%%Extensions: CMYK
%%Pages: 1
%%BoundingBox:    79   215   547   591
%%EndComments

%%BeginProlog
% MathWorks dictionary
/MathWorks 160 dict begin
% definition operators
/bdef {bind def} bind def
/ldef {load def} bind def
/xdef {exch def} bdef
/xstore {exch store} bdef
% operator abbreviations
/c  /clip ldef
/cc /concat ldef
/cp /closepath ldef
/gr /grestore ldef
/gs /gsave ldef
/mt /moveto ldef
/np /newpath ldef
/cm /currentmatrix ldef
/sm /setmatrix ldef
/rm /rmoveto ldef
/rl /rlineto ldef
/s {show newpath} bdef
/sc {setcmykcolor} bdef
/sr /setrgbcolor ldef
/sg /setgray ldef
/w /setlinewidth ldef
/j /setlinejoin ldef
/cap /setlinecap ldef
/rc {rectclip} bdef
/rf {rectfill} bdef
% page state control
/pgsv () def
/bpage {/pgsv save def} bdef
/epage {pgsv restore} bdef
/bplot /gsave ldef
/eplot {stroke grestore} bdef
% orientation switch
/portraitMode 0 def /landscapeMode 1 def /rotateMode 2 def
% coordinate system mappings
/dpi2point 0 def
% font control
/FontSize 0 def
/FMS {/FontSize xstore findfont [FontSize 0 0 FontSize neg 0 0]
  makefont setfont} bdef
/reencode {exch dup where {pop load} {pop StandardEncoding} ifelse
  exch dup 3 1 roll findfont dup length dict begin
  { 1 index /FID ne {def}{pop pop} ifelse } forall
  /Encoding exch def currentdict end definefont pop} bdef
/isroman {findfont /CharStrings get /Agrave known} bdef
/FMSR {3 1 roll 1 index dup isroman {reencode} {pop pop} ifelse
  exch FMS} bdef
/csm {1 dpi2point div -1 dpi2point div scale neg translate
 dup landscapeMode eq {pop -90 rotate}
  {rotateMode eq {90 rotate} if} ifelse} bdef
% line types: solid, dotted, dashed, dotdash
/SO { [] 0 setdash } bdef
/DO { [.5 dpi2point mul 4 dpi2point mul] 0 setdash } bdef
/DA { [6 dpi2point mul] 0 setdash } bdef
/DD { [.5 dpi2point mul 4 dpi2point mul 6 dpi2point mul 4
  dpi2point mul] 0 setdash } bdef
% macros for lines and objects
/L {lineto stroke} bdef
/MP {3 1 roll moveto 1 sub {rlineto} repeat} bdef
/AP {{rlineto} repeat} bdef
/PDlw -1 def
/W {/PDlw currentlinewidth def setlinewidth} def
/PP {closepath eofill} bdef
/DP {closepath stroke} bdef
/MR {4 -2 roll moveto dup  0 exch rlineto exch 0 rlineto
  neg 0 exch rlineto closepath} bdef
/FR {MR stroke} bdef
/PR {MR fill} bdef
/L1i {{currentfile picstr readhexstring pop} image} bdef
/tMatrix matrix def
/MakeOval {newpath tMatrix currentmatrix pop translate scale
0 0 1 0 360 arc tMatrix setmatrix} bdef
/FO {MakeOval stroke} bdef
/PO {MakeOval fill} bdef
/PD {currentlinewidth 2 div 0 360 arc fill
   PDlw -1 eq not {PDlw w /PDlw -1 def} if} def
/FA {newpath tMatrix currentmatrix pop translate scale
  0 0 1 5 -2 roll arc tMatrix setmatrix stroke} bdef
/PA {newpath tMatrix currentmatrix pop	translate 0 0 moveto scale
  0 0 1 5 -2 roll arc closepath tMatrix setmatrix fill} bdef
/FAn {newpath tMatrix currentmatrix pop translate scale
  0 0 1 5 -2 roll arcn tMatrix setmatrix stroke} bdef
/PAn {newpath tMatrix currentmatrix pop translate 0 0 moveto scale
  0 0 1 5 -2 roll arcn closepath tMatrix setmatrix fill} bdef
/vradius 0 def /hradius 0 def /lry 0 def
/lrx 0 def /uly 0 def /ulx 0 def /rad 0 def
/MRR {/vradius xdef /hradius xdef /lry xdef /lrx xdef /uly xdef
  /ulx xdef newpath tMatrix currentmatrix pop ulx hradius add uly
  vradius add translate hradius vradius scale 0 0 1 180 270 arc 
  tMatrix setmatrix lrx hradius sub uly vradius add translate
  hradius vradius scale 0 0 1 270 360 arc tMatrix setmatrix
  lrx hradius sub lry vradius sub translate hradius vradius scale
  0 0 1 0 90 arc tMatrix setmatrix ulx hradius add lry vradius sub
  translate hradius vradius scale 0 0 1 90 180 arc tMatrix setmatrix
  closepath} bdef
/FRR {MRR stroke } bdef
/PRR {MRR fill } bdef
/MlrRR {/lry xdef /lrx xdef /uly xdef /ulx xdef /rad lry uly sub 2 div def
  newpath tMatrix currentmatrix pop ulx rad add uly rad add translate
  rad rad scale 0 0 1 90 270 arc tMatrix setmatrix lrx rad sub lry rad
  sub translate rad rad scale 0 0 1 270 90 arc tMatrix setmatrix
  closepath} bdef
/FlrRR {MlrRR stroke } bdef
/PlrRR {MlrRR fill } bdef
/MtbRR {/lry xdef /lrx xdef /uly xdef /ulx xdef /rad lrx ulx sub 2 div def
  newpath tMatrix currentmatrix pop ulx rad add uly rad add translate
  rad rad scale 0 0 1 180 360 arc tMatrix setmatrix lrx rad sub lry rad
  sub translate rad rad scale 0 0 1 0 180 arc tMatrix setmatrix
  closepath} bdef
/FtbRR {MtbRR stroke } bdef
/PtbRR {MtbRR fill } bdef
/stri 6 array def /dtri 6 array def
/smat 6 array def /dmat 6 array def
/tmat1 6 array def /tmat2 6 array def /dif 3 array def
/asub {/ind2 exch def /ind1 exch def dup dup
  ind1 get exch ind2 get sub exch } bdef
/tri_to_matrix {
  2 0 asub 3 1 asub 4 0 asub 5 1 asub
  dup 0 get exch 1 get 7 -1 roll astore } bdef
/compute_transform {
  dmat dtri tri_to_matrix tmat1 invertmatrix 
  smat stri tri_to_matrix tmat2 concatmatrix } bdef
/ds {stri astore pop} bdef
/dt {dtri astore pop} bdef
/db {2 copy /cols xdef /rows xdef mul dup 3 mul string
  currentfile exch readhexstring pop
  dup 0 3 index getinterval /rbmap xdef
  dup 2 index dup getinterval /gbmap xdef
  1 index dup 2 mul exch getinterval /bbmap xdef pop pop}bdef
/it {gs np dtri aload pop moveto lineto lineto cp c
  cols rows 8 compute_transform 
  rbmap gbmap bbmap true 3 colorimage gr}bdef
/il {newpath moveto lineto stroke}bdef
currentdict end def
%%EndProlog

%%BeginSetup
MathWorks begin

0 cap

end
%%EndSetup

%%Page: 1 1
%%BeginPageSetup
%%PageBoundingBox:    79   215   547   591
MathWorks begin
bpage
%%EndPageSetup

%%BeginObject: obj1
bplot

/dpi2point 12 def
portraitMode 0216 7344 csm

  732   247  5623  4515 MR c np
85 dict begin %Colortable dictionary
/c0 { 0.000000 0.000000 0.000000 sr} bdef
/c1 { 1.000000 1.000000 1.000000 sr} bdef
/c2 { 0.900000 0.000000 0.000000 sr} bdef
/c3 { 0.000000 0.820000 0.000000 sr} bdef
/c4 { 0.000000 0.000000 0.800000 sr} bdef
/c5 { 0.910000 0.820000 0.320000 sr} bdef
/c6 { 1.000000 0.260000 0.820000 sr} bdef
/c7 { 0.000000 0.820000 0.820000 sr} bdef
c0
1 j
1 sg
   0    0 6924 5187 PR
6 w
0 4227 5365 0 0 -4227 900 4616 4 MP
PP
-5365 0 0 4227 5365 0 0 -4227 900 4616 5 MP stroke
4 w
DO
SO
6 w
0 sg
 900 4616 mt 6265 4616 L
 900  389 mt 6265  389 L
 900 4616 mt  900  389 L
6265 4616 mt 6265  389 L
 900 4616 mt 6265 4616 L
 900 4616 mt  900  389 L
 900 4616 mt  900 4562 L
 900  389 mt  900  442 L
%%IncludeResource: font Helvetica
/Helvetica /ISOLatin1Encoding 120 FMSR

 867 4761 mt 
(0) s
1436 4616 mt 1436 4562 L
1436  389 mt 1436  442 L
1353 4761 mt 
(0.1) s
1973 4616 mt 1973 4562 L
1973  389 mt 1973  442 L
1890 4761 mt 
(0.2) s
2509 4616 mt 2509 4562 L
2509  389 mt 2509  442 L
2426 4761 mt 
(0.3) s
3046 4616 mt 3046 4562 L
3046  389 mt 3046  442 L
2963 4761 mt 
(0.4) s
3582 4616 mt 3582 4562 L
3582  389 mt 3582  442 L
3499 4761 mt 
(0.5) s
4119 4616 mt 4119 4562 L
4119  389 mt 4119  442 L
4036 4761 mt 
(0.6) s
4655 4616 mt 4655 4562 L
4655  389 mt 4655  442 L
4572 4761 mt 
(0.7) s
5192 4616 mt 5192 4562 L
5192  389 mt 5192  442 L
5109 4761 mt 
(0.8) s
5728 4616 mt 5728 4562 L
5728  389 mt 5728  442 L
5645 4761 mt 
(0.9) s
6265 4616 mt 6265 4562 L
6265  389 mt 6265  442 L
6232 4761 mt 
(1) s
 900 4616 mt  953 4616 L
6265 4616 mt 6211 4616 L
 799 4660 mt 
(0) s
 900 4146 mt  953 4146 L
6265 4146 mt 6211 4146 L
 799 4190 mt 
(5) s
 900 3676 mt  953 3676 L
6265 3676 mt 6211 3676 L
 732 3720 mt 
(10) s
 900 3207 mt  953 3207 L
6265 3207 mt 6211 3207 L
 732 3251 mt 
(15) s
 900 2737 mt  953 2737 L
6265 2737 mt 6211 2737 L
 732 2781 mt 
(20) s
 900 2267 mt  953 2267 L
6265 2267 mt 6211 2267 L
 732 2311 mt 
(25) s
 900 1798 mt  953 1798 L
6265 1798 mt 6211 1798 L
 732 1842 mt 
(30) s
 900 1328 mt  953 1328 L
6265 1328 mt 6211 1328 L
 732 1372 mt 
(35) s
 900  858 mt  953  858 L
6265  858 mt 6211  858 L
 732  902 mt 
(40) s
 900  389 mt  953  389 L
6265  389 mt 6211  389 L
 732  433 mt 
(45) s
 900 4616 mt 6265 4616 L
 900  389 mt 6265  389 L
 900 4616 mt  900  389 L
6265 4616 mt 6265  389 L
gs 900 389 5366 4228 MR c np
/c8 { 0.000000 0.000000 1.000000 sr} bdef
c8
1 0 6 0 5 0 6 1 5 0 5 2 6 -2 5 10 
5 8 6 -2 5 30 6 9 5 54 5 35 6 62 5 77 
5 53 6 42 5 96 5 3 6 39 5 14 6 6 5 67 
5 22 6 94 5 11 5 21 6 79 5 15 5 38 6 -102 
5 -89 6 -52 5 -86 5 -104 6 -122 5 -100 5 -72 6 -65 
5 -36 5 -24 6 -11 5 -6 6 -10 5 -4 5 1 6 -2 
5 0 5 0 6 0 5 0 5 0 6 3 5 1 6 14 
5 6 5 37 6 30 5 36 5 85 6 124 5 13 5 76 
6 57 5 5 6 -25 5 -27 5 -82 6 -81 5 -55 5 -66 
6 -64 5 -23 6 -29 5 -23 5 0 6 -5 5 -5 5 9 
6 12 5 15 5 14 6 26 5 41 6 46 5 83 5 47 
6 46 5 70 5 0 6 34 5 2 5 -57 6 -35 5 -72 
6 -62 5 -64 5 -47 5739 4506 100 MP stroke
6 -53 5 -18 5 -11 6 -16 5 -5 5 -3 6 -3 5 2 
6 -2 5 -1 5 0 6 0 5 0 5 0 6 0 5 0 
5 0 6 0 5 0 6 0 5 0 5 0 6 0 5 0 
5 0 6 0 5 0 5 0 6 0 5 0 6 0 5 0 
5 0 6 0 5 0 5 0 6 0 5 0 6 0 5 0 
5 0 6 0 5 0 5 0 6 0 5 0 5 0 6 0 
5 0 6 0 5 0 5 0 6 0 5 0 5 0 6 0 
5 0 5 1 6 0 5 1 6 6 5 5 5 27 6 22 
5 36 5 17 6 87 5 138 5 118 6 161 5 94 6 59 
5 82 5 12 6 -7 5 -60 5 -96 6 -178 5 -102 5 -98 
6 -120 5 -55 6 -60 5 -51 5 -12 6 -10 5 -7 5 -4 
6 -4 5 -2 5 0 6 0 5 0 6 0 5 0 5 0 
6 0 5 0 5 0 5208 4616 100 MP stroke
6 0 5 0 6 0 5 0 5 0 6 0 5 0 5 0 
6 0 5 0 5 0 6 0 5 0 6 0 5 0 5 0 
6 0 5 0 5 0 6 0 5 0 5 0 6 0 5 0 
6 0 5 0 5 0 6 0 5 0 5 0 6 0 5 0 
5 0 6 0 5 0 6 0 5 0 5 0 6 0 5 0 
5 0 6 0 5 0 5 0 6 0 5 0 6 0 5 0 
5 0 6 0 5 0 5 0 6 0 5 0 5 0 6 0 
5 0 6 0 5 0 5 0 6 0 5 0 5 0 6 0 
5 0 5 0 6 0 5 0 6 0 5 0 5 0 6 0 
5 0 5 0 6 0 5 0 6 0 5 0 5 0 6 0 
5 0 5 0 6 0 5 0 5 0 6 0 5 0 6 0 
5 0 5 0 6 0 5 0 5 0 6 0 5 0 5 0 
6 0 5 0 6 0 4676 4616 100 MP stroke
5 0 5 0 6 0 5 0 5 0 6 0 5 0 5 0 
6 0 5 0 6 0 5 0 5 0 6 0 5 0 5 0 
6 0 5 0 5 0 6 0 5 0 6 0 5 0 5 0 
6 0 5 0 5 0 6 0 5 0 5 0 6 0 5 0 
6 0 5 0 5 0 6 0 5 0 5 0 6 0 5 0 
6 0 5 0 5 0 6 0 5 0 5 0 6 0 5 0 
5 0 6 0 5 0 6 0 5 0 5 0 6 0 5 0 
5 0 6 0 5 0 5 0 6 0 5 0 6 0 5 0 
5 0 6 0 5 0 5 0 6 0 5 0 5 0 6 0 
5 0 6 0 5 0 5 0 6 0 5 0 5 0 6 0 
5 0 5 0 6 0 5 0 6 0 5 0 5 0 6 0 
5 0 5 0 6 0 5 0 5 0 6 0 5 0 6 0 
5 0 5 0 6 0 4145 4616 100 MP stroke
5 0 5 0 6 0 5 0 6 0 5 0 5 0 6 0 
5 0 5 0 6 0 5 0 5 0 6 0 5 0 6 0 
5 0 5 0 6 0 5 0 5 0 6 0 5 0 5 0 
6 0 5 0 6 0 5 0 5 0 6 0 5 0 5 0 
6 0 5 0 5 0 6 0 5 0 6 0 5 0 5 0 
6 0 5 0 5 0 6 0 5 0 5 0 6 0 5 0 
6 0 5 0 5 0 6 0 5 0 5 0 6 0 5 0 
5 0 6 0 5 0 6 0 5 0 5 0 6 0 5 0 
5 1 6 -1 5 0 5 1 6 -1 5 2 6 9 5 -2 
5 24 6 12 5 27 5 20 6 61 5 43 6 41 5 85 
5 71 6 28 5 8 5 19 6 -29 5 -103 5 -32 6 -22 
5 -99 6 -15 5 -54 5 -33 6 -34 5 -1 5 -13 6 -5 
5 -5 5 -3 6 0 3614 4616 100 MP stroke
5 1 6 -1 5 0 5 0 6 0 5 0 5 0 6 0 
5 0 5 0 6 0 5 0 6 0 5 0 5 0 6 0 
5 0 5 0 6 0 5 0 5 0 6 0 5 0 6 0 
5 0 5 0 6 0 5 0 5 0 6 0 5 0 5 0 
6 0 5 0 6 0 5 0 5 0 6 0 5 0 5 0 
6 0 5 0 6 0 5 0 5 0 6 0 5 0 5 0 
6 0 5 0 5 0 6 0 5 0 6 0 5 0 5 0 
6 0 5 0 5 0 6 0 5 0 5 0 6 0 5 0 
6 0 5 0 5 0 6 0 5 0 5 0 6 0 5 0 
5 0 6 0 5 0 6 0 5 0 5 0 6 0 5 0 
5 0 6 0 5 0 5 0 6 0 5 0 6 0 5 0 
5 0 6 0 5 0 5 0 6 0 5 0 5 0 6 0 
5 0 6 0 5 0 3083 4616 100 MP stroke
5 0 6 0 5 0 5 0 6 0 5 0 6 0 5 0 
5 0 6 1 5 2 5 0 6 4 5 8 5 20 6 23 
5 43 6 73 5 63 5 84 6 92 5 74 5 62 6 -28 
5 -44 5 -60 6 -53 5 -101 6 -40 5 -29 5 10 6 75 
5 54 5 119 6 45 5 75 5 -81 6 -17 5 -31 6 -133 
5 -93 5 -59 6 -75 5 -42 5 -11 6 -20 5 -5 5 0 
6 10 5 6 6 24 5 19 5 48 6 69 5 33 5 85 
6 112 5 22 5 57 6 8 5 -13 6 -39 5 -55 5 -54 
6 -8 5 -38 5 31 6 20 5 56 5 42 6 63 5 27 
6 74 5 -39 5 68 6 -36 5 -58 5 36 6 -49 5 -34 
6 -27 5 -88 5 -46 6 -98 5 -31 5 -58 6 -61 5 -34 
5 -18 6 -7 5 -13 6 -5 5 -3 5 -3 6 0 5 0 
5 0 6 0 5 0 2552 4616 100 MP stroke
5 0 6 0 5 0 6 0 5 0 5 0 6 0 5 0 
5 0 6 0 5 0 5 0 6 0 5 0 6 0 5 0 
5 0 6 0 5 0 5 0 6 0 5 0 5 1 6 5 
5 5 6 2 5 16 5 54 6 33 5 77 5 96 6 124 
5 115 5 45 6 13 5 -9 6 -135 5 -84 5 -128 6 -41 
5 -55 5 25 6 25 5 38 6 48 5 71 5 65 6 49 
5 -24 5 20 6 -33 5 -97 5 -32 6 -54 5 -66 6 -58 
5 -33 5 -38 6 -18 5 -7 5 -8 6 -2 5 -3 5 -2 
6 0 5 0 6 0 5 0 5 0 6 0 5 0 5 0 
6 0 5 0 5 0 6 0 5 0 6 0 5 1 5 1 
6 3 5 6 5 17 6 31 5 50 5 64 6 78 5 128 
6 98 5 60 5 62 6 -40 5 -71 5 -104 6 -137 5 -60 
5 -98 6 -31 5 -33 2021 4591 100 MP stroke
6 -11 5 -7 5 -6 6 -1 5 0 5 0 6 0 5 0 
5 0 6 0 5 0 6 0 5 0 5 0 6 0 5 0 
5 0 6 0 5 0 6 0 5 0 5 0 6 0 5 0 
5 0 6 0 5 0 5 0 6 0 5 0 6 0 5 0 
5 0 6 0 5 0 5 0 6 0 5 0 5 0 6 0 
5 0 6 0 5 0 5 0 6 0 5 0 5 0 6 0 
5 0 5 0 6 0 5 0 6 0 5 0 5 0 6 0 
5 0 5 0 6 0 5 0 5 0 6 0 5 0 6 0 
5 0 5 0 6 0 5 0 5 0 6 0 5 0 5 0 
6 0 5 5 6 4 5 10 5 23 6 26 5 70 5 83 
6 102 5 146 6 95 5 223 5 56 6 119 5 -122 5 0 
6 -114 5 -76 5 -100 6 -147 5 -106 6 -68 5 -76 5 -44 
6 -47 5 -31 5 1 1490 4584 100 MP stroke
6 -14 5 -11 5 -4 6 -3 5 1 6 0 5 -1 5 0 
6 0 5 0 5 0 6 0 5 0 5 0 6 0 5 0 
6 0 5 0 5 0 6 0 5 0 5 0 6 0 5 0 
5 0 6 1 5 1 6 0 5 14 5 15 6 35 5 36 
5 81 6 105 5 114 5 145 6 135 5 116 6 8 5 20 
5 -75 6 -54 5 -54 5 -95 6 -74 5 -59 6 -101 5 -67 
5 -69 6 -38 5 -57 5 -38 6 -13 5 -23 5 -5 6 -2 
5 0 6 -1 5 0 5 0 6 -1 5 0 5 0 6 0 
5 0 5 0 6 0 5 0 6 0 5 0 5 0 6 0 
5 0 5 0 6 0 5 0 5 0 6 0 5 0 6 0 
5 0 5 0 6 0 5 0 5 0 6 0 5 0 5 0 
6 0 5 0 6 0 5 0 5 0 6 0 5 0 5 0 
6 0 5 0 5 0 959 4616 100 MP stroke
6 0 5 0 6 0 5 0 5 0 6 0 5 0 5 0 
6 0 5 0 5 0 900 4616 12 MP stroke
DD
0 sg
1 0 6 0 5 0 6 0 5 0 5 0 6 0 5 0 
5 0 6 1 5 2 6 8 5 16 5 35 6 61 5 93 
5 123 6 132 5 112 5 59 6 -10 5 -67 6 -90 5 -66 
5 -1 6 79 5 147 5 181 6 174 5 129 5 52 6 -49 
5 -151 6 -222 5 -242 5 -208 6 -147 5 -85 5 -42 6 -16 
5 -6 5 -2 6 0 5 0 6 0 5 0 5 0 6 0 
5 0 5 0 6 0 5 0 5 0 6 0 5 0 6 0 
5 0 5 1 6 4 5 15 5 41 6 92 5 162 5 216 
6 203 5 98 6 -59 5 -183 5 -221 6 -180 5 -110 5 -52 
6 -20 5 -6 6 -1 5 0 5 0 6 0 5 0 5 0 
6 0 5 1 5 2 6 8 5 18 6 40 5 71 5 110 
6 141 5 144 5 108 6 34 5 -51 5 -119 6 -146 5 -136 
6 -102 5 -64 5 -35 5739 4591 100 MP stroke
6 -15 5 -7 5 -2 6 0 5 0 5 0 6 0 5 0 
6 0 5 0 5 0 6 0 5 0 5 0 6 0 5 -1 
5 0 6 0 5 0 6 0 5 0 5 0 6 0 5 0 
5 0 6 0 5 0 5 0 6 0 5 0 6 0 5 0 
5 0 6 0 5 0 5 0 6 0 5 0 6 0 5 0 
5 0 6 0 5 0 5 0 6 0 5 0 5 0 6 0 
5 0 6 0 5 0 5 0 6 1 5 0 5 0 6 0 
5 0 5 0 6 0 5 0 6 0 5 0 5 0 6 0 
5 3 5 9 6 29 5 73 5 149 6 245 5 313 6 301 
5 189 5 19 6 -138 5 -232 5 -259 6 -236 5 -187 5 -130 
6 -78 5 -41 6 -19 5 -7 5 -3 6 0 5 0 5 0 
6 0 5 0 5 0 6 0 5 0 6 0 5 0 5 0 
6 0 5 -1 5 0 5208 4616 100 MP stroke
6 0 5 0 5 0 6 0 5 0 6 0 5 0 5 0 
6 0 5 0 5 0 6 0 5 0 6 0 5 0 5 0 
6 0 5 0 5 0 6 0 5 0 5 0 6 0 5 0 
6 0 5 0 5 0 6 0 5 0 5 0 6 0 5 0 
5 0 6 0 5 0 6 0 5 0 5 0 6 0 5 0 
5 0 6 0 5 0 5 0 6 0 5 0 6 0 5 0 
5 0 6 0 5 0 5 0 6 0 5 0 5 0 6 0 
5 0 6 0 5 0 5 0 6 0 5 0 5 0 6 0 
5 0 5 0 6 0 5 0 6 0 5 0 5 0 6 0 
5 0 5 0 6 0 5 0 6 0 5 0 5 0 6 0 
5 0 5 0 6 0 5 0 5 0 6 0 5 0 6 0 
5 0 5 0 6 0 5 0 5 0 6 0 5 0 5 0 
6 0 5 0 6 0 4676 4616 100 MP stroke
5 0 5 0 6 0 5 0 5 0 6 0 5 0 5 0 
6 0 5 0 6 0 5 0 5 0 6 0 5 0 5 0 
6 0 5 0 5 0 6 0 5 0 6 0 5 0 5 0 
6 0 5 0 5 0 6 0 5 0 5 0 6 0 5 0 
6 0 5 0 5 0 6 0 5 0 5 0 6 0 5 0 
6 0 5 0 5 0 6 0 5 0 5 0 6 0 5 0 
5 0 6 0 5 0 6 0 5 0 5 0 6 0 5 0 
5 0 6 0 5 0 5 0 6 0 5 0 6 0 5 0 
5 0 6 0 5 0 5 0 6 0 5 0 5 0 6 0 
5 0 6 0 5 0 5 0 6 0 5 0 5 0 6 0 
5 0 5 0 6 0 5 0 6 0 5 0 5 0 6 0 
5 0 5 0 6 0 5 0 5 0 6 0 5 0 6 0 
5 0 5 0 6 0 4145 4616 100 MP stroke
5 0 5 0 6 0 5 0 5 0 6 0 5 0 6 0 
5 0 5 0 6 0 5 0 5 0 6 0 5 0 6 0 
5 0 5 0 6 0 5 0 5 0 6 0 5 0 5 0 
6 0 5 0 6 0 5 0 5 0 6 0 5 0 5 0 
6 0 5 0 5 0 6 0 5 0 6 0 5 0 5 0 
6 0 5 0 5 0 6 0 5 0 5 0 6 0 5 0 
6 0 5 0 5 0 6 0 5 0 5 0 6 0 5 0 
5 0 6 0 5 1 6 0 5 0 5 0 6 0 5 0 
5 0 6 0 5 0 5 0 6 0 5 0 6 0 5 0 
5 1 6 3 5 8 5 17 6 35 5 59 6 89 5 115 
5 124 6 106 5 59 5 -5 6 -70 5 -111 5 -125 6 -111 
5 -83 6 -55 5 -31 5 -15 6 -7 5 -2 5 -1 6 0 
5 0 5 0 6 0 3614 4615 100 MP stroke
5 0 6 0 5 0 5 0 6 0 5 0 5 0 6 0 
5 0 5 -1 6 0 5 0 6 0 5 0 5 0 6 0 
5 0 5 0 6 0 5 0 5 0 6 0 5 0 6 0 
5 0 5 0 6 0 5 0 5 0 6 0 5 0 5 0 
6 0 5 0 6 0 5 0 5 0 6 0 5 0 5 0 
6 0 5 0 6 0 5 0 5 0 6 0 5 0 5 0 
6 0 5 0 5 0 6 0 5 0 6 0 5 0 5 0 
6 0 5 0 5 0 6 0 5 0 5 0 6 0 5 0 
6 0 5 0 5 0 6 0 5 0 5 0 6 0 5 0 
5 0 6 0 5 0 6 0 5 0 5 0 6 0 5 0 
5 0 6 0 5 0 5 0 6 0 5 0 6 0 5 0 
5 0 6 0 5 0 5 0 6 0 5 0 5 0 6 0 
5 0 6 0 5 0 3083 4616 100 MP stroke
5 0 6 0 5 0 5 0 6 0 5 0 5 0 6 0 
5 1 6 0 5 0 5 0 6 0 5 0 5 0 6 0 
5 1 6 6 5 30 5 103 6 237 5 354 5 291 6 9 
5 -280 5 -357 6 -245 5 -108 6 -33 5 -7 5 -1 6 1 
5 19 5 157 6 560 5 744 5 -44 6 -765 5 -520 6 -136 
5 -16 5 0 6 0 5 0 5 0 6 0 5 0 5 0 
6 0 5 0 6 0 5 1 5 4 6 18 5 53 5 120 
6 206 5 254 5 195 6 30 5 -155 6 -248 5 -223 5 -135 
6 -47 5 18 5 65 6 102 5 127 5 129 6 101 5 50 
6 -3 5 -36 5 -34 6 -5 5 27 5 39 6 14 5 -35 
6 -88 5 -124 5 -130 6 -111 5 -81 5 -50 6 -27 5 -13 
5 -6 6 -2 5 0 6 0 5 0 5 0 6 0 5 0 
5 0 6 0 5 0 2552 4615 100 MP stroke
5 0 6 0 5 0 6 0 5 -1 5 0 6 0 5 0 
5 0 6 0 5 0 5 0 6 0 5 0 6 0 5 0 
5 0 6 0 5 0 5 0 6 0 5 0 5 0 6 0 
5 0 6 0 5 1 5 0 6 0 5 0 5 0 6 0 
5 50 5 2072 6 288 5 -2336 6 -74 5 0 5 0 6 2 
5 5 5 13 6 32 5 61 6 102 5 140 5 155 6 128 
5 57 5 -35 6 -115 5 -152 5 -147 6 -112 5 -70 6 -38 
5 -17 5 -6 6 -3 5 0 5 0 6 0 5 0 5 0 
6 0 5 0 6 0 5 0 5 0 6 0 5 0 5 -1 
6 0 5 0 5 0 6 0 5 0 6 0 5 0 5 0 
6 0 5 0 5 0 6 0 5 0 5 0 6 1 5 0 
6 0 5 454 5 3508 6 -3571 5 -391 5 0 6 0 5 -1 
5 0 6 0 5 0 2021 4616 100 MP stroke
6 0 5 0 5 0 6 0 5 0 5 0 6 0 5 0 
5 0 6 0 5 0 6 0 5 0 5 0 6 0 5 0 
5 0 6 0 5 0 6 0 5 0 5 0 6 0 5 0 
5 0 6 0 5 0 5 0 6 0 5 0 6 0 5 0 
5 0 6 0 5 0 5 0 6 0 5 0 5 0 6 0 
5 0 6 0 5 0 5 0 6 0 5 0 5 0 6 0 
5 0 5 0 6 0 5 0 6 0 5 0 5 0 6 0 
5 0 5 0 6 0 5 0 5 0 6 0 5 1 6 0 
5 0 5 0 6 0 5 0 5 0 6 0 5 0 5 0 
6 0 5 0 6 0 5 0 5 0 6 1 5 4 5 10 
6 30 5 97 6 265 5 498 5 544 6 196 5 -256 5 -396 
6 -277 5 -163 5 -130 6 -125 5 -108 6 -82 5 -53 5 -30 
6 -15 5 -7 5 -2 1490 4614 100 MP stroke
6 -1 5 0 5 0 6 0 5 0 6 0 5 0 5 0 
6 0 5 0 5 0 6 0 5 0 5 0 6 -1 5 0 
6 0 5 0 5 0 6 0 5 0 5 1 6 0 5 0 
5 0 6 0 5 0 6 0 5 0 5 0 6 0 5 0 
5 0 6 1 5 3 5 54 6 759 5 1697 6 -1007 5 -1055 
5 42 6 146 5 79 5 -24 6 -116 5 -164 6 -159 5 -120 
5 -74 6 -38 5 -16 5 -6 6 -2 5 0 5 0 6 0 
5 0 6 0 5 0 5 0 6 0 5 0 5 0 6 0 
5 -1 5 0 6 0 5 0 6 0 5 0 5 0 6 0 
5 0 5 0 6 0 5 0 5 0 6 0 5 0 6 0 
5 0 5 0 6 0 5 0 5 0 6 0 5 0 5 0 
6 0 5 0 6 0 5 0 5 0 6 0 5 0 5 0 
6 0 5 0 5 0 959 4616 100 MP stroke
6 0 5 0 6 0 5 0 5 0 6 0 5 0 5 0 
6 0 5 0 5 0 900 4616 12 MP stroke
gr

DD
 883 4659 mt 
( ) s
6249  431 mt 
( ) s
SO
1 sg
0 612 1439 0 0 -612 4767 1061 4 MP
PP
-1439 0 0 612 1439 0 0 -612 4767 1061 5 MP stroke
4 w
DO
SO
6 w
0 sg
4767 1061 mt 6206 1061 L
4767  449 mt 6206  449 L
4767 1061 mt 4767  449 L
6206 1061 mt 6206  449 L
4767 1061 mt 6206 1061 L
4767 1061 mt 4767  449 L
4767 1061 mt 6206 1061 L
4767  449 mt 6206  449 L
4767 1061 mt 4767  449 L
6206 1061 mt 6206  449 L
%%IncludeResource: font Helvetica
/Helvetica /ISOLatin1Encoding 240 FMSR

5224  697 mt 
(PDF of y) s
gs 4767 449 1440 613 MR c np
c8
351 0 4837 611 2 MP stroke
gr

c8
0 sg
5224  984 mt 
(PDF of x) s
gs 4767 449 1440 613 MR c np
DD
351 0 4837 898 2 MP stroke
SO
gr


end %%Color Dict

eplot
%%EndObject

epage
end

showpage

%%Trailer
%%EOF
