%!PS-Adobe-2.0 EPSF-1.2
%%Creator: MATLAB, The MathWorks, Inc. Version 8.0.0.783 (R2012b). Operating System: Darwin 13.3.0 Darwin Kernel Version 13.3.0: Tue Jun  3 21:27:35 PDT 2014; root:xnu-2422.110.17~1/RELEASE_X86_64 x86_64.
%%Title: ./figure_complex_distribution.eps
%%CreationDate: 08/10/2014  14:50:59
%%DocumentNeededFonts: Helvetica
%%DocumentProcessColors: Cyan Magenta Yellow Black
%%Extensions: CMYK
%%Pages: 1
%%BoundingBox:    79   215   551   614
%%EndComments

%%BeginProlog
% MathWorks dictionary
/MathWorks 160 dict begin
% definition operators
/bdef {bind def} bind def
/ldef {load def} bind def
/xdef {exch def} bdef
/xstore {exch store} bdef
% operator abbreviations
/c  /clip ldef
/cc /concat ldef
/cp /closepath ldef
/gr /grestore ldef
/gs /gsave ldef
/mt /moveto ldef
/np /newpath ldef
/cm /currentmatrix ldef
/sm /setmatrix ldef
/rm /rmoveto ldef
/rl /rlineto ldef
/s {show newpath} bdef
/sc {setcmykcolor} bdef
/sr /setrgbcolor ldef
/sg /setgray ldef
/w /setlinewidth ldef
/j /setlinejoin ldef
/cap /setlinecap ldef
/rc {rectclip} bdef
/rf {rectfill} bdef
% page state control
/pgsv () def
/bpage {/pgsv save def} bdef
/epage {pgsv restore} bdef
/bplot /gsave ldef
/eplot {stroke grestore} bdef
% orientation switch
/portraitMode 0 def /landscapeMode 1 def /rotateMode 2 def
% coordinate system mappings
/dpi2point 0 def
% font control
/FontSize 0 def
/FMS {/FontSize xstore findfont [FontSize 0 0 FontSize neg 0 0]
  makefont setfont} bdef
/reencode {exch dup where {pop load} {pop StandardEncoding} ifelse
  exch dup 3 1 roll findfont dup length dict begin
  { 1 index /FID ne {def}{pop pop} ifelse } forall
  /Encoding exch def currentdict end definefont pop} bdef
/isroman {findfont /CharStrings get /Agrave known} bdef
/FMSR {3 1 roll 1 index dup isroman {reencode} {pop pop} ifelse
  exch FMS} bdef
/csm {1 dpi2point div -1 dpi2point div scale neg translate
 dup landscapeMode eq {pop -90 rotate}
  {rotateMode eq {90 rotate} if} ifelse} bdef
% line types: solid, dotted, dashed, dotdash
/SO { [] 0 setdash } bdef
/DO { [.5 dpi2point mul 4 dpi2point mul] 0 setdash } bdef
/DA { [6 dpi2point mul] 0 setdash } bdef
/DD { [.5 dpi2point mul 4 dpi2point mul 6 dpi2point mul 4
  dpi2point mul] 0 setdash } bdef
% macros for lines and objects
/L {lineto stroke} bdef
/MP {3 1 roll moveto 1 sub {rlineto} repeat} bdef
/AP {{rlineto} repeat} bdef
/PDlw -1 def
/W {/PDlw currentlinewidth def setlinewidth} def
/PP {closepath eofill} bdef
/DP {closepath stroke} bdef
/MR {4 -2 roll moveto dup  0 exch rlineto exch 0 rlineto
  neg 0 exch rlineto closepath} bdef
/FR {MR stroke} bdef
/PR {MR fill} bdef
/L1i {{currentfile picstr readhexstring pop} image} bdef
/tMatrix matrix def
/MakeOval {newpath tMatrix currentmatrix pop translate scale
0 0 1 0 360 arc tMatrix setmatrix} bdef
/FO {MakeOval stroke} bdef
/PO {MakeOval fill} bdef
/PD {currentlinewidth 2 div 0 360 arc fill
   PDlw -1 eq not {PDlw w /PDlw -1 def} if} def
/FA {newpath tMatrix currentmatrix pop translate scale
  0 0 1 5 -2 roll arc tMatrix setmatrix stroke} bdef
/PA {newpath tMatrix currentmatrix pop	translate 0 0 moveto scale
  0 0 1 5 -2 roll arc closepath tMatrix setmatrix fill} bdef
/FAn {newpath tMatrix currentmatrix pop translate scale
  0 0 1 5 -2 roll arcn tMatrix setmatrix stroke} bdef
/PAn {newpath tMatrix currentmatrix pop translate 0 0 moveto scale
  0 0 1 5 -2 roll arcn closepath tMatrix setmatrix fill} bdef
/vradius 0 def /hradius 0 def /lry 0 def
/lrx 0 def /uly 0 def /ulx 0 def /rad 0 def
/MRR {/vradius xdef /hradius xdef /lry xdef /lrx xdef /uly xdef
  /ulx xdef newpath tMatrix currentmatrix pop ulx hradius add uly
  vradius add translate hradius vradius scale 0 0 1 180 270 arc 
  tMatrix setmatrix lrx hradius sub uly vradius add translate
  hradius vradius scale 0 0 1 270 360 arc tMatrix setmatrix
  lrx hradius sub lry vradius sub translate hradius vradius scale
  0 0 1 0 90 arc tMatrix setmatrix ulx hradius add lry vradius sub
  translate hradius vradius scale 0 0 1 90 180 arc tMatrix setmatrix
  closepath} bdef
/FRR {MRR stroke } bdef
/PRR {MRR fill } bdef
/MlrRR {/lry xdef /lrx xdef /uly xdef /ulx xdef /rad lry uly sub 2 div def
  newpath tMatrix currentmatrix pop ulx rad add uly rad add translate
  rad rad scale 0 0 1 90 270 arc tMatrix setmatrix lrx rad sub lry rad
  sub translate rad rad scale 0 0 1 270 90 arc tMatrix setmatrix
  closepath} bdef
/FlrRR {MlrRR stroke } bdef
/PlrRR {MlrRR fill } bdef
/MtbRR {/lry xdef /lrx xdef /uly xdef /ulx xdef /rad lrx ulx sub 2 div def
  newpath tMatrix currentmatrix pop ulx rad add uly rad add translate
  rad rad scale 0 0 1 180 360 arc tMatrix setmatrix lrx rad sub lry rad
  sub translate rad rad scale 0 0 1 0 180 arc tMatrix setmatrix
  closepath} bdef
/FtbRR {MtbRR stroke } bdef
/PtbRR {MtbRR fill } bdef
/stri 6 array def /dtri 6 array def
/smat 6 array def /dmat 6 array def
/tmat1 6 array def /tmat2 6 array def /dif 3 array def
/asub {/ind2 exch def /ind1 exch def dup dup
  ind1 get exch ind2 get sub exch } bdef
/tri_to_matrix {
  2 0 asub 3 1 asub 4 0 asub 5 1 asub
  dup 0 get exch 1 get 7 -1 roll astore } bdef
/compute_transform {
  dmat dtri tri_to_matrix tmat1 invertmatrix 
  smat stri tri_to_matrix tmat2 concatmatrix } bdef
/ds {stri astore pop} bdef
/dt {dtri astore pop} bdef
/db {2 copy /cols xdef /rows xdef mul dup 3 mul string
  currentfile exch readhexstring pop
  dup 0 3 index getinterval /rbmap xdef
  dup 2 index dup getinterval /gbmap xdef
  1 index dup 2 mul exch getinterval /bbmap xdef pop pop}bdef
/it {gs np dtri aload pop moveto lineto lineto cp c
  cols rows 8 compute_transform 
  rbmap gbmap bbmap true 3 colorimage gr}bdef
/il {newpath moveto lineto stroke}bdef
currentdict end def
%%EndProlog

%%BeginSetup
MathWorks begin

0 cap

end
%%EndSetup

%%Page: 1 1
%%BeginPageSetup
%%PageBoundingBox:    79   215   551   614
MathWorks begin
bpage
%%EndPageSetup

%%BeginObject: obj1
bplot

/dpi2point 12 def
portraitMode 0216 7344 csm

  732   -29  5665  4791 MR c np
85 dict begin %Colortable dictionary
/c0 { 0.000000 0.000000 0.000000 sr} bdef
/c1 { 1.000000 1.000000 1.000000 sr} bdef
/c2 { 0.900000 0.000000 0.000000 sr} bdef
/c3 { 0.000000 0.820000 0.000000 sr} bdef
/c4 { 0.000000 0.000000 0.800000 sr} bdef
/c5 { 0.910000 0.820000 0.320000 sr} bdef
/c6 { 1.000000 0.260000 0.820000 sr} bdef
/c7 { 0.000000 0.820000 0.820000 sr} bdef
c0
1 j
1 sg
   0    0 6924 5187 PR
6 w
0 4227 5365 0 0 -4227 899 4616 4 MP
PP
-5365 0 0 4227 5365 0 0 -4227 899 4616 5 MP stroke
4 w
DO
SO
6 w
0 sg
 899 4616 mt 6264 4616 L
 899  389 mt 6264  389 L
 899 4616 mt  899  389 L
6264 4616 mt 6264  389 L
 899 4616 mt 6264 4616 L
 899 4616 mt  899  389 L
 899 4616 mt  899 4562 L
 899  389 mt  899  442 L
%%IncludeResource: font Helvetica
/Helvetica /ISOLatin1Encoding 120 FMSR

 746 4761 mt 
(-0.2) s
1666 4616 mt 1666 4562 L
1666  389 mt 1666  442 L
1633 4761 mt 
(0) s
2432 4616 mt 2432 4562 L
2432  389 mt 2432  442 L
2349 4761 mt 
(0.2) s
3199 4616 mt 3199 4562 L
3199  389 mt 3199  442 L
3116 4761 mt 
(0.4) s
3965 4616 mt 3965 4562 L
3965  389 mt 3965  442 L
3882 4761 mt 
(0.6) s
4732 4616 mt 4732 4562 L
4732  389 mt 4732  442 L
4649 4761 mt 
(0.8) s
5498 4616 mt 5498 4562 L
5498  389 mt 5498  442 L
5465 4761 mt 
(1) s
6265 4616 mt 6265 4562 L
6265  389 mt 6265  442 L
6182 4761 mt 
(1.2) s
 899 4616 mt  953 4616 L
6265 4616 mt 6211 4616 L
 799 4660 mt 
(0) s
 899 4146 mt  953 4146 L
6265 4146 mt 6211 4146 L
 799 4190 mt 
(5) s
 899 3676 mt  953 3676 L
6265 3676 mt 6211 3676 L
 732 3720 mt 
(10) s
 899 3207 mt  953 3207 L
6265 3207 mt 6211 3207 L
 732 3251 mt 
(15) s
 899 2737 mt  953 2737 L
6265 2737 mt 6211 2737 L
 732 2781 mt 
(20) s
 899 2267 mt  953 2267 L
6265 2267 mt 6211 2267 L
 732 2311 mt 
(25) s
 899 1798 mt  953 1798 L
6265 1798 mt 6211 1798 L
 732 1842 mt 
(30) s
 899 1328 mt  953 1328 L
6265 1328 mt 6211 1328 L
 732 1372 mt 
(35) s
 899  858 mt  953  858 L
6265  858 mt 6211  858 L
 732  902 mt 
(40) s
 899  389 mt  953  389 L
6265  389 mt 6211  389 L
 732  433 mt 
(45) s
 899 4616 mt 6264 4616 L
 899  389 mt 6264  389 L
 899 4616 mt  899  389 L
6264 4616 mt 6264  389 L
gs 899 389 5367 4228 MR c np
/c8 { 0.000000 0.000000 1.000000 sr} bdef
c8
4 0 3 0 4 0 4 0 4 0 4 0 4 0 3 0 
4 0 4 0 4 0 4 0 4 0 3 0 4 0 4 0 
4 0 4 0 4 0 3 0 4 0 4 0 4 0 4 0 
4 0 3 0 4 0 4 0 4 0 4 0 4 0 3 0 
4 0 4 0 4 0 4 0 4 0 3 0 4 0 4 0 
4 0 4 0 3 0 4 0 4 0 4 0 4 0 4 0 
3 0 4 0 4 0 4 0 4 0 4 0 3 0 4 0 
4 0 4 0 4 0 4 0 3 0 4 0 4 0 4 0 
4 0 4 0 3 0 4 0 4 0 4 0 4 0 4 0 
3 0 4 0 4 0 4 0 4 0 4 0 3 0 4 0 
4 0 4 0 4 0 4 0 3 0 4 0 4 0 4 0 
4 0 4 0 3 0 4 0 4 0 4 0 4 1 4 0 
3 0 4 0 4 0 5502 4615 100 MP stroke
4 0 4 0 4 0 3 0 4 0 4 0 4 0 4 0 
4 0 3 1 4 2 4 8 4 16 4 35 4 61 3 93 
4 123 4 132 4 112 4 59 4 -10 3 -67 4 -90 4 -66 
4 -1 4 79 4 147 3 181 4 174 4 129 4 52 4 -49 
4 -151 3 -222 4 -242 4 -208 4 -147 4 -85 4 -42 3 -16 
4 -6 4 -2 4 0 4 0 4 0 3 0 4 0 4 0 
4 0 4 0 4 0 3 0 4 0 4 0 4 0 4 0 
4 0 3 1 4 4 4 15 4 41 4 92 4 162 3 216 
4 203 4 98 4 -59 4 -183 4 -221 3 -180 4 -110 4 -52 
4 -20 4 -6 4 -1 3 0 4 0 4 0 4 0 4 0 
3 0 4 1 4 2 4 8 4 18 4 40 3 71 4 110 
4 141 4 144 4 108 4 34 3 -51 4 -119 4 -146 4 -136 
4 -102 4 -64 3 -35 5123 4591 100 MP stroke
4 -15 4 -7 4 -2 4 0 4 0 3 0 4 0 4 0 
4 0 4 0 4 0 3 0 4 0 4 0 4 0 4 -1 
4 0 3 0 4 0 4 0 4 0 4 0 4 0 3 0 
4 0 4 0 4 0 4 0 4 0 3 0 4 0 4 0 
4 0 4 0 4 0 3 0 4 0 4 0 4 0 4 0 
4 0 3 0 4 0 4 0 4 0 4 0 4 0 3 0 
4 0 4 0 4 0 4 0 4 1 3 0 4 0 4 0 
4 0 4 0 4 0 3 0 4 0 4 0 4 0 4 0 
4 3 3 9 4 29 4 73 4 149 4 245 4 313 3 301 
4 189 4 19 4 -138 4 -232 4 -259 3 -236 4 -187 4 -130 
4 -78 4 -41 4 -19 3 -7 4 -3 4 0 4 0 4 0 
4 0 3 0 4 0 4 0 4 0 4 0 4 0 3 0 
4 0 4 -1 4 0 4743 4616 100 MP stroke
4 0 4 0 3 0 4 0 4 0 4 0 4 0 4 0 
3 0 4 0 4 0 4 0 4 0 4 0 3 0 4 0 
4 0 4 0 4 0 4 0 3 0 4 0 4 0 4 0 
4 0 3 0 4 0 4 0 4 0 4 0 4 0 3 0 
4 0 4 0 4 0 4 0 4 0 3 0 4 0 4 0 
4 0 4 0 4 0 3 0 4 0 4 0 4 0 4 0 
4 0 3 0 4 0 4 0 4 0 4 0 4 0 3 0 
4 0 4 0 4 0 4 0 4 0 3 0 4 0 4 0 
4 0 4 0 4 0 3 0 4 0 4 0 4 0 4 0 
4 0 3 0 4 0 4 0 4 0 4 0 4 0 3 0 
4 0 4 0 4 0 4 0 4 0 3 0 4 0 4 0 
4 0 4 0 4 0 3 0 4 0 4 0 4 0 4 0 
4 0 3 0 4 0 4364 4616 100 MP stroke
4 0 4 0 4 0 4 0 3 0 4 0 4 0 4 0 
4 0 4 0 3 0 4 0 4 0 4 0 4 0 4 0 
3 0 4 0 4 0 4 0 4 0 4 0 3 0 4 0 
4 0 4 0 4 0 4 0 3 0 4 0 4 0 4 0 
4 0 4 0 3 0 4 0 4 0 4 0 4 0 4 0 
3 0 4 0 4 0 4 0 4 0 4 0 3 0 4 0 
4 0 4 0 4 0 4 0 3 0 4 0 4 0 4 0 
4 0 4 0 3 0 4 0 4 0 4 0 4 0 4 0 
3 0 4 0 4 0 4 0 4 0 3 0 4 0 4 0 
4 0 4 0 4 0 3 0 4 0 4 0 4 0 4 0 
4 0 3 0 4 0 4 0 4 0 4 0 4 0 3 0 
4 0 4 0 4 0 4 0 4 0 3 0 4 0 4 0 
4 0 4 0 4 0 3984 4616 100 MP stroke
3 0 4 0 4 0 4 0 4 0 4 0 3 0 4 0 
4 0 4 0 4 0 4 0 3 0 4 0 4 0 4 0 
4 0 4 0 3 0 4 0 4 0 4 0 4 0 4 0 
3 0 4 0 4 0 4 0 4 0 4 0 3 0 4 0 
4 0 4 0 4 0 4 0 3 0 4 0 4 0 4 0 
4 0 4 0 3 0 4 0 4 0 4 0 4 0 4 0 
3 0 4 0 4 0 4 0 4 0 4 0 3 0 4 0 
4 0 4 0 4 1 4 0 3 0 4 0 4 0 4 0 
4 0 4 0 3 0 4 0 4 0 4 0 4 0 4 0 
3 1 4 3 4 8 4 17 4 35 4 59 3 89 4 115 
4 124 4 106 4 59 4 -5 3 -70 4 -111 4 -125 4 -111 
4 -83 4 -55 3 -31 4 -15 4 -7 4 -2 4 -1 4 0 
3 0 4 0 4 0 3605 4615 100 MP stroke
4 0 4 0 4 0 3 0 4 0 4 0 4 0 4 0 
3 0 4 -1 4 0 4 0 4 0 4 0 3 0 4 0 
4 0 4 0 4 0 4 0 3 0 4 0 4 0 4 0 
4 0 4 0 3 0 4 0 4 0 4 0 4 0 4 0 
3 0 4 0 4 0 4 0 4 0 4 0 3 0 4 0 
4 0 4 0 4 0 4 0 3 0 4 0 4 0 4 0 
4 0 4 0 3 0 4 0 4 0 4 0 4 0 4 0 
3 0 4 0 4 0 4 0 4 0 4 0 3 0 4 0 
4 0 4 0 4 0 4 0 3 0 4 0 4 0 4 0 
4 0 4 0 3 0 4 0 4 0 4 0 4 0 4 0 
3 0 4 0 4 0 4 0 4 0 4 0 3 0 4 0 
4 0 4 0 4 0 4 0 3 0 4 0 4 0 4 0 
4 0 4 0 3 0 3226 4616 100 MP stroke
4 0 4 0 4 0 4 0 4 0 3 0 4 0 4 0 
4 1 4 0 4 0 3 0 4 0 4 0 4 0 4 0 
4 1 3 6 4 30 4 103 4 237 4 354 4 291 3 9 
4 -280 4 -357 4 -245 4 -108 4 -33 3 -7 4 -1 4 1 
4 19 4 157 4 560 3 744 4 -44 4 -765 4 -520 4 -136 
4 -16 3 0 4 0 4 0 4 0 4 0 4 0 3 0 
4 0 4 0 4 0 4 1 3 4 4 18 4 53 4 120 
4 206 4 254 3 195 4 30 4 -155 4 -248 4 -223 4 -135 
3 -47 4 18 4 65 4 102 4 127 4 129 3 101 4 50 
4 -3 4 -36 4 -34 4 -5 3 27 4 39 4 14 4 -35 
4 -88 4 -124 3 -130 4 -111 4 -81 4 -50 4 -27 4 -13 
3 -6 4 -2 4 0 4 0 4 0 4 0 3 0 4 0 
4 0 4 0 4 0 2846 4615 100 MP stroke
4 0 3 0 4 0 4 0 4 -1 4 0 4 0 3 0 
4 0 4 0 4 0 4 0 4 0 3 0 4 0 4 0 
4 0 4 0 4 0 3 0 4 0 4 0 4 0 4 0 
4 0 3 0 4 1 4 0 4 0 4 0 4 0 3 0 
4 50 4 2072 4 288 4 -2336 4 -74 3 0 4 0 4 2 
4 5 4 13 4 32 3 61 4 102 4 140 4 155 4 128 
4 57 3 -35 4 -115 4 -152 4 -147 4 -112 4 -70 3 -38 
4 -17 4 -6 4 -3 4 0 4 0 3 0 4 0 4 0 
4 0 4 0 4 0 3 0 4 0 4 0 4 0 4 -1 
4 0 3 0 4 0 4 0 4 0 4 0 4 0 3 0 
4 0 4 0 4 0 4 0 4 0 3 0 4 1 4 0 
4 0 4 454 3 3508 4 -3571 4 -391 4 0 4 0 4 -1 
3 0 4 0 4 0 2467 4616 100 MP stroke
4 0 4 0 4 0 3 0 4 0 4 0 4 0 4 0 
4 0 3 0 4 0 4 0 4 0 4 0 4 0 3 0 
4 0 4 0 4 0 4 0 4 0 3 0 4 0 4 0 
4 0 4 0 4 0 3 0 4 0 4 0 4 0 4 0 
4 0 3 0 4 0 4 0 4 0 4 0 4 0 3 0 
4 0 4 0 4 0 4 0 4 0 3 0 4 0 4 0 
4 0 4 0 4 0 3 0 4 0 4 0 4 0 4 0 
4 0 3 0 4 0 4 0 4 0 4 0 4 1 3 0 
4 0 4 0 4 0 4 0 4 0 3 0 4 0 4 0 
4 0 4 0 4 0 3 0 4 0 4 1 4 4 4 10 
4 30 3 97 4 265 4 498 4 544 4 196 4 -256 3 -396 
4 -277 4 -163 4 -130 4 -125 4 -108 3 -82 4 -53 4 -30 
4 -15 4 -7 4 -2 2087 4614 100 MP stroke
3 -1 4 0 4 0 4 0 4 0 4 0 3 0 4 0 
4 0 4 0 4 0 4 0 3 0 4 0 4 -1 4 0 
4 0 4 0 3 0 4 0 4 0 4 1 4 0 4 0 
3 0 4 0 4 0 4 0 4 0 4 0 3 0 4 0 
4 0 4 1 4 3 3 54 4 759 4 1697 4 -1007 4 -1055 
4 42 3 146 4 79 4 -24 4 -116 4 -164 4 -159 3 -120 
4 -74 4 -38 4 -16 4 -6 4 -2 3 0 4 0 4 0 
4 0 4 0 4 0 3 0 4 0 4 0 4 0 4 0 
4 -1 3 0 4 0 4 0 4 0 4 0 4 0 3 0 
4 0 4 0 4 0 4 0 4 0 3 0 4 0 4 0 
4 0 4 0 4 0 3 0 4 0 4 0 4 0 4 0 
4 0 3 0 4 0 4 0 4 0 4 0 4 0 3 0 
4 0 4 0 4 0 1708 4616 100 MP stroke
4 0 4 0 3 0 4 0 4 0 4 0 4 0 4 0 
3 0 4 0 4 0 4 0 4 0 4 0 3 0 4 0 
4 0 4 0 4 0 4 0 3 0 4 0 4 0 4 0 
4 0 4 0 3 0 4 0 4 0 4 0 4 0 4 0 
3 0 4 0 4 0 4 0 4 0 4 0 3 0 4 0 
4 0 4 0 4 0 4 0 3 0 4 0 4 0 4 0 
4 0 4 0 3 0 4 0 4 0 4 0 4 0 4 0 
3 0 4 0 4 0 4 0 4 0 4 0 3 0 4 0 
4 0 4 0 4 0 4 0 3 0 4 0 4 0 4 0 
4 0 3 0 4 0 4 0 4 0 4 0 4 0 3 0 
4 0 4 0 4 0 4 0 4 0 3 0 4 0 4 0 
4 0 4 0 4 0 3 0 4 0 4 0 4 0 4 0 
4 0 3 0 4 0 1329 4616 100 MP stroke
4 0 4 0 4 0 4 0 3 0 4 0 4 0 4 0 
4 0 4 0 3 0 4 0 1283 4616 13 MP stroke
gr

c8
0 sg
%%IncludeResource: font Helvetica
/Helvetica /ISOLatin1Encoding 240 FMSR

2261  267 mt 
(Baseline Distribution of x) s

end %%Color Dict

eplot
%%EndObject

epage
end

showpage

%%Trailer
%%EOF
