%!PS-Adobe-2.0 EPSF-1.2
%%Creator: MATLAB, The MathWorks, Inc. Version 8.0.0.783 (R2012b). Operating System: Darwin 13.3.0 Darwin Kernel Version 13.3.0: Tue Jun  3 21:27:35 PDT 2014; root:xnu-2422.110.17~1/RELEASE_X86_64 x86_64.
%%Title: ./figure_cdf.eps
%%CreationDate: 08/10/2014  16:36:41
%%DocumentNeededFonts: Helvetica
%%DocumentProcessColors: Cyan Magenta Yellow Black
%%Extensions: CMYK
%%Pages: 1
%%BoundingBox:    76   215   547   591
%%EndComments

%%BeginProlog
% MathWorks dictionary
/MathWorks 160 dict begin
% definition operators
/bdef {bind def} bind def
/ldef {load def} bind def
/xdef {exch def} bdef
/xstore {exch store} bdef
% operator abbreviations
/c  /clip ldef
/cc /concat ldef
/cp /closepath ldef
/gr /grestore ldef
/gs /gsave ldef
/mt /moveto ldef
/np /newpath ldef
/cm /currentmatrix ldef
/sm /setmatrix ldef
/rm /rmoveto ldef
/rl /rlineto ldef
/s {show newpath} bdef
/sc {setcmykcolor} bdef
/sr /setrgbcolor ldef
/sg /setgray ldef
/w /setlinewidth ldef
/j /setlinejoin ldef
/cap /setlinecap ldef
/rc {rectclip} bdef
/rf {rectfill} bdef
% page state control
/pgsv () def
/bpage {/pgsv save def} bdef
/epage {pgsv restore} bdef
/bplot /gsave ldef
/eplot {stroke grestore} bdef
% orientation switch
/portraitMode 0 def /landscapeMode 1 def /rotateMode 2 def
% coordinate system mappings
/dpi2point 0 def
% font control
/FontSize 0 def
/FMS {/FontSize xstore findfont [FontSize 0 0 FontSize neg 0 0]
  makefont setfont} bdef
/reencode {exch dup where {pop load} {pop StandardEncoding} ifelse
  exch dup 3 1 roll findfont dup length dict begin
  { 1 index /FID ne {def}{pop pop} ifelse } forall
  /Encoding exch def currentdict end definefont pop} bdef
/isroman {findfont /CharStrings get /Agrave known} bdef
/FMSR {3 1 roll 1 index dup isroman {reencode} {pop pop} ifelse
  exch FMS} bdef
/csm {1 dpi2point div -1 dpi2point div scale neg translate
 dup landscapeMode eq {pop -90 rotate}
  {rotateMode eq {90 rotate} if} ifelse} bdef
% line types: solid, dotted, dashed, dotdash
/SO { [] 0 setdash } bdef
/DO { [.5 dpi2point mul 4 dpi2point mul] 0 setdash } bdef
/DA { [6 dpi2point mul] 0 setdash } bdef
/DD { [.5 dpi2point mul 4 dpi2point mul 6 dpi2point mul 4
  dpi2point mul] 0 setdash } bdef
% macros for lines and objects
/L {lineto stroke} bdef
/MP {3 1 roll moveto 1 sub {rlineto} repeat} bdef
/AP {{rlineto} repeat} bdef
/PDlw -1 def
/W {/PDlw currentlinewidth def setlinewidth} def
/PP {closepath eofill} bdef
/DP {closepath stroke} bdef
/MR {4 -2 roll moveto dup  0 exch rlineto exch 0 rlineto
  neg 0 exch rlineto closepath} bdef
/FR {MR stroke} bdef
/PR {MR fill} bdef
/L1i {{currentfile picstr readhexstring pop} image} bdef
/tMatrix matrix def
/MakeOval {newpath tMatrix currentmatrix pop translate scale
0 0 1 0 360 arc tMatrix setmatrix} bdef
/FO {MakeOval stroke} bdef
/PO {MakeOval fill} bdef
/PD {currentlinewidth 2 div 0 360 arc fill
   PDlw -1 eq not {PDlw w /PDlw -1 def} if} def
/FA {newpath tMatrix currentmatrix pop translate scale
  0 0 1 5 -2 roll arc tMatrix setmatrix stroke} bdef
/PA {newpath tMatrix currentmatrix pop	translate 0 0 moveto scale
  0 0 1 5 -2 roll arc closepath tMatrix setmatrix fill} bdef
/FAn {newpath tMatrix currentmatrix pop translate scale
  0 0 1 5 -2 roll arcn tMatrix setmatrix stroke} bdef
/PAn {newpath tMatrix currentmatrix pop translate 0 0 moveto scale
  0 0 1 5 -2 roll arcn closepath tMatrix setmatrix fill} bdef
/vradius 0 def /hradius 0 def /lry 0 def
/lrx 0 def /uly 0 def /ulx 0 def /rad 0 def
/MRR {/vradius xdef /hradius xdef /lry xdef /lrx xdef /uly xdef
  /ulx xdef newpath tMatrix currentmatrix pop ulx hradius add uly
  vradius add translate hradius vradius scale 0 0 1 180 270 arc 
  tMatrix setmatrix lrx hradius sub uly vradius add translate
  hradius vradius scale 0 0 1 270 360 arc tMatrix setmatrix
  lrx hradius sub lry vradius sub translate hradius vradius scale
  0 0 1 0 90 arc tMatrix setmatrix ulx hradius add lry vradius sub
  translate hradius vradius scale 0 0 1 90 180 arc tMatrix setmatrix
  closepath} bdef
/FRR {MRR stroke } bdef
/PRR {MRR fill } bdef
/MlrRR {/lry xdef /lrx xdef /uly xdef /ulx xdef /rad lry uly sub 2 div def
  newpath tMatrix currentmatrix pop ulx rad add uly rad add translate
  rad rad scale 0 0 1 90 270 arc tMatrix setmatrix lrx rad sub lry rad
  sub translate rad rad scale 0 0 1 270 90 arc tMatrix setmatrix
  closepath} bdef
/FlrRR {MlrRR stroke } bdef
/PlrRR {MlrRR fill } bdef
/MtbRR {/lry xdef /lrx xdef /uly xdef /ulx xdef /rad lrx ulx sub 2 div def
  newpath tMatrix currentmatrix pop ulx rad add uly rad add translate
  rad rad scale 0 0 1 180 360 arc tMatrix setmatrix lrx rad sub lry rad
  sub translate rad rad scale 0 0 1 0 180 arc tMatrix setmatrix
  closepath} bdef
/FtbRR {MtbRR stroke } bdef
/PtbRR {MtbRR fill } bdef
/stri 6 array def /dtri 6 array def
/smat 6 array def /dmat 6 array def
/tmat1 6 array def /tmat2 6 array def /dif 3 array def
/asub {/ind2 exch def /ind1 exch def dup dup
  ind1 get exch ind2 get sub exch } bdef
/tri_to_matrix {
  2 0 asub 3 1 asub 4 0 asub 5 1 asub
  dup 0 get exch 1 get 7 -1 roll astore } bdef
/compute_transform {
  dmat dtri tri_to_matrix tmat1 invertmatrix 
  smat stri tri_to_matrix tmat2 concatmatrix } bdef
/ds {stri astore pop} bdef
/dt {dtri astore pop} bdef
/db {2 copy /cols xdef /rows xdef mul dup 3 mul string
  currentfile exch readhexstring pop
  dup 0 3 index getinterval /rbmap xdef
  dup 2 index dup getinterval /gbmap xdef
  1 index dup 2 mul exch getinterval /bbmap xdef pop pop}bdef
/it {gs np dtri aload pop moveto lineto lineto cp c
  cols rows 8 compute_transform 
  rbmap gbmap bbmap true 3 colorimage gr}bdef
/il {newpath moveto lineto stroke}bdef
currentdict end def
%%EndProlog

%%BeginSetup
MathWorks begin

0 cap

end
%%EndSetup

%%Page: 1 1
%%BeginPageSetup
%%PageBoundingBox:    76   215   547   591
MathWorks begin
bpage
%%EndPageSetup

%%BeginObject: obj1
bplot

/dpi2point 12 def
portraitMode 0216 7344 csm

  699   247  5656  4515 MR c np
85 dict begin %Colortable dictionary
/c0 { 0.000000 0.000000 0.000000 sr} bdef
/c1 { 1.000000 1.000000 1.000000 sr} bdef
/c2 { 0.900000 0.000000 0.000000 sr} bdef
/c3 { 0.000000 0.820000 0.000000 sr} bdef
/c4 { 0.000000 0.000000 0.800000 sr} bdef
/c5 { 0.910000 0.820000 0.320000 sr} bdef
/c6 { 1.000000 0.260000 0.820000 sr} bdef
/c7 { 0.000000 0.820000 0.820000 sr} bdef
c0
1 j
1 sg
   0    0 6924 5187 PR
6 w
0 4227 5365 0 0 -4227 900 4616 4 MP
PP
-5365 0 0 4227 5365 0 0 -4227 900 4616 5 MP stroke
4 w
DO
SO
6 w
0 sg
 900 4616 mt 6265 4616 L
 900  389 mt 6265  389 L
 900 4616 mt  900  389 L
6265 4616 mt 6265  389 L
 900 4616 mt 6265 4616 L
 900 4616 mt  900  389 L
 900 4616 mt  900 4562 L
 900  389 mt  900  442 L
%%IncludeResource: font Helvetica
/Helvetica /ISOLatin1Encoding 120 FMSR

 867 4761 mt 
(0) s
1436 4616 mt 1436 4562 L
1436  389 mt 1436  442 L
1353 4761 mt 
(0.1) s
1973 4616 mt 1973 4562 L
1973  389 mt 1973  442 L
1890 4761 mt 
(0.2) s
2509 4616 mt 2509 4562 L
2509  389 mt 2509  442 L
2426 4761 mt 
(0.3) s
3046 4616 mt 3046 4562 L
3046  389 mt 3046  442 L
2963 4761 mt 
(0.4) s
3582 4616 mt 3582 4562 L
3582  389 mt 3582  442 L
3499 4761 mt 
(0.5) s
4119 4616 mt 4119 4562 L
4119  389 mt 4119  442 L
4036 4761 mt 
(0.6) s
4655 4616 mt 4655 4562 L
4655  389 mt 4655  442 L
4572 4761 mt 
(0.7) s
5192 4616 mt 5192 4562 L
5192  389 mt 5192  442 L
5109 4761 mt 
(0.8) s
5728 4616 mt 5728 4562 L
5728  389 mt 5728  442 L
5645 4761 mt 
(0.9) s
6265 4616 mt 6265 4562 L
6265  389 mt 6265  442 L
6232 4761 mt 
(1) s
 900 4616 mt  953 4616 L
6265 4616 mt 6211 4616 L
 799 4660 mt 
(0) s
 900 4193 mt  953 4193 L
6265 4193 mt 6211 4193 L
 699 4237 mt 
(0.1) s
 900 3770 mt  953 3770 L
6265 3770 mt 6211 3770 L
 699 3814 mt 
(0.2) s
 900 3347 mt  953 3347 L
6265 3347 mt 6211 3347 L
 699 3391 mt 
(0.3) s
 900 2925 mt  953 2925 L
6265 2925 mt 6211 2925 L
 699 2969 mt 
(0.4) s
 900 2502 mt  953 2502 L
6265 2502 mt 6211 2502 L
 699 2546 mt 
(0.5) s
 900 2079 mt  953 2079 L
6265 2079 mt 6211 2079 L
 699 2123 mt 
(0.6) s
 900 1657 mt  953 1657 L
6265 1657 mt 6211 1657 L
 699 1701 mt 
(0.7) s
 900 1234 mt  953 1234 L
6265 1234 mt 6211 1234 L
 699 1278 mt 
(0.8) s
 900  811 mt  953  811 L
6265  811 mt 6211  811 L
 699  855 mt 
(0.9) s
 900  389 mt  953  389 L
6265  389 mt 6211  389 L
 799  433 mt 
(1) s
 900 4616 mt 6265 4616 L
 900  389 mt 6265  389 L
 900 4616 mt  900  389 L
6265 4616 mt 6265  389 L
gs 900 389 5366 4228 MR c np
DD
3 -1 5 -5 5 -10 6 -15 5 -22 5 -26 6 -29 5 -28 
6 -26 5 -21 5 -19 6 -18 5 -22 5 -28 6 -37 5 -45 
5 -50 6 -53 5 -50 6 -44 5 -33 5 -23 6 -14 5 -7 
5 -3 6 -1 5 0 5 0 6 0 5 0 6 0 5 0 
5 0 6 0 5 0 5 0 6 0 5 0 5 0 6 0 
5 0 6 0 5 0 5 0 6 0 5 0 5 -1 6 -3 
5 -7 5 -14 6 -24 5 -33 6 -38 5 -35 5 -26 6 -17 
5 -8 5 -4 6 -1 5 0 6 0 5 0 5 -1 6 0 
5 0 5 0 6 0 5 0 5 0 6 0 5 0 6 -2 
5 -3 5 -6 6 -11 5 -18 5 -24 6 -29 5 -30 5 -29 
6 -23 5 -16 6 -10 5 -5 5 -3 6 -1 5 -1 5 0 
6 0 5 0 5 0 6 0 5 0 6 0 5 0 5 0 
6 0 5 0 5 0 5664 1442 100 MP stroke
6 0 5 0 5 0 6 0 5 0 6 0 5 0 5 0 
6 0 5 0 5 0 6 0 5 0 5 0 6 0 5 0 
6 0 5 0 5 0 6 0 5 0 5 0 6 0 5 0 
6 0 5 0 5 0 6 0 5 0 5 0 6 0 5 0 
5 0 6 0 5 0 6 0 5 0 5 0 6 0 5 0 
5 0 6 0 5 0 5 0 6 0 5 0 6 0 5 0 
5 0 6 0 5 0 5 0 6 -1 5 -1 5 -6 6 -11 
5 -23 6 -37 5 -51 5 -59 6 -60 5 -53 5 -44 6 -31 
5 -21 5 -13 6 -6 5 -4 6 -1 5 0 5 0 6 -1 
5 0 5 0 6 0 5 0 5 0 6 0 5 0 6 0 
5 0 5 0 6 0 5 0 5 0 6 0 5 0 5 0 
6 0 5 0 6 0 5 0 5 0 6 0 5 0 5 0 
6 0 5 0 6 0 5132 1865 100 MP stroke
5 0 5 0 6 0 5 0 5 0 6 0 5 0 5 0 
6 0 5 0 6 0 5 0 5 0 6 0 5 0 5 0 
6 0 5 0 5 0 6 0 5 0 6 0 5 0 5 0 
6 0 5 0 5 0 6 0 5 0 5 0 6 0 5 0 
6 0 5 0 5 0 6 0 5 0 5 0 6 0 5 0 
5 0 6 0 5 0 6 0 5 0 5 0 6 0 5 0 
5 0 6 0 5 0 5 0 6 0 5 0 6 0 5 0 
5 0 6 0 5 0 5 0 6 0 5 0 6 0 5 0 
5 0 6 0 5 0 5 0 6 0 5 0 5 0 6 0 
5 0 6 0 5 0 5 0 6 0 5 0 5 0 6 0 
5 0 5 0 6 0 5 0 6 0 5 0 5 0 6 0 
5 0 5 0 6 0 5 0 5 0 6 0 5 0 6 0 
5 0 5 0 6 0 4601 1865 100 MP stroke
5 0 5 0 6 0 5 0 5 0 6 0 5 0 6 0 
5 0 5 0 6 0 5 0 5 0 6 0 5 0 5 0 
6 0 5 0 6 0 5 0 5 0 6 0 5 0 5 0 
6 0 5 0 6 0 5 0 5 0 6 0 5 0 5 0 
6 0 5 0 5 0 6 0 5 0 6 0 5 0 5 0 
6 0 5 0 5 0 6 0 5 0 5 0 6 0 5 0 
6 0 5 0 5 0 6 0 5 0 5 0 6 0 5 0 
5 0 6 0 5 0 6 0 5 0 5 0 6 0 5 0 
5 0 6 0 5 0 5 0 6 0 5 0 6 0 5 0 
5 0 6 0 5 0 5 0 6 0 5 0 5 0 6 0 
5 0 6 0 5 0 5 0 6 0 5 0 5 0 6 0 
5 0 5 0 6 0 5 0 6 0 5 0 5 0 6 0 
5 0 5 0 6 0 4070 1865 100 MP stroke
5 0 6 0 5 0 5 0 6 0 5 0 5 0 6 0 
5 0 5 0 6 0 5 0 6 0 5 0 5 0 6 0 
5 0 5 0 6 0 5 0 5 0 6 0 5 0 6 0 
5 0 5 0 6 0 5 0 5 0 6 0 5 0 5 0 
6 0 5 0 6 0 5 0 5 0 6 0 5 0 5 0 
6 0 5 0 5 0 6 0 5 0 6 0 5 0 5 0 
6 0 5 0 5 0 6 0 5 0 5 0 6 0 5 0 
6 0 5 0 5 0 6 0 5 0 5 0 6 -2 5 -3 
6 -5 5 -10 5 -14 6 -21 5 -25 5 -28 6 -27 5 -25 
5 -19 6 -14 5 -8 6 -5 5 -3 5 -1 6 -1 5 0 
5 0 6 0 5 0 5 0 6 0 5 0 6 0 5 0 
5 0 6 0 5 0 5 0 6 0 5 0 5 0 6 0 
5 0 6 0 5 0 3539 2076 100 MP stroke
5 0 6 0 5 0 5 0 6 0 5 0 5 0 6 0 
5 0 6 0 5 0 5 0 6 0 5 0 5 0 6 0 
5 0 5 0 6 0 5 0 6 0 5 0 5 0 6 0 
5 0 5 0 6 0 5 0 6 0 5 0 5 0 6 0 
5 0 5 0 6 0 5 0 5 0 6 0 5 0 6 0 
5 0 5 0 6 0 5 0 5 0 6 0 5 0 5 0 
6 0 5 0 6 0 5 0 5 0 6 0 5 0 5 0 
6 0 5 0 5 0 6 0 5 0 6 0 5 0 5 0 
6 0 5 0 5 0 6 0 5 0 5 0 6 0 5 0 
6 0 5 0 5 0 6 0 5 0 5 0 6 0 5 0 
5 0 6 0 5 0 6 0 5 0 5 0 6 0 5 0 
5 0 6 0 5 0 5 0 6 0 5 0 6 0 5 0 
5 0 6 0 5 0 3008 2076 100 MP stroke
5 0 6 0 5 0 6 0 5 0 5 -2 6 -6 5 -17 
5 -33 6 -46 5 -47 5 -33 6 -18 5 -7 6 -2 5 0 
5 0 6 0 5 0 5 -1 6 -8 5 -33 5 -67 6 -65 
5 -30 6 -7 5 -1 5 0 6 0 5 0 5 0 6 0 
5 0 5 0 6 0 5 0 6 0 5 0 5 0 6 0 
5 -1 5 -3 6 -9 5 -18 5 -30 6 -38 5 -40 6 -33 
5 -21 5 -12 6 -5 5 -3 5 -4 6 -7 5 -12 5 -17 
6 -24 5 -27 6 -30 5 -30 5 -28 6 -27 5 -26 5 -28 
6 -29 5 -30 6 -29 5 -24 5 -19 6 -13 5 -8 5 -5 
6 -2 5 -1 5 0 6 -1 5 0 6 0 5 0 5 0 
6 0 5 0 5 0 6 0 5 0 5 0 6 0 5 0 
6 0 5 0 5 0 6 0 5 0 5 0 6 0 5 0 
5 0 6 0 5 0 2477 3133 100 MP stroke
6 0 5 0 5 0 6 0 5 0 5 0 6 0 5 0 
5 0 6 0 5 0 6 0 5 0 5 0 6 0 5 0 
5 0 6 0 5 0 5 -2 6 -95 5 -109 6 -3 5 0 
5 0 6 0 5 0 5 -1 6 -1 5 -2 6 -5 5 -10 
5 -16 6 -23 5 -29 5 -31 6 -30 5 -24 5 -18 6 -11 
5 -6 6 -3 5 -1 5 0 6 -1 5 0 5 0 6 0 
5 0 5 0 6 0 5 0 6 0 5 0 5 0 6 0 
5 0 5 0 6 0 5 0 5 0 6 0 5 0 6 0 
5 0 5 0 6 0 5 0 5 0 6 0 5 0 5 0 
6 0 5 0 6 0 5 0 5 -20 6 -178 5 -18 5 0 
6 0 5 0 5 0 6 0 5 0 6 0 5 0 5 0 
6 0 5 0 5 0 6 0 5 0 5 0 6 0 5 0 
6 0 5 0 5 0 1946 3770 100 MP stroke
6 0 5 0 5 0 6 0 5 0 6 0 5 0 5 0 
6 0 5 0 5 0 6 0 5 0 5 0 6 0 5 0 
6 0 5 0 5 0 6 0 5 0 5 0 6 0 5 0 
5 0 6 0 5 0 6 0 5 0 5 0 6 0 5 0 
5 0 6 0 5 0 5 0 6 0 5 0 6 0 5 0 
5 0 6 0 5 0 5 0 6 0 5 0 5 0 6 0 
5 0 6 0 5 0 5 0 6 0 5 0 5 0 6 0 
5 0 5 0 6 0 5 0 6 0 5 0 5 0 6 0 
5 0 5 0 6 -1 5 -2 6 -7 5 -18 5 -41 6 -65 
5 -74 5 -63 6 -44 5 -33 5 -24 6 -19 5 -14 6 -8 
5 -5 5 -3 6 -1 5 -1 5 0 6 0 5 0 5 0 
6 0 5 0 6 0 5 0 5 0 6 0 5 0 5 0 
6 0 5 0 5 0 1415 4193 100 MP stroke
6 0 5 0 6 0 5 0 5 0 6 0 5 0 5 0 
6 0 5 0 5 0 6 0 5 0 6 0 5 0 5 0 
6 0 5 0 5 0 6 0 5 0 5 0 6 -3 5 -36 
6 -114 5 -67 5 -21 6 -22 5 -29 5 -32 6 -32 5 -26 
6 -18 5 -12 5 -6 6 -3 5 -1 5 0 6 0 5 0 
5 0 6 0 5 0 6 0 5 0 5 0 6 0 5 0 
5 0 6 -1 5 0 5 0 6 0 5 0 6 0 5 0 
5 0 6 0 5 0 5 0 6 0 5 0 5 0 6 0 
5 0 6 0 5 0 5 0 6 0 5 0 5 0 6 0 
5 0 5 0 6 0 5 0 6 0 5 0 5 0 6 0 
5 0 5 0 6 0 5 0 5 0 6 0 5 0 6 0 
5 0 5 0 6 0 5 0 5 0 6 0 5 0 5 0 
900 4616 97 MP stroke
SO
/c8 { 1.000000 0.000000 0.000000 sr} bdef
c8
1 0 6 0 5 0 6 0 5 0 5 0 6 0 5 0 
5 0 6 0 5 0 6 0 5 0 5 -2 6 -3 5 -6 
5 -10 6 -14 5 -20 5 -28 6 -28 5 -28 6 -26 5 -21 
5 -18 6 -20 5 -22 5 -30 6 -37 5 -44 5 -53 6 -52 
5 -46 6 -43 5 -33 5 -23 6 -14 5 -7 5 -3 6 -1 
5 0 5 -1 6 0 5 0 6 0 5 0 5 0 6 0 
5 0 5 0 6 0 5 0 5 0 6 0 5 0 6 0 
5 0 5 0 6 0 5 0 5 0 6 -3 5 -8 5 -17 
6 -26 5 -33 6 -37 5 -35 5 -28 6 -16 5 -9 5 -4 
6 -1 5 -1 6 0 5 0 5 0 6 0 5 0 5 0 
6 0 5 0 5 0 6 0 5 0 6 -2 5 -4 5 -6 
6 -12 5 -17 5 -22 6 -28 5 -31 5 -27 6 -23 5 -18 
6 -10 5 -5 5 -2 5739 1447 100 MP stroke
6 -2 5 0 5 0 6 0 5 0 5 0 6 0 5 0 
6 0 5 0 5 0 6 0 5 0 5 0 6 0 5 0 
5 0 6 0 5 0 6 0 5 0 5 0 6 0 5 0 
5 0 6 0 5 0 5 0 6 0 5 0 6 0 5 0 
5 0 6 0 5 0 5 0 6 0 5 0 6 0 5 0 
5 0 6 0 5 0 5 0 6 0 5 0 5 0 6 0 
5 0 6 0 5 0 5 0 6 0 5 0 5 0 6 0 
5 0 5 0 6 0 5 0 6 0 5 0 5 0 6 0 
5 0 5 0 6 -1 5 -2 5 -6 6 -13 5 -23 6 -36 
5 -48 5 -58 6 -61 5 -53 5 -41 6 -33 5 -20 5 -13 
6 -7 5 -4 6 -2 5 0 5 0 6 -1 5 0 5 0 
6 0 5 0 5 0 6 0 5 0 6 0 5 0 5 0 
6 0 5 0 5 0 5208 1871 100 MP stroke
6 0 5 0 6 0 5 0 5 0 6 0 5 0 5 0 
6 0 5 0 5 0 6 0 5 0 6 0 5 0 5 0 
6 0 5 0 5 0 6 0 5 0 5 0 6 0 5 0 
6 0 5 0 5 0 6 0 5 0 5 0 6 0 5 0 
5 0 6 0 5 0 6 0 5 0 5 0 6 0 5 0 
5 0 6 0 5 0 5 0 6 0 5 0 6 0 5 0 
5 0 6 0 5 0 5 0 6 0 5 0 5 0 6 0 
5 0 6 0 5 0 5 0 6 0 5 0 5 0 6 0 
5 0 5 0 6 0 5 0 6 0 5 0 5 0 6 0 
5 0 5 0 6 0 5 0 6 0 5 0 5 0 6 0 
5 0 5 0 6 0 5 0 5 0 6 0 5 0 6 0 
5 0 5 0 6 0 5 0 5 0 6 0 5 0 5 0 
6 0 5 0 6 0 4676 1871 100 MP stroke
5 0 5 0 6 0 5 0 5 0 6 0 5 0 5 0 
6 0 5 0 6 0 5 0 5 0 6 0 5 0 5 0 
6 0 5 0 5 0 6 0 5 0 6 0 5 0 5 0 
6 0 5 0 5 0 6 0 5 0 5 0 6 0 5 0 
6 0 5 0 5 0 6 0 5 0 5 0 6 0 5 0 
6 0 5 0 5 0 6 0 5 0 5 0 6 0 5 0 
5 0 6 0 5 0 6 0 5 0 5 0 6 0 5 0 
5 0 6 0 5 0 5 0 6 0 5 0 6 0 5 0 
5 0 6 0 5 0 5 0 6 0 5 0 5 0 6 0 
5 0 6 0 5 0 5 0 6 0 5 0 5 0 6 0 
5 0 5 0 6 0 5 0 6 0 5 0 5 0 6 0 
5 0 5 0 6 0 5 0 5 0 6 0 5 0 6 0 
5 0 5 0 6 0 4145 1871 100 MP stroke
5 0 5 0 6 0 5 0 6 0 5 0 5 0 6 0 
5 0 5 0 6 0 5 0 5 0 6 0 5 0 6 0 
5 0 5 0 6 0 5 0 5 0 6 0 5 0 5 0 
6 0 5 0 6 0 5 0 5 0 6 0 5 0 5 0 
6 0 5 0 5 0 6 0 5 0 6 0 5 0 5 0 
6 0 5 0 5 0 6 0 5 0 5 0 6 0 5 0 
6 0 5 0 5 0 6 0 5 0 5 0 6 0 5 0 
5 0 6 0 5 0 6 0 5 0 5 0 6 0 5 0 
5 0 6 0 5 0 5 0 6 0 5 0 6 0 5 0 
5 0 6 0 5 0 5 -1 6 -1 5 -2 6 -6 5 -10 
5 -15 6 -21 5 -24 5 -27 6 -26 5 -26 5 -18 6 -14 
5 -10 6 -5 5 -2 5 -2 6 0 5 0 5 0 6 0 
5 0 5 0 6 0 3614 2081 100 MP stroke
5 0 6 0 5 0 5 0 6 0 5 0 5 0 6 0 
5 0 5 0 6 0 5 0 6 0 5 0 5 0 6 0 
5 0 5 0 6 0 5 0 5 0 6 0 5 0 6 0 
5 0 5 0 6 0 5 0 5 0 6 0 5 0 5 0 
6 0 5 0 6 0 5 0 5 0 6 0 5 0 5 0 
6 0 5 0 6 0 5 0 5 0 6 0 5 0 5 0 
6 0 5 0 5 0 6 0 5 0 6 0 5 0 5 0 
6 0 5 0 5 0 6 0 5 0 5 0 6 0 5 0 
6 0 5 0 5 0 6 0 5 0 5 0 6 0 5 0 
5 0 6 0 5 0 6 0 5 0 5 0 6 0 5 0 
5 0 6 0 5 0 5 0 6 0 5 0 6 0 5 0 
5 0 6 0 5 0 5 0 6 0 5 0 5 0 6 0 
5 0 6 0 5 0 3083 2081 100 MP stroke
5 0 6 0 5 0 5 0 6 0 5 0 6 0 5 0 
5 0 6 0 5 0 5 0 6 0 5 0 5 0 6 0 
5 0 6 0 5 -1 5 -2 6 -7 5 -18 5 -32 6 -43 
5 -43 5 -35 6 -20 5 -8 6 -2 5 0 5 -1 6 0 
5 0 5 -2 6 -10 5 -36 5 -61 6 -61 5 -32 6 -11 
5 -1 5 -1 6 0 5 0 5 0 6 0 5 0 5 0 
6 0 5 0 6 0 5 0 5 0 6 0 5 -2 5 -4 
6 -8 5 -18 5 -29 6 -38 5 -37 6 -32 5 -23 5 -13 
6 -7 5 -3 5 -5 6 -6 5 -13 5 -16 6 -22 5 -30 
6 -30 5 -29 5 -28 6 -28 5 -28 5 -26 6 -29 5 -31 
6 -30 5 -24 5 -17 6 -14 5 -7 5 -5 6 -2 5 -1 
5 -1 6 0 5 0 6 0 5 0 5 0 6 0 5 0 
5 0 6 0 5 0 2552 3144 100 MP stroke
5 0 6 0 5 0 6 0 5 0 5 0 6 0 5 0 
5 0 6 0 5 0 5 0 6 0 5 0 6 0 5 0 
5 0 6 0 5 0 5 0 6 0 5 0 5 0 6 0 
5 0 6 0 5 0 5 0 6 0 5 0 5 0 6 0 
5 -1 5 -15 6 -85 5 -94 6 -17 5 -1 5 0 6 0 
5 0 5 -1 6 -1 5 -2 6 -6 5 -10 5 -14 6 -23 
5 -29 5 -31 6 -30 5 -23 5 -18 6 -10 5 -6 6 -3 
5 -2 5 0 6 0 5 0 5 0 6 0 5 0 5 0 
6 0 5 0 6 0 5 0 5 0 6 0 5 0 5 0 
6 0 5 0 5 0 6 0 5 0 6 0 5 0 5 0 
6 0 5 0 5 0 6 0 5 0 5 0 6 0 5 0 
6 0 5 -3 5 -48 6 -116 5 -44 5 -2 6 0 5 0 
5 0 6 0 5 0 2021 3779 100 MP stroke
6 0 5 0 5 0 6 0 5 0 5 0 6 0 5 0 
5 0 6 0 5 0 6 0 5 0 5 0 6 0 5 0 
5 0 6 0 5 0 6 0 5 0 5 0 6 0 5 0 
5 0 6 0 5 0 5 0 6 0 5 0 6 0 5 0 
5 0 6 0 5 0 5 0 6 0 5 0 5 0 6 0 
5 0 6 0 5 0 5 0 6 0 5 0 5 0 6 0 
5 0 5 0 6 0 5 0 6 0 5 0 5 0 6 0 
5 0 5 0 6 0 5 0 5 0 6 0 5 0 6 0 
5 0 5 0 6 0 5 0 5 0 6 0 5 0 5 0 
6 0 5 0 6 0 5 0 5 0 6 0 5 0 5 -1 
6 0 5 -3 6 -7 5 -21 5 -41 6 -63 5 -68 5 -61 
6 -45 5 -33 5 -25 6 -20 5 -14 6 -8 5 -5 5 -3 
6 -1 5 0 5 0 1490 4198 100 MP stroke
6 0 5 0 5 0 6 0 5 0 6 0 5 0 5 0 
6 0 5 0 5 0 6 0 5 0 5 0 6 0 5 0 
6 0 5 0 5 0 6 0 5 0 5 0 6 0 5 0 
5 0 6 0 5 0 6 0 5 0 5 0 6 0 5 0 
5 0 6 0 5 0 5 -1 6 -7 5 -42 6 -95 5 -68 
5 -28 6 -23 5 -28 5 -32 6 -30 5 -26 6 -17 5 -11 
5 -5 6 -2 5 -2 5 0 6 -1 5 0 5 0 6 0 
5 0 6 0 5 0 5 0 6 0 5 0 5 0 6 0 
5 0 5 0 6 0 5 0 6 0 5 0 5 0 6 0 
5 0 5 0 6 0 5 0 5 0 6 0 5 0 6 0 
5 0 5 0 6 0 5 0 5 0 6 0 5 0 5 0 
6 0 5 0 6 0 5 0 5 0 6 0 5 0 5 0 
6 0 5 0 5 0 959 4616 100 MP stroke
6 0 5 0 6 0 5 0 5 0 6 0 5 0 5 0 
6 0 5 0 5 0 900 4616 12 MP stroke
/c9 { 0.000000 0.000000 1.000000 sr} bdef
c9
1 0 6 0 5 0 6 0 5 0 5 0 6 0 5 0 
5 0 6 -1 5 -1 6 -2 5 -2 5 -5 6 -7 5 -9 
5 -13 6 -15 5 -17 5 -21 6 -22 5 -23 6 -24 5 -24 
5 -27 6 -28 5 -33 5 -33 6 -34 5 -37 5 -38 6 -40 
5 -35 6 -31 5 -29 5 -25 6 -20 5 -15 5 -10 6 -7 
5 -4 5 -3 6 -1 5 -1 6 -1 5 0 5 0 6 0 
5 0 5 0 6 0 5 0 5 0 6 0 5 0 6 0 
5 -1 5 -1 6 -3 5 -4 5 -6 6 -9 5 -15 5 -16 
6 -19 5 -22 6 -22 5 -21 5 -19 6 -16 5 -12 5 -10 
6 -7 5 -4 6 -2 5 -2 5 -1 6 0 5 0 5 0 
6 -1 5 -1 5 -2 6 -2 5 -3 6 -6 5 -7 5 -11 
6 -13 5 -16 5 -18 6 -19 5 -20 5 -20 6 -17 5 -16 
6 -13 5 -10 5 -7 5739 1441 100 MP stroke
6 -5 5 -2 5 -2 6 -1 5 -1 5 0 6 0 5 0 
6 -1 5 0 5 0 6 0 5 0 5 0 6 0 5 0 
5 0 6 0 5 0 6 0 5 0 5 0 6 0 5 0 
5 0 6 0 5 0 5 0 6 0 5 0 6 0 5 0 
5 0 6 0 5 0 5 0 6 0 5 0 6 0 5 0 
5 0 6 0 5 0 5 0 6 0 5 0 5 0 6 0 
5 0 6 0 5 0 5 0 6 0 5 0 5 0 6 0 
5 0 5 0 6 0 5 0 6 0 5 0 5 -1 6 -1 
5 -3 5 -5 6 -5 5 -9 5 -15 6 -21 5 -27 6 -32 
5 -35 5 -39 6 -39 5 -38 5 -36 6 -32 5 -23 5 -19 
6 -15 5 -9 6 -7 5 -4 5 -2 6 -1 5 -1 5 0 
6 0 5 0 5 0 6 0 5 0 6 0 5 0 5 0 
6 0 5 0 5 0 5208 1872 100 MP stroke
6 0 5 0 6 0 5 0 5 0 6 0 5 0 5 0 
6 0 5 0 5 0 6 0 5 0 6 0 5 0 5 0 
6 0 5 0 5 0 6 0 5 0 5 0 6 0 5 0 
6 0 5 0 5 0 6 0 5 0 5 0 6 0 5 0 
5 0 6 0 5 0 6 0 5 0 5 0 6 0 5 0 
5 0 6 0 5 0 5 0 6 0 5 0 6 0 5 0 
5 0 6 0 5 0 5 0 6 0 5 0 5 0 6 0 
5 0 6 0 5 0 5 0 6 0 5 0 5 0 6 0 
5 0 5 0 6 0 5 0 6 0 5 0 5 0 6 0 
5 0 5 0 6 0 5 0 6 0 5 0 5 0 6 0 
5 0 5 0 6 0 5 0 5 0 6 0 5 0 6 0 
5 0 5 0 6 0 5 0 5 0 6 0 5 0 5 0 
6 0 5 0 6 0 4676 1872 100 MP stroke
5 0 5 0 6 0 5 0 5 0 6 0 5 0 5 0 
6 0 5 0 6 0 5 0 5 0 6 0 5 0 5 0 
6 0 5 0 5 0 6 0 5 0 6 0 5 0 5 0 
6 0 5 0 5 0 6 0 5 0 5 0 6 0 5 0 
6 0 5 0 5 0 6 0 5 0 5 0 6 0 5 0 
6 0 5 0 5 0 6 0 5 0 5 0 6 0 5 0 
5 0 6 0 5 0 6 0 5 0 5 0 6 0 5 0 
5 0 6 0 5 0 5 0 6 0 5 0 6 0 5 0 
5 0 6 0 5 0 5 0 6 0 5 0 5 0 6 0 
5 0 6 0 5 0 5 0 6 0 5 0 5 0 6 0 
5 0 5 0 6 0 5 0 6 0 5 0 5 0 6 0 
5 0 5 0 6 0 5 0 5 0 6 0 5 0 6 0 
5 0 5 0 6 0 4145 1872 100 MP stroke
5 0 5 0 6 0 5 0 6 0 5 0 5 0 6 0 
5 0 5 0 6 0 5 0 5 0 6 0 5 0 6 0 
5 0 5 0 6 0 5 0 5 0 6 0 5 0 5 0 
6 0 5 0 6 0 5 0 5 0 6 0 5 0 5 0 
6 0 5 0 5 0 6 0 5 0 6 0 5 0 5 0 
6 0 5 0 5 0 6 0 5 0 5 0 6 0 5 0 
6 0 5 0 5 0 6 0 5 0 5 0 6 0 5 0 
5 0 6 0 5 0 6 0 5 0 5 0 6 0 5 0 
5 0 6 0 5 0 5 0 6 0 5 0 6 0 5 -1 
5 0 6 -2 5 -2 5 -3 6 -4 5 -7 6 -9 5 -10 
5 -15 6 -18 5 -18 5 -20 6 -20 5 -19 5 -14 6 -13 
5 -11 6 -8 5 -6 5 -5 6 -2 5 -1 5 -2 6 0 
5 0 5 -1 6 0 3614 2083 100 MP stroke
5 0 6 0 5 0 5 0 6 0 5 0 5 0 6 0 
5 0 5 0 6 0 5 0 6 0 5 0 5 0 6 0 
5 0 5 0 6 0 5 0 5 0 6 0 5 0 6 0 
5 0 5 0 6 0 5 0 5 0 6 0 5 0 5 0 
6 0 5 0 6 0 5 0 5 0 6 0 5 0 5 0 
6 0 5 0 6 0 5 0 5 0 6 0 5 0 5 0 
6 0 5 0 5 0 6 0 5 0 6 0 5 0 5 0 
6 0 5 0 5 0 6 0 5 0 5 0 6 0 5 0 
6 0 5 0 5 0 6 0 5 0 5 0 6 0 5 0 
5 0 6 0 5 0 6 0 5 0 5 0 6 0 5 0 
5 0 6 0 5 0 5 0 6 0 5 0 6 0 5 0 
5 0 6 0 5 0 5 0 6 0 5 0 5 0 6 0 
5 0 6 0 5 0 3083 2083 100 MP stroke
5 0 6 0 5 0 5 0 6 0 5 0 6 0 5 0 
5 0 6 0 5 0 5 0 6 0 5 0 5 -1 6 -1 
5 -3 6 -5 5 -7 5 -11 6 -14 5 -19 5 -22 6 -25 
5 -23 5 -21 6 -19 5 -16 6 -12 5 -10 5 -9 6 -9 
5 -13 5 -15 6 -20 5 -22 5 -26 6 -22 5 -21 6 -20 
5 -14 5 -10 6 -7 5 -4 5 -2 6 -1 5 0 5 -1 
6 0 5 0 6 -1 5 -2 5 -3 6 -5 5 -8 5 -10 
6 -13 5 -19 5 -19 6 -22 5 -23 6 -22 5 -20 5 -17 
6 -15 5 -15 5 -13 6 -15 5 -15 5 -18 6 -20 5 -22 
6 -24 5 -27 5 -26 6 -28 5 -27 5 -24 6 -26 5 -24 
6 -22 5 -21 5 -17 6 -15 5 -10 5 -9 6 -7 5 -3 
5 -2 6 -2 5 -1 6 0 5 -1 5 0 6 0 5 0 
5 0 6 0 5 0 2552 3141 100 MP stroke
5 0 6 0 5 0 6 0 5 0 5 0 6 0 5 0 
5 0 6 0 5 0 5 0 6 0 5 0 6 0 5 0 
5 0 6 0 5 0 5 0 6 0 5 0 5 0 6 0 
5 0 6 0 5 -1 5 -1 6 -4 5 -5 5 -9 6 -13 
5 -18 5 -24 6 -26 5 -26 6 -26 5 -20 5 -16 6 -10 
5 -9 5 -6 6 -7 5 -8 6 -10 5 -12 5 -16 6 -18 
5 -20 5 -20 6 -20 5 -19 5 -14 6 -13 5 -11 6 -7 
5 -5 5 -4 6 -2 5 -1 5 0 6 -1 5 0 5 0 
6 0 5 0 6 0 5 0 5 0 6 0 5 0 5 0 
6 0 5 0 5 0 6 0 5 0 6 0 5 0 5 0 
6 0 5 0 5 -1 6 -1 5 -3 5 -4 6 -8 5 -12 
6 -17 5 -21 5 -24 6 -27 5 -25 5 -22 6 -17 5 -11 
5 -9 6 -4 5 -2 2021 3771 100 MP stroke
6 -2 5 0 5 0 6 0 5 0 5 0 6 0 5 0 
5 0 6 0 5 0 6 0 5 0 5 0 6 0 5 0 
5 0 6 0 5 0 6 0 5 0 5 0 6 0 5 0 
5 0 6 0 5 0 5 0 6 0 5 0 6 0 5 0 
5 0 6 0 5 0 5 0 6 0 5 0 5 0 6 0 
5 0 6 0 5 0 5 0 6 0 5 0 5 0 6 0 
5 0 5 0 6 0 5 0 6 0 5 0 5 0 6 0 
5 0 5 0 6 0 5 0 5 0 6 0 5 0 6 0 
5 0 5 0 6 0 5 0 5 0 6 0 5 0 5 0 
6 0 5 0 6 -1 5 0 5 -1 6 -2 5 -3 5 -6 
6 -10 5 -14 6 -21 5 -26 5 -35 6 -38 5 -43 5 -38 
6 -38 5 -33 5 -29 6 -25 5 -18 6 -13 5 -10 5 -7 
6 -5 5 -3 5 -1 1490 4193 100 MP stroke
6 -2 5 0 5 -1 6 0 5 0 6 0 5 0 5 0 
6 0 5 0 5 0 6 0 5 0 5 0 6 0 5 0 
6 0 5 0 5 0 6 0 5 0 5 0 6 0 5 0 
5 0 6 0 5 0 6 0 5 0 5 -1 6 -1 5 -3 
5 -5 6 -8 5 -13 5 -18 6 -25 5 -30 6 -36 5 -36 
5 -37 6 -34 5 -32 5 -28 6 -25 5 -21 6 -19 5 -14 
5 -11 6 -8 5 -7 5 -3 6 -2 5 -2 5 0 6 0 
5 0 6 0 5 0 5 0 6 -1 5 0 5 0 6 0 
5 0 5 0 6 0 5 0 6 0 5 0 5 0 6 0 
5 0 5 0 6 0 5 0 5 0 6 0 5 0 6 0 
5 0 5 0 6 0 5 0 5 0 6 0 5 0 5 0 
6 0 5 0 6 0 5 0 5 0 6 0 5 0 5 0 
6 0 5 0 5 0 959 4616 100 MP stroke
6 0 5 0 6 0 5 0 5 0 6 0 5 0 5 0 
6 0 5 0 5 0 900 4616 12 MP stroke
gr

c9
0 sg
 883 4659 mt 
( ) s
6249  431 mt 
( ) s
1 sg
0 897 2812 0 0 -897 3394 4557 4 MP
PP
-2812 0 0 897 2812 0 0 -897 3394 4557 5 MP stroke
4 w
DO
SO
6 w
0 sg
3394 4557 mt 6206 4557 L
3394 3660 mt 6206 3660 L
3394 4557 mt 3394 3660 L
6206 4557 mt 6206 3660 L
3394 4557 mt 6206 4557 L
3394 4557 mt 3394 3660 L
3394 4557 mt 6206 4557 L
3394 3660 mt 6206 3660 L
3394 4557 mt 3394 3660 L
6206 4557 mt 6206 3660 L
%%IncludeResource: font Helvetica
/Helvetica /ISOLatin1Encoding 240 FMSR

3857 3907 mt 
(CDF of x) s
gs 3394 3660 2813 898 MR c np
DD
356 0 3465 3822 2 MP stroke
SO
gr

3857 4194 mt 
(CDF of y\(small noise\)) s
gs 3394 3660 2813 898 MR c np
c8
356 0 3465 4108 2 MP stroke
gr

c8
0 sg
3857 4481 mt 
(CDF of y\(large noise\)) s
gs 3394 3660 2813 898 MR c np
c9
356 0 3465 4394 2 MP stroke
gr

c9

end %%Color Dict

eplot
%%EndObject

epage
end

showpage

%%Trailer
%%EOF
