%!PS-Adobe-2.0 EPSF-1.2
%%Creator: MATLAB, The MathWorks, Inc. Version 8.0.0.783 (R2012b). Operating System: Darwin 13.3.0 Darwin Kernel Version 13.3.0: Tue Jun  3 21:27:35 PDT 2014; root:xnu-2422.110.17~1/RELEASE_X86_64 x86_64.
%%Title: ./final_unbroad_approx2.eps
%%CreationDate: 08/14/2014  14:37:27
%%DocumentNeededFonts: Helvetica
%%DocumentProcessColors: Cyan Magenta Yellow Black
%%Extensions: CMYK
%%Pages: 1
%%BoundingBox:   185   215   441   591
%%EndComments

%%BeginProlog
% MathWorks dictionary
/MathWorks 160 dict begin
% definition operators
/bdef {bind def} bind def
/ldef {load def} bind def
/xdef {exch def} bdef
/xstore {exch store} bdef
% operator abbreviations
/c  /clip ldef
/cc /concat ldef
/cp /closepath ldef
/gr /grestore ldef
/gs /gsave ldef
/mt /moveto ldef
/np /newpath ldef
/cm /currentmatrix ldef
/sm /setmatrix ldef
/rm /rmoveto ldef
/rl /rlineto ldef
/s {show newpath} bdef
/sc {setcmykcolor} bdef
/sr /setrgbcolor ldef
/sg /setgray ldef
/w /setlinewidth ldef
/j /setlinejoin ldef
/cap /setlinecap ldef
/rc {rectclip} bdef
/rf {rectfill} bdef
% page state control
/pgsv () def
/bpage {/pgsv save def} bdef
/epage {pgsv restore} bdef
/bplot /gsave ldef
/eplot {stroke grestore} bdef
% orientation switch
/portraitMode 0 def /landscapeMode 1 def /rotateMode 2 def
% coordinate system mappings
/dpi2point 0 def
% font control
/FontSize 0 def
/FMS {/FontSize xstore findfont [FontSize 0 0 FontSize neg 0 0]
  makefont setfont} bdef
/reencode {exch dup where {pop load} {pop StandardEncoding} ifelse
  exch dup 3 1 roll findfont dup length dict begin
  { 1 index /FID ne {def}{pop pop} ifelse } forall
  /Encoding exch def currentdict end definefont pop} bdef
/isroman {findfont /CharStrings get /Agrave known} bdef
/FMSR {3 1 roll 1 index dup isroman {reencode} {pop pop} ifelse
  exch FMS} bdef
/csm {1 dpi2point div -1 dpi2point div scale neg translate
 dup landscapeMode eq {pop -90 rotate}
  {rotateMode eq {90 rotate} if} ifelse} bdef
% line types: solid, dotted, dashed, dotdash
/SO { [] 0 setdash } bdef
/DO { [.5 dpi2point mul 4 dpi2point mul] 0 setdash } bdef
/DA { [6 dpi2point mul] 0 setdash } bdef
/DD { [.5 dpi2point mul 4 dpi2point mul 6 dpi2point mul 4
  dpi2point mul] 0 setdash } bdef
% macros for lines and objects
/L {lineto stroke} bdef
/MP {3 1 roll moveto 1 sub {rlineto} repeat} bdef
/AP {{rlineto} repeat} bdef
/PDlw -1 def
/W {/PDlw currentlinewidth def setlinewidth} def
/PP {closepath eofill} bdef
/DP {closepath stroke} bdef
/MR {4 -2 roll moveto dup  0 exch rlineto exch 0 rlineto
  neg 0 exch rlineto closepath} bdef
/FR {MR stroke} bdef
/PR {MR fill} bdef
/L1i {{currentfile picstr readhexstring pop} image} bdef
/tMatrix matrix def
/MakeOval {newpath tMatrix currentmatrix pop translate scale
0 0 1 0 360 arc tMatrix setmatrix} bdef
/FO {MakeOval stroke} bdef
/PO {MakeOval fill} bdef
/PD {currentlinewidth 2 div 0 360 arc fill
   PDlw -1 eq not {PDlw w /PDlw -1 def} if} def
/FA {newpath tMatrix currentmatrix pop translate scale
  0 0 1 5 -2 roll arc tMatrix setmatrix stroke} bdef
/PA {newpath tMatrix currentmatrix pop	translate 0 0 moveto scale
  0 0 1 5 -2 roll arc closepath tMatrix setmatrix fill} bdef
/FAn {newpath tMatrix currentmatrix pop translate scale
  0 0 1 5 -2 roll arcn tMatrix setmatrix stroke} bdef
/PAn {newpath tMatrix currentmatrix pop translate 0 0 moveto scale
  0 0 1 5 -2 roll arcn closepath tMatrix setmatrix fill} bdef
/vradius 0 def /hradius 0 def /lry 0 def
/lrx 0 def /uly 0 def /ulx 0 def /rad 0 def
/MRR {/vradius xdef /hradius xdef /lry xdef /lrx xdef /uly xdef
  /ulx xdef newpath tMatrix currentmatrix pop ulx hradius add uly
  vradius add translate hradius vradius scale 0 0 1 180 270 arc 
  tMatrix setmatrix lrx hradius sub uly vradius add translate
  hradius vradius scale 0 0 1 270 360 arc tMatrix setmatrix
  lrx hradius sub lry vradius sub translate hradius vradius scale
  0 0 1 0 90 arc tMatrix setmatrix ulx hradius add lry vradius sub
  translate hradius vradius scale 0 0 1 90 180 arc tMatrix setmatrix
  closepath} bdef
/FRR {MRR stroke } bdef
/PRR {MRR fill } bdef
/MlrRR {/lry xdef /lrx xdef /uly xdef /ulx xdef /rad lry uly sub 2 div def
  newpath tMatrix currentmatrix pop ulx rad add uly rad add translate
  rad rad scale 0 0 1 90 270 arc tMatrix setmatrix lrx rad sub lry rad
  sub translate rad rad scale 0 0 1 270 90 arc tMatrix setmatrix
  closepath} bdef
/FlrRR {MlrRR stroke } bdef
/PlrRR {MlrRR fill } bdef
/MtbRR {/lry xdef /lrx xdef /uly xdef /ulx xdef /rad lrx ulx sub 2 div def
  newpath tMatrix currentmatrix pop ulx rad add uly rad add translate
  rad rad scale 0 0 1 180 360 arc tMatrix setmatrix lrx rad sub lry rad
  sub translate rad rad scale 0 0 1 0 180 arc tMatrix setmatrix
  closepath} bdef
/FtbRR {MtbRR stroke } bdef
/PtbRR {MtbRR fill } bdef
/stri 6 array def /dtri 6 array def
/smat 6 array def /dmat 6 array def
/tmat1 6 array def /tmat2 6 array def /dif 3 array def
/asub {/ind2 exch def /ind1 exch def dup dup
  ind1 get exch ind2 get sub exch } bdef
/tri_to_matrix {
  2 0 asub 3 1 asub 4 0 asub 5 1 asub
  dup 0 get exch 1 get 7 -1 roll astore } bdef
/compute_transform {
  dmat dtri tri_to_matrix tmat1 invertmatrix 
  smat stri tri_to_matrix tmat2 concatmatrix } bdef
/ds {stri astore pop} bdef
/dt {dtri astore pop} bdef
/db {2 copy /cols xdef /rows xdef mul dup 3 mul string
  currentfile exch readhexstring pop
  dup 0 3 index getinterval /rbmap xdef
  dup 2 index dup getinterval /gbmap xdef
  1 index dup 2 mul exch getinterval /bbmap xdef pop pop}bdef
/it {gs np dtri aload pop moveto lineto lineto cp c
  cols rows 8 compute_transform 
  rbmap gbmap bbmap true 3 colorimage gr}bdef
/il {newpath moveto lineto stroke}bdef
currentdict end def
%%EndProlog

%%BeginSetup
MathWorks begin

0 cap

end
%%EndSetup

%%Page: 1 1
%%BeginPageSetup
%%PageBoundingBox:   185   215   441   591
MathWorks begin
bpage
%%EndPageSetup

%%BeginObject: obj1
bplot

/dpi2point 12 def
portraitMode 0216 7344 csm

 2005   247  3076  4515 MR c np
85 dict begin %Colortable dictionary
/c0 { 0.000000 0.000000 0.000000 sr} bdef
/c1 { 1.000000 1.000000 1.000000 sr} bdef
/c2 { 0.900000 0.000000 0.000000 sr} bdef
/c3 { 0.000000 0.820000 0.000000 sr} bdef
/c4 { 0.000000 0.000000 0.800000 sr} bdef
/c5 { 0.910000 0.820000 0.320000 sr} bdef
/c6 { 1.000000 0.260000 0.820000 sr} bdef
/c7 { 0.000000 0.820000 0.820000 sr} bdef
c0
1 j
1 sg
   0    0 6924 5187 PR
6 w
0 4228 2818 0 0 -4228 2173 4616 4 MP
PP
-2818 0 0 4228 2818 0 0 -4228 2173 4616 5 MP stroke
4 w
DO
SO
6 w
0 sg
2173 4616 mt 4991 4616 L
2173  388 mt 4991  388 L
2173 4616 mt 2173  388 L
4991 4616 mt 4991  388 L
2173 4616 mt 4991 4616 L
2173 4616 mt 2173  388 L
2173 4616 mt 2173 4573 L
2173  388 mt 2173  431 L
%%IncludeResource: font Helvetica
/Helvetica /ISOLatin1Encoding 120 FMSR

2140 4761 mt 
(0) s
2737 4616 mt 2737 4573 L
2737  388 mt 2737  431 L
2654 4761 mt 
(0.2) s
3300 4616 mt 3300 4573 L
3300  388 mt 3300  431 L
3217 4761 mt 
(0.4) s
3864 4616 mt 3864 4573 L
3864  388 mt 3864  431 L
3781 4761 mt 
(0.6) s
4427 4616 mt 4427 4573 L
4427  388 mt 4427  431 L
4344 4761 mt 
(0.8) s
4991 4616 mt 4991 4573 L
4991  388 mt 4991  431 L
4958 4761 mt 
(1) s
2173 4616 mt 2215 4616 L
4991 4616 mt 4949 4616 L
2072 4660 mt 
(0) s
2173 4211 mt 2215 4211 L
4991 4211 mt 4949 4211 L
2072 4255 mt 
(2) s
2173 3806 mt 2215 3806 L
4991 3806 mt 4949 3806 L
2072 3850 mt 
(4) s
2173 3402 mt 2215 3402 L
4991 3402 mt 4949 3402 L
2072 3446 mt 
(6) s
2173 2997 mt 2215 2997 L
4991 2997 mt 4949 2997 L
2072 3041 mt 
(8) s
2173 2593 mt 2215 2593 L
4991 2593 mt 4949 2593 L
2005 2637 mt 
(10) s
2173 2188 mt 2215 2188 L
4991 2188 mt 4949 2188 L
2005 2232 mt 
(12) s
2173 1784 mt 2215 1784 L
4991 1784 mt 4949 1784 L
2005 1828 mt 
(14) s
2173 1379 mt 2215 1379 L
4991 1379 mt 4949 1379 L
2005 1423 mt 
(16) s
2173  975 mt 2215  975 L
4991  975 mt 4949  975 L
2005 1019 mt 
(18) s
2173  570 mt 2215  570 L
4991  570 mt 4949  570 L
2005  614 mt 
(20) s
2173 4616 mt 4991 4616 L
2173  388 mt 4991  388 L
2173 4616 mt 2173  388 L
4991 4616 mt 4991  388 L
gs 2173 389 2819 4228 MR c np
3 48 3 41 2 18 3 -15 3 -53 3 -43 3 0 3 0 
2 0 3 0 3 0 3 204 3 290 2 319 3 308 3 258 
3 178 3 84 3 -7 2 -82 3 -131 3 -151 3 -149 3 -133 
2 -111 3 -95 3 -88 3 -89 3 -98 3 -107 2 -110 3 -106 
3 -90 3 -67 3 -27 2 0 3 22 3 63 3 91 3 114 
3 127 2 132 3 123 3 102 3 66 3 23 2 -24 3 -68 
3 -100 3 -116 3 -117 3 -102 2 -79 3 -54 3 -34 3 -23 
3 -21 2 -25 3 -32 3 -34 3 -32 3 -2 3 0 2 0 
3 0 3 11 3 11 3 -1 2 -12 3 -9 3 0 3 0 
3 0 3 0 2 0 3 24 3 53 3 66 3 85 2 108 
3 134 3 158 3 171 3 164 3 133 2 73 3 -7 3 -98 
3 -181 3 -243 2 -267 3 -253 3 -120 3 0 3 0 3 0 
2 0 3 0 3 61 4712 4555 100 MP stroke
3 61 3 21 2 -17 3 -42 3 -52 3 -32 3 0 3 0 
2 0 3 0 3 0 3 0 3 0 2 9 3 35 3 36 
3 29 3 9 3 -23 2 -59 3 -36 3 0 3 0 3 0 
2 0 3 0 3 239 3 335 3 360 3 325 2 231 3 92 
3 -66 3 -215 3 -328 2 -382 3 -371 3 -220 3 0 3 0 
3 0 2 0 3 0 3 82 3 73 3 8 2 -48 3 -75 
3 -40 3 0 3 54 3 184 2 279 3 348 3 374 3 351 
3 281 2 175 3 49 3 -79 3 -190 3 -274 3 -321 2 -331 
3 -309 3 -262 3 -201 3 -128 2 0 3 0 3 0 3 0 
3 0 3 7 2 27 3 14 3 0 3 -11 3 -17 2 -19 
3 -1 3 0 3 0 3 0 3 0 2 0 3 10 3 8 
3 2 3 -3 2 -7 3 -8 3 -2 3 0 3 0 3 0 
2 0 3 0 3 6 4433 4610 100 MP stroke
3 3 3 0 2 -2 3 -3 3 -4 3 0 3 0 3 0 
2 0 3 0 3 1 3 2 3 0 2 0 3 -1 3 -1 
3 -1 3 0 3 0 2 0 3 0 3 1 3 0 3 0 
2 0 3 -1 3 0 3 0 3 0 3 0 2 1 3 0 
3 0 3 0 3 0 2 -1 3 0 3 0 3 0 3 0 
3 1 2 0 3 0 3 0 3 0 3 -1 2 0 3 0 
3 0 3 1 3 0 2 0 3 0 3 0 3 -1 3 0 
3 0 2 0 3 0 3 1 3 0 3 0 2 0 3 -1 
3 0 3 0 3 0 3 0 2 0 3 1 3 1 3 0 
3 0 2 -1 3 -1 3 0 3 0 3 0 3 0 2 2 
3 1 3 1 3 -1 3 -2 2 -1 3 0 3 0 3 0 
3 0 3 3 2 3 3 1 3 -1 3 -4 3 -2 2 0 
3 0 3 0 3 0 4154 4616 100 MP stroke
3 4 3 4 2 2 3 -2 3 -5 3 -3 3 0 2 0 
3 0 3 1 3 11 3 10 3 4 2 -4 3 -8 3 -8 
3 4 3 24 2 54 3 87 3 117 3 136 3 141 3 127 
2 101 3 62 3 21 3 -19 3 -50 2 -75 3 -93 3 -104 
3 -113 3 -115 3 -107 2 -83 3 -35 3 37 3 131 3 233 
2 327 3 394 3 410 3 366 3 262 3 106 2 -76 3 -253 
3 -395 3 -478 3 -489 2 -430 3 -231 3 0 3 0 3 0 
3 0 2 17 3 114 3 60 3 0 3 -49 2 -78 3 -64 
3 0 3 0 3 0 3 0 2 0 3 21 3 27 3 8 
3 -9 2 -20 3 -24 3 -3 3 0 3 0 3 0 2 0 
3 3 3 7 3 3 3 -2 2 -5 3 -5 3 -1 3 0 
3 0 3 0 2 1 3 1 3 -1 3 -1 3 0 2 0 
3 0 3 1 3 2 3875 4613 100 MP stroke
3 2 3 1 2 -1 3 -4 3 -1 3 0 3 0 2 0 
3 0 3 4 3 9 3 8 3 2 2 -5 3 -13 3 -5 
3 0 3 0 2 0 3 0 3 0 3 27 3 31 3 21 
2 6 3 -12 3 -23 3 -26 3 -13 2 13 3 51 3 90 
3 123 3 144 3 144 2 125 3 89 3 46 3 0 3 -38 
2 -66 3 -81 3 -88 3 -88 3 -87 3 -87 2 -85 3 -81 
3 -67 3 -43 3 -5 2 42 3 92 3 135 3 165 3 172 
3 156 2 117 3 64 3 5 3 -49 3 -91 2 -118 3 -127 
3 -124 3 -111 3 -94 3 -78 2 -63 3 -51 3 -40 3 -22 
3 0 2 0 3 0 3 0 3 0 3 10 3 15 2 9 
3 2 3 -6 3 -13 3 -17 2 0 3 0 3 0 3 0 
3 0 3 0 2 30 3 31 3 19 3 -1 3 -26 2 -46 
3 -7 3 0 3 0 3596 4616 100 MP stroke
3 0 3 0 2 2 3 96 3 83 3 42 3 -20 2 -87 
3 -116 3 0 3 0 3 0 3 0 2 0 3 145 3 370 
3 389 3 341 2 235 3 91 3 -66 3 -203 3 -299 3 -339 
2 -322 3 -260 3 -82 3 0 3 0 2 0 3 0 3 23 
3 40 3 11 3 -14 2 -29 3 -31 3 0 3 0 3 0 
2 0 3 0 3 5 3 7 3 1 3 -3 2 -5 3 -4 
3 -1 3 0 3 0 2 1 3 0 3 -1 3 0 3 0 
3 0 2 0 3 0 3 3 3 2 3 1 2 -1 3 -2 
3 -3 3 0 3 0 3 0 2 0 3 0 3 2 3 1 
3 1 2 -1 3 -1 3 -2 3 0 3 0 3 0 2 0 
3 1 3 1 3 1 3 -1 2 -2 3 0 3 0 3 0 
3 0 3 1 2 2 3 1 3 -1 3 -1 3 -2 2 0 
3 0 3 0 3 0 3317 4616 100 MP stroke
3 4 3 2 2 1 3 -3 3 -4 3 0 3 0 2 0 
3 0 3 3 3 12 3 9 3 2 2 -8 3 -17 3 -1 
3 0 3 0 2 0 3 0 3 20 3 37 3 26 3 1 
2 -26 3 -53 3 -5 3 0 3 0 2 0 3 0 3 25 
3 102 3 79 3 26 2 -43 3 -109 3 -80 3 0 3 0 
2 0 3 0 3 0 3 236 3 335 3 317 2 243 3 134 
3 11 3 -98 3 -173 2 -204 3 -194 3 -156 3 -108 3 -67 
3 -43 2 -39 3 -50 3 -61 3 -61 3 -22 2 0 3 28 
3 106 3 149 3 169 3 161 2 130 3 84 3 37 3 3 
3 -13 2 -8 3 12 3 39 3 59 3 64 3 52 2 22 
3 -19 3 -63 3 -101 3 -127 2 -138 3 -137 3 -125 3 -110 
3 -93 3 -77 2 -61 3 -43 3 0 3 0 3 0 2 0 
3 0 3 13 3 21 3038 4582 100 MP stroke
3 12 3 0 2 -12 3 -19 3 -15 3 0 3 0 2 0 
3 0 3 0 3 9 3 9 3 3 2 -4 3 -9 3 -8 
3 0 3 0 2 0 3 0 3 1 3 6 3 3 3 0 
2 -4 3 -6 3 0 3 0 3 0 2 0 3 0 3 2 
3 5 3 4 3 1 2 0 3 -4 3 -5 3 -3 3 0 
2 0 3 0 3 0 3 0 3 0 3 17 2 26 3 25 
3 21 3 14 3 10 2 11 3 22 3 44 3 77 3 114 
2 147 3 164 3 160 3 126 3 66 3 -14 2 -100 3 -176 
3 -226 3 -242 3 -215 2 -71 3 0 3 0 3 0 3 147 
3 197 2 193 3 162 3 116 3 63 3 16 2 -21 3 -45 
3 -58 3 -66 3 -70 3 -76 2 -83 3 -92 3 -96 3 -96 
3 -87 2 -72 3 -32 3 0 3 0 3 0 3 0 2 0 
3 4 3 11 3 6 2759 4595 100 MP stroke
3 -1 2 -3 3 -5 3 -6 3 -5 3 -1 3 0 2 0 
3 0 3 0 3 0 3 0 2 4 3 4 3 1 3 -1 
3 -3 3 -4 2 -1 3 0 3 0 3 0 3 0 2 2 
3 3 3 1 3 -1 3 -2 3 -2 2 -1 3 0 3 0 
3 0 3 0 2 2 3 1 3 0 3 -1 3 -1 3 -1 
2 0 3 0 3 0 3 0 3 1 2 0 3 0 3 0 
3 0 3 -1 3 0 2 0 3 0 3 1 3 0 3 0 
2 0 3 0 3 -1 3 0 3 0 3 0 2 1 3 0 
3 0 3 0 3 0 2 -1 3 0 3 0 3 1 3 0 
3 0 2 0 3 -1 3 0 3 0 3 0 2 1 3 0 
3 0 3 0 3 0 3 -1 2 0 3 0 3 0 3 1 
3 0 2 1 3 0 3 -1 3 -1 3 0 3 0 2 0 
3 0 3 1 3 2 2480 4613 100 MP stroke
3 2 2 0 3 -1 3 -3 3 -1 3 0 3 0 2 0 
3 0 3 3 3 7 3 5 2 0 3 -4 3 -9 3 -2 
3 0 3 0 2 0 3 0 3 3 3 16 3 14 2 5 
3 -4 3 -16 3 -18 3 0 3 0 2 0 3 0 3 0 
3 8 3 45 2 47 3 43 3 35 3 28 3 24 3 29 
2 40 3 57 3 76 3 91 3 97 2 89 3 64 3 26 
3 -22 3 -70 3 -110 2 -135 3 -140 3 -123 3 -90 3 -48 
2 -9 3 21 3 34 3 27 3 7 3 -18 2 -38 3 -41 
3 -24 3 15 3 69 2 124 3 168 3 187 3 176 3 134 
3 67 2 -8 3 -79 3 -130 3 -154 3 -148 2 -119 3 -78 
3 -39 3 -10 3 1 3 -5 2 -25 3 -46 3 -62 3 -58 
3 0 2 0 3 0 3 0 3 0 3 17 3 33 2 14 
3 -6 3 -22 3 -30 2201 4610 100 MP stroke
3 -6 2 0 3 0 3 0 3 0 3 7 3 15 2 6 
3 -3 3 -11 2173 4602 11 MP stroke
DD
/c8 { 1.000000 0.000000 0.000000 sr} bdef
c8
3 -1376 2 -1512 3 -629 3 -204 3 -124 3 -104 2 -86 3 -65 
3 -48 3 -31 3 -21 3 -12 2 -7 3 -4 3 -2 3 -1 
3 0 2 0 3 0 3 0 3 0 3 0 3 0 2 0 
3 0 3 0 3 0 3 0 2 0 3 0 3 0 3 0 
3 0 3 0 2 0 3 0 3 -1 3 0 3 0 2 0 
3 0 3 0 3 0 3 0 3 0 2 0 3 0 3 0 
3 0 3 0 2 0 3 1 3 0 3 0 3 0 3 0 
2 0 3 0 3 0 3 0 3 0 2 0 3 0 3 0 
3 0 3 0 3 0 2 0 3 0 3 0 3 0 3 0 
2 0 3 0 3 1 3 2 3 3 3 5 2 9 3 15 
3 23 3 33 3 47 2 62 3 77 3 91 3 100 3 104 
3 97 2 81 3 56 3 24 3 -11 3 -44 2 -72 3 -92 
3 -102 3 -103 3 -95 3748 4304 100 MP stroke
3 -82 2 -65 3 -46 3 -27 3 -4 3 23 2 54 3 91 
3 128 3 159 3 174 3 166 2 129 3 67 3 -8 3 -82 
3 -140 2 -171 3 -174 3 -155 3 -125 3 -90 3 -59 2 -36 
3 -20 3 -10 3 -5 3 -2 2 -1 3 0 3 0 3 0 
3 0 3 0 2 0 3 0 3 0 3 0 3 0 2 0 
3 0 3 0 3 0 3 0 3 0 2 -1 3 0 3 0 
3 0 3 0 2 0 3 0 3 0 3 0 3 0 3 0 
2 0 3 0 3 0 3 0 3 0 2 0 3 0 3 1 
3 0 3 0 3 0 2 0 3 3 3 49 3 338 3 1115 
2 1484 3 68 3 -1446 3 -1174 3 -376 3 -57 2 -4 3 0 
3 0 3 0 3 0 2 0 3 -1 3 0 3 0 3 0 
3 0 2 0 3 0 3 0 3 0 3 0 2 0 3 0 
3 0 3 0 3 0 3469 4616 100 MP stroke
3 0 2 0 3 0 3 0 3 0 3 0 2 0 3 0 
3 0 3 0 3 0 3 0 2 0 3 0 3 0 3 0 
3 0 2 0 3 0 3 0 3 0 3 0 3 0 2 0 
3 0 3 0 3 0 3 0 2 0 3 0 3 0 3 0 
3 0 3 0 2 0 3 0 3 0 3 0 3 0 2 0 
3 0 3 0 3 0 3 0 3 0 2 0 3 0 3 0 
3 0 3 0 2 0 3 0 3 0 3 0 3 0 3 0 
2 0 3 0 3 0 3 0 3 0 2 0 3 0 3 0 
3 0 3 0 3 0 2 0 3 0 3 0 3 0 3 0 
2 0 3 0 3 0 3 0 3 0 3 0 2 0 3 0 
3 0 3 0 3 1 2 0 3 0 3 0 3 0 3 0 
3 0 2 0 3 0 3 0 3 0 3 1 2 4 3 15 
3 44 3 107 3 214 3190 4230 100 MP stroke
3 340 2 421 3 373 3 170 3 -114 3 -342 2 -424 3 -363 
3 -239 3 -125 3 -51 3 -14 2 3 3 14 3 22 3 35 
3 49 2 67 3 83 3 99 3 110 3 112 3 105 2 88 
3 63 3 36 3 13 3 2 2 5 3 23 3 48 3 70 
3 76 3 58 2 14 3 -45 3 -109 3 -159 3 -185 2 -186 
3 -164 3 -131 3 -94 3 -62 3 -38 2 -20 3 -11 3 -5 
3 -2 3 -1 2 0 3 0 3 0 3 0 3 0 3 0 
2 0 3 0 3 0 3 0 3 0 2 0 3 0 3 0 
3 0 3 0 3 -1 2 0 3 0 3 0 3 0 3 0 
2 0 3 0 3 0 3 0 3 0 3 0 2 0 3 1 
3 0 3 0 3 0 2 0 3 0 3 0 3 0 3 0 
3 0 2 0 3 0 3 0 3 0 3 0 2 0 3 0 
3 0 3 0 3 1 2911 4614 100 MP stroke
3 3 2 5 3 11 3 18 3 32 3 49 2 73 3 98 
3 123 3 141 3 145 2 132 3 100 3 51 3 -6 3 -63 
3 -108 2 -137 3 -146 3 -137 3 -118 3 -90 2 -63 3 -36 
3 -8 3 22 3 57 3 99 2 142 3 181 3 199 3 187 
3 139 2 60 3 -33 3 -119 3 -176 3 -200 3 -189 2 -157 
3 -115 3 -76 3 -45 3 -25 2 -12 3 -6 3 -2 3 -1 
3 0 3 0 2 0 3 0 3 0 3 0 3 0 2 0 
3 0 3 0 3 0 3 0 3 0 2 0 3 0 3 -1 
3 0 3 0 2 0 3 0 3 0 3 0 3 0 3 0 
2 0 3 0 3 0 3 0 3 0 2 0 3 0 3 0 
3 0 3 0 3 0 2 0 3 0 3 0 3 0 3 0 
2 0 3 0 3 0 3 0 3 0 3 0 2 0 3 0 
3 0 3 0 3 0 2632 4616 100 MP stroke
2 0 3 0 3 0 3 0 3 0 3 0 2 0 3 0 
3 0 3 0 3 0 2 0 3 0 3 0 3 0 3 0 
3 0 2 0 3 0 3 0 3 0 3 0 2 0 3 0 
3 0 3 0 3 0 3 0 2 0 3 0 3 0 3 0 
3 0 2 0 3 0 3 0 3 0 3 0 3 0 2 0 
3 0 3 0 3 0 3 0 2 0 3 0 3 0 3 0 
3 0 3 0 2 0 3 0 3 0 3 0 3 0 2 0 
3 0 3 0 3 0 3 0 3 1 2 0 3 0 3 0 
3 0 3 0 2 0 3 0 3 0 3 0 3 0 3 0 
2 0 3 0 3 0 3 0 3 0 2 0 3 0 3 0 
3 0 3 0 3 1 2 1 3 3 3 5 3 8 3 14 
2 22 3 33 3 47 3 62 3 79 3 94 2 104 3 108 
3 101 3 84 3 58 2353 3791 100 MP stroke
2 23 3 -14 3 -48 3 -78 3 -98 3 -107 2 -106 3 -97 
3 -83 3 -67 3 -50 2 -35 3 -23 3 -13 3 -3 3 6 
3 15 2 28 3 42 3 60 3 79 3 97 2 112 3 117 
3 114 3 96 3 67 3 28 2 -14 3 -54 3 -87 3 -108 
3 -118 2 -115 3 -103 3 -86 3 -66 3 -49 3 -34 2 -22 
3 -14 3 -8 3 -4 3 -2 2 -2 3 0 3 0 3 0 
3 0 3 0 2 0 3 0 3 0 3 0 3 0 2 0 
3 0 3 0 3 0 3 0 3 0 2 0 3 0 3 0 
2173 4615 65 MP stroke
3 0 3 0 2 0 3 0 3 0 3 0 3 0 3 0 
2 0 3 0 3 1 3 10 3 79 2 401 3 1082 3 1320 
3 182 3 -1068 3 -949 2 -237 3 124 3 165 3 94 3 -10 
2 -113 3 -187 3 -218 3 -209 3 -172 3 -123 2 -76 3 -40 
3 -14 3 7 3 23 2 38 3 56 3 74 3 91 3 105 
3 112 2 110 3 96 3 71 3 37 3 -1 2 -41 3 -74 
3 -98 3 -110 3 -112 3 -104 2 -90 3 -72 3 -55 3 -39 
3 -27 2 -17 3 -10 3 -6 3 -3 3 -2 3 -1 2 0 
3 0 3 0 3 0 3 0 2 0 3 0 3 0 3 0 
3 0 3 1 2 3 3 10 3 28 3 63 3 124 2 207 
3 289 3 328 3 283 3 143 3 -49 2 -223 3 -317 3 -318 
3 -250 3 -164 2 -91 3 -42 3 -17 3 -6 3 -2 3 0 
2 0 3 0 3 0 4712 4615 100 MP stroke
3 0 3 0 2 0 3 0 3 0 3 0 3 0 3 0 
2 -1 3 0 3 0 3 0 3 0 2 0 3 0 3 0 
3 0 3 0 3 0 2 1 3 0 3 0 3 0 3 0 
2 0 3 3 3 35 3 233 3 804 3 1334 2 635 3 -873 
3 -1298 3 -675 3 -173 2 -24 3 -1 3 0 3 0 3 0 
3 0 2 0 3 0 3 0 3 0 3 0 2 0 3 5 
3 18 3 60 3 158 3 317 2 480 3 514 3 313 3 -61 
3 -338 2 -94 3 851 3 1151 3 -430 3 -1615 3 -1024 2 -270 
3 -33 3 -2 3 0 3 0 2 0 3 0 3 0 3 0 
3 0 3 -1 2 0 3 0 3 0 3 0 3 0 2 0 
3 0 3 0 3 0 3 0 3 0 2 0 3 0 3 0 
3 0 3 0 2 0 3 0 3 0 3 0 3 0 3 0 
2 0 3 0 3 0 4433 4616 100 MP stroke
3 0 3 0 2 0 3 0 3 0 3 0 3 0 3 0 
2 0 3 0 3 0 3 0 3 0 2 0 3 0 3 0 
3 0 3 0 3 0 2 0 3 0 3 0 3 0 3 0 
2 0 3 0 3 0 3 0 3 0 3 0 2 0 3 0 
3 0 3 0 3 0 2 0 3 0 3 0 3 0 3 0 
3 0 2 0 3 0 3 0 3 0 3 0 2 0 3 0 
3 0 3 0 3 0 2 0 3 0 3 0 3 0 3 0 
3 0 2 0 3 0 3 0 3 0 3 0 2 0 3 0 
3 0 3 0 3 0 3 0 2 0 3 0 3 0 3 0 
3 0 2 0 3 0 3 0 3 0 3 0 3 0 2 0 
3 0 3 0 3 0 3 0 2 0 3 0 3 0 3 0 
3 0 3 1 2 0 3 0 3 0 3 0 3 0 2 0 
3 0 3 0 3 0 4154 4615 100 MP stroke
3 0 3 0 2 0 3 0 3 0 3 0 3 0 2 0 
3 0 3 0 3 1 3 2 3 4 2 7 3 13 3 23 
3 37 3 56 2 78 3 101 3 123 3 135 3 135 3 118 
2 85 3 37 3 -14 3 -65 3 -104 2 -127 3 -131 3 -118 
3 -93 3 -60 3 -22 2 16 3 52 3 82 3 105 3 118 
2 135 3 293 3 943 3 1656 3 605 4027 389 46 MP stroke
SO
/c9 { 0.000000 0.000000 1.000000 sr} bdef
c9
3 -2 3 0 2 -2 3 36 3 42 3 23 3 44 3 79 
2 77 3 121 3 97 3 93 3 146 2 156 3 143 3 51 
3 55 3 6 3 22 2 -24 3 12 3 -45 3 -99 3 -137 
2 -21 3 -87 3 -163 3 -61 3 -10 3 -95 2 -148 3 -36 
3 0 3 24 3 -14 2 -16 3 34 3 12 3 89 3 47 
3 10 2 93 3 6 3 16 3 49 3 -61 2 2 3 32 
3 -56 3 -85 3 -41 3 -107 2 -2 3 -36 3 -33 3 -28 
3 -109 2 18 3 -32 3 -43 3 -18 3 -10 3 0 2 -12 
3 2 3 -6 3 -4 3 4 2 6 3 12 3 0 3 38 
3 -4 3 79 2 87 3 -6 3 105 3 53 3 89 2 67 
3 78 3 35 3 18 3 36 3 61 2 -63 3 -38 3 -38 
3 -96 3 -70 2 -124 3 -87 3 -60 3 -8 3 -83 3 -29 
2 -16 3 -16 3 -18 4712 4597 100 MP stroke
3 -6 3 -6 2 4 3 -11 3 3 3 -3 3 0 3 3 
2 -3 3 0 3 0 3 0 3 0 2 5 3 2 3 -2 
3 10 3 26 3 16 2 30 3 17 3 10 3 105 3 138 
2 48 3 65 3 113 3 49 3 133 3 51 2 -53 3 55 
3 -47 3 -95 3 -119 2 -126 3 -50 3 -75 3 -97 3 -61 
3 -28 2 -26 3 -2 3 4 3 12 3 111 2 8 3 148 
3 79 3 74 3 178 3 100 2 167 3 168 3 67 3 113 
3 31 2 -10 3 50 3 -93 3 -85 3 -83 3 -198 2 -105 
3 -162 3 -119 3 -144 3 -34 2 -126 3 -129 3 -20 3 -29 
3 -20 3 -24 2 6 3 -16 3 -6 3 -2 3 -3 2 0 
3 0 3 0 3 0 3 0 3 0 2 0 3 0 3 0 
3 0 3 0 2 0 3 0 3 0 3 0 3 0 3 0 
2 0 3 0 3 0 4433 4616 100 MP stroke
3 0 3 0 2 0 3 0 3 0 3 0 3 0 3 0 
2 0 3 0 3 0 3 0 3 0 2 0 3 0 3 0 
3 0 3 0 3 0 2 0 3 0 3 0 3 0 3 0 
2 0 3 0 3 0 3 0 3 0 3 0 2 0 3 0 
3 0 3 0 3 0 2 0 3 0 3 0 3 0 3 0 
3 0 2 0 3 0 3 0 3 0 3 0 2 0 3 0 
3 0 3 0 3 0 2 0 3 0 3 0 3 0 3 0 
3 0 2 0 3 0 3 0 3 0 3 0 2 0 3 0 
3 0 3 0 3 0 3 0 2 0 3 0 3 0 3 0 
3 0 2 0 3 0 3 0 3 0 3 0 3 0 2 0 
3 0 3 0 3 0 3 0 2 0 3 0 3 0 3 0 
3 0 3 0 2 0 3 0 3 0 3 0 3 0 2 0 
3 0 3 0 3 0 4154 4616 100 MP stroke
3 0 3 0 2 0 3 0 3 7 3 0 3 -2 2 8 
3 10 3 -4 3 16 3 24 3 -6 2 28 3 79 3 14 
3 45 3 46 2 55 3 59 3 81 3 38 3 61 3 30 
2 71 3 69 3 -134 3 -18 3 89 2 -55 3 19 3 -136 
3 113 3 -64 3 97 2 12 3 91 3 141 3 25 3 157 
2 148 3 59 3 69 3 105 3 -67 3 91 2 -182 3 -142 
3 -62 3 -160 3 -269 2 -109 3 -73 3 -134 3 -87 3 -105 
3 -20 2 -43 3 -46 3 -4 3 -4 3 -18 2 8 3 -18 
3 6 3 -6 3 4 3 -7 2 0 3 0 3 0 3 0 
3 0 2 0 3 0 3 0 3 0 3 0 3 0 2 0 
3 0 3 0 3 0 3 0 2 0 3 0 3 0 3 0 
3 0 3 0 2 0 3 0 3 0 3 0 3 0 2 0 
3 0 3 0 3 0 3875 4616 100 MP stroke
3 0 3 0 2 0 3 0 3 0 3 0 3 0 2 0 
3 0 3 0 3 0 3 0 3 0 2 0 3 0 3 3 
3 2 3 4 2 6 3 0 3 16 3 22 3 -10 3 22 
2 27 3 24 3 42 3 4 3 87 2 12 3 79 3 33 
3 54 3 39 3 101 2 40 3 -28 3 53 3 -37 3 12 
2 -93 3 57 3 -111 3 -6 3 -69 3 18 2 -93 3 30 
3 35 3 -45 3 29 2 0 3 113 3 12 3 117 3 -8 
3 63 2 26 3 -16 3 -16 3 -39 3 -12 2 -28 3 -63 
3 -131 3 42 3 -111 3 -67 2 -52 3 -53 3 -30 3 -31 
3 -10 2 -30 3 -6 3 -14 3 -2 3 -6 3 -2 2 -2 
3 0 3 -3 3 0 3 0 2 0 3 0 3 0 3 0 
3 0 3 0 2 0 3 0 3 0 3 0 3 0 2 0 
3 3 3 -3 3 0 3596 4616 100 MP stroke
3 3 3 -3 2 3 3 4 3 8 3 20 3 2 2 40 
3 -2 3 67 3 37 3 50 3 109 2 166 3 20 3 47 
3 222 3 -30 2 132 3 -146 3 38 3 -103 3 -56 3 -114 
2 -52 3 -142 3 -10 3 -97 3 -83 2 -40 3 -41 3 -14 
3 -14 3 -2 3 -14 2 2 3 -4 3 -3 3 0 3 0 
2 0 3 0 3 0 3 0 3 0 3 0 2 0 3 0 
3 0 3 0 3 0 2 0 3 0 3 0 3 0 3 0 
3 0 2 0 3 0 3 0 3 0 3 0 2 0 3 0 
3 0 3 0 3 0 3 0 2 0 3 0 3 0 3 0 
3 0 2 0 3 0 3 0 3 0 3 0 3 0 2 0 
3 0 3 0 3 0 3 0 2 0 3 0 3 0 3 0 
3 0 3 0 2 0 3 0 3 0 3 0 3 0 2 0 
3 0 3 0 3 0 3317 4616 100 MP stroke
3 0 3 0 2 0 3 0 3 0 3 0 3 0 2 0 
3 0 3 0 3 0 3 0 3 0 2 0 3 0 3 0 
3 0 3 0 2 0 3 0 3 0 3 0 3 0 3 0 
2 0 3 0 3 0 3 0 3 0 2 3 3 2 3 4 
3 0 3 2 3 20 2 8 3 24 3 16 3 53 3 49 
2 38 3 65 3 141 3 35 3 117 3 133 2 7 3 70 
3 6 3 -143 3 16 2 -63 3 -36 3 14 3 -117 3 -53 
3 -65 2 -64 3 -14 3 -9 3 23 3 -4 2 22 3 67 
3 44 3 73 3 123 3 12 2 73 3 97 3 -52 3 121 
3 28 2 7 3 82 3 5 3 -39 3 36 3 -76 2 -61 
3 46 3 -82 3 -126 3 -10 2 -121 3 -25 3 -147 3 -41 
3 -73 3 -50 2 -61 3 -16 3 -61 3 -40 3 8 2 -14 
3 -14 3 10 3 -10 3038 4603 100 MP stroke
3 -8 3 0 2 2 3 -7 3 0 3 0 3 0 2 0 
3 0 3 0 3 0 3 0 3 0 2 0 3 0 3 0 
3 0 3 0 2 0 3 0 3 0 3 0 3 0 3 0 
2 0 3 0 3 0 3 0 3 0 2 0 3 0 3 0 
3 0 3 0 3 0 2 0 3 0 3 5 3 -2 3 -3 
2 11 3 8 3 6 3 22 3 0 3 24 2 35 3 30 
3 40 3 35 3 44 2 10 3 128 3 22 3 105 3 45 
2 14 3 -6 3 46 3 19 3 40 3 -99 2 10 3 -103 
3 4 3 -67 3 -77 2 -6 3 21 3 4 3 52 3 75 
3 -10 2 71 3 42 3 71 3 -34 3 -19 2 53 3 0 
3 -18 3 -55 3 -40 3 -120 2 -54 3 2 3 -142 3 10 
3 -64 2 -45 3 -46 3 -23 3 -36 3 -10 3 -12 2 0 
3 -8 3 0 3 6 2759 4605 100 MP stroke
3 -6 2 -5 3 0 3 0 3 0 3 0 3 0 2 0 
3 0 3 0 3 0 3 0 2 0 3 0 3 0 3 0 
3 0 3 0 2 0 3 0 3 0 3 0 3 0 2 0 
3 0 3 0 3 0 3 0 3 0 2 0 3 0 3 0 
3 0 3 0 2 0 3 0 3 0 3 0 3 0 3 0 
2 0 3 0 3 0 3 0 3 0 2 0 3 0 3 0 
3 0 3 0 3 0 2 0 3 0 3 0 3 0 3 0 
2 0 3 0 3 0 3 0 3 0 3 0 2 0 3 0 
3 0 3 0 3 0 2 0 3 0 3 0 3 0 3 0 
3 0 2 0 3 0 3 0 3 0 3 0 2 0 3 0 
3 0 3 0 3 0 3 0 2 0 3 0 3 0 3 0 
3 0 2 0 3 0 3 0 3 0 3 0 3 0 2 0 
3 0 3 0 3 0 2480 4616 100 MP stroke
3 0 2 0 3 0 3 0 3 0 3 0 3 0 2 0 
3 0 3 0 3 0 3 0 2 0 3 0 3 0 3 0 
3 0 3 0 2 0 3 0 3 0 3 3 3 -3 2 5 
3 4 3 -4 3 8 3 0 3 12 2 2 3 30 3 20 
3 31 3 26 2 8 3 95 3 20 3 11 3 78 3 6 
2 134 3 -20 3 6 3 42 3 31 2 54 3 0 3 -40 
3 -27 3 -99 3 -14 2 -28 3 20 3 -89 3 -73 3 -58 
2 22 3 -34 3 -13 3 -20 3 35 3 30 2 -16 3 68 
3 63 3 -2 3 65 2 57 3 89 3 -25 3 61 3 109 
3 -26 2 -51 3 -34 3 -32 3 -9 3 -119 2 12 3 -99 
3 0 3 -42 3 -51 3 -91 2 8 3 -69 3 -34 3 12 
3 -12 2 -24 3 -4 3 -4 3 -4 3 -2 3 -2 2 -3 
3 0 3 0 3 0 2201 4616 100 MP stroke
3 0 2 0 3 0 3 0 3 0 3 0 3 0 2 0 
3 0 3 0 2173 4616 11 MP stroke
gr

c9
0 sg
2156 4659 mt 
( ) s
4975  431 mt 
( ) s
1 sg
0 480 1522 0 0 -480 2232 929 4 MP
PP
-1522 0 0 480 1522 0 0 -480 2232 929 5 MP stroke
4 w
DO
SO
6 w
0 sg
2232  929 mt 3754  929 L
2232  449 mt 3754  449 L
2232  929 mt 2232  449 L
3754  929 mt 3754  449 L
2232  929 mt 3754  929 L
2232  929 mt 2232  449 L
2232  929 mt 3754  929 L
2232  449 mt 3754  449 L
2232  929 mt 2232  449 L
3754  929 mt 3754  449 L
2679  583 mt 
(Approximation of D) s
gs 2232 449 1523 481 MR c np
344 0 2300 540 2 MP stroke
gr

2679  732 mt 
(PDF of x) s
gs 2232 449 1523 481 MR c np
DD
c8
344 0 2300 689 2 MP stroke
SO
gr

c8
0 sg
2679  880 mt 
(PDF of y) s
gs 2232 449 1523 481 MR c np
c9
344 0 2300 837 2 MP stroke
gr

c9

end %%Color Dict

eplot
%%EndObject

epage
end

showpage

%%Trailer
%%EOF
