%!PS-Adobe-2.0 EPSF-1.2
%%Creator: MATLAB, The MathWorks, Inc. Version 8.2.0.701 (R2013b). Operating System: Microsoft Windows 7.
%%Title: .\final_char_complex.eps
%%CreationDate: 08/14/2014  19:35:58
%%DocumentNeededFonts: Helvetica
%%DocumentProcessColors: Cyan Magenta Yellow Black
%%Extensions: CMYK
%%Pages: 1
%%BoundingBox:    43   189   553   589
%%EndComments

%%BeginProlog
% MathWorks dictionary
/MathWorks 160 dict begin
% definition operators
/bdef {bind def} bind def
/ldef {load def} bind def
/xdef {exch def} bdef
/xstore {exch store} bdef
% operator abbreviations
/c  /clip ldef
/cc /concat ldef
/cp /closepath ldef
/gr /grestore ldef
/gs /gsave ldef
/mt /moveto ldef
/np /newpath ldef
/cm /currentmatrix ldef
/sm /setmatrix ldef
/rm /rmoveto ldef
/rl /rlineto ldef
/s {show newpath} bdef
/sc {setcmykcolor} bdef
/sr /setrgbcolor ldef
/sg /setgray ldef
/w /setlinewidth ldef
/j /setlinejoin ldef
/cap /setlinecap ldef
/rc {rectclip} bdef
/rf {rectfill} bdef
% page state control
/pgsv () def
/bpage {/pgsv save def} bdef
/epage {pgsv restore} bdef
/bplot /gsave ldef
/eplot {stroke grestore} bdef
% orientation switch
/portraitMode 0 def /landscapeMode 1 def /rotateMode 2 def
% coordinate system mappings
/dpi2point 0 def
% font control
/FontSize 0 def
/FMS {/FontSize xstore findfont [FontSize 0 0 FontSize neg 0 0]
  makefont setfont} bdef
/ISOLatin1Encoding where {pop /WindowsLatin1Encoding 256 array bdef
ISOLatin1Encoding WindowsLatin1Encoding copy pop
/.notdef/.notdef/quotesinglbase/florin/quotedblbase/ellipsis/dagger
/daggerdbl/circumflex/perthousand/Scaron/guilsinglleft/OE/.notdef/.notdef
/.notdef/.notdef/quoteleft/quoteright/quotedblleft/quotedblright/bullet
/endash/emdash/tilde/trademark/scaron/guilsinglright/oe/.notdef/.notdef
/Ydieresis WindowsLatin1Encoding 128 32 getinterval astore pop}
{/WindowsLatin1Encoding StandardEncoding bdef} ifelse
/reencode {exch dup where {pop load} {pop StandardEncoding} ifelse
  exch dup 3 1 roll findfont dup length dict begin
  { 1 index /FID ne {def}{pop pop} ifelse } forall
  /Encoding exch def currentdict end definefont pop} bdef
/isroman {findfont /CharStrings get /Agrave known} bdef
/FMSR {3 1 roll 1 index dup isroman {reencode} {pop pop} ifelse
  exch FMS} bdef
/csm {1 dpi2point div -1 dpi2point div scale neg translate
 dup landscapeMode eq {pop -90 rotate}
  {rotateMode eq {90 rotate} if} ifelse} bdef
% line types: solid, dotted, dashed, dotdash
/SO { [] 0 setdash } bdef
/DO { [.5 dpi2point mul 4 dpi2point mul] 0 setdash } bdef
/DA { [6 dpi2point mul] 0 setdash } bdef
/DD { [.5 dpi2point mul 4 dpi2point mul 6 dpi2point mul 4
  dpi2point mul] 0 setdash } bdef
% macros for lines and objects
/L {lineto stroke} bdef
/MP {3 1 roll moveto 1 sub {rlineto} repeat} bdef
/AP {{rlineto} repeat} bdef
/PDlw -1 def
/W {/PDlw currentlinewidth def setlinewidth} def
/PP {closepath eofill} bdef
/DP {closepath stroke} bdef
/MR {4 -2 roll moveto dup  0 exch rlineto exch 0 rlineto
  neg 0 exch rlineto closepath} bdef
/FR {MR stroke} bdef
/PR {MR fill} bdef
/L1i {{currentfile picstr readhexstring pop} image} bdef
/tMatrix matrix def
/MakeOval {newpath tMatrix currentmatrix pop translate scale
0 0 1 0 360 arc tMatrix setmatrix} bdef
/FO {MakeOval stroke} bdef
/PO {MakeOval fill} bdef
/PD {currentlinewidth 2 div 0 360 arc fill
   PDlw -1 eq not {PDlw w /PDlw -1 def} if} def
/FA {newpath tMatrix currentmatrix pop translate scale
  0 0 1 5 -2 roll arc tMatrix setmatrix stroke} bdef
/PA {newpath tMatrix currentmatrix pop	translate 0 0 moveto scale
  0 0 1 5 -2 roll arc closepath tMatrix setmatrix fill} bdef
/FAn {newpath tMatrix currentmatrix pop translate scale
  0 0 1 5 -2 roll arcn tMatrix setmatrix stroke} bdef
/PAn {newpath tMatrix currentmatrix pop translate 0 0 moveto scale
  0 0 1 5 -2 roll arcn closepath tMatrix setmatrix fill} bdef
/vradius 0 def /hradius 0 def /lry 0 def
/lrx 0 def /uly 0 def /ulx 0 def /rad 0 def
/MRR {/vradius xdef /hradius xdef /lry xdef /lrx xdef /uly xdef
  /ulx xdef newpath tMatrix currentmatrix pop ulx hradius add uly
  vradius add translate hradius vradius scale 0 0 1 180 270 arc 
  tMatrix setmatrix lrx hradius sub uly vradius add translate
  hradius vradius scale 0 0 1 270 360 arc tMatrix setmatrix
  lrx hradius sub lry vradius sub translate hradius vradius scale
  0 0 1 0 90 arc tMatrix setmatrix ulx hradius add lry vradius sub
  translate hradius vradius scale 0 0 1 90 180 arc tMatrix setmatrix
  closepath} bdef
/FRR {MRR stroke } bdef
/PRR {MRR fill } bdef
/MlrRR {/lry xdef /lrx xdef /uly xdef /ulx xdef /rad lry uly sub 2 div def
  newpath tMatrix currentmatrix pop ulx rad add uly rad add translate
  rad rad scale 0 0 1 90 270 arc tMatrix setmatrix lrx rad sub lry rad
  sub translate rad rad scale 0 0 1 270 90 arc tMatrix setmatrix
  closepath} bdef
/FlrRR {MlrRR stroke } bdef
/PlrRR {MlrRR fill } bdef
/MtbRR {/lry xdef /lrx xdef /uly xdef /ulx xdef /rad lrx ulx sub 2 div def
  newpath tMatrix currentmatrix pop ulx rad add uly rad add translate
  rad rad scale 0 0 1 180 360 arc tMatrix setmatrix lrx rad sub lry rad
  sub translate rad rad scale 0 0 1 0 180 arc tMatrix setmatrix
  closepath} bdef
/FtbRR {MtbRR stroke } bdef
/PtbRR {MtbRR fill } bdef
/stri 6 array def /dtri 6 array def
/smat 6 array def /dmat 6 array def
/tmat1 6 array def /tmat2 6 array def /dif 3 array def
/asub {/ind2 exch def /ind1 exch def dup dup
  ind1 get exch ind2 get sub exch } bdef
/tri_to_matrix {
  2 0 asub 3 1 asub 4 0 asub 5 1 asub
  dup 0 get exch 1 get 7 -1 roll astore } bdef
/compute_transform {
  dmat dtri tri_to_matrix tmat1 invertmatrix 
  smat stri tri_to_matrix tmat2 concatmatrix } bdef
/ds {stri astore pop} bdef
/dt {dtri astore pop} bdef
/db {2 copy /cols xdef /rows xdef mul dup 3 mul string
  currentfile exch readhexstring pop
  dup 0 3 index getinterval /rbmap xdef
  dup 2 index dup getinterval /gbmap xdef
  1 index dup 2 mul exch getinterval /bbmap xdef pop pop}bdef
/it {gs np dtri aload pop moveto lineto lineto cp c
  cols rows 8 compute_transform 
  rbmap gbmap bbmap true 3 colorimage gr}bdef
/il {newpath moveto lineto stroke}bdef
currentdict end def
%%EndProlog

%%BeginSetup
MathWorks begin

0 cap

end
%%EndSetup

%%Page: 1 1
%%BeginPageSetup
%%PageBoundingBox:    43   189   553   589
MathWorks begin
bpage
%%EndPageSetup

%%BeginObject: obj1
bplot

/dpi2point 12 def
portraitMode 0204 7344 csm

  321   274  6116  4795 MR c np
86 dict begin %Colortable dictionary
/c0 { 0.000000 0.000000 0.000000 sr} bdef
/c1 { 1.000000 1.000000 1.000000 sr} bdef
/c2 { 0.900000 0.000000 0.000000 sr} bdef
/c3 { 0.000000 0.820000 0.000000 sr} bdef
/c4 { 0.000000 0.000000 0.800000 sr} bdef
/c5 { 0.910000 0.820000 0.320000 sr} bdef
/c6 { 1.000000 0.260000 0.820000 sr} bdef
/c7 { 0.000000 0.820000 0.820000 sr} bdef
c0
1 j
1 sg
   0    0 6913 5185 PR
6 w
0 4225 5356 0 0 -4225 899 4614 4 MP
PP
-5356 0 0 4225 5356 0 0 -4225 899 4614 5 MP stroke
4 w
DO
SO
6 w
0 sg
 899  389 mt 6255  389 L
 899 4614 mt 6255 4614 L
6255 4614 mt 6255  389 L
 899 4614 mt  899  389 L
 899 4614 mt 6255 4614 L
 899 4614 mt  899  389 L
 899 4614 mt  899 4560 L
 899  389 mt  899  442 L
%%IncludeResource: font Helvetica
/Helvetica /WindowsLatin1Encoding 120 FMSR

 866 4759 mt 
(0) s
1434 4614 mt 1434 4560 L
1434  389 mt 1434  442 L
1334 4759 mt 
(100) s
1970 4614 mt 1970 4560 L
1970  389 mt 1970  442 L
1870 4759 mt 
(200) s
2505 4614 mt 2505 4560 L
2505  389 mt 2505  442 L
2405 4759 mt 
(300) s
3041 4614 mt 3041 4560 L
3041  389 mt 3041  442 L
2941 4759 mt 
(400) s
3577 4614 mt 3577 4560 L
3577  389 mt 3577  442 L
3477 4759 mt 
(500) s
4112 4614 mt 4112 4560 L
4112  389 mt 4112  442 L
4012 4759 mt 
(600) s
4648 4614 mt 4648 4560 L
4648  389 mt 4648  442 L
4548 4759 mt 
(700) s
5183 4614 mt 5183 4560 L
5183  389 mt 5183  442 L
5083 4759 mt 
(800) s
5719 4614 mt 5719 4560 L
5719  389 mt 5719  442 L
5619 4759 mt 
(900) s
6255 4614 mt 6255 4560 L
6255  389 mt 6255  442 L
6122 4759 mt 
(1000) s
 899 4614 mt  952 4614 L
6255 4614 mt 6201 4614 L
 798 4658 mt 
(0) s
 899 4191 mt  952 4191 L
6255 4191 mt 6201 4191 L
 631 4235 mt 
(0.05) s
 899 3769 mt  952 3769 L
6255 3769 mt 6201 3769 L
 698 3813 mt 
(0.1) s
 899 3346 mt  952 3346 L
6255 3346 mt 6201 3346 L
 631 3390 mt 
(0.15) s
 899 2924 mt  952 2924 L
6255 2924 mt 6201 2924 L
 698 2968 mt 
(0.2) s
 899 2501 mt  952 2501 L
6255 2501 mt 6201 2501 L
 631 2545 mt 
(0.25) s
 899 2078 mt  952 2078 L
6255 2078 mt 6201 2078 L
 698 2122 mt 
(0.3) s
 899 1656 mt  952 1656 L
6255 1656 mt 6201 1656 L
 631 1700 mt 
(0.35) s
 899 1234 mt  952 1234 L
6255 1234 mt 6201 1234 L
 698 1278 mt 
(0.4) s
 899  811 mt  952  811 L
6255  811 mt 6201  811 L
 631  855 mt 
(0.45) s
 899  389 mt  952  389 L
6255  389 mt 6201  389 L
 698  433 mt 
(0.5) s
 899  389 mt 6255  389 L
 899 4614 mt 6255 4614 L
6255 4614 mt 6255  389 L
 899 4614 mt  899  389 L
gs 899 389 5357 4226 MR c np
18 w
6 -4 5 -3 6 -4 5 -4 5 -6 6 -7 5 -7 5 -6 
6 -3 5 -1 5 -1 6 -1 5 -3 5 -5 6 -7 5 -8 
6 -7 5 -8 5 -7 6 -7 5 -6 5 -6 6 -5 5 -5 
5 -4 6 -5 5 -4 5 -5 6 -5 5 -6 6 -5 5 -4 
5 -4 6 -2 5 -2 5 0 6 -1 5 -1 5 -2 6 -2 
5 -3 5 -3 6 -4 5 -3 6 -4 5 -3 5 -4 6 -3 
5 -4 5 -4 6 -6 5 -7 5 -9 6 -8 5 -8 5 -5 
6 -4 5 -1 6 -2 5 -1 5 -3 6 -5 5 -7 5 -10 
6 -12 5 -12 5 -11 6 -9 5 -8 5 -6 6 -6 5 -7 
5 -7 6 -7 5 -7 6 -7 5 -6 5 -6 6 -8 5 -9 
5 -10 6 -9 5 -8 5 -5 6 -5 5 -3 5 -3 6 -4 
5 -5 6 -4 5 -5 5 -5 6 -4 5 -4 5 -3 6 -3 
5 -4 5 -3 6 -5 5724 2155 100 MP stroke
5 -6 5 -7 6 -9 5 -11 6 -13 5 -13 5 -11 6 -9 
5 -6 5 -4 6 -4 5 -6 5 -10 6 -14 5 -16 5 -16 
6 -15 5 -13 6 -9 5 -6 5 -4 6 -1 5 -1 5 0 
6 -1 5 -2 5 -3 6 -6 5 -9 5 -12 6 -14 5 -16 
5 -18 6 -16 5 -15 6 -12 5 -10 5 -7 6 -6 5 -4 
5 -2 6 -2 5 -3 5 -2 6 -3 5 -4 5 -4 6 -6 
5 -5 6 -7 5 -7 5 -7 6 -9 5 -9 5 -9 6 -9 
5 -8 5 -7 6 -4 5 -4 5 -3 6 -6 5 -12 6 -17 
5 -25 5 -29 6 -31 5 -31 5 -29 6 -26 5 -24 5 -23 
6 -21 5 -18 5 -13 6 -9 5 -6 6 -5 5 -5 5 -6 
6 -7 5 -7 5 -7 6 -5 5 -3 5 -2 6 -1 5 0 
5 0 6 -2 5 -5 5 -7 6 -8 5 -9 6 -9 5 -6 
5 -6 6 -4 5 -3 5194 3051 100 MP stroke
5 -3 6 -3 5 -5 5 -6 6 -8 5 -10 5 -12 6 -10 
5 -10 6 -7 5 -5 5 -2 6 -2 5 0 5 0 6 0 
5 -2 5 -4 6 -6 5 -7 5 -7 6 -6 5 -3 6 -2 
5 -1 5 0 6 -1 5 -1 5 -2 6 -3 5 -5 5 -8 
6 -10 5 -12 5 -11 6 -9 5 -6 6 -3 5 -1 5 -1 
6 -2 5 -1 5 -1 6 -2 5 -3 5 -3 6 -5 5 -6 
5 -5 6 -4 5 -4 5 -2 6 -2 5 -2 6 0 5 -1 
5 0 6 -1 5 -2 5 -3 6 -2 5 -1 5 -1 6 0 
5 0 5 -2 6 -4 5 -5 6 -4 5 -4 5 -3 6 -3 
5 -2 5 -2 6 -2 5 0 5 -1 6 -2 5 -3 5 -5 
6 -8 5 -8 6 -6 5 -5 5 -3 6 -2 5 -2 5 -1 
6 -2 5 -2 5 -2 6 -4 5 -5 5 -5 6 -7 5 -5 
6 -4 5 -2 5 -1 4664 3414 100 MP stroke
6 -2 5 -1 5 -2 6 -2 5 -1 5 -1 6 -1 5 -2 
5 -2 6 -4 5 -6 6 -7 5 -9 5 -11 6 -12 5 -14 
5 -16 6 -18 5 -17 5 -16 6 -14 5 -9 5 -5 6 -3 
5 -1 5 -1 6 -2 5 -2 6 -3 5 -3 5 -4 6 -5 
5 -7 5 -7 6 -6 5 -6 5 -4 6 -4 5 -4 5 -6 
6 -7 5 -6 6 -5 5 -3 5 -4 6 -5 5 -7 5 -11 
6 -14 5 -14 5 -14 6 -11 5 -8 5 -6 6 -3 5 -2 
6 -1 5 0 5 0 6 0 5 -1 5 -1 6 0 5 -1 
5 0 6 0 5 0 5 0 6 0 5 -1 6 0 5 0 
5 0 6 -1 5 -1 5 -1 6 -2 5 -3 5 -4 6 -4 
5 -4 5 -3 6 -3 5 -2 5 -2 6 -1 5 -1 6 0 
5 -1 5 0 6 -1 5 0 5 -1 6 0 5 -1 5 -1 
6 -1 5 -1 5 -1 4134 3819 100 MP stroke
6 -1 5 -1 6 -1 5 -1 5 -1 6 0 5 -1 5 -1 
6 -1 5 0 5 -1 6 -1 5 -1 5 -2 6 -1 5 -2 
6 -2 5 -2 5 -3 6 -3 5 -4 5 -5 6 -4 5 -5 
5 -4 6 -3 5 -2 5 -1 6 0 5 -1 6 -1 5 -2 
5 -2 6 -3 5 -2 5 -2 6 -1 5 -2 5 -2 6 -3 
5 -2 5 -3 6 -3 5 -3 5 -4 6 -3 5 -4 6 -3 
5 -3 5 -2 6 -3 5 -2 5 -3 6 -2 5 -2 5 0 
6 -1 5 0 5 -1 6 -3 5 -5 6 -5 5 -6 5 -5 
6 -7 5 -7 5 -8 6 -9 5 -8 5 -6 6 -4 5 -1 
5 0 6 -1 5 -1 6 -4 5 -4 5 -5 6 -5 5 -4 
5 -2 6 -2 5 -2 5 -1 6 -1 5 -1 5 -1 6 -2 
5 -4 6 -5 5 -6 5 -6 6 -5 5 -4 5 -2 6 -3 
5 -6 5 -7 6 -9 3603 4105 100 MP stroke
5 -10 5 -7 6 -5 5 -2 5 -1 6 -1 5 -1 6 -1 
5 -2 5 -1 6 -2 5 -1 5 -3 6 -3 5 -2 5 -2 
6 -1 5 -1 5 0 6 0 5 -1 6 -1 5 -1 5 -1 
6 0 5 -1 5 -1 6 -3 5 -3 5 -5 6 -6 5 -6 
5 -6 6 -5 5 -4 6 -1 5 -1 5 -1 6 -2 5 -2 
5 -2 6 -2 5 -1 5 0 6 0 5 -1 5 -1 6 -1 
5 -2 6 -2 5 -2 5 -4 6 -6 5 -7 5 -6 6 -6 
5 -3 5 -1 6 0 5 0 5 -2 6 -3 5 -4 6 -4 
5 -3 5 -3 6 -2 5 -2 5 -3 6 -2 5 -3 5 -2 
6 -2 5 -1 5 0 6 0 5 0 5 0 6 -1 5 0 
6 0 5 0 5 -1 6 -1 5 -2 5 -2 6 -2 5 -2 
5 -2 6 -2 5 -3 5 -4 6 -6 5 -6 6 -5 5 -5 
5 -4 6 -2 5 -2 3073 4337 100 MP stroke
5 -3 6 -2 5 -3 5 -2 6 -2 5 0 5 0 6 0 
5 -1 6 -3 5 -4 5 -7 6 -7 5 -9 5 -10 6 -8 
5 -8 5 -5 6 -3 5 -3 5 -1 6 0 5 -1 6 -1 
5 -1 5 -1 6 -1 5 -1 5 -1 6 0 5 -1 5 -1 
6 0 5 -1 5 -1 6 0 5 -1 5 -2 6 -3 5 -3 
6 -5 5 -5 5 -4 6 -3 5 -3 5 -2 6 -1 5 -2 
5 -1 6 -2 5 -1 5 -1 6 0 5 -1 6 -1 5 0 
5 -1 6 -1 5 0 5 -1 6 -1 5 -1 5 -1 6 -1 
5 0 5 0 6 -1 5 0 6 -1 5 -2 5 -1 6 -2 
5 -1 5 0 6 -1 5 0 5 -1 6 0 5 -1 5 -1 
6 -2 5 -2 6 -2 5 -1 5 -1 6 -1 5 -1 5 -1 
6 -1 5 0 5 -1 6 0 5 0 5 -1 6 0 5 0 
5 0 6 0 5 0 2543 4503 100 MP stroke
6 0 5 -1 5 0 6 0 5 0 5 -1 6 0 5 0 
5 0 6 0 5 -1 5 -2 6 -2 5 -3 6 -4 5 -3 
5 -4 6 -3 5 -3 5 -3 6 -3 5 -2 5 -1 6 0 
5 -1 5 0 6 0 5 -1 6 0 5 -1 5 0 6 -1 
5 -1 5 -2 6 -2 5 -2 5 -2 6 -1 5 -1 5 -1 
6 -1 5 -1 6 -2 5 -2 5 -1 6 0 5 0 5 -1 
6 0 5 -1 5 0 6 -1 5 -1 5 0 6 0 5 0 
5 0 6 0 5 0 6 -1 5 0 5 -1 6 0 5 -1 
5 -1 6 -1 5 0 5 0 6 0 5 0 5 -1 6 -1 
5 -1 6 -3 5 -2 5 -2 6 -2 5 -2 5 -1 6 0 
5 -1 5 0 6 -1 5 0 5 0 6 0 5 0 6 0 
5 0 5 0 6 0 5 -1 5 -1 6 -1 5 -2 5 -1 
6 -1 5 -1 5 -1 2013 4597 100 MP stroke
6 0 5 0 6 0 5 0 5 0 6 0 5 0 5 0 
6 -1 5 0 5 0 6 0 5 0 5 0 6 -1 5 0 
6 -1 5 -1 5 0 6 -1 5 0 5 -1 6 0 5 -1 
5 0 6 0 5 0 5 0 6 0 5 0 5 -1 6 0 
5 0 6 0 5 0 5 -1 6 -1 5 0 5 -1 6 0 
5 -1 5 0 6 0 5 0 5 0 6 0 5 -1 6 0 
5 0 5 0 6 0 5 0 5 0 6 0 5 0 5 0 
6 0 5 0 5 0 6 0 5 -1 6 0 5 0 5 0 
6 0 5 0 5 0 6 0 5 0 5 0 6 0 5 0 
5 0 6 0 5 0 6 0 5 0 5 0 6 0 5 0 
5 0 6 0 5 0 5 0 6 0 5 0 5 0 6 0 
5 -1 5 0 6 0 5 0 6 0 5 0 5 0 6 0 
5 0 5 0 6 0 1482 4612 100 MP stroke
5 0 5 0 6 0 5 0 5 0 6 0 5 0 6 0 
5 0 5 0 6 0 5 0 5 0 6 0 5 0 5 0 
6 0 5 0 5 0 6 0 5 -1 6 0 5 0 5 0 
6 0 5 0 5 0 6 0 5 0 5 0 6 0 5 0 
5 0 6 0 5 0 6 0 5 0 5 0 6 0 5 0 
5 0 6 0 5 0 5 0 6 0 5 0 5 0 6 0 
5 0 5 0 6 0 5 0 6 0 5 0 5 0 6 0 
5 0 5 0 6 0 5 0 5 0 6 0 5 0 5 0 
6 0 5 0 6 0 5 0 5 0 6 0 5 0 5 0 
6 0 5 0 5 0 6 0 5 0 5 0 6 0 5 0 
6 0 5 0 5 0 6 0 5 0 5 0 6 0 5 0 
5 0 6 0 5 0 5 0 6 0 5 0 6 0 5 0 
5 0 6 0 5 0 952 4613 100 MP stroke
5 0 6 0 5 0 5 0 6 0 5 0 5 0 6 0 
5 0 5 0 899 4613 11 MP stroke
/c8 { 0.000000 1.000000 0.000000 sr} bdef
c8
6 -215 5 -188 5 -135 6 -77 5 -33 5 -14 6 -15 5 -26 
5 -34 6 -35 5 -30 5 -27 6 -30 5 -40 6 -49 5 -57 
5 -60 6 -63 5 -70 5 -78 6 -85 5 -89 5 -85 6 -76 
5 -68 5 -60 6 -52 5 -43 6 -29 5 -13 5 -4 6 -2 
5 -9 5 -20 6 -26 5 -24 5 -18 6 -13 5 -21 5 -35 
6 -50 5 -56 6 -46 5 -25 5 -8 6 -8 5 -30 5 -69 
6 -106 5 -126 5 -118 6 -90 5 -51 5 -19 6 -3 5 -1 
6 -4 5 -9 5 -6 6 -2 5 0 5 -4 6 -14 5 -25 
5 -33 6 -37 5 -36 5 -32 6 -29 5 -28 5 -27 6 -27 
5 -24 6 -17 5 -12 5 -7 6 -6 5 -9 5 -15 6 -20 
5 -21 5 -19 6 -14 5 -8 5 -2 6 0 5 -1 6 -2 
5 -3 5 -2 6 -4 5 -5 5 -11 6 -19 5 -26 5 -30 
6 -28 5 -23 5 -16 3427 3900 100 MP stroke
6 -8 5 -4 6 -2 5 -3 5 -3 6 -3 5 -3 5 -4 
6 -4 5 -6 5 -5 6 -3 5 -2 5 0 6 -1 5 -1 
6 -3 5 -4 5 -5 6 -6 5 -8 5 -11 6 -14 5 -16 
5 -16 6 -14 5 -9 5 -6 6 -3 5 -2 6 -1 5 0 
5 0 6 -1 5 -4 5 -7 6 -11 5 -14 5 -14 6 -12 
5 -8 5 -5 6 -2 5 0 5 0 6 0 5 0 6 0 
5 -1 5 -1 6 -2 5 -3 5 -4 6 -3 5 -2 5 -1 
6 0 5 -1 5 -3 6 -5 5 -7 6 -5 5 -4 5 -1 
6 0 5 -1 5 -4 6 -8 5 -10 5 -10 6 -9 5 -5 
5 -2 6 0 5 -1 6 0 5 -1 5 -2 6 -5 5 -8 
5 -12 6 -15 5 -15 5 -14 6 -9 5 -5 5 -1 6 -1 
5 -2 6 -3 5 -3 5 -1 6 -1 5 -1 5 -3 6 -5 
5 -7 5 -7 6 -6 2896 4368 100 MP stroke
5 -3 5 -1 6 0 5 -2 5 -2 6 -4 5 -4 6 -4 
5 -4 5 -4 6 -7 5 -7 5 -9 6 -7 5 -6 5 -3 
6 -1 5 -1 5 0 6 0 5 0 6 -1 5 -2 5 -3 
6 -4 5 -5 5 -5 6 -3 5 -2 5 -1 6 0 5 -1 
5 -1 6 -2 5 -3 6 -2 5 -1 5 -1 6 0 5 0 
5 0 6 0 5 0 5 0 6 -1 5 -1 5 -2 6 -2 
5 -3 6 -3 5 -2 5 -2 6 -2 5 -1 5 -2 6 -1 
5 -1 5 -1 6 -1 5 -1 5 0 6 -1 5 0 5 0 
6 0 5 0 6 0 5 -1 5 0 6 0 5 0 5 -1 
6 0 5 0 5 -1 6 0 5 -2 5 -1 6 -2 5 -3 
6 -2 5 -3 5 -3 6 -4 5 -3 5 -3 6 -3 5 -3 
5 -1 6 -1 5 0 5 -1 6 0 5 0 6 0 5 -1 
5 0 6 -1 5 -1 2366 4542 100 MP stroke
5 -2 6 -2 5 -1 5 -2 6 -1 5 0 5 -1 6 -1 
5 -2 6 -1 5 -2 5 -1 6 0 5 0 5 0 6 -1 
5 -1 5 0 6 -1 5 0 5 -1 6 0 5 0 5 0 
6 0 5 0 6 -1 5 0 5 -1 6 0 5 -1 5 -1 
6 0 5 -1 5 0 6 0 5 0 5 -1 6 -1 5 -2 
6 -2 5 -2 5 -2 6 -2 5 -1 5 -1 6 -1 5 -1 
5 0 6 0 5 -1 5 0 6 0 5 0 6 0 5 0 
5 0 6 0 5 -1 5 -1 6 -1 5 -2 5 -1 6 -2 
5 -1 5 0 6 0 5 0 6 0 5 -1 5 0 6 0 
5 0 5 0 6 0 5 -1 5 0 6 0 5 0 5 0 
6 -1 5 0 6 -1 5 -1 5 -1 6 0 5 0 5 -1 
6 0 5 -1 5 0 6 -1 5 0 5 0 6 0 5 0 
5 0 6 0 5 0 1836 4602 100 MP stroke
6 0 5 -1 5 0 6 -1 5 -1 5 -1 6 0 5 0 
5 0 6 -1 5 0 5 0 6 0 5 0 6 0 5 -1 
5 0 6 0 5 0 5 0 6 0 5 0 5 0 6 0 
5 0 5 0 6 0 5 0 6 0 5 0 5 0 6 0 
5 -1 5 0 6 0 5 0 5 0 6 0 5 0 5 0 
6 0 5 0 6 0 5 0 5 0 6 0 5 0 5 0 
6 0 5 0 5 0 6 0 5 -1 5 0 6 0 5 0 
5 0 6 0 5 0 6 0 5 0 5 0 6 0 5 0 
5 0 6 0 5 -1 5 0 6 0 5 0 5 0 6 0 
5 0 6 0 5 0 5 0 6 0 5 0 5 0 6 0 
5 0 5 0 6 0 5 0 5 0 6 0 5 0 6 0 
5 0 5 0 6 0 5 0 5 0 6 0 5 0 5 0 
6 -1 5 0 5 0 1306 4612 100 MP stroke
6 0 5 0 6 0 5 0 5 0 6 0 5 0 5 0 
6 0 5 0 5 0 6 0 5 0 5 0 6 0 5 0 
5 0 6 0 5 0 6 0 5 0 5 0 6 0 5 0 
5 0 6 0 5 0 5 0 6 0 5 0 5 0 6 0 
5 0 6 0 5 -1 5 0 6 0 5 0 5 0 6 0 
5 0 5 0 6 0 5 0 5 0 6 0 5 0 6 0 
5 0 5 0 6 0 5 0 5 0 6 0 5 0 5 0 
6 0 5 0 5 0 6 0 5 0 6 0 5 0 5 0 
6 0 5 0 5 0 6 0 5 0 5 0 6 0 5 0 
5 0 6 0 5 0 5 0 899 4613 77 MP stroke
/c9 { 0.000000 0.000000 1.000000 sr} bdef
c9
6 -4 5 -4 6 -4 5 -4 5 -6 6 -7 5 -7 5 -5 
6 -4 5 -1 5 0 6 -1 5 -3 5 -6 6 -6 5 -8 
6 -8 5 -7 5 -8 6 -7 5 -7 5 -6 6 -5 5 -5 
5 -4 6 -5 5 -4 5 -5 6 -5 5 -5 6 -5 5 -4 
5 -3 6 -3 5 -1 5 0 6 -1 5 -1 5 -2 6 -2 
5 -3 5 -3 6 -4 5 -3 6 -4 5 -3 5 -4 6 -3 
5 -4 5 -4 6 -6 5 -8 5 -8 6 -9 5 -7 5 -6 
6 -3 5 -2 6 -1 5 -2 5 -2 6 -5 5 -8 5 -10 
6 -12 5 -12 5 -11 6 -9 5 -7 5 -6 6 -6 5 -7 
5 -7 6 -8 5 -7 6 -6 5 -6 5 -7 6 -7 5 -10 
5 -9 6 -9 5 -8 5 -6 6 -4 5 -3 5 -3 6 -4 
5 -5 6 -4 5 -5 5 -5 6 -4 5 -4 5 -3 6 -3 
5 -4 5 -3 6 -5 5724 1558 100 MP stroke
5 -5 5 -8 6 -9 5 -11 6 -13 5 -12 5 -11 6 -9 
5 -6 5 -4 6 -4 5 -6 5 -10 6 -14 5 -16 5 -16 
6 -15 5 -13 6 -9 5 -6 5 -3 6 -2 5 -1 5 0 
6 0 5 -2 5 -4 6 -6 5 -9 5 -12 6 -14 5 -17 
5 -17 6 -16 5 -15 6 -13 5 -10 5 -7 6 -6 5 -4 
5 -3 6 -2 5 -2 5 -2 6 -3 5 -3 5 -5 6 -5 
5 -6 6 -6 5 -7 5 -7 6 -9 5 -9 5 -9 6 -9 
5 -8 5 -6 6 -5 5 -3 5 -3 6 -7 5 -11 6 -18 
5 -24 5 -29 6 -32 5 -31 5 -30 6 -28 5 -25 5 -24 
6 -20 5 -18 5 -12 6 -9 5 -6 6 -4 5 -5 5 -5 
6 -7 5 -7 5 -7 6 -5 5 -4 5 -2 6 0 5 0 
5 -1 6 -3 5 -5 5 -8 6 -9 5 -10 6 -8 5 -7 
5 -5 6 -4 5 -3 5194 2458 100 MP stroke
5 -3 6 -4 5 -4 5 -6 6 -7 5 -10 5 -10 6 -10 
5 -9 6 -8 5 -5 5 -2 6 -2 5 0 5 0 6 -1 
5 -1 5 -4 6 -6 5 -6 5 -7 6 -5 5 -4 6 -1 
5 0 5 -1 6 0 5 -2 5 -4 6 -5 5 -8 5 -10 
6 -11 5 -11 5 -9 6 -8 5 -4 6 -3 5 -1 5 -2 
6 -2 5 -1 5 -3 6 -2 5 -4 5 -4 6 -5 5 -5 
5 -5 6 -5 5 -3 5 -2 6 -2 5 -1 6 0 5 -1 
5 0 6 -1 5 -2 5 -2 6 -1 5 -1 5 0 6 0 
5 -2 5 -3 6 -4 5 -7 6 -7 5 -6 5 -6 6 -4 
5 -3 5 -2 6 -1 5 -2 5 -2 6 -4 5 -6 5 -9 
6 -9 5 -9 6 -7 5 -5 5 -4 6 -3 5 -3 5 -4 
6 -3 5 -4 5 -3 6 -3 5 -4 5 -4 6 -4 5 -3 
6 -3 5 -2 5 -2 4664 2851 100 MP stroke
6 -2 5 -2 5 -1 6 -1 5 -1 5 0 6 -1 5 -2 
5 -4 6 -5 5 -7 6 -9 5 -9 5 -11 6 -12 5 -14 
5 -14 6 -16 5 -15 5 -14 6 -12 5 -8 5 -5 6 -3 
5 -1 5 -1 6 -3 5 -3 6 -5 5 -5 5 -6 6 -5 
5 -6 5 -6 6 -5 5 -4 5 -5 6 -4 5 -6 5 -7 
6 -7 5 -8 6 -7 5 -7 5 -9 6 -11 5 -14 5 -16 
6 -16 5 -15 5 -12 6 -8 5 -4 5 -3 6 0 5 0 
6 0 5 -1 5 0 6 -1 5 -1 5 -1 6 -1 5 0 
5 -1 6 0 5 0 5 0 6 0 5 0 6 0 5 0 
5 -1 6 0 5 0 5 -1 6 -2 5 -3 5 -6 6 -7 
5 -9 5 -10 6 -10 5 -8 5 -8 6 -7 5 -6 6 -4 
5 -3 5 -2 6 -1 5 0 5 0 6 0 5 -1 5 -1 
6 -2 5 -3 5 -4 4134 3333 100 MP stroke
6 -4 5 -3 6 -2 5 -1 5 -1 6 0 5 0 5 -1 
6 -2 5 -2 5 -1 6 -1 5 -1 5 -1 6 -1 5 -2 
6 -2 5 -3 5 -3 6 -5 5 -4 5 -4 6 -5 5 -3 
5 -3 6 -2 5 -2 5 -1 6 -1 5 -2 6 -3 5 -5 
5 -4 6 -4 5 -3 5 -1 6 0 5 -2 5 -2 6 -4 
5 -4 5 -4 6 -3 5 -3 5 -2 6 -4 5 -5 6 -6 
5 -5 5 -5 6 -3 5 -2 5 -2 6 -1 5 0 5 0 
6 -1 5 -1 5 -4 6 -5 5 -8 6 -8 5 -8 5 -7 
6 -7 5 -7 5 -8 6 -8 5 -7 5 -5 6 -4 5 -1 
5 0 6 0 5 -2 6 -4 5 -5 5 -5 6 -4 5 -4 
5 -1 6 -1 5 0 5 -1 6 0 5 -1 5 -2 6 -3 
5 -4 6 -5 5 -6 5 -6 6 -5 5 -4 5 -3 6 -4 
5 -4 5 -7 6 -8 3603 3651 100 MP stroke
5 -9 5 -6 6 -5 5 -1 5 -1 6 0 5 -1 6 -2 
5 -3 5 -2 6 -2 5 -1 5 -2 6 -2 5 -2 5 -2 
6 -1 5 0 5 0 6 -1 5 -1 6 -2 5 -2 5 -3 
6 -2 5 -3 5 -3 6 -3 5 -4 5 -5 6 -6 5 -7 
5 -8 6 -8 5 -6 6 -4 5 -2 5 -2 6 -1 5 -2 
5 -2 6 -1 5 -1 5 -1 6 0 5 0 5 -2 6 -4 
5 -5 6 -6 5 -7 5 -7 6 -8 5 -6 5 -5 6 -4 
5 -3 5 -2 6 -3 5 -3 5 -4 6 -6 5 -6 6 -7 
5 -6 5 -5 6 -3 5 -3 5 -2 6 -1 5 0 5 -1 
6 0 5 0 5 0 6 0 5 0 5 -1 6 0 5 -1 
6 -1 5 -1 5 0 6 -1 5 -1 5 -2 6 -2 5 -3 
5 -4 6 -5 5 -5 5 -6 6 -6 5 -6 6 -6 5 -6 
5 -6 6 -5 5 -5 3073 3955 100 MP stroke
5 -3 6 -3 5 -1 5 0 6 -1 5 0 5 0 6 0 
5 -2 6 -4 5 -7 5 -8 6 -10 5 -10 5 -9 6 -6 
5 -5 5 -3 6 -2 5 -2 5 -1 6 0 5 -1 6 0 
5 -1 5 -1 6 -1 5 -1 5 -1 6 0 5 0 5 0 
6 -1 5 -1 5 -1 6 -1 5 -1 5 -2 6 -3 5 -4 
6 -5 5 -5 5 -5 6 -3 5 -1 5 -1 6 -1 5 -1 
5 -1 6 -1 5 -1 5 -2 6 -2 5 -1 6 -1 5 0 
5 0 6 -1 5 0 5 0 6 0 5 -1 5 -1 6 -2 
5 -1 5 -1 6 -1 5 0 6 -1 5 -2 5 -5 6 -7 
5 -8 5 -8 6 -5 5 -4 5 -1 6 -1 5 -1 5 0 
6 -1 5 -1 6 0 5 0 5 -1 6 0 5 -1 5 0 
6 0 5 0 5 -1 6 0 5 -1 5 0 6 0 5 0 
5 -1 6 0 5 -1 2543 4142 100 MP stroke
6 0 5 0 5 0 6 -1 5 -2 5 -4 6 -4 5 -3 
5 -2 6 -2 5 -3 5 -6 6 -10 5 -13 6 -13 5 -12 
5 -9 6 -6 5 -3 5 -1 6 -2 5 -2 5 -1 6 -2 
5 -2 5 -3 6 -5 5 -6 6 -6 5 -4 5 -2 6 -3 
5 -2 5 -5 6 -7 5 -8 5 -8 6 -5 5 -4 5 -2 
6 -1 5 -3 6 -3 5 -4 5 -4 6 -4 5 -2 5 -2 
6 0 5 -1 5 -1 6 0 5 -1 5 0 6 -1 5 0 
5 0 6 0 5 -1 6 -1 5 -2 5 -1 6 -2 5 -2 
5 -2 6 -3 5 -3 5 -3 6 -3 5 -2 5 -2 6 -1 
5 -3 6 -3 5 -4 5 -4 6 -3 5 -3 5 -1 6 -1 
5 0 5 0 6 -1 5 -1 5 -1 6 0 5 0 6 -1 
5 0 5 0 6 -1 5 -1 5 -1 6 -1 5 -1 5 -1 
6 0 5 0 5 -1 2013 4403 100 MP stroke
6 0 5 0 6 0 5 0 5 0 6 0 5 0 5 0 
6 -1 5 0 5 -1 6 -1 5 -1 5 -1 6 0 5 0 
6 -1 5 0 5 0 6 -1 5 0 5 0 6 0 5 0 
5 -1 6 0 5 -1 5 -1 6 -1 5 -1 5 -1 6 -1 
5 -1 6 -2 5 -1 5 -2 6 -1 5 -1 5 0 6 0 
5 0 5 -1 6 -1 5 0 5 -1 6 0 5 0 6 -1 
5 0 5 0 6 -1 5 0 5 0 6 0 5 -1 5 -1 
6 -2 5 -2 5 -2 6 0 5 -1 6 0 5 -1 5 -3 
6 -3 5 -3 5 -2 6 -1 5 -1 5 0 6 0 5 0 
5 -1 6 0 5 0 6 -1 5 -1 5 -3 6 -3 5 -4 
5 -3 6 -2 5 -1 5 0 6 -1 5 -2 5 -2 6 -2 
5 -1 5 -1 6 0 5 -1 6 -1 5 -2 5 -1 6 -1 
5 0 5 0 6 -1 1482 4488 100 MP stroke
5 -1 5 -3 6 -2 5 -2 5 -1 6 0 5 -1 6 0 
5 -1 5 -2 6 -1 5 -2 5 -1 6 0 5 -1 5 0 
6 -1 5 -2 5 -2 6 -2 5 -1 6 0 5 0 5 -1 
6 0 5 -2 5 -1 6 -1 5 -1 5 -1 6 0 5 -1 
5 -2 6 -1 5 -1 6 -1 5 0 5 0 6 -1 5 -2 
5 -3 6 -3 5 -3 5 -2 6 -1 5 0 5 0 6 0 
5 -1 5 0 6 0 5 0 6 0 5 0 5 0 6 0 
5 0 5 -1 6 0 5 -1 5 0 6 0 5 0 5 0 
6 -1 5 -2 6 -2 5 -2 5 -1 6 -1 5 -1 5 0 
6 -1 5 -1 5 -2 6 -2 5 -2 5 -1 6 -2 5 -2 
6 -3 5 -3 5 -4 6 -4 5 -3 5 -2 6 -2 5 -1 
5 0 6 0 5 -1 5 0 6 0 5 -1 6 -1 5 -1 
5 -2 6 -1 5 -1 952 4598 100 MP stroke
5 -1 6 -1 5 -1 5 -2 6 -3 5 -2 5 -3 6 -1 
5 -1 5 0 899 4613 11 MP stroke
gr

18 w
c9
0 sg
%%IncludeResource: font Helvetica
/Helvetica /WindowsLatin1Encoding 240 FMSR

3543 4990 mt 
(t) s
%%IncludeResource: font Helvetica
/Helvetica /WindowsLatin1Encoding 120 FMSR

 495 3338 mt  -90 rotate
(L) s
90 rotate
%%IncludeResource: font Helvetica
/Helvetica /WindowsLatin1Encoding 96 FMSR

 435 3272 mt  -90 rotate
(2) s
90 rotate
%%IncludeResource: font Helvetica
/Helvetica /WindowsLatin1Encoding 120 FMSR

 495 3219 mt  -90 rotate
( difference between ) s
90 rotate
%%IncludeResource: font Symbol
/Symbol /WindowsLatin1Encoding 120 FMSR

 495 2144 mt  -90 rotate
(f) s
90 rotate
%%IncludeResource: font Helvetica
/Helvetica /WindowsLatin1Encoding 96 FMSR

 555 2082 mt  -90 rotate
(y) s
90 rotate
%%IncludeResource: font Helvetica
/Helvetica /WindowsLatin1Encoding 120 FMSR

 495 2034 mt  -90 rotate
( and ) s
90 rotate
%%IncludeResource: font Symbol
/Symbol /WindowsLatin1Encoding 120 FMSR

 495 1768 mt  -90 rotate
(f) s
90 rotate
%%IncludeResource: font Helvetica
/Helvetica /WindowsLatin1Encoding 96 FMSR

 555 1706 mt  -90 rotate
(x) s
90 rotate
6 w

end %%Color Dict

eplot
%%EndObject

epage
end

showpage

%%Trailer
%%EOF
