%!PS-Adobe-2.0 EPSF-1.2
%%Creator: MATLAB, The MathWorks, Inc. Version 8.0.0.783 (R2012b). Operating System: Darwin 13.3.0 Darwin Kernel Version 13.3.0: Tue Jun  3 21:27:35 PDT 2014; root:xnu-2422.110.17~1/RELEASE_X86_64 x86_64.
%%Title: ./final_unbroad_approx.eps
%%CreationDate: 08/14/2014  19:45:40
%%DocumentNeededFonts: Helvetica
%%DocumentProcessColors: Cyan Magenta Yellow Black
%%Extensions: CMYK
%%Pages: 1
%%BoundingBox:    79   215   547   591
%%EndComments

%%BeginProlog
% MathWorks dictionary
/MathWorks 160 dict begin
% definition operators
/bdef {bind def} bind def
/ldef {load def} bind def
/xdef {exch def} bdef
/xstore {exch store} bdef
% operator abbreviations
/c  /clip ldef
/cc /concat ldef
/cp /closepath ldef
/gr /grestore ldef
/gs /gsave ldef
/mt /moveto ldef
/np /newpath ldef
/cm /currentmatrix ldef
/sm /setmatrix ldef
/rm /rmoveto ldef
/rl /rlineto ldef
/s {show newpath} bdef
/sc {setcmykcolor} bdef
/sr /setrgbcolor ldef
/sg /setgray ldef
/w /setlinewidth ldef
/j /setlinejoin ldef
/cap /setlinecap ldef
/rc {rectclip} bdef
/rf {rectfill} bdef
% page state control
/pgsv () def
/bpage {/pgsv save def} bdef
/epage {pgsv restore} bdef
/bplot /gsave ldef
/eplot {stroke grestore} bdef
% orientation switch
/portraitMode 0 def /landscapeMode 1 def /rotateMode 2 def
% coordinate system mappings
/dpi2point 0 def
% font control
/FontSize 0 def
/FMS {/FontSize xstore findfont [FontSize 0 0 FontSize neg 0 0]
  makefont setfont} bdef
/reencode {exch dup where {pop load} {pop StandardEncoding} ifelse
  exch dup 3 1 roll findfont dup length dict begin
  { 1 index /FID ne {def}{pop pop} ifelse } forall
  /Encoding exch def currentdict end definefont pop} bdef
/isroman {findfont /CharStrings get /Agrave known} bdef
/FMSR {3 1 roll 1 index dup isroman {reencode} {pop pop} ifelse
  exch FMS} bdef
/csm {1 dpi2point div -1 dpi2point div scale neg translate
 dup landscapeMode eq {pop -90 rotate}
  {rotateMode eq {90 rotate} if} ifelse} bdef
% line types: solid, dotted, dashed, dotdash
/SO { [] 0 setdash } bdef
/DO { [.5 dpi2point mul 4 dpi2point mul] 0 setdash } bdef
/DA { [6 dpi2point mul] 0 setdash } bdef
/DD { [.5 dpi2point mul 4 dpi2point mul 6 dpi2point mul 4
  dpi2point mul] 0 setdash } bdef
% macros for lines and objects
/L {lineto stroke} bdef
/MP {3 1 roll moveto 1 sub {rlineto} repeat} bdef
/AP {{rlineto} repeat} bdef
/PDlw -1 def
/W {/PDlw currentlinewidth def setlinewidth} def
/PP {closepath eofill} bdef
/DP {closepath stroke} bdef
/MR {4 -2 roll moveto dup  0 exch rlineto exch 0 rlineto
  neg 0 exch rlineto closepath} bdef
/FR {MR stroke} bdef
/PR {MR fill} bdef
/L1i {{currentfile picstr readhexstring pop} image} bdef
/tMatrix matrix def
/MakeOval {newpath tMatrix currentmatrix pop translate scale
0 0 1 0 360 arc tMatrix setmatrix} bdef
/FO {MakeOval stroke} bdef
/PO {MakeOval fill} bdef
/PD {currentlinewidth 2 div 0 360 arc fill
   PDlw -1 eq not {PDlw w /PDlw -1 def} if} def
/FA {newpath tMatrix currentmatrix pop translate scale
  0 0 1 5 -2 roll arc tMatrix setmatrix stroke} bdef
/PA {newpath tMatrix currentmatrix pop	translate 0 0 moveto scale
  0 0 1 5 -2 roll arc closepath tMatrix setmatrix fill} bdef
/FAn {newpath tMatrix currentmatrix pop translate scale
  0 0 1 5 -2 roll arcn tMatrix setmatrix stroke} bdef
/PAn {newpath tMatrix currentmatrix pop translate 0 0 moveto scale
  0 0 1 5 -2 roll arcn closepath tMatrix setmatrix fill} bdef
/vradius 0 def /hradius 0 def /lry 0 def
/lrx 0 def /uly 0 def /ulx 0 def /rad 0 def
/MRR {/vradius xdef /hradius xdef /lry xdef /lrx xdef /uly xdef
  /ulx xdef newpath tMatrix currentmatrix pop ulx hradius add uly
  vradius add translate hradius vradius scale 0 0 1 180 270 arc 
  tMatrix setmatrix lrx hradius sub uly vradius add translate
  hradius vradius scale 0 0 1 270 360 arc tMatrix setmatrix
  lrx hradius sub lry vradius sub translate hradius vradius scale
  0 0 1 0 90 arc tMatrix setmatrix ulx hradius add lry vradius sub
  translate hradius vradius scale 0 0 1 90 180 arc tMatrix setmatrix
  closepath} bdef
/FRR {MRR stroke } bdef
/PRR {MRR fill } bdef
/MlrRR {/lry xdef /lrx xdef /uly xdef /ulx xdef /rad lry uly sub 2 div def
  newpath tMatrix currentmatrix pop ulx rad add uly rad add translate
  rad rad scale 0 0 1 90 270 arc tMatrix setmatrix lrx rad sub lry rad
  sub translate rad rad scale 0 0 1 270 90 arc tMatrix setmatrix
  closepath} bdef
/FlrRR {MlrRR stroke } bdef
/PlrRR {MlrRR fill } bdef
/MtbRR {/lry xdef /lrx xdef /uly xdef /ulx xdef /rad lrx ulx sub 2 div def
  newpath tMatrix currentmatrix pop ulx rad add uly rad add translate
  rad rad scale 0 0 1 180 360 arc tMatrix setmatrix lrx rad sub lry rad
  sub translate rad rad scale 0 0 1 0 180 arc tMatrix setmatrix
  closepath} bdef
/FtbRR {MtbRR stroke } bdef
/PtbRR {MtbRR fill } bdef
/stri 6 array def /dtri 6 array def
/smat 6 array def /dmat 6 array def
/tmat1 6 array def /tmat2 6 array def /dif 3 array def
/asub {/ind2 exch def /ind1 exch def dup dup
  ind1 get exch ind2 get sub exch } bdef
/tri_to_matrix {
  2 0 asub 3 1 asub 4 0 asub 5 1 asub
  dup 0 get exch 1 get 7 -1 roll astore } bdef
/compute_transform {
  dmat dtri tri_to_matrix tmat1 invertmatrix 
  smat stri tri_to_matrix tmat2 concatmatrix } bdef
/ds {stri astore pop} bdef
/dt {dtri astore pop} bdef
/db {2 copy /cols xdef /rows xdef mul dup 3 mul string
  currentfile exch readhexstring pop
  dup 0 3 index getinterval /rbmap xdef
  dup 2 index dup getinterval /gbmap xdef
  1 index dup 2 mul exch getinterval /bbmap xdef pop pop}bdef
/it {gs np dtri aload pop moveto lineto lineto cp c
  cols rows 8 compute_transform 
  rbmap gbmap bbmap true 3 colorimage gr}bdef
/il {newpath moveto lineto stroke}bdef
currentdict end def
%%EndProlog

%%BeginSetup
MathWorks begin

0 cap

end
%%EndSetup

%%Page: 1 1
%%BeginPageSetup
%%PageBoundingBox:    79   215   547   591
MathWorks begin
bpage
%%EndPageSetup

%%BeginObject: obj1
bplot

/dpi2point 12 def
portraitMode 0216 7344 csm

  732   247  5623  4515 MR c np
86 dict begin %Colortable dictionary
/c0 { 0.000000 0.000000 0.000000 sr} bdef
/c1 { 1.000000 1.000000 1.000000 sr} bdef
/c2 { 0.900000 0.000000 0.000000 sr} bdef
/c3 { 0.000000 0.820000 0.000000 sr} bdef
/c4 { 0.000000 0.000000 0.800000 sr} bdef
/c5 { 0.910000 0.820000 0.320000 sr} bdef
/c6 { 1.000000 0.260000 0.820000 sr} bdef
/c7 { 0.000000 0.820000 0.820000 sr} bdef
c0
1 j
1 sg
   0    0 6924 5187 PR
6 w
0 4227 5365 0 0 -4227 900 4616 4 MP
PP
-5365 0 0 4227 5365 0 0 -4227 900 4616 5 MP stroke
4 w
DO
SO
6 w
0 sg
 900 4616 mt 6265 4616 L
 900  389 mt 6265  389 L
 900 4616 mt  900  389 L
6265 4616 mt 6265  389 L
 900 4616 mt 6265 4616 L
 900 4616 mt  900  389 L
 900 4616 mt  900 4562 L
 900  389 mt  900  442 L
%%IncludeResource: font Helvetica
/Helvetica /ISOLatin1Encoding 120 FMSR

 867 4761 mt 
(0) s
1436 4616 mt 1436 4562 L
1436  389 mt 1436  442 L
1353 4761 mt 
(0.1) s
1973 4616 mt 1973 4562 L
1973  389 mt 1973  442 L
1890 4761 mt 
(0.2) s
2509 4616 mt 2509 4562 L
2509  389 mt 2509  442 L
2426 4761 mt 
(0.3) s
3046 4616 mt 3046 4562 L
3046  389 mt 3046  442 L
2963 4761 mt 
(0.4) s
3582 4616 mt 3582 4562 L
3582  389 mt 3582  442 L
3499 4761 mt 
(0.5) s
4119 4616 mt 4119 4562 L
4119  389 mt 4119  442 L
4036 4761 mt 
(0.6) s
4655 4616 mt 4655 4562 L
4655  389 mt 4655  442 L
4572 4761 mt 
(0.7) s
5192 4616 mt 5192 4562 L
5192  389 mt 5192  442 L
5109 4761 mt 
(0.8) s
5728 4616 mt 5728 4562 L
5728  389 mt 5728  442 L
5645 4761 mt 
(0.9) s
6265 4616 mt 6265 4562 L
6265  389 mt 6265  442 L
6232 4761 mt 
(1) s
 900 4616 mt  953 4616 L
6265 4616 mt 6211 4616 L
 799 4660 mt 
(0) s
 900 4211 mt  953 4211 L
6265 4211 mt 6211 4211 L
 799 4255 mt 
(2) s
 900 3806 mt  953 3806 L
6265 3806 mt 6211 3806 L
 799 3850 mt 
(4) s
 900 3402 mt  953 3402 L
6265 3402 mt 6211 3402 L
 799 3446 mt 
(6) s
 900 2997 mt  953 2997 L
6265 2997 mt 6211 2997 L
 799 3041 mt 
(8) s
 900 2593 mt  953 2593 L
6265 2593 mt 6211 2593 L
 732 2637 mt 
(10) s
 900 2188 mt  953 2188 L
6265 2188 mt 6211 2188 L
 732 2232 mt 
(12) s
 900 1784 mt  953 1784 L
6265 1784 mt 6211 1784 L
 732 1828 mt 
(14) s
 900 1379 mt  953 1379 L
6265 1379 mt 6211 1379 L
 732 1423 mt 
(16) s
 900  975 mt  953  975 L
6265  975 mt 6211  975 L
 732 1019 mt 
(18) s
 900  570 mt  953  570 L
6265  570 mt 6211  570 L
 732  614 mt 
(20) s
 900 4616 mt 6265 4616 L
 900  389 mt 6265  389 L
 900 4616 mt  900  389 L
6265 4616 mt 6265  389 L
gs 900 389 5366 4228 MR c np
6 48 5 41 6 18 5 -15 5 -53 6 -43 5 0 5 0 
6 0 5 0 6 0 5 204 5 290 6 319 5 308 5 258 
6 178 5 84 5 -7 6 -82 5 -131 6 -151 5 -149 5 -133 
6 -111 5 -95 5 -88 6 -89 5 -98 5 -107 6 -110 5 -106 
6 -90 5 -67 5 -27 6 0 5 22 5 63 6 91 5 114 
5 127 6 132 5 123 6 102 5 66 5 23 6 -24 5 -68 
5 -100 6 -116 5 -117 5 -102 6 -79 5 -54 6 -34 5 -23 
5 -21 6 -25 5 -32 5 -34 6 -32 5 -2 5 0 6 0 
5 0 6 11 5 11 5 -1 6 -12 5 -9 5 0 6 0 
5 0 6 0 5 0 5 24 6 53 5 66 5 85 6 108 
5 134 5 158 6 171 5 164 6 133 5 73 5 -7 6 -98 
5 -181 5 -243 6 -267 5 -253 5 -120 6 0 5 0 6 0 
5 0 5 0 6 61 5733 4555 100 MP stroke
5 61 5 21 6 -17 5 -42 5 -52 6 -32 5 0 6 0 
5 0 5 0 6 0 5 0 5 0 6 9 5 35 5 36 
6 29 5 9 6 -23 5 -59 5 -36 6 0 5 0 5 0 
6 0 5 0 5 239 6 335 5 360 6 325 5 231 5 92 
6 -66 5 -215 5 -328 6 -382 5 -371 6 -220 5 0 5 0 
6 0 5 0 5 0 6 82 5 73 5 8 6 -48 5 -75 
6 -40 5 0 5 54 6 184 5 279 5 348 6 374 5 351 
5 281 6 175 5 49 6 -79 5 -190 5 -274 6 -321 5 -331 
5 -309 6 -262 5 -201 5 -128 6 0 5 0 6 0 5 0 
5 0 6 7 5 27 5 14 6 0 5 -11 5 -17 6 -19 
5 -1 6 0 5 0 5 0 6 0 5 0 5 10 6 8 
5 2 5 -3 6 -7 5 -8 6 -2 5 0 5 0 6 0 
5 0 5 0 6 6 5202 4610 100 MP stroke
5 3 5 0 6 -2 5 -3 6 -4 5 0 5 0 6 0 
5 0 5 0 6 1 5 2 6 0 5 0 5 -1 6 -1 
5 -1 5 0 6 0 5 0 5 0 6 1 5 0 6 0 
5 0 5 -1 6 0 5 0 5 0 6 0 5 1 5 0 
6 0 5 0 6 0 5 -1 5 0 6 0 5 0 5 0 
6 1 5 0 5 0 6 0 5 0 6 -1 5 0 5 0 
6 0 5 1 5 0 6 0 5 0 5 0 6 -1 5 0 
6 0 5 0 5 0 6 1 5 0 5 0 6 0 5 -1 
5 0 6 0 5 0 6 0 5 0 5 1 6 1 5 0 
5 0 6 -1 5 -1 6 0 5 0 5 0 6 0 5 2 
5 1 6 1 5 -1 5 -2 6 -1 5 0 6 0 5 0 
5 0 6 3 5 3 5 1 6 -1 5 -4 5 -2 6 0 
5 0 6 0 5 0 4671 4616 100 MP stroke
5 4 6 4 5 2 5 -2 6 -5 5 -3 5 0 6 0 
5 0 6 1 5 11 5 10 6 4 5 -4 5 -8 6 -8 
5 4 5 24 6 54 5 87 6 117 5 136 5 141 6 127 
5 101 5 62 6 21 5 -19 5 -50 6 -75 5 -93 6 -104 
5 -113 5 -115 6 -107 5 -83 5 -35 6 37 5 131 6 233 
5 327 5 394 6 410 5 366 5 262 6 106 5 -76 5 -253 
6 -395 5 -478 6 -489 5 -430 5 -231 6 0 5 0 5 0 
6 0 5 17 5 114 6 60 5 0 6 -49 5 -78 5 -64 
6 0 5 0 5 0 6 0 5 0 5 21 6 27 5 8 
6 -9 5 -20 5 -24 6 -3 5 0 5 0 6 0 5 0 
5 3 6 7 5 3 6 -2 5 -5 5 -5 6 -1 5 0 
5 0 6 0 5 1 5 1 6 -1 5 -1 6 0 5 0 
5 0 6 1 5 2 4140 4613 100 MP stroke
5 2 6 1 5 -1 5 -4 6 -1 5 0 6 0 5 0 
5 0 6 4 5 9 5 8 6 2 5 -5 6 -13 5 -5 
5 0 6 0 5 0 5 0 6 0 5 27 5 31 6 21 
5 6 6 -12 5 -23 5 -26 6 -13 5 13 5 51 6 90 
5 123 5 144 6 144 5 125 6 89 5 46 5 0 6 -38 
5 -66 5 -81 6 -88 5 -88 5 -87 6 -87 5 -85 6 -81 
5 -67 5 -43 6 -5 5 42 5 92 6 135 5 165 5 172 
6 156 5 117 6 64 5 5 5 -49 6 -91 5 -118 5 -127 
6 -124 5 -111 5 -94 6 -78 5 -63 6 -51 5 -40 5 -22 
6 0 5 0 5 0 6 0 5 0 6 10 5 15 5 9 
6 2 5 -6 5 -13 6 -17 5 0 5 0 6 0 5 0 
6 0 5 0 5 30 6 31 5 19 5 -1 6 -26 5 -46 
5 -7 6 0 5 0 3609 4616 100 MP stroke
6 0 5 0 5 2 6 96 5 83 5 42 6 -20 5 -87 
5 -116 6 0 5 0 6 0 5 0 5 0 6 145 5 370 
5 389 6 341 5 235 5 91 6 -66 5 -203 6 -299 5 -339 
5 -322 6 -260 5 -82 5 0 6 0 5 0 5 0 6 23 
5 40 6 11 5 -14 5 -29 6 -31 5 0 5 0 6 0 
5 0 6 0 5 5 5 7 6 1 5 -3 5 -5 6 -4 
5 -1 5 0 6 0 5 1 6 0 5 -1 5 0 6 0 
5 0 5 0 6 0 5 3 5 2 6 1 5 -1 6 -2 
5 -3 5 0 6 0 5 0 5 0 6 0 5 2 5 1 
6 1 5 -1 6 -1 5 -2 5 0 6 0 5 0 5 0 
6 1 5 1 5 1 6 -1 5 -2 6 0 5 0 5 0 
6 0 5 1 5 2 6 1 5 -1 5 -1 6 -2 5 0 
6 0 5 0 5 0 3078 4616 100 MP stroke
6 4 5 2 5 1 6 -3 5 -4 5 0 6 0 5 0 
6 0 5 3 5 12 6 9 5 2 5 -8 6 -17 5 -1 
6 0 5 0 5 0 6 0 5 20 5 37 6 26 5 1 
5 -26 6 -53 5 -5 6 0 5 0 5 0 6 0 5 25 
5 102 6 79 5 26 5 -43 6 -109 5 -80 6 0 5 0 
5 0 6 0 5 0 5 236 6 335 5 317 5 243 6 134 
5 11 6 -98 5 -173 5 -204 6 -194 5 -156 5 -108 6 -67 
5 -43 5 -39 6 -50 5 -61 6 -61 5 -22 5 0 6 28 
5 106 5 149 6 169 5 161 5 130 6 84 5 37 6 3 
5 -13 5 -8 6 12 5 39 5 59 6 64 5 52 6 22 
5 -19 5 -63 6 -101 5 -127 5 -138 6 -137 5 -125 5 -110 
6 -93 5 -77 6 -61 5 -43 5 0 6 0 5 0 5 0 
6 0 5 13 5 21 2547 4582 100 MP stroke
6 12 5 0 6 -12 5 -19 5 -15 6 0 5 0 5 0 
6 0 5 0 5 9 6 9 5 3 6 -4 5 -9 5 -8 
6 0 5 0 5 0 6 0 5 1 5 6 6 3 5 0 
6 -4 5 -6 5 0 6 0 5 0 5 0 6 0 5 2 
5 5 6 4 5 1 6 0 5 -4 5 -5 6 -3 5 0 
5 0 6 0 5 0 6 0 5 0 5 17 6 26 5 25 
5 21 6 14 5 10 5 11 6 22 5 44 6 77 5 114 
5 147 6 164 5 160 5 126 6 66 5 -14 5 -100 6 -176 
5 -226 6 -242 5 -215 5 -71 6 0 5 0 5 0 6 147 
5 197 5 193 6 162 5 116 6 63 5 16 5 -21 6 -45 
5 -58 5 -66 6 -70 5 -76 5 -83 6 -92 5 -96 6 -96 
5 -87 5 -72 6 -32 5 0 5 0 6 0 5 0 5 0 
6 4 5 11 6 6 2015 4595 100 MP stroke
5 -1 5 -3 6 -5 5 -6 5 -5 6 -1 5 0 5 0 
6 0 5 0 6 0 5 0 5 4 6 4 5 1 5 -1 
6 -3 5 -4 6 -1 5 0 5 0 6 0 5 0 5 2 
6 3 5 1 5 -1 6 -2 5 -2 6 -1 5 0 5 0 
6 0 5 0 5 2 6 1 5 0 5 -1 6 -1 5 -1 
6 0 5 0 5 0 6 0 5 1 5 0 6 0 5 0 
5 0 6 -1 5 0 6 0 5 0 5 1 6 0 5 0 
5 0 6 0 5 -1 5 0 6 0 5 0 6 1 5 0 
5 0 6 0 5 0 5 -1 6 0 5 0 5 1 6 0 
5 0 6 0 5 -1 5 0 6 0 5 0 5 1 6 0 
5 0 6 0 5 0 5 -1 6 0 5 0 5 0 6 1 
5 0 5 1 6 0 5 -1 6 -1 5 0 5 0 6 0 
5 0 5 1 6 2 1484 4613 100 MP stroke
5 2 5 0 6 -1 5 -3 6 -1 5 0 5 0 6 0 
5 0 5 3 6 7 5 5 5 0 6 -4 5 -9 6 -2 
5 0 5 0 6 0 5 0 5 3 6 16 5 14 5 5 
6 -4 5 -16 6 -18 5 0 5 0 6 0 5 0 5 0 
6 8 5 45 5 47 6 43 5 35 6 28 5 24 5 29 
6 40 5 57 5 76 6 91 5 97 6 89 5 64 5 26 
6 -22 5 -70 5 -110 6 -135 5 -140 5 -123 6 -90 5 -48 
6 -9 5 21 5 34 6 27 5 7 5 -18 6 -38 5 -41 
5 -24 6 15 5 69 6 124 5 168 5 187 6 176 5 134 
5 67 6 -8 5 -79 5 -130 6 -154 5 -148 6 -119 5 -78 
5 -39 6 -10 5 1 5 -5 6 -25 5 -46 5 -62 6 -58 
5 0 6 0 5 0 5 0 6 0 5 17 5 33 6 14 
5 -6 5 -22 6 -30 953 4610 100 MP stroke
5 -6 6 0 5 0 5 0 6 0 5 7 5 15 6 6 
5 -3 5 -11 900 4602 11 MP stroke
DD
/c8 { 1.000000 0.000000 0.000000 sr} bdef
c8
6 0 5 0 6 0 5 0 5 0 6 0 5 0 5 0 
6 0 5 0 6 1 5 10 5 79 6 401 5 1082 5 1320 
6 182 5 -1068 5 -949 6 -237 5 124 6 165 5 94 5 -10 
6 -113 5 -187 5 -218 6 -209 5 -172 5 -123 6 -76 5 -40 
6 -14 5 7 5 23 6 38 5 56 5 74 6 91 5 105 
5 112 6 110 5 96 6 71 5 37 5 -1 6 -41 5 -74 
5 -98 6 -110 5 -112 5 -104 6 -90 5 -72 6 -55 5 -39 
5 -27 6 -17 5 -10 5 -6 6 -3 5 -2 5 -1 6 0 
5 0 6 0 5 0 5 0 6 0 5 0 5 0 6 0 
5 0 6 1 5 3 5 10 6 28 5 63 5 124 6 207 
5 289 5 328 6 283 5 143 6 -49 5 -223 5 -317 6 -318 
5 -250 5 -164 6 -91 5 -42 5 -17 6 -6 5 -2 6 0 
5 0 5 0 6 0 5733 4615 100 MP stroke
5 0 5 0 6 0 5 0 5 0 6 0 5 0 6 0 
5 -1 5 0 6 0 5 0 5 0 6 0 5 0 5 0 
6 0 5 0 6 0 5 1 5 0 6 0 5 0 5 0 
6 0 5 3 5 35 6 233 5 804 6 1334 5 635 5 -873 
6 -1298 5 -675 5 -173 6 -24 5 -1 6 0 5 0 5 0 
6 0 5 0 5 0 6 0 5 0 5 0 6 0 5 5 
6 18 5 60 5 158 6 317 5 480 5 514 6 313 5 -61 
5 -338 6 -94 5 851 6 1151 5 -430 5 -1615 6 -1024 5 -270 
5 -33 6 -2 5 0 5 0 6 0 5 0 6 0 5 0 
5 0 6 -1 5 0 5 0 6 0 5 0 5 0 6 0 
5 0 6 0 5 0 5 0 6 0 5 0 5 0 6 0 
5 0 5 0 6 0 5 0 6 0 5 0 5 0 6 0 
5 0 5 0 6 0 5202 4616 100 MP stroke
5 0 5 0 6 0 5 0 6 0 5 0 5 0 6 0 
5 0 5 0 6 0 5 0 6 0 5 0 5 0 6 0 
5 0 5 0 6 0 5 0 5 0 6 0 5 0 6 0 
5 0 5 0 6 0 5 0 5 0 6 0 5 0 5 0 
6 0 5 0 6 0 5 0 5 0 6 0 5 0 5 0 
6 0 5 0 5 0 6 0 5 0 6 0 5 0 5 0 
6 0 5 0 5 0 6 0 5 0 5 0 6 0 5 0 
6 0 5 0 5 0 6 0 5 0 5 0 6 0 5 0 
5 0 6 0 5 0 6 0 5 0 5 0 6 0 5 0 
5 0 6 0 5 0 6 0 5 0 5 0 6 0 5 0 
5 0 6 0 5 0 5 0 6 0 5 0 6 0 5 0 
5 0 6 1 5 0 5 0 6 0 5 0 5 0 6 0 
5 0 6 0 5 0 4671 4615 100 MP stroke
5 0 6 0 5 0 5 0 6 0 5 0 5 0 6 0 
5 0 6 0 5 1 5 2 6 4 5 7 5 13 6 23 
5 37 5 56 6 78 5 101 6 123 5 135 5 135 6 118 
5 85 5 37 6 -14 5 -65 5 -104 6 -127 5 -131 6 -118 
5 -93 5 -60 6 -22 5 16 5 52 6 82 5 105 6 118 
5 135 5 293 6 943 5 1656 5 605 6 -1376 5 -1512 5 -629 
6 -204 5 -124 6 -104 5 -86 5 -65 6 -48 5 -31 5 -21 
6 -12 5 -7 5 -4 6 -2 5 -1 6 0 5 0 5 0 
6 0 5 0 5 0 6 0 5 0 5 0 6 0 5 0 
6 0 5 0 5 0 6 0 5 0 5 0 6 0 5 0 
5 0 6 -1 5 0 6 0 5 0 5 0 6 0 5 0 
5 0 6 0 5 0 5 0 6 0 5 0 6 0 5 0 
5 1 6 0 5 0 4140 4615 100 MP stroke
5 0 6 0 5 0 5 0 6 0 5 0 6 0 5 0 
5 0 6 0 5 0 5 0 6 0 5 0 6 0 5 0 
5 0 6 0 5 0 5 0 6 1 5 2 5 3 6 5 
5 9 6 15 5 23 5 33 6 47 5 62 5 77 6 91 
5 100 5 104 6 97 5 81 6 56 5 24 5 -11 6 -44 
5 -72 5 -92 6 -102 5 -103 5 -95 6 -82 5 -65 6 -46 
5 -27 5 -4 6 23 5 54 5 91 6 128 5 159 5 174 
6 166 5 129 6 67 5 -8 5 -82 6 -140 5 -171 5 -174 
6 -155 5 -125 5 -90 6 -59 5 -36 6 -20 5 -10 5 -5 
6 -2 5 -1 5 0 6 0 5 0 6 0 5 0 5 0 
6 0 5 0 5 0 6 0 5 0 5 0 6 0 5 0 
6 0 5 0 5 -1 6 0 5 0 5 0 6 0 5 0 
5 0 6 0 5 0 3609 4616 100 MP stroke
6 0 5 0 5 0 6 0 5 0 5 0 6 0 5 0 
5 0 6 1 5 0 6 0 5 0 5 0 6 3 5 49 
5 338 6 1115 5 1484 5 68 6 -1446 5 -1174 6 -376 5 -57 
5 -4 6 0 5 0 5 0 6 0 5 0 5 -1 6 0 
5 0 6 0 5 0 5 0 6 0 5 0 5 0 6 0 
5 0 6 0 5 0 5 0 6 0 5 0 5 0 6 0 
5 0 5 0 6 0 5 0 6 0 5 0 5 0 6 0 
5 0 5 0 6 0 5 0 5 0 6 0 5 0 6 0 
5 0 5 0 6 0 5 0 5 0 6 0 5 0 5 0 
6 0 5 0 6 0 5 0 5 0 6 0 5 0 5 0 
6 0 5 0 5 0 6 0 5 0 6 0 5 0 5 0 
6 0 5 0 5 0 6 0 5 0 5 0 6 0 5 0 
6 0 5 0 5 0 3078 4616 100 MP stroke
6 0 5 0 5 0 6 0 5 0 5 0 6 0 5 0 
6 0 5 0 5 0 6 0 5 0 5 0 6 0 5 0 
6 0 5 0 5 0 6 0 5 0 5 0 6 0 5 0 
5 0 6 0 5 0 6 0 5 1 5 0 6 0 5 0 
5 0 6 0 5 0 5 0 6 0 5 0 6 0 5 1 
5 4 6 15 5 44 5 107 6 214 5 340 5 421 6 373 
5 170 6 -114 5 -342 5 -424 6 -363 5 -239 5 -125 6 -51 
5 -14 5 3 6 14 5 22 6 35 5 49 5 67 6 83 
5 99 5 110 6 112 5 105 5 88 6 63 5 36 6 13 
5 2 5 5 6 23 5 48 5 70 6 76 5 58 6 14 
5 -45 5 -109 6 -159 5 -185 5 -186 6 -164 5 -131 5 -94 
6 -62 5 -38 6 -20 5 -11 5 -5 6 -2 5 -1 5 0 
6 0 5 0 5 0 2547 4615 100 MP stroke
6 0 5 0 6 0 5 0 5 0 6 0 5 0 5 0 
6 0 5 0 5 0 6 0 5 -1 6 0 5 0 5 0 
6 0 5 0 5 0 6 0 5 0 5 0 6 0 5 0 
6 0 5 1 5 0 6 0 5 0 5 0 6 0 5 0 
5 0 6 0 5 0 6 0 5 0 5 0 6 0 5 0 
5 0 6 0 5 0 6 0 5 1 5 3 6 5 5 11 
5 18 6 32 5 49 5 73 6 98 5 123 6 141 5 145 
5 132 6 100 5 51 5 -6 6 -63 5 -108 5 -137 6 -146 
5 -137 6 -118 5 -90 5 -63 6 -36 5 -8 5 22 6 57 
5 99 5 142 6 181 5 199 6 187 5 139 5 60 6 -33 
5 -119 5 -176 6 -200 5 -189 5 -157 6 -115 5 -76 6 -45 
5 -25 5 -12 6 -6 5 -2 5 -1 6 0 5 0 5 0 
6 0 5 0 6 0 2015 4615 100 MP stroke
5 0 5 0 6 0 5 0 5 0 6 0 5 0 5 0 
6 0 5 -1 6 0 5 0 5 0 6 0 5 0 5 0 
6 0 5 0 6 0 5 0 5 0 6 0 5 0 5 0 
6 0 5 0 5 0 6 0 5 0 6 0 5 0 5 0 
6 0 5 0 5 0 6 0 5 0 5 0 6 0 5 0 
6 0 5 0 5 0 6 0 5 0 5 0 6 0 5 0 
5 0 6 0 5 0 6 0 5 0 5 0 6 0 5 0 
5 0 6 0 5 0 5 0 6 0 5 0 6 0 5 0 
5 0 6 0 5 0 5 0 6 0 5 0 5 0 6 0 
5 0 6 0 5 0 5 0 6 0 5 0 5 0 6 0 
5 0 6 0 5 0 5 0 6 0 5 0 5 0 6 0 
5 0 5 0 6 0 5 0 6 0 5 0 5 0 6 0 
5 0 5 0 6 0 1484 4616 100 MP stroke
5 0 5 0 6 0 5 0 6 0 5 0 5 1 6 0 
5 0 5 0 6 0 5 0 5 0 6 0 5 0 6 0 
5 0 5 0 6 0 5 0 5 0 6 0 5 0 5 0 
6 0 5 0 6 0 5 0 5 1 6 1 5 3 5 5 
6 8 5 14 5 22 6 33 5 47 6 62 5 79 5 94 
6 104 5 108 5 101 6 84 5 58 6 23 5 -14 5 -48 
6 -78 5 -98 5 -107 6 -106 5 -97 5 -83 6 -67 5 -50 
6 -35 5 -23 5 -13 6 -3 5 6 5 15 6 28 5 42 
5 60 6 79 5 97 6 112 5 117 5 114 6 96 5 67 
5 28 6 -14 5 -54 5 -87 6 -108 5 -118 6 -115 5 -103 
5 -86 6 -66 5 -49 5 -34 6 -22 5 -14 5 -8 6 -4 
5 -2 6 -2 5 0 5 0 6 0 5 0 5 0 6 0 
5 0 5 0 6 0 953 4615 100 MP stroke
5 0 6 0 5 0 5 0 6 0 5 0 5 0 6 0 
5 0 5 0 900 4615 11 MP stroke
SO
/c9 { 0.000000 0.000000 1.000000 sr} bdef
c9
6 -2 5 0 6 -2 5 36 5 42 6 23 5 44 5 79 
6 77 5 121 6 97 5 93 5 146 6 156 5 143 5 51 
6 55 5 6 5 22 6 -24 5 12 6 -45 5 -99 5 -137 
6 -21 5 -87 5 -163 6 -61 5 -10 5 -95 6 -148 5 -36 
6 0 5 24 5 -14 6 -16 5 34 5 12 6 89 5 47 
5 10 6 93 5 6 6 16 5 49 5 -61 6 2 5 32 
5 -56 6 -85 5 -41 5 -107 6 -2 5 -36 6 -33 5 -28 
5 -109 6 18 5 -32 5 -43 6 -18 5 -10 5 0 6 -12 
5 2 6 -6 5 -4 5 4 6 6 5 12 5 0 6 38 
5 -4 6 79 5 87 5 -6 6 105 5 53 5 89 6 67 
5 78 5 35 6 18 5 36 6 61 5 -63 5 -38 6 -38 
5 -96 5 -70 6 -124 5 -87 5 -60 6 -8 5 -83 6 -29 
5 -16 5 -16 6 -18 5733 4597 100 MP stroke
5 -6 5 -6 6 4 5 -11 5 3 6 -3 5 0 6 3 
5 -3 5 0 6 0 5 0 5 0 6 5 5 2 5 -2 
6 10 5 26 6 16 5 30 5 17 6 10 5 105 5 138 
6 48 5 65 5 113 6 49 5 133 6 51 5 -53 5 55 
6 -47 5 -95 5 -119 6 -126 5 -50 6 -75 5 -97 5 -61 
6 -28 5 -26 5 -2 6 4 5 12 5 111 6 8 5 148 
6 79 5 74 5 178 6 100 5 167 5 168 6 67 5 113 
5 31 6 -10 5 50 6 -93 5 -85 5 -83 6 -198 5 -105 
5 -162 6 -119 5 -144 5 -34 6 -126 5 -129 6 -20 5 -29 
5 -20 6 -24 5 6 5 -16 6 -6 5 -2 5 -3 6 0 
5 0 6 0 5 0 5 0 6 0 5 0 5 0 6 0 
5 0 5 0 6 0 5 0 6 0 5 0 5 0 6 0 
5 0 5 0 6 0 5202 4616 100 MP stroke
5 0 5 0 6 0 5 0 6 0 5 0 5 0 6 0 
5 0 5 0 6 0 5 0 6 0 5 0 5 0 6 0 
5 0 5 0 6 0 5 0 5 0 6 0 5 0 6 0 
5 0 5 0 6 0 5 0 5 0 6 0 5 0 5 0 
6 0 5 0 6 0 5 0 5 0 6 0 5 0 5 0 
6 0 5 0 5 0 6 0 5 0 6 0 5 0 5 0 
6 0 5 0 5 0 6 0 5 0 5 0 6 0 5 0 
6 0 5 0 5 0 6 0 5 0 5 0 6 0 5 0 
5 0 6 0 5 0 6 0 5 0 5 0 6 0 5 0 
5 0 6 0 5 0 6 0 5 0 5 0 6 0 5 0 
5 0 6 0 5 0 5 0 6 0 5 0 6 0 5 0 
5 0 6 0 5 0 5 0 6 0 5 0 5 0 6 0 
5 0 6 0 5 0 4671 4616 100 MP stroke
5 0 6 0 5 0 5 0 6 7 5 0 5 -2 6 8 
5 10 6 -4 5 16 5 24 6 -6 5 28 5 79 6 14 
5 45 5 46 6 55 5 59 6 81 5 38 5 61 6 30 
5 71 5 69 6 -134 5 -18 5 89 6 -55 5 19 6 -136 
5 113 5 -64 6 97 5 12 5 91 6 141 5 25 6 157 
5 148 5 59 6 69 5 105 5 -67 6 91 5 -182 5 -142 
6 -62 5 -160 6 -269 5 -109 5 -73 6 -134 5 -87 5 -105 
6 -20 5 -43 5 -46 6 -4 5 -4 6 -18 5 8 5 -18 
6 6 5 -6 5 4 6 -7 5 0 5 0 6 0 5 0 
6 0 5 0 5 0 6 0 5 0 5 0 6 0 5 0 
5 0 6 0 5 0 6 0 5 0 5 0 6 0 5 0 
5 0 6 0 5 0 5 0 6 0 5 0 6 0 5 0 
5 0 6 0 5 0 4140 4616 100 MP stroke
5 0 6 0 5 0 5 0 6 0 5 0 6 0 5 0 
5 0 6 0 5 0 5 0 6 0 5 0 6 0 5 3 
5 2 6 4 5 6 5 0 6 16 5 22 5 -10 6 22 
5 27 6 24 5 42 5 4 6 87 5 12 5 79 6 33 
5 54 5 39 6 101 5 40 6 -28 5 53 5 -37 6 12 
5 -93 5 57 6 -111 5 -6 5 -69 6 18 5 -93 6 30 
5 35 5 -45 6 29 5 0 5 113 6 12 5 117 5 -8 
6 63 5 26 6 -16 5 -16 5 -39 6 -12 5 -28 5 -63 
6 -131 5 42 5 -111 6 -67 5 -52 6 -53 5 -30 5 -31 
6 -10 5 -30 5 -6 6 -14 5 -2 6 -6 5 -2 5 -2 
6 0 5 -3 5 0 6 0 5 0 5 0 6 0 5 0 
6 0 5 0 5 0 6 0 5 0 5 0 6 0 5 0 
5 3 6 -3 5 0 3609 4616 100 MP stroke
6 3 5 -3 5 3 6 4 5 8 5 20 6 2 5 40 
5 -2 6 67 5 37 6 50 5 109 5 166 6 20 5 47 
5 222 6 -30 5 132 5 -146 6 38 5 -103 6 -56 5 -114 
5 -52 6 -142 5 -10 5 -97 6 -83 5 -40 5 -41 6 -14 
5 -14 6 -2 5 -14 5 2 6 -4 5 -3 5 0 6 0 
5 0 6 0 5 0 5 0 6 0 5 0 5 0 6 0 
5 0 5 0 6 0 5 0 6 0 5 0 5 0 6 0 
5 0 5 0 6 0 5 0 5 0 6 0 5 0 6 0 
5 0 5 0 6 0 5 0 5 0 6 0 5 0 5 0 
6 0 5 0 6 0 5 0 5 0 6 0 5 0 5 0 
6 0 5 0 5 0 6 0 5 0 6 0 5 0 5 0 
6 0 5 0 5 0 6 0 5 0 5 0 6 0 5 0 
6 0 5 0 5 0 3078 4616 100 MP stroke
6 0 5 0 5 0 6 0 5 0 5 0 6 0 5 0 
6 0 5 0 5 0 6 0 5 0 5 0 6 0 5 0 
6 0 5 0 5 0 6 0 5 0 5 0 6 0 5 0 
5 0 6 0 5 0 6 0 5 0 5 3 6 2 5 4 
5 0 6 2 5 20 5 8 6 24 5 16 6 53 5 49 
5 38 6 65 5 141 5 35 6 117 5 133 5 7 6 70 
5 6 6 -143 5 16 5 -63 6 -36 5 14 5 -117 6 -53 
5 -65 5 -64 6 -14 5 -9 6 23 5 -4 5 22 6 67 
5 44 5 73 6 123 5 12 5 73 6 97 5 -52 6 121 
5 28 5 7 6 82 5 5 5 -39 6 36 5 -76 6 -61 
5 46 5 -82 6 -126 5 -10 5 -121 6 -25 5 -147 5 -41 
6 -73 5 -50 6 -61 5 -16 5 -61 6 -40 5 8 5 -14 
6 -14 5 10 5 -10 2547 4603 100 MP stroke
6 -8 5 0 6 2 5 -7 5 0 6 0 5 0 5 0 
6 0 5 0 5 0 6 0 5 0 6 0 5 0 5 0 
6 0 5 0 5 0 6 0 5 0 5 0 6 0 5 0 
6 0 5 0 5 0 6 0 5 0 5 0 6 0 5 0 
5 0 6 0 5 0 6 0 5 0 5 5 6 -2 5 -3 
5 11 6 8 5 6 6 22 5 0 5 24 6 35 5 30 
5 40 6 35 5 44 5 10 6 128 5 22 6 105 5 45 
5 14 6 -6 5 46 5 19 6 40 5 -99 5 10 6 -103 
5 4 6 -67 5 -77 5 -6 6 21 5 4 5 52 6 75 
5 -10 5 71 6 42 5 71 6 -34 5 -19 5 53 6 0 
5 -18 5 -55 6 -40 5 -120 5 -54 6 2 5 -142 6 10 
5 -64 5 -45 6 -46 5 -23 5 -36 6 -10 5 -12 5 0 
6 -8 5 0 6 6 2015 4605 100 MP stroke
5 -6 5 -5 6 0 5 0 5 0 6 0 5 0 5 0 
6 0 5 0 6 0 5 0 5 0 6 0 5 0 5 0 
6 0 5 0 6 0 5 0 5 0 6 0 5 0 5 0 
6 0 5 0 5 0 6 0 5 0 6 0 5 0 5 0 
6 0 5 0 5 0 6 0 5 0 5 0 6 0 5 0 
6 0 5 0 5 0 6 0 5 0 5 0 6 0 5 0 
5 0 6 0 5 0 6 0 5 0 5 0 6 0 5 0 
5 0 6 0 5 0 5 0 6 0 5 0 6 0 5 0 
5 0 6 0 5 0 5 0 6 0 5 0 5 0 6 0 
5 0 6 0 5 0 5 0 6 0 5 0 5 0 6 0 
5 0 6 0 5 0 5 0 6 0 5 0 5 0 6 0 
5 0 5 0 6 0 5 0 6 0 5 0 5 0 6 0 
5 0 5 0 6 0 1484 4616 100 MP stroke
5 0 5 0 6 0 5 0 6 0 5 0 5 0 6 0 
5 0 5 0 6 0 5 0 5 0 6 0 5 0 6 0 
5 0 5 0 6 0 5 0 5 0 6 3 5 -3 5 5 
6 4 5 -4 6 8 5 0 5 12 6 2 5 30 5 20 
6 31 5 26 5 8 6 95 5 20 6 11 5 78 5 6 
6 134 5 -20 5 6 6 42 5 31 6 54 5 0 5 -40 
6 -27 5 -99 5 -14 6 -28 5 20 5 -89 6 -73 5 -58 
6 22 5 -34 5 -13 6 -20 5 35 5 30 6 -16 5 68 
5 63 6 -2 5 65 6 57 5 89 5 -25 6 61 5 109 
5 -26 6 -51 5 -34 5 -32 6 -9 5 -119 6 12 5 -99 
5 0 6 -42 5 -51 5 -91 6 8 5 -69 5 -34 6 12 
5 -12 6 -24 5 -4 5 -4 6 -4 5 -2 5 -2 6 -3 
5 0 5 0 6 0 953 4616 100 MP stroke
5 0 6 0 5 0 5 0 6 0 5 0 5 0 6 0 
5 0 5 0 900 4616 11 MP stroke
18 w
/c10 { 0.000000 1.000000 0.000000 sr} bdef
c10
0 -1214 3689 4616 2 MP stroke
0 -1214 4119 4616 2 MP stroke
54 0 54 0 53 0 54 0 54 0 53 0 54 0 54 0 
3689 3402 9 MP stroke
gr

18 w
c10
0 sg
 883 4659 mt 
( ) s
6249  431 mt 
( ) s
6 w
1 sg
0 897 2539 0 0 -897 959 1346 4 MP
PP
-2539 0 0 897 2539 0 0 -897 959 1346 5 MP stroke
4 w
DO
SO
6 w
0 sg
 959 1346 mt 3498 1346 L
 959  449 mt 3498  449 L
 959 1346 mt  959  449 L
3498 1346 mt 3498  449 L
 959 1346 mt 3498 1346 L
 959 1346 mt  959  449 L
 959 1346 mt 3498 1346 L
 959  449 mt 3498  449 L
 959 1346 mt  959  449 L
3498 1346 mt 3498  449 L
%%IncludeResource: font Helvetica
/Helvetica /ISOLatin1Encoding 240 FMSR

1420  696 mt 
(Approximation of D) s
gs 959 449 2540 898 MR c np
355 0 1029 611 2 MP stroke
gr

1420  983 mt 
(PDF of x) s
gs 959 449 2540 898 MR c np
DD
c8
355 0 1029 897 2 MP stroke
SO
gr

c8
0 sg
1420 1270 mt 
(PDF of y) s
gs 959 449 2540 898 MR c np
c9
355 0 1029 1183 2 MP stroke
gr

c9

end %%Color Dict

eplot
%%EndObject

epage
end

showpage

%%Trailer
%%EOF
