%!PS-Adobe-2.0 EPSF-1.2
%%Creator: MATLAB, The MathWorks, Inc. Version 8.2.0.701 (R2013b). Operating System: Microsoft Windows 7.
%%Title: .\final_optima_alpha.eps
%%CreationDate: 08/14/2014  17:28:05
%%DocumentNeededFonts: Helvetica
%%DocumentProcessColors: Cyan Magenta Yellow Black
%%Extensions: CMYK
%%Pages: 1
%%BoundingBox:    57   199   553   589
%%EndComments

%%BeginProlog
% MathWorks dictionary
/MathWorks 160 dict begin
% definition operators
/bdef {bind def} bind def
/ldef {load def} bind def
/xdef {exch def} bdef
/xstore {exch store} bdef
% operator abbreviations
/c  /clip ldef
/cc /concat ldef
/cp /closepath ldef
/gr /grestore ldef
/gs /gsave ldef
/mt /moveto ldef
/np /newpath ldef
/cm /currentmatrix ldef
/sm /setmatrix ldef
/rm /rmoveto ldef
/rl /rlineto ldef
/s {show newpath} bdef
/sc {setcmykcolor} bdef
/sr /setrgbcolor ldef
/sg /setgray ldef
/w /setlinewidth ldef
/j /setlinejoin ldef
/cap /setlinecap ldef
/rc {rectclip} bdef
/rf {rectfill} bdef
% page state control
/pgsv () def
/bpage {/pgsv save def} bdef
/epage {pgsv restore} bdef
/bplot /gsave ldef
/eplot {stroke grestore} bdef
% orientation switch
/portraitMode 0 def /landscapeMode 1 def /rotateMode 2 def
% coordinate system mappings
/dpi2point 0 def
% font control
/FontSize 0 def
/FMS {/FontSize xstore findfont [FontSize 0 0 FontSize neg 0 0]
  makefont setfont} bdef
/ISOLatin1Encoding where {pop /WindowsLatin1Encoding 256 array bdef
ISOLatin1Encoding WindowsLatin1Encoding copy pop
/.notdef/.notdef/quotesinglbase/florin/quotedblbase/ellipsis/dagger
/daggerdbl/circumflex/perthousand/Scaron/guilsinglleft/OE/.notdef/.notdef
/.notdef/.notdef/quoteleft/quoteright/quotedblleft/quotedblright/bullet
/endash/emdash/tilde/trademark/scaron/guilsinglright/oe/.notdef/.notdef
/Ydieresis WindowsLatin1Encoding 128 32 getinterval astore pop}
{/WindowsLatin1Encoding StandardEncoding bdef} ifelse
/reencode {exch dup where {pop load} {pop StandardEncoding} ifelse
  exch dup 3 1 roll findfont dup length dict begin
  { 1 index /FID ne {def}{pop pop} ifelse } forall
  /Encoding exch def currentdict end definefont pop} bdef
/isroman {findfont /CharStrings get /Agrave known} bdef
/FMSR {3 1 roll 1 index dup isroman {reencode} {pop pop} ifelse
  exch FMS} bdef
/csm {1 dpi2point div -1 dpi2point div scale neg translate
 dup landscapeMode eq {pop -90 rotate}
  {rotateMode eq {90 rotate} if} ifelse} bdef
% line types: solid, dotted, dashed, dotdash
/SO { [] 0 setdash } bdef
/DO { [.5 dpi2point mul 4 dpi2point mul] 0 setdash } bdef
/DA { [6 dpi2point mul] 0 setdash } bdef
/DD { [.5 dpi2point mul 4 dpi2point mul 6 dpi2point mul 4
  dpi2point mul] 0 setdash } bdef
% macros for lines and objects
/L {lineto stroke} bdef
/MP {3 1 roll moveto 1 sub {rlineto} repeat} bdef
/AP {{rlineto} repeat} bdef
/PDlw -1 def
/W {/PDlw currentlinewidth def setlinewidth} def
/PP {closepath eofill} bdef
/DP {closepath stroke} bdef
/MR {4 -2 roll moveto dup  0 exch rlineto exch 0 rlineto
  neg 0 exch rlineto closepath} bdef
/FR {MR stroke} bdef
/PR {MR fill} bdef
/L1i {{currentfile picstr readhexstring pop} image} bdef
/tMatrix matrix def
/MakeOval {newpath tMatrix currentmatrix pop translate scale
0 0 1 0 360 arc tMatrix setmatrix} bdef
/FO {MakeOval stroke} bdef
/PO {MakeOval fill} bdef
/PD {currentlinewidth 2 div 0 360 arc fill
   PDlw -1 eq not {PDlw w /PDlw -1 def} if} def
/FA {newpath tMatrix currentmatrix pop translate scale
  0 0 1 5 -2 roll arc tMatrix setmatrix stroke} bdef
/PA {newpath tMatrix currentmatrix pop	translate 0 0 moveto scale
  0 0 1 5 -2 roll arc closepath tMatrix setmatrix fill} bdef
/FAn {newpath tMatrix currentmatrix pop translate scale
  0 0 1 5 -2 roll arcn tMatrix setmatrix stroke} bdef
/PAn {newpath tMatrix currentmatrix pop translate 0 0 moveto scale
  0 0 1 5 -2 roll arcn closepath tMatrix setmatrix fill} bdef
/vradius 0 def /hradius 0 def /lry 0 def
/lrx 0 def /uly 0 def /ulx 0 def /rad 0 def
/MRR {/vradius xdef /hradius xdef /lry xdef /lrx xdef /uly xdef
  /ulx xdef newpath tMatrix currentmatrix pop ulx hradius add uly
  vradius add translate hradius vradius scale 0 0 1 180 270 arc 
  tMatrix setmatrix lrx hradius sub uly vradius add translate
  hradius vradius scale 0 0 1 270 360 arc tMatrix setmatrix
  lrx hradius sub lry vradius sub translate hradius vradius scale
  0 0 1 0 90 arc tMatrix setmatrix ulx hradius add lry vradius sub
  translate hradius vradius scale 0 0 1 90 180 arc tMatrix setmatrix
  closepath} bdef
/FRR {MRR stroke } bdef
/PRR {MRR fill } bdef
/MlrRR {/lry xdef /lrx xdef /uly xdef /ulx xdef /rad lry uly sub 2 div def
  newpath tMatrix currentmatrix pop ulx rad add uly rad add translate
  rad rad scale 0 0 1 90 270 arc tMatrix setmatrix lrx rad sub lry rad
  sub translate rad rad scale 0 0 1 270 90 arc tMatrix setmatrix
  closepath} bdef
/FlrRR {MlrRR stroke } bdef
/PlrRR {MlrRR fill } bdef
/MtbRR {/lry xdef /lrx xdef /uly xdef /ulx xdef /rad lrx ulx sub 2 div def
  newpath tMatrix currentmatrix pop ulx rad add uly rad add translate
  rad rad scale 0 0 1 180 360 arc tMatrix setmatrix lrx rad sub lry rad
  sub translate rad rad scale 0 0 1 0 180 arc tMatrix setmatrix
  closepath} bdef
/FtbRR {MtbRR stroke } bdef
/PtbRR {MtbRR fill } bdef
/stri 6 array def /dtri 6 array def
/smat 6 array def /dmat 6 array def
/tmat1 6 array def /tmat2 6 array def /dif 3 array def
/asub {/ind2 exch def /ind1 exch def dup dup
  ind1 get exch ind2 get sub exch } bdef
/tri_to_matrix {
  2 0 asub 3 1 asub 4 0 asub 5 1 asub
  dup 0 get exch 1 get 7 -1 roll astore } bdef
/compute_transform {
  dmat dtri tri_to_matrix tmat1 invertmatrix 
  smat stri tri_to_matrix tmat2 concatmatrix } bdef
/ds {stri astore pop} bdef
/dt {dtri astore pop} bdef
/db {2 copy /cols xdef /rows xdef mul dup 3 mul string
  currentfile exch readhexstring pop
  dup 0 3 index getinterval /rbmap xdef
  dup 2 index dup getinterval /gbmap xdef
  1 index dup 2 mul exch getinterval /bbmap xdef pop pop}bdef
/it {gs np dtri aload pop moveto lineto lineto cp c
  cols rows 8 compute_transform 
  rbmap gbmap bbmap true 3 colorimage gr}bdef
/il {newpath moveto lineto stroke}bdef
currentdict end def
%%EndProlog

%%BeginSetup
MathWorks begin

0 cap

end
%%EndSetup

%%Page: 1 1
%%BeginPageSetup
%%PageBoundingBox:    57   199   553   589
MathWorks begin
bpage
%%EndPageSetup

%%BeginObject: obj1
bplot

/dpi2point 12 def
portraitMode 0204 7344 csm

  480   274  5957  4680 MR c np
85 dict begin %Colortable dictionary
/c0 { 0.000000 0.000000 0.000000 sr} bdef
/c1 { 1.000000 1.000000 1.000000 sr} bdef
/c2 { 0.900000 0.000000 0.000000 sr} bdef
/c3 { 0.000000 0.820000 0.000000 sr} bdef
/c4 { 0.000000 0.000000 0.800000 sr} bdef
/c5 { 0.910000 0.820000 0.320000 sr} bdef
/c6 { 1.000000 0.260000 0.820000 sr} bdef
/c7 { 0.000000 0.820000 0.820000 sr} bdef
c0
1 j
1 sg
   0    0 6913 5185 PR
6 w
0 4225 5356 0 0 -4225 899 4614 4 MP
PP
-5356 0 0 4225 5356 0 0 -4225 899 4614 5 MP stroke
4 w
DO
SO
6 w
0 sg
 899  389 mt 6255  389 L
 899 4614 mt 6255 4614 L
6255 4614 mt 6255  389 L
 899 4614 mt  899  389 L
 899 4614 mt 6255 4614 L
 899 4614 mt  899  389 L
 899 4614 mt  899 4560 L
 899  389 mt  899  442 L
%%IncludeResource: font Helvetica
/Helvetica /WindowsLatin1Encoding 120 FMSR

 866 4759 mt 
(0) s
1434 4614 mt 1434 4560 L
1434  389 mt 1434  442 L
1334 4759 mt 
(100) s
1970 4614 mt 1970 4560 L
1970  389 mt 1970  442 L
1870 4759 mt 
(200) s
2505 4614 mt 2505 4560 L
2505  389 mt 2505  442 L
2405 4759 mt 
(300) s
3041 4614 mt 3041 4560 L
3041  389 mt 3041  442 L
2941 4759 mt 
(400) s
3577 4614 mt 3577 4560 L
3577  389 mt 3577  442 L
3477 4759 mt 
(500) s
4112 4614 mt 4112 4560 L
4112  389 mt 4112  442 L
4012 4759 mt 
(600) s
4648 4614 mt 4648 4560 L
4648  389 mt 4648  442 L
4548 4759 mt 
(700) s
5183 4614 mt 5183 4560 L
5183  389 mt 5183  442 L
5083 4759 mt 
(800) s
5719 4614 mt 5719 4560 L
5719  389 mt 5719  442 L
5619 4759 mt 
(900) s
6255 4614 mt 6255 4560 L
6255  389 mt 6255  442 L
6122 4759 mt 
(1000) s
 899 4614 mt  952 4614 L
6255 4614 mt 6201 4614 L
 798 4658 mt 
(0) s
 899 4191 mt  952 4191 L
6255 4191 mt 6201 4191 L
 698 4235 mt 
(0.1) s
 899 3769 mt  952 3769 L
6255 3769 mt 6201 3769 L
 698 3813 mt 
(0.2) s
 899 3346 mt  952 3346 L
6255 3346 mt 6201 3346 L
 698 3390 mt 
(0.3) s
 899 2924 mt  952 2924 L
6255 2924 mt 6201 2924 L
 698 2968 mt 
(0.4) s
 899 2501 mt  952 2501 L
6255 2501 mt 6201 2501 L
 698 2545 mt 
(0.5) s
 899 2078 mt  952 2078 L
6255 2078 mt 6201 2078 L
 698 2122 mt 
(0.6) s
 899 1656 mt  952 1656 L
6255 1656 mt 6201 1656 L
 698 1700 mt 
(0.7) s
 899 1234 mt  952 1234 L
6255 1234 mt 6201 1234 L
 698 1278 mt 
(0.8) s
 899  811 mt  952  811 L
6255  811 mt 6201  811 L
 698  855 mt 
(0.9) s
 899  389 mt  952  389 L
6255  389 mt 6201  389 L
 798  433 mt 
(1) s
 899  389 mt 6255  389 L
 899 4614 mt 6255 4614 L
6255 4614 mt 6255  389 L
 899 4614 mt  899  389 L
gs 899 389 5357 4226 MR c np
/c8 { 0.000000 0.000000 1.000000 sr} bdef
c8
6 0 5 0 6 0 5 0 5 0 6 0 5 0 5 0 
6 0 5 0 5 0 6 0 5 0 5 0 6 0 5 0 
6 0 5 0 5 0 6 0 5 0 5 0 6 0 5 0 
5 0 6 0 5 0 5 0 6 0 5 0 6 0 5 0 
5 0 6 0 5 0 5 0 6 0 5 0 5 0 6 0 
5 0 5 0 6 0 5 0 6 0 5 0 5 0 6 0 
5 0 5 0 6 0 5 0 5 0 6 0 5 0 5 0 
6 0 5 0 6 0 5 0 5 0 6 0 5 0 5 0 
6 0 5 0 5 0 6 0 5 0 5 0 6 0 5 0 
5 0 6 0 5 0 6 0 5 0 5 0 6 0 5 0 
5 0 6 0 5 0 5 0 6 0 5 0 5 0 6 0 
5 0 6 0 5 0 5 0 6 0 5 0 5 0 6 0 
5 0 5 0 6 0 5724 4613 100 MP stroke
5 0 5 0 6 0 5 0 6 0 5 0 5 0 6 0 
5 0 5 0 6 0 5 0 5 0 6 0 5 0 5 0 
6 0 5 0 6 0 5 0 5 0 6 0 5 0 5 0 
6 0 5 0 5 0 6 0 5 0 5 0 6 0 5 0 
5 0 6 0 5 0 6 0 5 0 5 0 6 0 5 0 
5 0 6 0 5 0 5 0 6 0 5 0 5 0 6 0 
5 0 6 0 5 0 5 0 6 0 5 0 5 0 6 0 
5 0 5 0 6 0 5 0 5 0 6 0 5 0 6 0 
5 0 5 1 6 0 5 0 5 0 6 0 5 0 5 0 
6 0 5 0 5 0 6 0 5 0 6 0 5 0 5 0 
6 0 5 0 5 0 6 0 5 0 5 0 6 0 5 0 
5 0 6 0 5 0 5 0 6 0 5 0 6 0 5 0 
5 0 6 0 5 0 5194 4612 100 MP stroke
5 0 6 0 5 0 5 0 6 0 5 0 5 0 6 0 
5 0 6 0 5 0 5 0 6 0 5 0 5 0 6 0 
5 0 5 0 6 0 5 0 5 0 6 0 5 0 6 0 
5 0 5 0 6 9 5 0 5 0 6 0 5 0 5 0 
6 0 5 0 5 0 6 0 5 0 6 0 5 0 5 0 
6 0 5 0 5 0 6 0 5 0 5 0 6 0 5 0 
5 0 6 0 5 0 5 0 6 0 5 0 6 0 5 0 
5 0 6 0 5 0 5 0 6 0 5 0 5 0 6 24 
5 3 5 0 6 0 5 0 6 0 5 0 5 0 6 0 
5 0 5 0 6 0 5 0 5 0 6 0 5 0 5 0 
6 0 5 0 6 0 5 0 5 0 6 0 5 0 5 0 
6 0 5 0 5 0 6 0 5 0 5 0 6 0 5 0 
6 0 5 0 5 0 4664 4576 100 MP stroke
6 0 5 0 5 0 6 0 5 0 5 0 6 0 5 0 
5 0 6 0 5 0 6 0 5 0 5 0 6 0 5 0 
5 0 6 0 5 0 5 0 6 0 5 0 5 0 6 0 
5 37 5 0 6 0 5 0 6 0 5 0 5 0 6 0 
5 0 5 0 6 0 5 0 5 0 6 0 5 0 5 0 
6 0 5 0 6 0 5 0 5 0 6 0 5 0 5 0 
6 0 5 0 5 0 6 0 5 0 5 0 6 0 5 0 
6 0 5 0 5 0 6 0 5 0 5 0 6 0 5 0 
5 0 6 0 5 0 5 0 6 0 5 0 6 0 5 0 
5 0 6 0 5 0 5 0 6 154 5 41 5 0 6 0 
5 0 5 0 6 0 5 0 5 0 6 0 5 0 6 0 
5 0 5 0 6 0 5 0 5 0 6 0 5 0 5 0 
6 0 5 0 5 0 4134 4344 100 MP stroke
6 0 5 0 6 0 5 0 5 0 6 0 5 0 5 0 
6 0 5 0 5 0 6 0 5 0 5 0 6 0 5 0 
6 0 5 0 5 0 6 0 5 0 5 0 6 0 5 0 
5 0 6 0 5 0 5 0 6 15 5 0 6 0 5 0 
5 0 6 0 5 0 5 0 6 0 5 17 5 0 6 0 
5 0 5 0 6 0 5 0 5 0 6 0 5 0 6 0 
5 0 5 0 6 0 5 0 5 0 6 0 5 0 5 0 
6 0 5 0 5 0 6 0 5 0 6 0 5 0 5 0 
6 0 5 0 5 0 6 0 5 0 5 0 6 0 5 0 
5 0 6 0 5 0 6 0 5 0 5 0 6 0 5 0 
5 0 6 0 5 0 5 0 6 0 5 0 5 0 6 0 
5 0 6 0 5 0 5 0 6 0 5 0 5 0 6 0 
5 0 5 0 6 0 3603 4312 100 MP stroke
5 0 5 0 6 0 5 0 5 0 6 0 5 0 6 0 
5 0 5 0 6 0 5 0 5 0 6 0 5 0 5 0 
6 0 5 0 5 725 6 0 5 0 6 0 5 0 5 0 
6 0 5 0 5 0 6 0 5 0 5 0 6 0 5 264 
5 0 6 0 5 0 6 0 5 0 5 0 6 0 5 0 
5 0 6 0 5 0 5 0 6 0 5 0 5 0 6 0 
5 0 6 0 5 0 5 0 6 0 5 0 5 0 6 0 
5 0 5 0 6 0 5 0 5 0 6 0 5 0 6 0 
5 0 5 0 6 0 5 0 5 0 6 0 5 0 5 0 
6 0 5 0 5 0 6 0 5 0 5 0 6 0 5 0 
6 0 5 0 5 0 6 0 5 0 5 0 6 0 5 0 
5 0 6 0 5 0 5 0 6 0 5 0 6 0 5 0 
5 0 6 0 5 0 3073 3323 100 MP stroke
5 0 6 0 5 0 5 0 6 0 5 0 5 0 6 0 
5 0 6 0 5 0 5 0 6 0 5 0 5 0 6 0 
5 0 5 0 6 0 5 0 5 0 6 0 5 0 6 0 
5 0 5 0 6 0 5 0 5 0 6 0 5 0 5 0 
6 0 5 0 5 0 6 0 5 0 5 0 6 0 5 0 
6 0 5 0 5 0 6 0 5 0 5 0 6 0 5 0 
5 0 6 0 5 0 5 0 6 0 5 0 6 0 5 0 
5 0 6 0 5 0 5 0 6 0 5 417 5 0 6 0 
5 0 5 0 6 0 5 0 6 1164 5 0 5 0 6 0 
5 0 5 0 6 0 5 0 5 0 6 0 5 0 5 0 
6 0 5 0 6 0 5 0 5 0 6 0 5 0 5 0 
6 0 5 0 5 0 6 0 5 0 5 0 6 0 5 0 
5 0 6 0 5 0 2543 1742 100 MP stroke
6 0 5 0 5 571 6 0 5 0 5 0 6 0 5 0 
5 0 6 29 5 504 5 0 6 0 5 0 6 0 5 0 
5 0 6 0 5 0 5 0 6 0 5 0 5 0 6 0 
5 0 5 0 6 0 5 0 6 0 5 0 5 0 6 0 
5 0 5 0 6 0 5 0 5 0 6 0 5 0 5 0 
6 0 5 0 6 0 5 0 5 0 6 0 5 0 5 0 
6 0 5 0 5 0 6 0 5 0 5 0 6 0 5 0 
5 0 6 0 5 0 6 0 5 0 5 0 6 0 5 0 
5 0 6 0 5 0 5 0 6 0 5 0 5 0 6 0 
5 0 6 0 5 0 5 0 6 0 5 0 5 0 6 0 
5 0 5 0 6 0 5 0 5 0 6 0 5 0 6 0 
5 0 5 0 6 0 5 0 5 0 6 0 5 0 5 0 
6 0 5 0 5 0 2013 638 100 MP stroke
6 0 5 0 6 0 5 0 5 0 6 0 5 0 5 0 
6 0 5 0 5 0 6 0 5 0 5 0 6 0 5 0 
6 0 5 0 5 0 6 0 5 0 5 0 6 0 5 0 
5 0 6 0 5 0 5 0 6 0 5 0 5 0 6 0 
5 0 6 0 5 0 5 0 6 0 5 0 5 0 6 0 
5 0 5 0 6 0 5 0 5 0 6 0 5 0 6 0 
5 0 5 0 6 0 5 0 5 0 6 0 5 0 5 0 
6 0 5 0 5 0 6 0 5 0 6 0 5 0 5 0 
6 0 5 0 5 0 6 0 5 0 5 0 6 0 5 0 
5 0 6 0 5 0 6 0 5 0 5 0 6 0 5 0 
5 0 6 0 5 0 5 0 6 0 5 0 5 0 6 0 
5 0 5 0 6 0 5 0 6 0 5 0 5 0 6 0 
5 0 5 0 6 0 1482 638 100 MP stroke
5 0 5 0 6 0 5 0 5 0 6 0 5 0 6 0 
5 0 5 0 6 0 5 0 5 0 6 0 5 0 5 0 
6 0 5 0 5 0 6 0 5 0 6 0 5 0 5 0 
6 0 5 0 5 0 6 0 5 0 5 0 6 0 5 0 
5 0 6 0 5 0 6 0 5 0 5 0 6 0 5 0 
5 0 6 0 5 0 5 0 6 0 5 0 5 0 6 0 
5 0 5 0 6 0 5 0 6 0 5 0 5 0 6 0 
5 0 5 0 6 0 5 0 5 0 6 0 5 0 5 0 
6 0 5 0 6 0 5 0 5 0 6 0 5 0 5 0 
6 0 5 0 5 0 6 0 5 0 5 0 6 0 5 0 
6 0 5 0 5 0 6 0 5 0 5 0 6 0 5 0 
5 0 6 0 5 0 5 0 6 0 5 0 6 0 5 0 
5 0 6 0 5 0 952 638 100 MP stroke
5 0 6 0 5 0 5 0 6 0 5 0 5 0 6 0 
5 0 5 221 899 417 11 MP stroke
gr

c8
gs 826 344 5503 4343 MR c np
24 W
899 417 PD
24 W
904 638 PD
24 W
909 638 PD
24 W
915 638 PD
24 W
920 638 PD
24 W
925 638 PD
24 W
931 638 PD
24 W
936 638 PD
24 W
941 638 PD
24 W
947 638 PD
24 W
952 638 PD
24 W
957 638 PD
24 W
963 638 PD
24 W
968 638 PD
24 W
973 638 PD
24 W
979 638 PD
24 W
984 638 PD
24 W
990 638 PD
24 W
995 638 PD
24 W
1000 638 PD
24 W
1006 638 PD
24 W
1011 638 PD
24 W
1016 638 PD
24 W
1022 638 PD
24 W
1027 638 PD
24 W
1032 638 PD
24 W
1038 638 PD
24 W
1043 638 PD
24 W
1048 638 PD
24 W
1054 638 PD
24 W
1059 638 PD
24 W
1065 638 PD
24 W
1070 638 PD
24 W
1075 638 PD
24 W
1081 638 PD
24 W
1086 638 PD
24 W
1091 638 PD
24 W
1097 638 PD
24 W
1102 638 PD
24 W
1107 638 PD
24 W
1113 638 PD
24 W
1118 638 PD
24 W
1123 638 PD
24 W
1129 638 PD
24 W
1134 638 PD
24 W
1140 638 PD
24 W
1145 638 PD
24 W
1150 638 PD
24 W
1156 638 PD
24 W
1161 638 PD
24 W
1166 638 PD
24 W
1172 638 PD
24 W
1177 638 PD
24 W
1182 638 PD
24 W
1188 638 PD
24 W
1193 638 PD
24 W
1198 638 PD
24 W
1204 638 PD
24 W
1209 638 PD
24 W
1215 638 PD
24 W
1220 638 PD
24 W
1225 638 PD
24 W
1231 638 PD
24 W
1236 638 PD
24 W
1241 638 PD
24 W
1247 638 PD
24 W
1252 638 PD
24 W
1257 638 PD
24 W
1263 638 PD
24 W
1268 638 PD
24 W
1273 638 PD
24 W
1279 638 PD
24 W
1284 638 PD
24 W
1289 638 PD
24 W
1295 638 PD
24 W
1300 638 PD
24 W
1306 638 PD
24 W
1311 638 PD
24 W
1316 638 PD
24 W
1322 638 PD
24 W
1327 638 PD
24 W
1332 638 PD
24 W
1338 638 PD
24 W
1343 638 PD
24 W
1348 638 PD
24 W
1354 638 PD
24 W
1359 638 PD
24 W
1364 638 PD
24 W
1370 638 PD
24 W
1375 638 PD
24 W
1381 638 PD
24 W
1386 638 PD
24 W
1391 638 PD
24 W
1397 638 PD
24 W
1402 638 PD
24 W
1407 638 PD
24 W
1413 638 PD
24 W
1418 638 PD
24 W
1423 638 PD
24 W
1429 638 PD
24 W
1434 638 PD
24 W
1439 638 PD
24 W
1445 638 PD
24 W
1450 638 PD
24 W
1456 638 PD
24 W
1461 638 PD
24 W
1466 638 PD
24 W
1472 638 PD
24 W
1477 638 PD
24 W
1482 638 PD
24 W
1488 638 PD
24 W
1493 638 PD
24 W
1498 638 PD
24 W
1504 638 PD
24 W
1509 638 PD
24 W
1514 638 PD
24 W
1520 638 PD
24 W
1525 638 PD
24 W
1531 638 PD
24 W
1536 638 PD
24 W
1541 638 PD
24 W
1547 638 PD
24 W
1552 638 PD
24 W
1557 638 PD
24 W
1563 638 PD
24 W
1568 638 PD
24 W
1573 638 PD
24 W
1579 638 PD
24 W
1584 638 PD
24 W
1589 638 PD
24 W
1595 638 PD
24 W
1600 638 PD
24 W
1605 638 PD
24 W
1611 638 PD
24 W
1616 638 PD
24 W
1622 638 PD
24 W
1627 638 PD
24 W
1632 638 PD
24 W
1638 638 PD
24 W
1643 638 PD
24 W
1648 638 PD
24 W
1654 638 PD
24 W
1659 638 PD
24 W
1664 638 PD
24 W
1670 638 PD
24 W
1675 638 PD
24 W
1680 638 PD
24 W
1686 638 PD
24 W
1691 638 PD
24 W
1697 638 PD
24 W
1702 638 PD
24 W
1707 638 PD
24 W
1713 638 PD
24 W
1718 638 PD
24 W
1723 638 PD
24 W
1729 638 PD
24 W
1734 638 PD
24 W
1739 638 PD
24 W
1745 638 PD
24 W
1750 638 PD
24 W
1755 638 PD
24 W
1761 638 PD
24 W
1766 638 PD
24 W
1772 638 PD
24 W
1777 638 PD
24 W
1782 638 PD
24 W
1788 638 PD
24 W
1793 638 PD
24 W
1798 638 PD
24 W
1804 638 PD
24 W
1809 638 PD
24 W
1814 638 PD
24 W
1820 638 PD
24 W
1825 638 PD
24 W
1830 638 PD
24 W
1836 638 PD
24 W
1841 638 PD
24 W
1847 638 PD
24 W
1852 638 PD
24 W
1857 638 PD
24 W
1863 638 PD
24 W
1868 638 PD
24 W
1873 638 PD
24 W
1879 638 PD
24 W
1884 638 PD
24 W
1889 638 PD
24 W
1895 638 PD
24 W
1900 638 PD
24 W
1905 638 PD
24 W
1911 638 PD
24 W
1916 638 PD
24 W
1921 638 PD
24 W
1927 638 PD
24 W
1932 638 PD
24 W
1938 638 PD
24 W
1943 638 PD
24 W
1948 638 PD
24 W
1954 638 PD
24 W
1959 638 PD
24 W
1964 638 PD
24 W
1970 638 PD
24 W
1975 638 PD
24 W
1980 638 PD
24 W
1986 638 PD
24 W
1991 638 PD
24 W
1996 638 PD
24 W
2002 638 PD
24 W
2007 638 PD
24 W
2013 638 PD
24 W
2018 638 PD
24 W
2023 638 PD
24 W
2029 638 PD
24 W
2034 638 PD
24 W
2039 638 PD
24 W
2045 638 PD
24 W
2050 638 PD
24 W
2055 638 PD
24 W
2061 638 PD
24 W
2066 638 PD
24 W
2071 638 PD
24 W
2077 638 PD
24 W
2082 638 PD
24 W
2088 638 PD
24 W
2093 638 PD
24 W
2098 638 PD
24 W
2104 638 PD
24 W
2109 638 PD
24 W
2114 638 PD
24 W
2120 638 PD
24 W
2125 638 PD
24 W
2130 638 PD
24 W
2136 638 PD
24 W
2141 638 PD
24 W
2146 638 PD
24 W
2152 638 PD
24 W
2157 638 PD
24 W
2163 638 PD
24 W
2168 638 PD
24 W
2173 638 PD
24 W
2179 638 PD
24 W
2184 638 PD
24 W
2189 638 PD
24 W
2195 638 PD
24 W
2200 638 PD
24 W
2205 638 PD
24 W
2211 638 PD
24 W
2216 638 PD
24 W
2221 638 PD
24 W
2227 638 PD
24 W
2232 638 PD
24 W
2238 638 PD
24 W
2243 638 PD
24 W
2248 638 PD
24 W
2254 638 PD
24 W
2259 638 PD
24 W
2264 638 PD
24 W
2270 638 PD
24 W
2275 638 PD
24 W
2280 638 PD
24 W
2286 638 PD
24 W
2291 638 PD
24 W
2296 638 PD
24 W
2302 638 PD
24 W
2307 638 PD
24 W
2312 638 PD
24 W
2318 638 PD
24 W
2323 638 PD
24 W
2329 638 PD
24 W
2334 638 PD
24 W
2339 638 PD
24 W
2345 638 PD
24 W
2350 638 PD
24 W
2355 638 PD
24 W
2361 638 PD
24 W
2366 638 PD
24 W
2371 638 PD
24 W
2377 638 PD
24 W
2382 638 PD
24 W
2387 638 PD
24 W
2393 638 PD
24 W
2398 638 PD
24 W
2404 638 PD
24 W
2409 638 PD
24 W
2414 638 PD
24 W
2420 638 PD
24 W
2425 638 PD
24 W
2430 638 PD
24 W
2436 638 PD
24 W
2441 638 PD
24 W
2446 638 PD
24 W
2452 638 PD
24 W
2457 638 PD
24 W
2462 638 PD
24 W
2468 638 PD
24 W
2473 638 PD
24 W
2479 638 PD
24 W
2484 638 PD
24 W
2489 1142 PD
24 W
2495 1171 PD
24 W
2500 1171 PD
24 W
2505 1171 PD
24 W
2511 1171 PD
24 W
2516 1171 PD
24 W
2521 1171 PD
24 W
2527 1171 PD
24 W
2532 1742 PD
24 W
2537 1742 PD
24 W
2543 1742 PD
24 W
2548 1742 PD
24 W
2554 1742 PD
24 W
2559 1742 PD
24 W
2564 1742 PD
24 W
2570 1742 PD
24 W
2575 1742 PD
24 W
2580 1742 PD
24 W
2586 1742 PD
24 W
2591 1742 PD
24 W
2596 1742 PD
24 W
2602 1742 PD
24 W
2607 1742 PD
24 W
2612 1742 PD
24 W
2618 1742 PD
24 W
2623 1742 PD
24 W
2628 1742 PD
24 W
2634 1742 PD
24 W
2639 1742 PD
24 W
2645 1742 PD
24 W
2650 1742 PD
24 W
2655 1742 PD
24 W
2661 1742 PD
24 W
2666 1742 PD
24 W
2671 1742 PD
24 W
2677 1742 PD
24 W
2682 1742 PD
24 W
2687 1742 PD
24 W
2693 1742 PD
24 W
2698 1742 PD
24 W
2703 1742 PD
24 W
2709 2906 PD
24 W
2714 2906 PD
24 W
2720 2906 PD
24 W
2725 2906 PD
24 W
2730 2906 PD
24 W
2736 2906 PD
24 W
2741 2906 PD
24 W
2746 3323 PD
24 W
2752 3323 PD
24 W
2757 3323 PD
24 W
2762 3323 PD
24 W
2768 3323 PD
24 W
2773 3323 PD
24 W
2778 3323 PD
24 W
2784 3323 PD
24 W
2789 3323 PD
24 W
2795 3323 PD
24 W
2800 3323 PD
24 W
2805 3323 PD
24 W
2811 3323 PD
24 W
2816 3323 PD
24 W
2821 3323 PD
24 W
2827 3323 PD
24 W
2832 3323 PD
24 W
2837 3323 PD
24 W
2843 3323 PD
24 W
2848 3323 PD
24 W
2853 3323 PD
24 W
2859 3323 PD
24 W
2864 3323 PD
24 W
2870 3323 PD
24 W
2875 3323 PD
24 W
2880 3323 PD
24 W
2886 3323 PD
24 W
2891 3323 PD
24 W
2896 3323 PD
24 W
2902 3323 PD
24 W
2907 3323 PD
24 W
2912 3323 PD
24 W
2918 3323 PD
24 W
2923 3323 PD
24 W
2928 3323 PD
24 W
2934 3323 PD
24 W
2939 3323 PD
24 W
2944 3323 PD
24 W
2950 3323 PD
24 W
2955 3323 PD
24 W
2961 3323 PD
24 W
2966 3323 PD
24 W
2971 3323 PD
24 W
2977 3323 PD
24 W
2982 3323 PD
24 W
2987 3323 PD
24 W
2993 3323 PD
24 W
2998 3323 PD
24 W
3003 3323 PD
24 W
3009 3323 PD
24 W
3014 3323 PD
24 W
3019 3323 PD
24 W
3025 3323 PD
24 W
3030 3323 PD
24 W
3036 3323 PD
24 W
3041 3323 PD
24 W
3046 3323 PD
24 W
3052 3323 PD
24 W
3057 3323 PD
24 W
3062 3323 PD
24 W
3068 3323 PD
24 W
3073 3323 PD
24 W
3078 3323 PD
24 W
3084 3323 PD
24 W
3089 3323 PD
24 W
3094 3323 PD
24 W
3100 3323 PD
24 W
3105 3323 PD
24 W
3111 3323 PD
24 W
3116 3323 PD
24 W
3121 3323 PD
24 W
3127 3323 PD
24 W
3132 3323 PD
24 W
3137 3323 PD
24 W
3143 3323 PD
24 W
3148 3323 PD
24 W
3153 3323 PD
24 W
3159 3323 PD
24 W
3164 3323 PD
24 W
3169 3323 PD
24 W
3175 3323 PD
24 W
3180 3323 PD
24 W
3186 3323 PD
24 W
3191 3323 PD
24 W
3196 3323 PD
24 W
3202 3323 PD
24 W
3207 3323 PD
24 W
3212 3323 PD
24 W
3218 3323 PD
24 W
3223 3323 PD
24 W
3228 3323 PD
24 W
3234 3323 PD
24 W
3239 3323 PD
24 W
3244 3323 PD
24 W
3250 3323 PD
24 W
3255 3323 PD
24 W
3260 3323 PD
24 W
3266 3323 PD
24 W
3271 3323 PD
24 W
3277 3323 PD
24 W
3282 3323 PD
24 W
3287 3323 PD
24 W
3293 3323 PD
24 W
3298 3323 PD
24 W
3303 3323 PD
24 W
3309 3323 PD
24 W
3314 3323 PD
24 W
3319 3323 PD
24 W
3325 3323 PD
24 W
3330 3323 PD
24 W
3335 3323 PD
24 W
3341 3323 PD
24 W
3346 3323 PD
24 W
3352 3323 PD
24 W
3357 3323 PD
24 W
3362 3323 PD
24 W
3368 3323 PD
24 W
3373 3323 PD
24 W
3378 3323 PD
24 W
3384 3323 PD
24 W
3389 3323 PD
24 W
3394 3323 PD
24 W
3400 3323 PD
24 W
3405 3323 PD
24 W
3410 3323 PD
24 W
3416 3323 PD
24 W
3421 3323 PD
24 W
3427 3323 PD
24 W
3432 3323 PD
24 W
3437 3587 PD
24 W
3443 3587 PD
24 W
3448 3587 PD
24 W
3453 3587 PD
24 W
3459 3587 PD
24 W
3464 3587 PD
24 W
3469 3587 PD
24 W
3475 3587 PD
24 W
3480 3587 PD
24 W
3485 3587 PD
24 W
3491 3587 PD
24 W
3496 3587 PD
24 W
3502 3587 PD
24 W
3507 4312 PD
24 W
3512 4312 PD
24 W
3518 4312 PD
24 W
3523 4312 PD
24 W
3528 4312 PD
24 W
3534 4312 PD
24 W
3539 4312 PD
24 W
3544 4312 PD
24 W
3550 4312 PD
24 W
3555 4312 PD
24 W
3560 4312 PD
24 W
3566 4312 PD
24 W
3571 4312 PD
24 W
3577 4312 PD
24 W
3582 4312 PD
24 W
3587 4312 PD
24 W
3593 4312 PD
24 W
3598 4312 PD
24 W
3603 4312 PD
24 W
3609 4312 PD
24 W
3614 4312 PD
24 W
3619 4312 PD
24 W
3625 4312 PD
24 W
3630 4312 PD
24 W
3635 4312 PD
24 W
3641 4312 PD
24 W
3646 4312 PD
24 W
3651 4312 PD
24 W
3657 4312 PD
24 W
3662 4312 PD
24 W
3668 4312 PD
24 W
3673 4312 PD
24 W
3678 4312 PD
24 W
3684 4312 PD
24 W
3689 4312 PD
24 W
3694 4312 PD
24 W
3700 4312 PD
24 W
3705 4312 PD
24 W
3710 4312 PD
24 W
3716 4312 PD
24 W
3721 4312 PD
24 W
3726 4312 PD
24 W
3732 4312 PD
24 W
3737 4312 PD
24 W
3743 4312 PD
24 W
3748 4312 PD
24 W
3753 4312 PD
24 W
3759 4312 PD
24 W
3764 4312 PD
24 W
3769 4312 PD
24 W
3775 4312 PD
24 W
3780 4312 PD
24 W
3785 4312 PD
24 W
3791 4312 PD
24 W
3796 4312 PD
24 W
3801 4312 PD
24 W
3807 4312 PD
24 W
3812 4312 PD
24 W
3818 4312 PD
24 W
3823 4312 PD
24 W
3828 4312 PD
24 W
3834 4312 PD
24 W
3839 4312 PD
24 W
3844 4312 PD
24 W
3850 4312 PD
24 W
3855 4312 PD
24 W
3860 4312 PD
24 W
3866 4312 PD
24 W
3871 4312 PD
24 W
3876 4312 PD
24 W
3882 4312 PD
24 W
3887 4312 PD
24 W
3893 4312 PD
24 W
3898 4312 PD
24 W
3903 4312 PD
24 W
3909 4312 PD
24 W
3914 4312 PD
24 W
3919 4312 PD
24 W
3925 4312 PD
24 W
3930 4312 PD
24 W
3935 4329 PD
24 W
3941 4329 PD
24 W
3946 4329 PD
24 W
3951 4329 PD
24 W
3957 4329 PD
24 W
3962 4329 PD
24 W
3967 4329 PD
24 W
3973 4329 PD
24 W
3978 4329 PD
24 W
3984 4344 PD
24 W
3989 4344 PD
24 W
3994 4344 PD
24 W
4000 4344 PD
24 W
4005 4344 PD
24 W
4010 4344 PD
24 W
4016 4344 PD
24 W
4021 4344 PD
24 W
4026 4344 PD
24 W
4032 4344 PD
24 W
4037 4344 PD
24 W
4042 4344 PD
24 W
4048 4344 PD
24 W
4053 4344 PD
24 W
4059 4344 PD
24 W
4064 4344 PD
24 W
4069 4344 PD
24 W
4075 4344 PD
24 W
4080 4344 PD
24 W
4085 4344 PD
24 W
4091 4344 PD
24 W
4096 4344 PD
24 W
4101 4344 PD
24 W
4107 4344 PD
24 W
4112 4344 PD
24 W
4117 4344 PD
24 W
4123 4344 PD
24 W
4128 4344 PD
24 W
4134 4344 PD
24 W
4139 4344 PD
24 W
4144 4344 PD
24 W
4150 4344 PD
24 W
4155 4344 PD
24 W
4160 4344 PD
24 W
4166 4344 PD
24 W
4171 4344 PD
24 W
4176 4344 PD
24 W
4182 4344 PD
24 W
4187 4344 PD
24 W
4192 4344 PD
24 W
4198 4344 PD
24 W
4203 4344 PD
24 W
4209 4344 PD
24 W
4214 4344 PD
24 W
4219 4344 PD
24 W
4225 4344 PD
24 W
4230 4344 PD
24 W
4235 4344 PD
24 W
4241 4344 PD
24 W
4246 4344 PD
24 W
4251 4385 PD
24 W
4257 4539 PD
24 W
4262 4539 PD
24 W
4267 4539 PD
24 W
4273 4539 PD
24 W
4278 4539 PD
24 W
4283 4539 PD
24 W
4289 4539 PD
24 W
4294 4539 PD
24 W
4300 4539 PD
24 W
4305 4539 PD
24 W
4310 4539 PD
24 W
4316 4539 PD
24 W
4321 4539 PD
24 W
4326 4539 PD
24 W
4332 4539 PD
24 W
4337 4539 PD
24 W
4342 4539 PD
24 W
4348 4539 PD
24 W
4353 4539 PD
24 W
4358 4539 PD
24 W
4364 4539 PD
24 W
4369 4539 PD
24 W
4375 4539 PD
24 W
4380 4539 PD
24 W
4385 4539 PD
24 W
4391 4539 PD
24 W
4396 4539 PD
24 W
4401 4539 PD
24 W
4407 4539 PD
24 W
4412 4539 PD
24 W
4417 4539 PD
24 W
4423 4539 PD
24 W
4428 4539 PD
24 W
4433 4539 PD
24 W
4439 4539 PD
24 W
4444 4539 PD
24 W
4450 4539 PD
24 W
4455 4539 PD
24 W
4460 4539 PD
24 W
4466 4539 PD
24 W
4471 4539 PD
24 W
4476 4539 PD
24 W
4482 4539 PD
24 W
4487 4539 PD
24 W
4492 4539 PD
24 W
4498 4539 PD
24 W
4503 4539 PD
24 W
4508 4539 PD
24 W
4514 4539 PD
24 W
4519 4539 PD
24 W
4525 4539 PD
24 W
4530 4539 PD
24 W
4535 4576 PD
24 W
4541 4576 PD
24 W
4546 4576 PD
24 W
4551 4576 PD
24 W
4557 4576 PD
24 W
4562 4576 PD
24 W
4567 4576 PD
24 W
4573 4576 PD
24 W
4578 4576 PD
24 W
4583 4576 PD
24 W
4589 4576 PD
24 W
4594 4576 PD
24 W
4599 4576 PD
24 W
4605 4576 PD
24 W
4610 4576 PD
24 W
4616 4576 PD
24 W
4621 4576 PD
24 W
4626 4576 PD
24 W
4632 4576 PD
24 W
4637 4576 PD
24 W
4642 4576 PD
24 W
4648 4576 PD
24 W
4653 4576 PD
24 W
4658 4576 PD
24 W
4664 4576 PD
24 W
4669 4576 PD
24 W
4674 4576 PD
24 W
4680 4576 PD
24 W
4685 4576 PD
24 W
4691 4576 PD
24 W
4696 4576 PD
24 W
4701 4576 PD
24 W
4707 4576 PD
24 W
4712 4576 PD
24 W
4717 4576 PD
24 W
4723 4576 PD
24 W
4728 4576 PD
24 W
4733 4576 PD
24 W
4739 4576 PD
24 W
4744 4576 PD
24 W
4749 4576 PD
24 W
4755 4576 PD
24 W
4760 4576 PD
24 W
4766 4576 PD
24 W
4771 4576 PD
24 W
4776 4576 PD
24 W
4782 4576 PD
24 W
4787 4576 PD
24 W
4792 4576 PD
24 W
4798 4576 PD
24 W
4803 4576 PD
24 W
4808 4576 PD
24 W
4814 4576 PD
24 W
4819 4576 PD
24 W
4824 4576 PD
24 W
4830 4576 PD
24 W
4835 4576 PD
24 W
4841 4576 PD
24 W
4846 4576 PD
24 W
4851 4579 PD
24 W
4857 4603 PD
24 W
4862 4603 PD
24 W
4867 4603 PD
24 W
4873 4603 PD
24 W
4878 4603 PD
24 W
4883 4603 PD
24 W
4889 4603 PD
24 W
4894 4603 PD
24 W
4899 4603 PD
24 W
4905 4603 PD
24 W
4910 4603 PD
24 W
4916 4603 PD
24 W
4921 4603 PD
24 W
4926 4603 PD
24 W
4932 4603 PD
24 W
4937 4603 PD
24 W
4942 4603 PD
24 W
4948 4603 PD
24 W
4953 4603 PD
24 W
4958 4603 PD
24 W
4964 4603 PD
24 W
4969 4603 PD
24 W
4974 4603 PD
24 W
4980 4603 PD
24 W
4985 4603 PD
24 W
4990 4603 PD
24 W
4996 4603 PD
24 W
5001 4603 PD
24 W
5007 4603 PD
24 W
5012 4603 PD
24 W
5017 4603 PD
24 W
5023 4603 PD
24 W
5028 4603 PD
24 W
5033 4603 PD
24 W
5039 4603 PD
24 W
5044 4603 PD
24 W
5049 4603 PD
24 W
5055 4612 PD
24 W
5060 4612 PD
24 W
5065 4612 PD
24 W
5071 4612 PD
24 W
5076 4612 PD
24 W
5082 4612 PD
24 W
5087 4612 PD
24 W
5092 4612 PD
24 W
5098 4612 PD
24 W
5103 4612 PD
24 W
5108 4612 PD
24 W
5114 4612 PD
24 W
5119 4612 PD
24 W
5124 4612 PD
24 W
5130 4612 PD
24 W
5135 4612 PD
24 W
5140 4612 PD
24 W
5146 4612 PD
24 W
5151 4612 PD
24 W
5157 4612 PD
24 W
5162 4612 PD
24 W
5167 4612 PD
24 W
5173 4612 PD
24 W
5178 4612 PD
24 W
5183 4612 PD
24 W
5189 4612 PD
24 W
5194 4612 PD
24 W
5199 4612 PD
24 W
5205 4612 PD
24 W
5210 4612 PD
24 W
5215 4612 PD
24 W
5221 4612 PD
24 W
5226 4612 PD
24 W
5232 4612 PD
24 W
5237 4612 PD
24 W
5242 4612 PD
24 W
5248 4612 PD
24 W
5253 4612 PD
24 W
5258 4612 PD
24 W
5264 4612 PD
24 W
5269 4612 PD
24 W
5274 4612 PD
24 W
5280 4612 PD
24 W
5285 4612 PD
24 W
5290 4612 PD
24 W
5296 4612 PD
24 W
5301 4612 PD
24 W
5306 4612 PD
24 W
5312 4612 PD
24 W
5317 4612 PD
24 W
5323 4612 PD
24 W
5328 4612 PD
24 W
5333 4612 PD
24 W
5339 4612 PD
24 W
5344 4612 PD
24 W
5349 4612 PD
24 W
5355 4612 PD
24 W
5360 4612 PD
24 W
5365 4612 PD
24 W
5371 4612 PD
24 W
5376 4613 PD
24 W
5381 4613 PD
24 W
5387 4613 PD
24 W
5392 4613 PD
24 W
5398 4613 PD
24 W
5403 4613 PD
24 W
5408 4613 PD
24 W
5414 4613 PD
24 W
5419 4613 PD
24 W
5424 4613 PD
24 W
5430 4613 PD
24 W
5435 4613 PD
24 W
5440 4613 PD
24 W
5446 4613 PD
24 W
5451 4613 PD
24 W
5456 4613 PD
24 W
5462 4613 PD
24 W
5467 4613 PD
24 W
5473 4613 PD
24 W
5478 4613 PD
24 W
5483 4613 PD
24 W
5489 4613 PD
24 W
5494 4613 PD
24 W
5499 4613 PD
24 W
5505 4613 PD
24 W
5510 4613 PD
24 W
5515 4613 PD
24 W
5521 4613 PD
24 W
5526 4613 PD
24 W
5531 4613 PD
24 W
5537 4613 PD
24 W
5542 4613 PD
24 W
5548 4613 PD
24 W
5553 4613 PD
24 W
5558 4613 PD
24 W
5564 4613 PD
24 W
5569 4613 PD
24 W
5574 4613 PD
24 W
5580 4613 PD
24 W
5585 4613 PD
24 W
5590 4613 PD
24 W
5596 4613 PD
24 W
5601 4613 PD
24 W
5606 4613 PD
24 W
5612 4613 PD
24 W
5617 4613 PD
24 W
5622 4613 PD
24 W
5628 4613 PD
24 W
5633 4613 PD
24 W
5639 4613 PD
24 W
5644 4613 PD
24 W
5649 4613 PD
24 W
5655 4613 PD
24 W
5660 4613 PD
24 W
5665 4613 PD
24 W
5671 4613 PD
24 W
5676 4613 PD
24 W
5681 4613 PD
24 W
5687 4613 PD
24 W
5692 4613 PD
24 W
5697 4613 PD
24 W
5703 4613 PD
24 W
5708 4613 PD
24 W
5714 4613 PD
24 W
5719 4613 PD
24 W
5724 4613 PD
24 W
5730 4613 PD
24 W
5735 4613 PD
24 W
5740 4613 PD
24 W
5746 4613 PD
24 W
5751 4613 PD
24 W
5756 4613 PD
24 W
5762 4613 PD
24 W
5767 4613 PD
24 W
5772 4613 PD
24 W
5778 4613 PD
24 W
5783 4613 PD
24 W
5789 4613 PD
24 W
5794 4613 PD
24 W
5799 4613 PD
24 W
5805 4613 PD
24 W
5810 4613 PD
24 W
5815 4613 PD
24 W
5821 4613 PD
24 W
5826 4613 PD
24 W
5831 4613 PD
24 W
5837 4613 PD
24 W
5842 4613 PD
24 W
5847 4613 PD
24 W
5853 4613 PD
24 W
5858 4613 PD
24 W
5864 4613 PD
24 W
5869 4613 PD
24 W
5874 4613 PD
24 W
5880 4613 PD
24 W
5885 4613 PD
24 W
5890 4613 PD
24 W
5896 4613 PD
24 W
5901 4613 PD
24 W
5906 4613 PD
24 W
5912 4613 PD
24 W
5917 4613 PD
24 W
5922 4613 PD
24 W
5928 4613 PD
24 W
5933 4613 PD
24 W
5938 4613 PD
24 W
5944 4613 PD
24 W
5949 4613 PD
24 W
5955 4613 PD
24 W
5960 4613 PD
24 W
5965 4613 PD
24 W
5971 4613 PD
24 W
5976 4613 PD
24 W
5981 4613 PD
24 W
5987 4613 PD
24 W
5992 4613 PD
24 W
5997 4613 PD
24 W
6003 4613 PD
24 W
6008 4613 PD
24 W
6013 4613 PD
24 W
6019 4613 PD
24 W
6024 4613 PD
24 W
6030 4613 PD
24 W
6035 4613 PD
24 W
6040 4613 PD
24 W
6046 4613 PD
24 W
6051 4613 PD
24 W
6056 4613 PD
24 W
6062 4613 PD
24 W
6067 4613 PD
24 W
6072 4613 PD
24 W
6078 4613 PD
24 W
6083 4613 PD
24 W
6088 4613 PD
24 W
6094 4613 PD
24 W
6099 4613 PD
24 W
6105 4613 PD
24 W
6110 4613 PD
24 W
6115 4613 PD
24 W
6121 4613 PD
24 W
6126 4613 PD
24 W
6131 4613 PD
24 W
6137 4613 PD
24 W
6142 4613 PD
24 W
6147 4613 PD
24 W
6153 4613 PD
24 W
6158 4613 PD
24 W
6163 4613 PD
24 W
6169 4613 PD
24 W
6174 4613 PD
24 W
6180 4613 PD
24 W
6185 4613 PD
24 W
6190 4613 PD
24 W
6196 4613 PD
24 W
6201 4613 PD
24 W
6206 4613 PD
24 W
6212 4613 PD
24 W
6217 4613 PD
24 W
6222 4613 PD
24 W
6228 4613 PD
24 W
6233 4613 PD
24 W
6238 4613 PD
24 W
6244 4613 PD
24 W
6249 4613 PD
24 W
6255 4613 PD
gs 899 389 5357 4226 MR c np
gr
gr

0 sg
3559 4902 mt 
(t) s
 616 2792 mt  -90 rotate
(Best Alpha) s
90 rotate

end %%Color Dict

eplot
%%EndObject

epage
end

showpage

%%Trailer
%%EOF
