%!PS-Adobe-3.0 EPSF-3.0
%%DocumentNeededResources: font Helvetica
%%+ font Helvetica-Bold
%%+ font Helvetica-Oblique
%%+ font Helvetica-BoldOblique
%%+ font Symbol
%%Title: R Graphics Output
%%Creator: R Software
%%Pages: (atend)
%%BoundingBox: 0 0 600 600
%%EndComments
%%BeginProlog
/bp  { gs sRGB gs } def
% begin .ps.prolog
/gs  { gsave } bind def
/gr  { grestore } bind def
/ep  { showpage gr gr } bind def
/m   { moveto } bind def
/l  { rlineto } bind def
/np  { newpath } bind def
/cp  { closepath } bind def
/f   { fill } bind def
/o   { stroke } bind def
/c   { newpath 0 360 arc } bind def
/r   { 4 2 roll moveto 1 copy 3 -1 roll exch 0 exch rlineto 0 rlineto -1 mul 0 exch rlineto closepath } bind def
/p1  { stroke } bind def
/p2  { gsave bg fill grestore newpath } bind def
/p3  { gsave bg fill grestore stroke } bind def
/p6  { gsave bg eofill grestore newpath } bind def
/p7  { gsave bg eofill grestore stroke } bind def
/t   { 5 -2 roll moveto gsave rotate
       1 index stringwidth pop
       mul neg 0 rmoveto show grestore } bind def
/ta  { 4 -2 roll moveto gsave rotate show } bind def
/tb  { 2 -1 roll 0 rmoveto show } bind def
/cl  { grestore gsave newpath 3 index 3 index moveto 1 index
       4 -1 roll lineto  exch 1 index lineto lineto
       closepath clip newpath } bind def
/rgb { setrgbcolor } bind def
/s   { scalefont setfont } bind def
% end   .ps.prolog
/sRGB { [ /CIEBasedABC
          << /DecodeLMN
               [ { dup 0.03928 le
                        {12.92321 div}
                        {0.055 add 1.055 div 2.4 exp }
                     ifelse
                 } bind dup dup
               ]
             /MatrixLMN [0.412457 0.212673 0.019334
                         0.357576 0.715152 0.119192
                         0.180437 0.072175 0.950301]
             /WhitePoint [0.9505 1.0 1.0890]
           >>
         ] setcolorspace } bind def
/srgb { setcolor } bind def
% begin encoding
/WinAnsiEncoding [
 /.notdef /.notdef /.notdef /.notdef /.notdef /.notdef /.notdef /.notdef
 /.notdef /.notdef /.notdef /.notdef /.notdef /.notdef /.notdef /.notdef
 /.notdef /.notdef /.notdef /.notdef /.notdef /.notdef /.notdef /.notdef
 /.notdef /.notdef /.notdef /.notdef /.notdef /.notdef /.notdef /.notdef
 /space /exclam /quotedbl /numbersign /dollar /percent /ampersand /quoteright
 /parenleft /parenright /asterisk /plus /comma /minus /period /slash
 /zero /one /two /three /four /five /six /seven
 /eight /nine /colon /semicolon /less /equal /greater /question
 /at /A /B /C /D /E /F /G
 /H /I /J /K /L /M /N /O
 /P /Q /R /S /T /U /V /W
 /X /Y /Z /bracketleft /backslash /bracketright /asciicircum /underscore
 /grave /a /b /c /d /e /f /g
 /h /i /j /k /l /m /n /o
 /p /q /r /s /t /u /v /w
 /x /y /z /braceleft /bar /braceright /asciitilde /.notdef
 /Euro /.notdef /quotesinglbase /florin /quotedblbase /ellipsis /dagger /daggerdbl
 /circumflex /perthousand /Scaron /guilsinglleft /OE /.notdef /Zcaron /.notdef
 /.notdef /quoteleft /quoteright /quotedblleft /quotedblright /bullet /endash /emdash
 /tilde /trademark /scaron /guilsinglright /oe /.notdef /zcaron /Ydieresis
 /space /exclamdown /cent /sterling /currency /yen /brokenbar /section
 /dieresis /copyright /ordfeminine /guillemotleft /logicalnot /hyphen /registered /macron
 /degree /plusminus /twosuperior /threesuperior /acute /mu /paragraph /periodcentered
 /cedilla /onesuperior /ordmasculine /guillemotright /onequarter /onehalf /threequarters /questiondown
 /Agrave /Aacute /Acircumflex /Atilde /Adieresis /Aring /AE /Ccedilla
 /Egrave /Eacute /Ecircumflex /Edieresis /Igrave /Iacute /Icircumflex /Idieresis
 /Eth /Ntilde /Ograve /Oacute /Ocircumflex /Otilde /Odieresis /multiply
 /Oslash /Ugrave /Uacute /Ucircumflex /Udieresis /Yacute /Thorn /germandbls
 /agrave /aacute /acircumflex /atilde /adieresis /aring /ae /ccedilla
 /egrave /eacute /ecircumflex /edieresis /igrave /iacute /icircumflex /idieresis
 /eth /ntilde /ograve /oacute /ocircumflex /otilde /odieresis /divide
 /oslash /ugrave /uacute /ucircumflex /udieresis /yacute /thorn /ydieresis
]
 def
% end encoding
%%IncludeResource: font Helvetica
/Helvetica findfont
dup length dict begin
  {1 index /FID ne {def} {pop pop} ifelse} forall
  /Encoding WinAnsiEncoding def
  currentdict
  end
/Font1 exch definefont pop
%%IncludeResource: font Helvetica-Bold
/Helvetica-Bold findfont
dup length dict begin
  {1 index /FID ne {def} {pop pop} ifelse} forall
  /Encoding WinAnsiEncoding def
  currentdict
  end
/Font2 exch definefont pop
%%IncludeResource: font Helvetica-Oblique
/Helvetica-Oblique findfont
dup length dict begin
  {1 index /FID ne {def} {pop pop} ifelse} forall
  /Encoding WinAnsiEncoding def
  currentdict
  end
/Font3 exch definefont pop
%%IncludeResource: font Helvetica-BoldOblique
/Helvetica-BoldOblique findfont
dup length dict begin
  {1 index /FID ne {def} {pop pop} ifelse} forall
  /Encoding WinAnsiEncoding def
  currentdict
  end
/Font4 exch definefont pop
%%IncludeResource: font Symbol
/Symbol findfont
dup length dict begin
  {1 index /FID ne {def} {pop pop} ifelse} forall
  currentdict
  end
/Font5 exch definefont pop
%%EndProlog
%%Page: 1 1
bp
/bg { 1 1 1 srgb } def
0.00 0.00 600.00 600.00 r p2
59.04 73.44 569.76 540.96 cl
59.04 73.44 569.76 540.96 cl
0 0 1 srgb
0.75 setlinewidth
[] 0 setdash
1 setlinecap
1 setlinejoin
10.00 setmiterlimit
np
77.96 90.78 m
0.47 0.70 l
0.47 1.76 l
0.48 1.89 l
0.47 1.08 l
0.47 0.12 l
0.48 0.22 l
0.47 0.91 l
0.47 0.69 l
0.48 0.07 l
0.47 0.16 l
0.47 0.51 l
0.48 0.26 l
0.47 0 l
0.47 0.30 l
0.48 0.47 l
0.47 0.17 l
0.47 0 l
0.48 0.04 l
0.47 0 l
0.47 0.07 l
0.48 0.19 l
0.47 0.03 l
0.47 0.15 l
0.48 0.78 l
0.47 0.78 l
0.47 0.13 l
0.48 0.17 l
0.47 0.89 l
0.47 0.85 l
0.48 0.17 l
0.47 0.05 l
0.47 0.35 l
0.48 0.27 l
0.47 0.01 l
0.47 0.10 l
0.48 0.27 l
0.47 0.24 l
0.47 0.12 l
0.48 0.12 l
0.47 0.21 l
0.47 0.38 l
0.48 0.37 l
0.47 0.17 l
0.47 0.01 l
0.48 0.02 l
0.47 0.05 l
0.47 0.01 l
0.48 0.01 l
0.47 0.06 l
0.47 0.06 l
0.48 0.02 l
0.47 0 l
0.47 0.01 l
0.48 0.01 l
0.47 0.01 l
0.47 0 l
0.48 0 l
0.47 0.01 l
0.47 0.03 l
0.48 0.03 l
0.47 0.01 l
0.47 0 l
0.48 0.02 l
0.47 0.09 l
0.47 0.19 l
0.48 0.19 l
0.47 0.04 l
0.47 0.04 l
0.48 0.27 l
0.47 0.39 l
0.47 0.19 l
0.48 0.01 l
0.47 0.04 l
0.47 0.07 l
0.48 0.01 l
0.47 0.02 l
0.47 0.11 l
0.48 0.13 l
0.47 0.09 l
0.47 0.08 l
0.48 0.12 l
0.47 0.24 l
0.47 0.28 l
0.48 0.18 l
0.47 0.02 l
0.47 0.01 l
0.48 0.04 l
0.47 0.01 l
0.47 0.05 l
0.48 0.24 l
0.47 0.36 l
0.47 0.22 l
0.48 0.03 l
0.47 0.02 l
0.47 0.06 l
0.48 0.03 l
0.47 0.01 l
0.48 0.12 l
0.47 0.29 l
125.29 111.94 lineto
0.48 0.14 l
0.47 0.06 l
0.47 0.03 l
0.48 0.07 l
0.47 0.20 l
0.47 0.26 l
0.48 0.18 l
0.47 0.02 l
0.47 0.01 l
0.48 0.04 l
0.47 0 l
0.47 0.03 l
0.48 0.08 l
0.47 0.04 l
0.47 0.01 l
0.48 0.11 l
0.47 0.11 l
0.47 0.01 l
0.48 0.06 l
0.47 0.18 l
0.47 0.06 l
0.48 0.01 l
0.47 0.18 l
0.47 0.17 l
0.48 0.01 l
0.47 0.09 l
0.47 0.24 l
0.48 0.09 l
0.47 0.02 l
0.47 0.28 l
0.48 0.40 l
0.47 0.17 l
0.47 0 l
0.48 0.02 l
0.47 0 l
0.47 0.02 l
0.48 0.07 l
0.47 0.03 l
0.47 0 l
0.48 0.03 l
0.47 0 l
0.47 0.06 l
0.48 0.32 l
0.47 0.47 l
0.47 0.26 l
0.48 0.02 l
0.47 0.02 l
0.47 0.03 l
0.48 0 l
0.47 0.13 l
0.47 0.29 l
0.48 0.22 l
0.47 0.07 l
0.47 0 l
0.48 0 l
0.47 0 l
0.47 0.02 l
0.48 0.04 l
0.47 0.02 l
0.47 0 l
0.48 0.02 l
0.47 0.01 l
0.47 0 l
0.48 0.06 l
0.47 0.11 l
0.47 0.06 l
0.48 0.01 l
0.47 0 l
0.47 0 l
0.48 0.02 l
0.47 0.08 l
0.47 0.11 l
0.48 0.04 l
0.47 0.01 l
0.47 0.13 l
0.48 0.18 l
0.47 0.05 l
0.47 0.01 l
0.48 0.09 l
0.47 0.10 l
0.47 0.02 l
0.48 0.01 l
0.47 0.06 l
0.47 0.04 l
0.48 0.01 l
0.47 0 l
0.47 0 l
0.48 0.01 l
0.47 0.05 l
0.47 0.05 l
0.48 0 l
0.47 0.01 l
0.47 0.03 l
0.48 0 l
0.47 0.04 l
0.47 0.11 l
0.48 0.12 l
0.47 0.03 l
0.47 0 l
172.63 119.15 lineto
0.47 0.02 l
0.47 0 l
0.48 0 l
0.47 0.01 l
0.47 0 l
0.48 0 l
0.47 0.01 l
0.47 0 l
0.48 0.03 l
0.47 0.03 l
0.47 0.01 l
0.48 0 l
0.47 0.07 l
0.48 0.13 l
0.47 0.09 l
0.47 0.01 l
0.48 0.02 l
0.47 0.07 l
0.47 0.02 l
0.48 0 l
0.47 0.05 l
0.47 0.02 l
0.48 0 l
0.47 0.08 l
0.47 0.08 l
0.48 0 l
0.47 0.03 l
0.47 0.04 l
0.48 0 l
0.47 0.21 l
0.47 0.44 l
0.48 0.25 l
0.47 0 l
0.47 0.17 l
0.48 0.30 l
0.47 0.09 l
0.47 0.02 l
0.48 0.25 l
0.47 0.20 l
0.47 0.01 l
0.48 0.14 l
0.47 0.34 l
0.47 0.18 l
0.48 0 l
0.47 0.10 l
0.47 0.18 l
0.48 0.07 l
0.47 0 l
0.47 0.04 l
0.48 0.05 l
0.47 0.01 l
0.47 0 l
0.48 0.01 l
0.47 0 l
0.47 0.03 l
0.48 0.08 l
0.47 0.05 l
0.47 0 l
0.48 0.07 l
0.47 0.16 l
0.47 0.10 l
0.48 0 l
0.47 0.18 l
0.47 0.44 l
0.48 0.31 l
0.47 0.03 l
0.47 0.08 l
0.48 0.20 l
0.47 0.04 l
0.47 0.12 l
0.48 0.69 l
0.47 0.82 l
0.47 0.26 l
0.48 0.01 l
0.47 0.22 l
0.47 0.15 l
0.48 0.01 l
0.47 0.35 l
0.47 0.51 l
0.48 0.14 l
0.47 0.03 l
0.47 0.27 l
0.48 0.19 l
0.47 0 l
0.47 0.12 l
0.48 0.12 l
0.47 0 l
0.47 0.16 l
0.48 0.18 l
0.47 0 l
0.47 0.45 l
0.48 1.16 l
0.47 0.88 l
0.47 0.11 l
0.48 0.11 l
0.47 0.45 l
0.47 0.24 l
0.48 0 l
0.47 0.17 l
219.96 132.97 lineto
0.48 0.07 l
0.47 0.01 l
0.47 0.07 l
0.48 0.07 l
0.47 0.01 l
0.47 0 l
0.48 0 l
0.47 0.02 l
0.47 0.03 l
0.48 0.02 l
0.47 0 l
0.47 0 l
0.48 0 l
0.47 0.03 l
0.47 0.05 l
0.48 0.02 l
0.47 0.01 l
0.47 0 l
0.48 0.01 l
0.47 0 l
0.47 0.01 l
0.48 0.02 l
0.47 0.03 l
0.47 0.03 l
0.48 0.05 l
0.47 0.06 l
0.47 0.03 l
0.48 0 l
0.47 0.06 l
0.48 0.10 l
0.47 0.02 l
0.47 0.06 l
0.48 0.41 l
0.47 0.69 l
0.47 0.49 l
0.48 0.12 l
0.47 0 l
0.47 0.04 l
0.48 0.01 l
0.47 0.01 l
0.47 0.08 l
0.48 0.10 l
0.47 0.05 l
0.47 0 l
0.48 0 l
0.47 0.01 l
0.47 0.02 l
0.48 0.01 l
0.47 0.01 l
0.47 0 l
0.48 0.01 l
0.47 0.06 l
0.47 0.10 l
0.48 0.10 l
0.47 0.05 l
0.47 0 l
0.48 0.01 l
0.47 0.06 l
0.47 0.05 l
0.48 0.01 l
0.47 0.01 l
0.47 0.13 l
0.48 0.25 l
0.47 0.18 l
0.47 0.02 l
0.48 0.05 l
0.47 0.23 l
0.47 0.24 l
0.48 0.07 l
0.47 0 l
0.47 0.06 l
0.48 0.04 l
0.47 0 l
0.47 0.03 l
0.48 0.04 l
0.47 0.01 l
0.47 0 l
0.48 0 l
0.47 0.02 l
0.47 0.09 l
0.48 0.08 l
0.47 0.02 l
0.47 0.01 l
0.48 0.03 l
0.47 0 l
0.47 0.05 l
0.48 0.12 l
0.47 0.01 l
0.47 0.08 l
0.48 0.36 l
0.47 0.31 l
0.47 0.01 l
0.48 0.23 l
0.47 0.72 l
0.47 0.59 l
0.48 0.12 l
0.47 0.01 l
0.47 0.10 l
0.48 0.04 l
267.30 140.72 lineto
0.47 0.01 l
0.48 0 l
0.47 0.04 l
0.47 0.04 l
0.48 0.01 l
0.47 0.17 l
0.47 0.34 l
0.48 0.17 l
0.47 0 l
0.47 0.28 l
0.48 0.43 l
0.47 0.14 l
0.47 0.02 l
0.48 0.32 l
0.47 0.38 l
0.47 0.10 l
0.48 0.01 l
0.47 0.15 l
0.47 0.15 l
0.48 0.03 l
0.47 0.01 l
0.47 0.06 l
0.48 0.04 l
0.47 0 l
0.47 0.02 l
0.48 0.05 l
0.47 0.03 l
0.47 0 l
0.48 0 l
0.47 0.01 l
0.47 0.01 l
0.48 0 l
0.47 0 l
0.47 0 l
0.48 0.04 l
0.47 0.07 l
0.47 0.04 l
0.48 0.01 l
0.47 0.15 l
0.47 0.34 l
0.48 0.24 l
0.47 0.01 l
0.47 0.13 l
0.48 0.38 l
0.47 0.25 l
0.48 0 l
0.47 0.09 l
0.47 0.12 l
0.48 0.01 l
0.47 0.14 l
0.47 0.37 l
0.48 0.20 l
0.47 0 l
0.47 0.28 l
0.48 0.47 l
0.47 0.20 l
0.47 0 l
0.48 0.11 l
0.47 0.13 l
0.47 0.03 l
0.48 0 l
0.47 0 l
0.47 0.02 l
0.48 0.10 l
0.47 0.11 l
0.47 0.01 l
0.48 0.03 l
0.47 0.09 l
0.47 0.02 l
0.48 0.06 l
0.47 0.34 l
0.47 0.47 l
0.48 0.24 l
0.47 0.01 l
0.47 0.06 l
0.48 0.21 l
0.47 0.25 l
0.47 0.17 l
0.48 0.05 l
0.47 0 l
0.47 0.05 l
0.48 0.15 l
0.47 0.15 l
0.47 0.06 l
0.48 0 l
0.47 0.01 l
0.47 0 l
0.48 0.01 l
0.47 0.05 l
0.47 0.02 l
0.48 0 l
0.47 0.09 l
0.47 0.11 l
0.48 0.02 l
0.47 0.03 l
0.47 0.14 l
0.48 0.10 l
0.47 0.01 l
0.47 0.02 l
314.64 150.84 lineto
0.47 0 l
0.47 0.11 l
0.48 0.14 l
0.47 0.01 l
0.47 0.12 l
0.48 0.44 l
0.47 0.39 l
0.47 0.06 l
0.48 0.04 l
0.47 0.19 l
0.47 0.09 l
0.48 0.01 l
0.47 0.24 l
0.47 0.38 l
0.48 0.16 l
0.47 0 l
0.47 0.08 l
0.48 0.11 l
0.47 0.02 l
0.47 0.01 l
0.48 0.01 l
0.47 0.01 l
0.47 0.03 l
0.48 0.09 l
0.47 0.07 l
0.47 0 l
0.48 0.08 l
0.47 0.24 l
0.47 0.22 l
0.48 0.07 l
0.47 0.01 l
0.47 0 l
0.48 0.05 l
0.47 0.20 l
0.47 0.28 l
0.48 0.12 l
0.47 0.01 l
0.47 0.24 l
0.48 0.41 l
0.47 0.17 l
0.47 0 l
0.48 0.31 l
0.47 0.48 l
0.47 0.22 l
0.48 0 l
0.47 0.06 l
0.47 0.09 l
0.48 0.01 l
0.47 0 l
0.47 0.01 l
0.48 0.01 l
0.47 0.08 l
0.47 0.07 l
0.48 0 l
0.47 0.15 l
0.47 0.32 l
0.48 0.16 l
0.47 0 l
0.47 0.12 l
0.48 0.14 l
0.47 0.01 l
0.48 0.08 l
0.47 0.22 l
0.47 0.13 l
0.48 0 l
0.47 0.06 l
0.47 0.06 l
0.48 0.01 l
0.47 0.05 l
0.47 0.12 l
0.48 0.03 l
0.47 0.01 l
0.47 0.10 l
0.48 0.16 l
0.47 0.11 l
0.47 0.07 l
0.48 0.05 l
0.47 0.06 l
0.47 0.05 l
0.48 0.01 l
0.47 0.03 l
0.47 0.18 l
0.48 0.24 l
0.47 0.14 l
0.47 0.02 l
0.48 0.02 l
0.47 0.09 l
0.47 0.12 l
0.48 0.06 l
0.47 0.01 l
0.47 0.01 l
0.48 0.05 l
0.47 0.05 l
0.47 0.02 l
0.48 0 l
0.47 0.05 l
0.47 0.06 l
0.48 0.02 l
0.47 0 l
361.97 160.55 lineto
0.48 0 l
0.47 0.07 l
0.47 0.18 l
0.48 0.16 l
0.47 0.03 l
0.47 0.01 l
0.48 0.08 l
0.47 0.06 l
0.47 0 l
0.48 0.01 l
0.47 0 l
0.47 0.01 l
0.48 0.04 l
0.47 0 l
0.47 0.06 l
0.48 0.23 l
0.47 0.18 l
0.47 0.01 l
0.48 0.16 l
0.47 0.46 l
0.47 0.36 l
0.48 0.03 l
0.47 0.08 l
0.47 0.30 l
0.48 0.29 l
0.47 0.12 l
0.47 0.01 l
0.48 0 l
0.47 0 l
0.47 0 l
0.48 0 l
0.47 0.01 l
0.47 0.01 l
0.48 0 l
0.47 0 l
0.47 0 l
0.48 0 l
0.47 0.01 l
0.47 0 l
0.48 0.01 l
0.47 0.03 l
0.47 0.04 l
0.48 0.01 l
0.47 0.01 l
0.47 0.03 l
0.48 0.01 l
0.47 0 l
0.47 0 l
0.48 0.02 l
0.47 0.11 l
0.47 0.14 l
0.48 0.01 l
0.47 0.17 l
0.47 0.69 l
0.48 0.72 l
0.47 0.16 l
0.47 0.06 l
0.48 0.47 l
0.47 0.36 l
0.47 0.02 l
0.48 0.18 l
0.47 0.35 l
0.47 0.09 l
0.48 0.04 l
0.47 0.27 l
0.47 0.16 l
0.48 0 l
0.47 0.17 l
0.47 0.20 l
0.48 0.01 l
0.47 0.12 l
0.47 0.28 l
0.48 0.11 l
0.47 0.01 l
0.47 0.16 l
0.48 0.16 l
0.47 0.02 l
0.48 0.03 l
0.47 0.05 l
0.47 0 l
0.48 0.18 l
0.47 0.38 l
0.47 0.20 l
0.48 0 l
0.47 0.31 l
0.47 0.71 l
0.48 0.58 l
0.47 0.13 l
0.47 0.02 l
0.48 0.27 l
0.47 0.45 l
0.47 0.32 l
0.48 0.08 l
0.47 0 l
0.47 0.04 l
0.48 0.07 l
0.47 0.04 l
0.47 0.02 l
0.48 0.02 l
409.31 172.87 lineto
0.47 0.06 l
0.48 0.02 l
0.47 0 l
0.47 0.07 l
0.48 0.09 l
0.47 0.02 l
0.47 0.03 l
0.48 0.15 l
0.47 0.15 l
0.47 0.01 l
0.48 0.06 l
0.47 0.15 l
0.47 0.05 l
0.48 0.01 l
0.47 0.14 l
0.47 0.12 l
0.48 0 l
0.47 0.11 l
0.47 0.21 l
0.48 0.06 l
0.47 0.04 l
0.47 0.29 l
0.48 0.39 l
0.47 0.20 l
0.47 0.03 l
0.48 0 l
0.47 0 l
0.47 0 l
0.48 0.02 l
0.47 0.10 l
0.47 0.20 l
0.48 0.13 l
0.47 0.01 l
0.47 0.08 l
0.48 0.26 l
0.47 0.19 l
0.47 0.05 l
0.48 0 l
0.47 0 l
0.47 0 l
0.48 0.04 l
0.47 0.05 l
0.47 0.01 l
0.48 0 l
0.47 0.02 l
0.47 0.01 l
0.48 0.01 l
0.47 0.01 l
0.47 0.04 l
0.48 0.06 l
0.47 0.02 l
0.47 0.02 l
0.48 0.15 l
0.47 0.21 l
0.47 0.07 l
0.48 0 l
0.47 0.13 l
0.47 0.14 l
0.48 0.04 l
0.47 0 l
0.47 0.06 l
0.48 0.07 l
0.47 0.06 l
0.47 0.04 l
0.48 0.05 l
0.47 0.03 l
0.47 0 l
0.48 0.18 l
0.47 0.46 l
0.47 0.42 l
0.48 0.11 l
0.47 0.01 l
0.47 0.15 l
0.48 0.15 l
0.47 0.02 l
0.47 0 l
0.48 0.01 l
0.47 0.01 l
0.47 0.06 l
0.48 0.05 l
0.47 0 l
0.47 0.15 l
0.48 0.29 l
0.47 0.16 l
0.47 0.02 l
0.48 0.01 l
0.47 0.01 l
0.47 0 l
0.48 0.01 l
0.47 0 l
0.47 0.08 l
0.48 0.21 l
0.47 0.14 l
0.47 0 l
0.48 0.17 l
0.47 0.42 l
0.48 0.32 l
0.47 0.07 l
0.47 0.01 l
456.65 181.52 lineto
0.47 0.14 l
0.47 0.08 l
0.48 0.01 l
0.47 0.01 l
0.47 0.10 l
0.48 0.27 l
0.47 0.33 l
0.47 0.16 l
0.48 0.01 l
0.47 0.08 l
0.47 0.19 l
0.48 0.10 l
0.47 0.01 l
0.47 0 l
0.48 0 l
0.47 0.06 l
0.47 0.14 l
0.48 0.04 l
0.47 0.03 l
0.47 0.25 l
0.48 0.23 l
0.47 0.02 l
0.47 0.09 l
0.48 0.15 l
0.47 0.01 l
0.47 0.21 l
0.48 0.50 l
0.47 0.17 l
0.47 0.09 l
0.48 0.80 l
0.47 0.84 l
0.47 0.08 l
0.48 0.34 l
0.47 1.21 l
0.47 0.82 l
0.48 0.03 l
0.47 0.31 l
0.47 0.67 l
0.48 0.27 l
0.47 0 l
0.47 0.12 l
0.48 0.04 l
0.47 0.04 l
0.47 0.24 l
0.48 0.15 l
0.47 0 l
0.47 0.24 l
0.48 0.32 l
0.47 0.06 l
0.47 0.05 l
0.48 0.24 l
0.47 0.16 l
0.47 0 l
0.48 0.10 l
0.47 0.17 l
0.47 0.05 l
0.48 0.01 l
0.47 0.06 l
0.47 0.06 l
0.48 0 l
0.47 0.04 l
0.47 0.13 l
0.48 0.18 l
0.47 0.10 l
0.47 0 l
0.48 0.11 l
0.47 0.45 l
0.47 0.61 l
0.48 0.32 l
0.47 0.01 l
0.47 0.15 l
0.48 0.40 l
0.47 0.27 l
0.47 0.03 l
0.48 0.02 l
0.47 0.06 l
0.47 0.01 l
0.48 0.01 l
0.47 0 l
0.47 0.02 l
0.48 0.13 l
0.47 0.11 l
0.47 0 l
0.48 0.23 l
0.47 0.55 l
0.47 0.34 l
0.48 0.01 l
0.47 0.17 l
0.47 0.35 l
0.48 0.12 l
0.47 0.01 l
0.47 0.14 l
0.48 0.08 l
0.47 0.01 l
0.47 0.28 l
0.48 0.44 l
0.47 0.20 l
0.47 0 l
0.48 0.13 l
503.98 198.94 lineto
0.47 0.16 l
0.48 0.03 l
0.47 0 l
0.47 0.06 l
0.48 0.10 l
0.47 0.12 l
0.47 0.06 l
0.48 0 l
0.47 0.03 l
0.47 0.13 l
0.48 0.17 l
0.47 0.10 l
0.48 0.03 l
0.47 0 l
0.47 0 l
0.48 0.04 l
0.47 0.11 l
0.47 0.25 l
0.48 0.29 l
0.47 0.12 l
0.47 0 l
0.48 0.14 l
0.47 0.23 l
0.47 0.06 l
0.48 0.03 l
0.47 0.22 l
0.47 0.18 l
0.48 0.01 l
0.47 0.10 l
0.47 0.21 l
0.48 0.05 l
0.47 0.04 l
0.47 0.30 l
0.48 0.28 l
0.47 0.02 l
0.47 0.08 l
0.48 0.28 l
0.47 0.24 l
0.47 0.08 l
0.48 0 l
0.47 0 l
0.47 0 l
0.48 0.01 l
0.47 0.07 l
0.47 0.18 l
0.48 0.21 l
0.47 0.09 l
0.47 0 l
0.48 0.12 l
0.47 0.20 l
0.47 0.09 l
0.48 0 l
0.47 0.06 l
0.47 0.12 l
0.48 0.08 l
0.47 0.02 l
0.47 0 l
0.48 0.02 l
0.47 0.06 l
0.47 0.09 l
0.48 0.09 l
0.47 0.02 l
0.47 0 l
0.48 0.02 l
0.47 0 l
0.47 0.01 l
0.48 0.07 l
0.47 0.09 l
0.47 0.04 l
0.48 0 l
0.47 0.10 l
0.47 0.16 l
0.48 0.12 l
0.47 0.04 l
0.47 0 l
0.48 0.03 l
0.47 0.10 l
0.47 0.17 l
0.48 0.17 l
0.47 0.07 l
0.47 0 l
0.48 0.13 l
0.47 0.26 l
0.47 0.15 l
0.48 0.01 l
0.47 0.05 l
0.47 0.14 l
0.48 0.10 l
0.47 0.03 l
0.47 0.01 l
0.48 0.04 l
0.47 0.09 l
0.47 0.06 l
0.48 0 l
0.47 0.10 l
0.47 0.20 l
0.48 0.07 l
0.47 0.01 l
0.47 0.11 l
o
0.00 0.00 600.00 600.00 cl
0 0 0 srgb
0.75 setlinewidth
[] 0 setdash
1 setlinecap
1 setlinejoin
10.00 setmiterlimit
np
77.48 73.44 m
473.36 0 l
o
np
77.48 73.44 m
0 -7.20 l
o
np
172.15 73.44 m
0 -7.20 l
o
np
266.83 73.44 m
0 -7.20 l
o
np
361.50 73.44 m
0 -7.20 l
o
np
456.17 73.44 m
0 -7.20 l
o
np
550.84 73.44 m
0 -7.20 l
o
/Font1 findfont 16 s
77.48 47.52 (0) .5 0 t
172.15 47.52 (200) .5 0 t
266.83 47.52 (400) .5 0 t
361.50 47.52 (600) .5 0 t
456.17 47.52 (800) .5 0 t
550.84 47.52 (1000) .5 0 t
np
59.04 90.76 m
0 381.96 l
o
np
59.04 90.76 m
-7.20 0 l
o
np
59.04 218.08 m
-7.20 0 l
o
np
59.04 345.40 m
-7.20 0 l
o
np
59.04 472.72 m
-7.20 0 l
o
41.76 90.76 (0.0) .5 90 t
41.76 218.08 (0.5) .5 90 t
41.76 345.40 (1.0) .5 90 t
41.76 472.72 (1.5) .5 90 t
np
59.04 73.44 m
510.72 0 l
0 467.52 l
-510.72 0 l
0 -467.52 l
o
0.00 0.00 600.00 600.00 cl
/Font1 findfont 16 s
0 0 0 srgb
314.40 18.72 (t) .5 0 t
12.96 307.20 (L^2) .5 90 t
59.04 73.44 569.76 540.96 cl
1 0 0 srgb
0.75 setlinewidth
[] 0 setdash
1 setlinecap
1 setlinejoin
10.00 setmiterlimit
np
77.96 90.76 m
0.47 0.09 l
0.47 0.22 l
0.48 0.23 l
0.47 0.13 l
0.47 0.01 l
0.48 0.03 l
0.47 0.11 l
0.47 0.08 l
0.48 0.01 l
0.47 0.02 l
0.47 0.06 l
0.48 0.05 l
0.47 0.01 l
0.47 0.01 l
0.48 0.07 l
0.47 0.06 l
0.47 0.02 l
0.48 0 l
0.47 0.04 l
0.47 0.04 l
0.48 0.02 l
0.47 0 l
0.47 0.01 l
0.48 0.02 l
0.47 0.04 l
0.47 0.01 l
0.48 0 l
0.47 0.06 l
0.47 0.07 l
0.48 0.02 l
0.47 0.01 l
0.47 0.05 l
0.48 0.02 l
0.47 0 l
0.47 0.01 l
0.48 0 l
0.47 0.12 l
0.47 0.21 l
0.48 0.04 l
0.47 0.15 l
0.47 0.81 l
0.48 0.94 l
0.47 0.49 l
0.47 0.08 l
0.48 0 l
0.47 0 l
0.47 0.05 l
0.48 0.23 l
0.47 0.25 l
0.47 0.05 l
0.48 0.02 l
0.47 0.10 l
0.47 0.07 l
0.48 0.03 l
0.47 0.03 l
0.47 0.21 l
0.48 0.59 l
0.47 0.60 l
0.47 0.13 l
0.48 0.15 l
0.47 1.11 l
0.47 1.59 l
0.48 1.03 l
0.47 0.29 l
0.47 0.02 l
0.48 0.01 l
0.47 0 l
0.47 0.03 l
0.48 0.15 l
0.47 0.29 l
0.47 0.33 l
0.48 0.27 l
0.47 0.09 l
0.47 0.01 l
0.48 0.28 l
0.47 0.68 l
0.47 0.65 l
0.48 0.25 l
0.47 0.01 l
0.47 0.03 l
0.48 0.02 l
0.47 0 l
0.47 0 l
0.48 0.03 l
0.47 0.29 l
0.47 0.53 l
0.48 0.29 l
0.47 0 l
0.47 0.20 l
0.48 0.30 l
0.47 0.06 l
0.47 0.05 l
0.48 0.17 l
0.47 0.03 l
0.47 0.10 l
0.48 0.29 l
0.47 0.04 l
0.48 0.31 l
0.47 1.34 l
125.29 110.11 lineto
0.48 0.13 l
0.47 0.43 l
0.47 1.70 l
0.48 1.49 l
0.47 0.36 l
0.47 0.02 l
0.48 0.31 l
0.47 0.26 l
0.47 0.05 l
0.48 0 l
0.47 0.03 l
0.47 0.03 l
0.48 0.06 l
0.47 0.20 l
0.47 0.34 l
0.48 0.23 l
0.47 0 l
0.47 0.21 l
0.48 0.60 l
0.47 0.57 l
0.47 0.22 l
0.48 0.04 l
0.47 0.02 l
0.47 0.06 l
0.48 0.13 l
0.47 0.10 l
0.47 0.02 l
0.48 0 l
0.47 0.01 l
0.47 0 l
0.48 0 l
0.47 0.01 l
0.47 0.18 l
0.48 0.40 l
0.47 0.27 l
0.47 0 l
0.48 0.33 l
0.47 0.79 l
0.47 0.51 l
0.48 0.02 l
0.47 0.16 l
0.47 0.43 l
0.48 0.20 l
0.47 0.01 l
0.47 0.45 l
0.48 1.21 l
0.47 1.54 l
0.47 1.17 l
0.48 0.46 l
0.47 0.03 l
0.47 0.10 l
0.48 0.35 l
0.47 0.29 l
0.47 0.10 l
0.48 0.03 l
0.47 0.08 l
0.47 0.30 l
0.48 0.46 l
0.47 0.14 l
0.47 0.12 l
0.48 1.12 l
0.47 1.45 l
0.47 0.39 l
0.48 0.09 l
0.47 0.75 l
0.47 0.33 l
0.48 0.15 l
0.47 1.46 l
0.47 1.12 l
0.48 0.03 l
0.47 3.16 l
0.47 6.35 l
0.48 3.73 l
0.47 0.23 l
0.47 0.78 l
0.48 1.48 l
0.47 0.13 l
0.47 0.95 l
0.48 2.85 l
0.47 1.52 l
0.47 0 l
0.48 1.12 l
0.47 1.39 l
0.47 0.15 l
0.48 0.39 l
0.47 0.97 l
0.47 0.22 l
0.48 0.18 l
0.47 0.66 l
0.47 0.07 l
0.48 0.94 l
0.47 4.10 l
0.47 4.92 l
0.48 2.50 l
0.47 0.44 l
0.47 0.01 l
0.48 0 l
0.47 0.16 l
0.47 0.36 l
172.63 174.72 lineto
0.47 0 l
0.47 0.12 l
0.48 0.23 l
0.47 0.16 l
0.47 0.07 l
0.48 0.02 l
0.47 0.05 l
0.47 0.72 l
0.48 2.59 l
0.47 3.99 l
0.47 2.60 l
0.48 0.22 l
0.47 0.78 l
0.48 2.78 l
0.47 2.06 l
0.47 0.22 l
0.48 0.27 l
0.47 0.69 l
0.47 0.16 l
0.48 0.06 l
0.47 0.19 l
0.47 0 l
0.48 0.61 l
0.47 0.91 l
0.47 0.07 l
0.48 0.76 l
0.47 2.29 l
0.47 0.95 l
0.48 0.32 l
0.47 4.53 l
0.47 6.77 l
0.48 2.73 l
0.47 0.03 l
0.47 3.12 l
0.48 5.45 l
0.47 3.28 l
0.47 0.75 l
0.48 0.08 l
0.47 0.18 l
0.47 1.10 l
0.48 2.43 l
0.47 2.16 l
0.47 0.61 l
0.48 0.02 l
0.47 0.72 l
0.47 1.20 l
0.48 0.84 l
0.47 0.25 l
0.47 0.01 l
0.48 0.07 l
0.47 0.22 l
0.47 0.25 l
0.48 0.18 l
0.47 0.10 l
0.47 0.14 l
0.48 0.28 l
0.47 0.51 l
0.47 0.47 l
0.48 0.14 l
0.47 0 l
0.47 0 l
0.48 0.20 l
0.47 1.69 l
0.47 3.58 l
0.48 2.71 l
0.47 0.26 l
0.47 0.87 l
0.48 2.90 l
0.47 1.43 l
0.47 0.11 l
0.48 3.60 l
0.47 5.77 l
0.47 2.30 l
0.48 0.02 l
0.47 2.34 l
0.47 3.10 l
0.48 0.79 l
0.47 0.09 l
0.47 0.87 l
0.48 0.38 l
0.47 0.04 l
0.47 0.63 l
0.48 0.45 l
0.47 0.01 l
0.47 0.14 l
0.48 0.04 l
0.47 0.24 l
0.47 1.03 l
0.48 0.55 l
0.47 0.16 l
0.47 3.21 l
0.48 6.45 l
0.47 4.70 l
0.47 0.86 l
0.48 0.25 l
0.47 1.91 l
0.47 2.20 l
0.48 1.07 l
0.47 0.27 l
219.96 294.51 lineto
0.48 0.07 l
0.47 0.11 l
0.47 0.14 l
0.48 0.11 l
0.47 0.11 l
0.47 0.13 l
0.48 0.14 l
0.47 0.06 l
0.47 0 l
0.48 0.04 l
0.47 0.02 l
0.47 0.05 l
0.48 0.43 l
0.47 0.63 l
0.47 0.20 l
0.48 0.06 l
0.47 0.87 l
0.47 1.59 l
0.48 1.20 l
0.47 0.33 l
0.47 0 l
0.48 0.24 l
0.47 0.54 l
0.47 0.70 l
0.48 0.63 l
0.47 0.34 l
0.47 0.02 l
0.48 0.16 l
0.47 0.68 l
0.48 0.77 l
0.47 0.18 l
0.47 0.18 l
0.48 1.74 l
0.47 3.51 l
0.47 3.41 l
0.48 1.59 l
0.47 0.12 l
0.47 0.36 l
0.48 1.56 l
0.47 2.05 l
0.47 1.32 l
0.48 0.37 l
0.47 0.01 l
0.47 0.01 l
0.48 0.01 l
0.47 0.23 l
0.47 0.59 l
0.48 0.47 l
0.47 0.03 l
0.47 0.27 l
0.48 1.05 l
0.47 1.22 l
0.47 0.66 l
0.48 0.13 l
0.47 0 l
0.47 0.01 l
0.48 0.02 l
0.47 0.04 l
0.47 0.10 l
0.48 0.10 l
0.47 0 l
0.47 0.15 l
0.48 0.59 l
0.47 0.61 l
0.47 0.09 l
0.48 0.16 l
0.47 0.85 l
0.47 0.85 l
0.48 0.20 l
0.47 0.04 l
0.47 0.37 l
0.48 0.37 l
0.47 0.10 l
0.47 0 l
0.48 0.05 l
0.47 0.09 l
0.47 0.14 l
0.48 0.23 l
0.47 0.20 l
0.47 0.03 l
0.48 0.11 l
0.47 0.57 l
0.47 0.66 l
0.48 0.15 l
0.47 0.05 l
0.47 0.27 l
0.48 0.01 l
0.47 0.68 l
0.47 2.98 l
0.48 3.82 l
0.47 1.66 l
0.47 0.01 l
0.48 1.06 l
0.47 2.25 l
0.47 1.70 l
0.48 0.68 l
0.47 0.25 l
0.47 0.24 l
0.48 0.26 l
267.30 348.82 lineto
0.47 0.16 l
0.48 1.32 l
0.47 2.13 l
0.47 1.12 l
0.48 0.02 l
0.47 0.57 l
0.47 1.08 l
0.48 0.31 l
0.47 0.13 l
0.47 1.22 l
0.48 1.48 l
0.47 0.44 l
0.47 0.03 l
0.48 0.69 l
0.47 0.86 l
0.47 0.24 l
0.48 0.02 l
0.47 0.31 l
0.47 0.28 l
0.48 0 l
0.47 0.26 l
0.47 0.79 l
0.48 0.66 l
0.47 0.07 l
0.47 0.18 l
0.48 0.80 l
0.47 0.76 l
0.47 0.16 l
0.48 0.05 l
0.47 0.38 l
0.47 0.36 l
0.48 0.14 l
0.47 0.08 l
0.47 0.28 l
0.48 0.98 l
0.47 1.44 l
0.47 0.57 l
0.48 0.11 l
0.47 2.32 l
0.47 4.26 l
0.48 2.41 l
0.47 0.06 l
0.47 1.13 l
0.48 2.63 l
0.47 1.36 l
0.48 0.03 l
0.47 0.39 l
0.47 0.41 l
0.48 0 l
0.47 0.78 l
0.47 1.41 l
0.48 0.59 l
0.47 0 l
0.47 0.36 l
0.48 0.37 l
0.47 0.02 l
0.47 0.15 l
0.48 0.30 l
0.47 0.09 l
0.47 0 l
0.48 0.06 l
0.47 0.01 l
0.47 0.05 l
0.48 0.14 l
0.47 0.05 l
0.47 0.03 l
0.48 0.27 l
0.47 0.34 l
0.47 0.10 l
0.48 0.02 l
0.47 0.29 l
0.47 0.63 l
0.48 0.66 l
0.47 0.32 l
0.47 0 l
0.48 0.27 l
0.47 1.05 l
0.47 1.31 l
0.48 0.59 l
0.47 0 l
0.47 0.46 l
0.48 0.95 l
0.47 0.52 l
0.47 0.02 l
0.48 0.08 l
0.47 0.09 l
0.47 0.01 l
0.48 0.24 l
0.47 0.26 l
0.47 0.01 l
0.48 0.29 l
0.47 0.79 l
0.47 0.58 l
0.48 0.08 l
0.47 0.02 l
0.47 0.02 l
0.48 0.02 l
0.47 0.13 l
0.47 0.08 l
314.64 399.25 lineto
0.47 0.58 l
0.47 0.88 l
0.48 0.29 l
0.47 0.08 l
0.47 1.12 l
0.48 1.76 l
0.47 0.96 l
0.47 0.06 l
0.48 0.21 l
0.47 0.66 l
0.47 0.58 l
0.48 0.18 l
0.47 0 l
0.47 0.07 l
0.48 0.16 l
0.47 0.15 l
0.47 0.07 l
0.48 0 l
0.47 0.01 l
0.47 0.01 l
0.48 0.01 l
0.47 0 l
0.47 0.01 l
0.48 0.01 l
0.47 0.02 l
0.47 0 l
0.48 0.08 l
0.47 0.29 l
0.47 0.36 l
0.48 0.16 l
0.47 0.01 l
0.47 0.01 l
0.48 0.01 l
0.47 0.04 l
0.47 0.12 l
0.48 0.01 l
0.47 0.28 l
0.47 1.39 l
0.48 1.90 l
0.47 0.79 l
0.47 0 l
0.48 0.92 l
0.47 1.72 l
0.47 1.04 l
0.48 0.17 l
0.47 0.01 l
0.47 0.04 l
0.48 0.02 l
0.47 0.01 l
0.47 0.11 l
0.48 0.44 l
0.47 0.54 l
0.47 0.11 l
0.48 0.14 l
0.47 0.85 l
0.47 0.80 l
0.48 0.08 l
0.47 0.23 l
0.47 0.75 l
0.48 0.36 l
0.47 0 l
0.48 0.44 l
0.47 0.50 l
0.47 0.06 l
0.48 0.13 l
0.47 0.41 l
0.47 0.20 l
0.48 0 l
0.47 0.12 l
0.47 0.10 l
0.48 0 l
0.47 0.08 l
0.47 0.12 l
0.48 0.03 l
0.47 0 l
0.47 0.01 l
0.48 0.08 l
0.47 0.21 l
0.47 0.11 l
0.48 0.01 l
0.47 0.49 l
0.47 1.20 l
0.48 1.20 l
0.47 0.51 l
0.47 0.01 l
0.48 0.20 l
0.47 0.68 l
0.47 0.93 l
0.48 0.70 l
0.47 0.24 l
0.47 0.01 l
0.48 0.09 l
0.47 0.17 l
0.47 0.05 l
0.48 0.01 l
0.47 0.07 l
0.47 0.02 l
0.48 0.06 l
0.47 0.35 l
361.97 430.91 lineto
0.48 0.07 l
0.47 0.08 l
0.47 0.39 l
0.48 0.31 l
0.47 0.03 l
0.47 0.04 l
0.48 0.08 l
0.47 0 l
0.47 0.05 l
0.48 0.04 l
0.47 0.02 l
0.47 0.32 l
0.48 0.36 l
0.47 0.02 l
0.47 0.35 l
0.48 1.16 l
0.47 0.86 l
0.47 0.03 l
0.48 0.52 l
0.47 1.52 l
0.47 1.16 l
0.48 0.17 l
0.47 0.12 l
0.47 0.63 l
0.48 0.68 l
0.47 0.35 l
0.47 0.10 l
0.48 0.03 l
0.47 0 l
0.47 0 l
0.48 0.04 l
0.47 0.11 l
0.47 0.12 l
0.48 0.10 l
0.47 0.07 l
0.47 0.08 l
0.48 0.09 l
0.47 0.03 l
0.47 0 l
0.48 0.13 l
0.47 0.26 l
0.47 0.20 l
0.48 0.05 l
0.47 0.01 l
0.47 0.01 l
0.48 0.07 l
0.47 0.06 l
0.47 0.01 l
0.48 0.36 l
0.47 1.01 l
0.47 0.75 l
0.48 0.02 l
0.47 0.65 l
0.47 1.81 l
0.48 1.16 l
0.47 0.02 l
0.47 0.71 l
0.48 1.58 l
0.47 0.76 l
0.47 0 l
0.48 0.40 l
0.47 0.50 l
0.47 0.07 l
0.48 0.05 l
0.47 0.11 l
0.47 0 l
0.48 0.20 l
0.47 0.32 l
0.47 0.04 l
0.48 0.18 l
0.47 0.66 l
0.47 0.49 l
0.48 0.03 l
0.47 0.12 l
0.47 0.26 l
0.48 0.06 l
0.47 0.03 l
0.48 0.13 l
0.47 0.03 l
0.47 0.08 l
0.48 0.46 l
0.47 0.55 l
0.47 0.19 l
0.48 0.01 l
0.47 0.27 l
0.47 0.67 l
0.48 0.74 l
0.47 0.45 l
0.47 0.09 l
0.48 0.03 l
0.47 0.37 l
0.47 0.62 l
0.48 0.40 l
0.47 0.06 l
0.47 0.03 l
0.48 0.16 l
0.47 0.11 l
0.47 0.02 l
0.48 0 l
409.31 459.66 lineto
0.47 0.03 l
0.48 0.03 l
0.47 0 l
0.47 0.09 l
0.48 0.21 l
0.47 0.07 l
0.47 0.02 l
0.48 0.26 l
0.47 0.24 l
0.47 0.02 l
0.48 0.13 l
0.47 0.29 l
0.47 0.06 l
0.48 0.08 l
0.47 0.42 l
0.47 0.31 l
0.48 0 l
0.47 0.29 l
0.47 0.60 l
0.48 0.31 l
0.47 0.01 l
0.47 0.11 l
0.48 0.21 l
0.47 0.14 l
0.47 0.09 l
0.48 0.11 l
0.47 0.17 l
0.47 0.09 l
0.48 0.01 l
0.47 0.42 l
0.47 0.93 l
0.48 0.67 l
0.47 0.07 l
0.47 0.13 l
0.48 0.49 l
0.47 0.35 l
0.47 0.06 l
0.48 0 l
0.47 0.01 l
0.47 0.01 l
0.48 0.04 l
0.47 0.02 l
0.47 0.01 l
0.48 0.08 l
0.47 0.09 l
0.47 0.01 l
0.48 0.01 l
0.47 0.01 l
0.47 0 l
0.48 0.04 l
0.47 0.03 l
0.47 0.01 l
0.48 0.21 l
0.47 0.30 l
0.47 0.10 l
0.48 0.01 l
0.47 0.22 l
0.47 0.31 l
0.48 0.16 l
0.47 0.01 l
0.47 0.01 l
0.48 0.06 l
0.47 0.11 l
0.47 0.20 l
0.48 0.22 l
0.47 0.09 l
0.47 0.02 l
0.48 0.39 l
0.47 0.79 l
0.47 0.49 l
0.48 0.02 l
0.47 0.17 l
0.47 0.45 l
0.48 0.24 l
0.47 0 l
0.47 0.04 l
0.48 0.01 l
0.47 0.03 l
0.47 0.14 l
0.48 0.06 l
0.47 0.02 l
0.47 0.30 l
0.48 0.36 l
0.47 0.09 l
0.47 0.02 l
0.48 0.10 l
0.47 0.02 l
0.47 0.04 l
0.48 0.16 l
0.47 0.04 l
0.47 0.10 l
0.48 0.56 l
0.47 0.61 l
0.47 0.11 l
0.48 0.13 l
0.47 0.78 l
0.48 0.88 l
0.47 0.33 l
0.47 0 l
456.65 477.23 lineto
0.47 0.34 l
0.47 0.23 l
0.48 0.07 l
0.47 0 l
0.47 0.04 l
0.48 0.10 l
0.47 0.10 l
0.47 0.03 l
0.48 0 l
0.47 0.01 l
0.47 0.01 l
0.48 0 l
0.47 0 l
0.47 0 l
0.48 0.05 l
0.47 0.12 l
0.47 0.05 l
0.48 0.01 l
0.47 0.23 l
0.47 0.33 l
0.48 0.09 l
0.47 0.03 l
0.47 0.23 l
0.48 0.11 l
0.47 0.03 l
0.47 0.42 l
0.48 0.43 l
0.47 0 l
0.47 0.58 l
0.48 1.57 l
0.47 1.01 l
0.47 0.03 l
0.48 0.63 l
0.47 1.55 l
0.47 0.94 l
0.48 0.06 l
0.47 0.17 l
0.47 0.35 l
0.48 0.10 l
0.47 0.01 l
0.47 0.02 l
0.48 0.01 l
0.47 0.15 l
0.47 0.25 l
0.48 0.04 l
0.47 0.07 l
0.47 0.37 l
0.48 0.32 l
0.47 0.04 l
0.47 0.07 l
0.48 0.24 l
0.47 0.17 l
0.47 0.01 l
0.48 0.03 l
0.47 0.10 l
0.47 0.06 l
0.48 0 l
0.47 0.04 l
0.47 0.11 l
0.48 0.09 l
0.47 0.01 l
0.47 0.04 l
0.48 0.23 l
0.47 0.29 l
0.47 0.07 l
0.48 0.06 l
0.47 0.54 l
0.47 0.77 l
0.48 0.30 l
0.47 0 l
0.47 0.40 l
0.48 0.60 l
0.47 0.24 l
0.47 0 l
0.48 0.05 l
0.47 0.03 l
0.47 0 l
0.48 0.04 l
0.47 0 l
0.47 0.22 l
0.48 0.58 l
0.47 0.38 l
0.47 0 l
0.48 0.35 l
0.47 0.74 l
0.47 0.35 l
0.48 0 l
0.47 0.25 l
0.47 0.30 l
0.48 0.02 l
0.47 0.11 l
0.47 0.31 l
0.48 0.11 l
0.47 0.02 l
0.47 0.28 l
0.48 0.37 l
0.47 0.13 l
0.47 0 l
0.48 0.10 l
503.98 497.94 lineto
0.47 0.13 l
0.48 0.05 l
0.47 0.01 l
0.47 0.01 l
0.48 0.07 l
0.47 0.15 l
0.47 0.14 l
0.48 0.04 l
0.47 0 l
0.47 0.09 l
0.48 0.13 l
0.47 0.09 l
0.48 0.03 l
0.47 0.02 l
0.47 0 l
0.48 0 l
0.47 0.07 l
0.47 0.25 l
0.48 0.30 l
0.47 0.10 l
0.47 0.02 l
0.48 0.27 l
0.47 0.37 l
0.47 0.11 l
0.48 0.02 l
0.47 0.15 l
0.47 0.10 l
0.48 0 l
0.47 0.15 l
0.47 0.19 l
0.48 0.02 l
0.47 0.09 l
0.47 0.33 l
0.48 0.26 l
0.47 0.03 l
0.47 0.02 l
0.48 0.09 l
0.47 0.07 l
0.47 0.03 l
0.48 0.04 l
0.47 0.07 l
0.47 0.05 l
0.48 0 l
0.47 0.09 l
0.47 0.29 l
0.48 0.29 l
0.47 0.06 l
0.47 0.02 l
0.48 0.17 l
0.47 0.18 l
0.47 0.05 l
0.48 0 l
0.47 0.01 l
0.47 0.01 l
0.48 0 l
0.47 0.02 l
0.47 0.05 l
0.48 0.07 l
0.47 0.01 l
0.47 0.03 l
0.48 0.13 l
0.47 0.10 l
0.47 0.01 l
0.48 0.04 l
0.47 0.07 l
0.47 0 l
0.48 0.05 l
0.47 0.15 l
0.47 0.08 l
0.48 0 l
0.47 0.15 l
0.47 0.27 l
0.48 0.16 l
0.47 0.01 l
0.47 0.03 l
0.48 0.10 l
0.47 0.12 l
0.47 0.12 l
0.48 0.07 l
0.47 0.02 l
0.47 0 l
0.48 0.08 l
0.47 0.20 l
0.47 0.17 l
0.48 0.06 l
0.47 0 l
0.47 0.03 l
0.48 0.06 l
0.47 0.04 l
0.47 0.03 l
0.48 0.04 l
0.47 0.04 l
0.47 0.01 l
0.48 0.03 l
0.47 0.14 l
0.47 0.18 l
0.48 0.03 l
0.47 0.03 l
0.47 0.16 l
o
0.00 0.00 600.00 600.00 cl
0 0 0 srgb
0.75 setlinewidth
[] 0 setdash
1 setlinecap
1 setlinejoin
10.00 setmiterlimit
np
77.48 73.44 m
473.36 0 l
o
np
77.48 73.44 m
0 -7.20 l
o
np
172.15 73.44 m
0 -7.20 l
o
np
266.83 73.44 m
0 -7.20 l
o
np
361.50 73.44 m
0 -7.20 l
o
np
456.17 73.44 m
0 -7.20 l
o
np
550.84 73.44 m
0 -7.20 l
o
/Font1 findfont 16 s
77.48 47.52 (0) .5 0 t
172.15 47.52 (200) .5 0 t
266.83 47.52 (400) .5 0 t
361.50 47.52 (600) .5 0 t
456.17 47.52 (800) .5 0 t
550.84 47.52 (1000) .5 0 t
np
59.04 90.76 m
0 381.96 l
o
np
59.04 90.76 m
-7.20 0 l
o
np
59.04 218.08 m
-7.20 0 l
o
np
59.04 345.40 m
-7.20 0 l
o
np
59.04 472.72 m
-7.20 0 l
o
41.76 90.76 (0.0) .5 90 t
41.76 218.08 (0.5) .5 90 t
41.76 345.40 (1.0) .5 90 t
41.76 472.72 (1.5) .5 90 t
np
59.04 73.44 m
510.72 0 l
0 467.52 l
-510.72 0 l
0 -467.52 l
o
0.00 0.00 600.00 600.00 cl
59.04 73.44 569.76 540.96 cl
0 1 0 srgb
0.75 setlinewidth
[] 0 setdash
1 setlinecap
1 setlinejoin
10.00 setmiterlimit
np
77.96 90.76 m
0.47 0.09 l
0.47 0.22 l
0.48 0.23 l
0.47 0.14 l
0.47 0.02 l
0.48 0.02 l
0.47 0.12 l
0.47 0.09 l
0.48 0.01 l
0.47 0.02 l
0.47 0.08 l
0.48 0.05 l
0.47 0 l
0.47 0.03 l
0.48 0.06 l
0.47 0.03 l
0.47 0.01 l
0.48 0 l
0.47 0 l
0.47 0 l
0.48 0.02 l
0.47 0.01 l
0.47 0 l
0.48 0.05 l
0.47 0.04 l
0.47 0.01 l
0.48 0.03 l
0.47 0.10 l
0.47 0.07 l
0.48 0 l
0.47 0.05 l
0.47 0.11 l
0.48 0.08 l
0.47 0.02 l
0.47 0 l
0.48 0.04 l
0.47 0.02 l
0.47 0.02 l
0.48 0 l
0.47 0.02 l
0.47 0.04 l
0.48 0.07 l
0.47 0.05 l
0.47 0.02 l
0.48 0 l
0.47 0 l
0.47 0.01 l
0.48 0.02 l
0.47 0.01 l
0.47 0 l
0.48 0 l
0.47 0.03 l
0.47 0.02 l
0.48 0.02 l
0.47 0.01 l
0.47 0.02 l
0.48 0.03 l
0.47 0.02 l
0.47 0.01 l
0.48 0 l
0.47 0.01 l
0.47 0.03 l
0.48 0.03 l
0.47 0.03 l
0.47 0.02 l
0.48 0.01 l
0.47 0 l
0.47 0.01 l
0.48 0.05 l
0.47 0.05 l
0.47 0.02 l
0.48 0 l
0.47 0.01 l
0.47 0.01 l
0.48 0 l
0.47 0.02 l
0.47 0.06 l
0.48 0.08 l
0.47 0.06 l
0.47 0.04 l
0.48 0.03 l
0.47 0.02 l
0.47 0 l
0.48 0 l
0.47 0.01 l
0.47 0 l
0.48 0 l
0.47 0.03 l
0.47 0.10 l
0.48 0.11 l
0.47 0.06 l
0.47 0.01 l
0.48 0 l
0.47 0 l
0.47 0 l
0.48 0 l
0.47 0.01 l
0.48 0 l
0.47 0.01 l
125.29 94.00 lineto
0.48 0 l
0.47 0 l
0.47 0.01 l
0.48 0.02 l
0.47 0.02 l
0.47 0.04 l
0.48 0.06 l
0.47 0.04 l
0.47 0.02 l
0.48 0 l
0.47 0 l
0.47 0.01 l
0.48 0.01 l
0.47 0 l
0.47 0 l
0.48 0.01 l
0.47 0 l
0.47 0 l
0.48 0.01 l
0.47 0.04 l
0.47 0.07 l
0.48 0.14 l
0.47 0.17 l
0.47 0.12 l
0.48 0.04 l
0.47 0 l
0.47 0.02 l
0.48 0.02 l
0.47 0 l
0.47 0.01 l
0.48 0.03 l
0.47 0.02 l
0.47 0 l
0.48 0.01 l
0.47 0.01 l
0.47 0 l
0.48 0.02 l
0.47 0.04 l
0.47 0.04 l
0.48 0.04 l
0.47 0.03 l
0.47 0.03 l
0.48 0.04 l
0.47 0.01 l
0.47 0.01 l
0.48 0 l
0.47 0.01 l
0.47 0.05 l
0.48 0.09 l
0.47 0.08 l
0.47 0.03 l
0.48 0 l
0.47 0.01 l
0.47 0.02 l
0.48 0.01 l
0.47 0.02 l
0.47 0.01 l
0.48 0.01 l
0.47 0 l
0.47 0.04 l
0.48 0.13 l
0.47 0.10 l
0.47 0.02 l
0.48 0.02 l
0.47 0.07 l
0.47 0.01 l
0.48 0.04 l
0.47 0.17 l
0.47 0.14 l
0.48 0 l
0.47 0.16 l
0.47 0.43 l
0.48 0.32 l
0.47 0.06 l
0.47 0.01 l
0.48 0.03 l
0.47 0.01 l
0.47 0 l
0.48 0.01 l
0.47 0 l
0.47 0.05 l
0.48 0.04 l
0.47 0 l
0.47 0.17 l
0.48 0.31 l
0.47 0.14 l
0.47 0 l
0.48 0.16 l
0.47 0.21 l
0.47 0.03 l
0.48 0.06 l
0.47 0.29 l
0.47 0.32 l
0.48 0.14 l
0.47 0.04 l
0.47 0.01 l
0.48 0.02 l
0.47 0.04 l
0.47 0.02 l
172.63 99.37 lineto
0.47 0.06 l
0.47 0.07 l
0.48 0.03 l
0.47 0 l
0.47 0 l
0.48 0.01 l
0.47 0 l
0.47 0.03 l
0.48 0.17 l
0.47 0.40 l
0.47 0.40 l
0.48 0.13 l
0.47 0 l
0.48 0.21 l
0.47 0.34 l
0.47 0.18 l
0.48 0.02 l
0.47 0.01 l
0.47 0.01 l
0.48 0 l
0.47 0.01 l
0.47 0.01 l
0.48 0.02 l
0.47 0 l
0.47 0.02 l
0.48 0.13 l
0.47 0.18 l
0.47 0.06 l
0.48 0.03 l
0.47 0.35 l
0.47 0.57 l
0.48 0.34 l
0.47 0.03 l
0.47 0.06 l
0.48 0.26 l
0.47 0.29 l
0.47 0.15 l
0.48 0.06 l
0.47 0.03 l
0.47 0.05 l
0.48 0.10 l
0.47 0.17 l
0.47 0.16 l
0.48 0.08 l
0.47 0.01 l
0.47 0.01 l
0.48 0.07 l
0.47 0.09 l
0.47 0.05 l
0.48 0.02 l
0.47 0 l
0.47 0 l
0.48 0 l
0.47 0 l
0.47 0.05 l
0.48 0.15 l
0.47 0.19 l
0.47 0.09 l
0.48 0 l
0.47 0.03 l
0.47 0.03 l
0.48 0.01 l
0.47 0.17 l
0.47 0.34 l
0.48 0.19 l
0.47 0 l
0.47 0.12 l
0.48 0.20 l
0.47 0.03 l
0.47 0.07 l
0.48 0.30 l
0.47 0.25 l
0.47 0.01 l
0.48 0.09 l
0.47 0.25 l
0.47 0.16 l
0.48 0.01 l
0.47 0.02 l
0.47 0.07 l
0.48 0.03 l
0.47 0.01 l
0.47 0.01 l
0.48 0.02 l
0.47 0.01 l
0.47 0.02 l
0.48 0.27 l
0.47 0.62 l
0.47 0.59 l
0.48 0.19 l
0.47 0 l
0.47 0.30 l
0.48 0.57 l
0.47 0.42 l
0.47 0.14 l
0.48 0 l
0.47 0.04 l
0.47 0.12 l
0.48 0.13 l
0.47 0.10 l
219.96 111.33 lineto
0.48 0.03 l
0.47 0.01 l
0.47 0.01 l
0.48 0.03 l
0.47 0.06 l
0.47 0.06 l
0.48 0.04 l
0.47 0.01 l
0.47 0.01 l
0.48 0.01 l
0.47 0.04 l
0.47 0.07 l
0.48 0.08 l
0.47 0.04 l
0.47 0 l
0.48 0.01 l
0.47 0.05 l
0.47 0.14 l
0.48 0.22 l
0.47 0.24 l
0.47 0.11 l
0.48 0 l
0.47 0.13 l
0.47 0.39 l
0.48 0.42 l
0.47 0.19 l
0.47 0.02 l
0.48 0.01 l
0.47 0.06 l
0.48 0.03 l
0.47 0.02 l
0.47 0 l
0.48 0.01 l
0.47 0 l
0.47 0.03 l
0.48 0.07 l
0.47 0.04 l
0.47 0.01 l
0.48 0.17 l
0.47 0.33 l
0.47 0.20 l
0.48 0.01 l
0.47 0.03 l
0.47 0.01 l
0.48 0.06 l
0.47 0.45 l
0.47 0.70 l
0.48 0.33 l
0.47 0.01 l
0.47 0.14 l
0.48 0.25 l
0.47 0.08 l
0.47 0 l
0.48 0.01 l
0.47 0 l
0.47 0.05 l
0.48 0 l
0.47 0.15 l
0.47 0.74 l
0.48 0.89 l
0.47 0.25 l
0.47 0.05 l
0.48 0.59 l
0.47 0.57 l
0.47 0.05 l
0.48 0.18 l
0.47 0.51 l
0.47 0.25 l
0.48 0.01 l
0.47 0.07 l
0.47 0.03 l
0.48 0.07 l
0.47 0.36 l
0.47 0.24 l
0.48 0 l
0.47 0.35 l
0.47 0.59 l
0.48 0.24 l
0.47 0 l
0.47 0.09 l
0.48 0.02 l
0.47 0.06 l
0.47 0.28 l
0.48 0.17 l
0.47 0 l
0.47 0.20 l
0.48 0.16 l
0.47 0.03 l
0.47 0.78 l
0.48 1.68 l
0.47 1.24 l
0.47 0.25 l
0.48 0.03 l
0.47 0.29 l
0.47 0.23 l
0.48 0.05 l
0.47 0 l
0.47 0 l
0.48 0.02 l
267.30 128.64 lineto
0.47 0.03 l
0.48 0.37 l
0.47 0.92 l
0.47 0.94 l
0.48 0.44 l
0.47 0.07 l
0.47 0 l
0.48 0 l
0.47 0.10 l
0.47 0.34 l
0.48 0.39 l
0.47 0.17 l
0.47 0.01 l
0.48 0.02 l
0.47 0.03 l
0.47 0 l
0.48 0.04 l
0.47 0.10 l
0.47 0.05 l
0.48 0 l
0.47 0.04 l
0.47 0.10 l
0.48 0.07 l
0.47 0.03 l
0.47 0.01 l
0.48 0 l
0.47 0 l
0.47 0 l
0.48 0.04 l
0.47 0.16 l
0.47 0.29 l
0.48 0.21 l
0.47 0.02 l
0.47 0.12 l
0.48 0.57 l
0.47 0.83 l
0.47 0.62 l
0.48 0.23 l
0.47 0.02 l
0.47 0.01 l
0.48 0.02 l
0.47 0.02 l
0.47 0.03 l
0.48 0.02 l
0.47 0 l
0.48 0.06 l
0.47 0.39 l
0.47 0.91 l
0.48 1.24 l
0.47 1.12 l
0.47 0.75 l
0.48 0.45 l
0.47 0.27 l
0.47 0.16 l
0.48 0.07 l
0.47 0 l
0.47 0.01 l
0.48 0.01 l
0.47 0 l
0.47 0.09 l
0.48 0.27 l
0.47 0.36 l
0.47 0.26 l
0.48 0.13 l
0.47 0.06 l
0.47 0.02 l
0.48 0 l
0.47 0.02 l
0.47 0.12 l
0.48 0.16 l
0.47 0.04 l
0.47 0.10 l
0.48 0.80 l
0.47 1.64 l
0.47 1.54 l
0.48 0.68 l
0.47 0.06 l
0.47 0.05 l
0.48 0.17 l
0.47 0.14 l
0.47 0.07 l
0.48 0.05 l
0.47 0.08 l
0.47 0.08 l
0.48 0.03 l
0.47 0 l
0.47 0.10 l
0.48 0.13 l
0.47 0.02 l
0.47 0.08 l
0.48 0.51 l
0.47 0.91 l
0.47 0.88 l
0.48 0.59 l
0.47 0.39 l
0.47 0.42 l
0.48 0.70 l
0.47 1.02 l
0.47 0.88 l
314.64 155.45 lineto
0.47 0.06 l
0.47 0.98 l
0.48 1.66 l
0.47 0.95 l
0.47 0.02 l
0.48 0.55 l
0.47 1.56 l
0.47 1.29 l
0.48 0.36 l
0.47 0.01 l
0.47 0.01 l
0.48 0.02 l
0.47 0.28 l
0.47 0.42 l
0.48 0.16 l
0.47 0.01 l
0.47 0.01 l
0.48 0.48 l
0.47 2.43 l
0.47 4.11 l
0.48 2.72 l
0.47 0.27 l
0.47 0.59 l
0.48 2.09 l
0.47 1.33 l
0.47 0.05 l
0.48 0.34 l
0.47 0.41 l
0.47 0.01 l
0.48 1.07 l
0.47 2.09 l
0.47 1.06 l
0.48 0.01 l
0.47 0.41 l
0.47 0.54 l
0.48 0.03 l
0.47 0.25 l
0.47 0.65 l
0.48 0.39 l
0.47 0.08 l
0.47 0.05 l
0.48 0.35 l
0.47 1.14 l
0.47 1.31 l
0.48 0.34 l
0.47 0.19 l
0.47 1.88 l
0.48 2.86 l
0.47 1.69 l
0.47 0.24 l
0.48 0.12 l
0.47 0.88 l
0.47 1.55 l
0.48 1.88 l
0.47 2.04 l
0.47 1.93 l
0.48 1.53 l
0.47 1.04 l
0.47 0.69 l
0.48 0.60 l
0.47 0.62 l
0.48 0.54 l
0.47 0.31 l
0.47 0.09 l
0.48 0.06 l
0.47 0.18 l
0.47 0.61 l
0.48 0.85 l
0.47 0.32 l
0.47 0.11 l
0.48 2.04 l
0.47 5.03 l
0.47 6.20 l
0.48 4.96 l
0.47 2.85 l
0.47 1.01 l
0.48 0.03 l
0.47 0.83 l
0.47 4.15 l
0.48 7.69 l
0.47 7.22 l
0.47 2.92 l
0.48 0.04 l
0.47 1.34 l
0.47 3.21 l
0.48 2.43 l
0.47 0.67 l
0.47 0 l
0.48 0.23 l
0.47 0.61 l
0.47 0.91 l
0.48 0.80 l
0.47 0.09 l
0.47 0.96 l
0.48 6.55 l
0.47 12.78 l
0.47 11.26 l
0.48 3.96 l
0.47 0.06 l
361.97 302.77 lineto
0.48 0.46 l
0.47 0.19 l
0.47 2.10 l
0.48 2.16 l
0.47 0.25 l
0.47 0.35 l
0.48 0.67 l
0.47 0 l
0.47 1.10 l
0.48 1.50 l
0.47 0.02 l
0.47 2.16 l
0.48 4.75 l
0.47 1.50 l
0.47 0.61 l
0.48 5.12 l
0.47 3.60 l
0.47 0.03 l
0.48 5.83 l
0.47 8.96 l
0.47 1.94 l
0.48 1.57 l
0.47 9.06 l
0.47 7.31 l
0.48 0.85 l
0.47 0.40 l
0.47 0.24 l
0.48 1.68 l
0.47 9.72 l
0.47 10.20 l
0.48 1.34 l
0.47 3.03 l
0.47 12.59 l
0.48 10.52 l
0.47 2.55 l
0.47 0.08 l
0.48 0.27 l
0.47 3.98 l
0.47 9.73 l
0.48 6.39 l
0.47 0.15 l
0.47 2.71 l
0.48 2.99 l
0.47 0.34 l
0.47 14.16 l
0.48 28.26 l
0.47 15.84 l
0.47 0.26 l
0.48 9.63 l
0.47 23.51 l
0.47 18.30 l
0.48 6.67 l
0.47 1.50 l
0.47 0.60 l
0.48 0.35 l
0.47 0.20 l
0.47 7.11 l
0.48 24.93 l
0.07 4.91 l
o
0.00 0.00 600.00 600.00 cl
0 0 0 srgb
0.75 setlinewidth
[] 0 setdash
1 setlinecap
1 setlinejoin
10.00 setmiterlimit
np
77.48 73.44 m
473.36 0 l
o
np
77.48 73.44 m
0 -7.20 l
o
np
172.15 73.44 m
0 -7.20 l
o
np
266.83 73.44 m
0 -7.20 l
o
np
361.50 73.44 m
0 -7.20 l
o
np
456.17 73.44 m
0 -7.20 l
o
np
550.84 73.44 m
0 -7.20 l
o
/Font1 findfont 16 s
77.48 47.52 (0) .5 0 t
172.15 47.52 (200) .5 0 t
266.83 47.52 (400) .5 0 t
361.50 47.52 (600) .5 0 t
456.17 47.52 (800) .5 0 t
550.84 47.52 (1000) .5 0 t
np
59.04 90.76 m
0 381.96 l
o
np
59.04 90.76 m
-7.20 0 l
o
np
59.04 218.08 m
-7.20 0 l
o
np
59.04 345.40 m
-7.20 0 l
o
np
59.04 472.72 m
-7.20 0 l
o
41.76 90.76 (0.0) .5 90 t
41.76 218.08 (0.5) .5 90 t
41.76 345.40 (1.0) .5 90 t
41.76 472.72 (1.5) .5 90 t
np
59.04 73.44 m
510.72 0 l
0 467.52 l
-510.72 0 l
0 -467.52 l
o
0.00 0.00 600.00 600.00 cl
59.04 73.44 569.76 540.96 cl
0 0 0 srgb
0.75 setlinewidth
[] 0 setdash
1 setlinecap
1 setlinejoin
10.00 setmiterlimit
np
77.96 90.76 m
0.47 0 l
0.47 0 l
0.48 0 l
0.47 0 l
0.47 0.01 l
0.48 0 l
0.47 0 l
0.47 0 l
0.48 0.01 l
0.47 0 l
0.47 0 l
0.48 0 l
0.47 0.03 l
0.47 0 l
0.48 0 l
0.47 0 l
0.47 0 l
0.48 0 l
0.47 0 l
0.47 0 l
0.48 0 l
0.47 0 l
0.47 0 l
0.48 0 l
0.47 0 l
0.47 0 l
0.48 0.01 l
0.47 0 l
0.47 0 l
0.48 0 l
0.47 0 l
0.47 0 l
0.48 0 l
0.47 0 l
0.47 0 l
0.48 0 l
0.47 0 l
0.47 0 l
0.48 0 l
0.47 0 l
0.47 0 l
0.48 0.01 l
0.47 0 l
0.47 0 l
0.48 0.08 l
0.47 0.04 l
0.47 0.08 l
0.48 0 l
0.47 0 l
0.47 0 l
0.48 0.06 l
0.47 0.06 l
0.47 0 l
0.48 0 l
0.47 0 l
0.47 0 l
0.48 0 l
0.47 0.12 l
0.47 0.04 l
0.48 0 l
0.47 0 l
0.47 0 l
0.48 0 l
0.47 0 l
0.47 0 l
0.48 0 l
0.47 0 l
0.47 0 l
0.48 0 l
0.47 0.01 l
0.47 0 l
0.48 0 l
0.47 0 l
0.47 0 l
0.48 0 l
0.47 0 l
0.47 0 l
0.48 0 l
0.47 0 l
0.47 0 l
0.48 0 l
0.47 0 l
0.47 0 l
0.48 0 l
0.47 0.01 l
0.47 0 l
0.48 0 l
0.47 0.14 l
0.47 0 l
0.48 0 l
0.47 0 l
0.47 0 l
0.48 0 l
0.47 0 l
0.47 0 l
0.48 0 l
0.47 0 l
0.48 0.01 l
0.47 0.05 l
125.29 91.60 lineto
0.48 0.03 l
0.47 0 l
0.47 0 l
0.48 0 l
0.47 0 l
0.47 0 l
0.48 0 l
0.47 0 l
0.47 0.08 l
0.48 0 l
0.47 0 l
0.47 0.04 l
0.48 0.01 l
0.47 0 l
0.47 0.02 l
0.48 0.03 l
0.47 0 l
0.47 0 l
0.48 0.04 l
0.47 0.10 l
0.47 0.21 l
0.48 0 l
0.47 0 l
0.47 0 l
0.48 0 l
0.47 0 l
0.47 0 l
0.48 0 l
0.47 0 l
0.47 0 l
0.48 0 l
0.47 0 l
0.47 0 l
0.48 0 l
0.47 0 l
0.47 0 l
0.48 0 l
0.47 0 l
0.47 0.01 l
0.48 0.10 l
0.47 0.08 l
0.47 0 l
0.48 0 l
0.47 0 l
0.47 0 l
0.48 0 l
0.47 0.03 l
0.47 0.13 l
0.48 0 l
0.47 0 l
0.47 0 l
0.48 0 l
0.47 0.02 l
0.47 0.01 l
0.48 0 l
0.47 0 l
0.47 0.03 l
0.48 0.02 l
0.47 0 l
0.47 0.02 l
0.48 0.28 l
0.47 0.16 l
0.47 0 l
0.48 0.04 l
0.47 0.15 l
0.47 0.04 l
0.48 0 l
0.47 0.03 l
0.47 0.02 l
0.48 0 l
0.47 0.34 l
0.47 0.77 l
0.48 0.25 l
0.47 0 l
0.47 0.01 l
0.48 0.06 l
0.47 0.02 l
0.47 0 l
0.48 0 l
0.47 0 l
0.47 0 l
0.48 0.06 l
0.47 0 l
0.47 0 l
0.48 0 l
0.47 0.02 l
0.47 0 l
0.48 0.08 l
0.47 0.33 l
0.47 0.05 l
0.48 0 l
0.47 0.08 l
0.47 0.17 l
0.48 0.02 l
0.47 0 l
0.47 0 l
0.48 0 l
0.47 0 l
0.47 0 l
172.63 95.59 lineto
0.47 0 l
0.47 0 l
0.48 0.01 l
0.47 0 l
0.47 0 l
0.48 0 l
0.47 0 l
0.47 0.06 l
0.48 0.12 l
0.47 0.17 l
0.47 0.06 l
0.48 0 l
0.47 0.02 l
0.48 0.38 l
0.47 0.45 l
0.47 0.03 l
0.48 0 l
0.47 0.01 l
0.47 0.02 l
0.48 0 l
0.47 0 l
0.47 0 l
0.48 0.03 l
0.47 0.01 l
0.47 0 l
0.48 0 l
0.47 0.15 l
0.47 0.09 l
0.48 0.03 l
0.47 0.58 l
0.47 0.90 l
0.48 0.50 l
0.47 0 l
0.47 0.10 l
0.48 0.37 l
0.47 0.29 l
0.47 0 l
0.48 0 l
0.47 0 l
0.47 0 l
0.48 0.15 l
0.47 0.23 l
0.47 0.23 l
0.48 0.01 l
0.47 0 l
0.47 0.01 l
0.48 0.10 l
0.47 0 l
0.47 0 l
0.48 0 l
0.47 0 l
0.47 0 l
0.48 0 l
0.47 0 l
0.47 0.07 l
0.48 0.21 l
0.47 0.16 l
0.47 0 l
0.48 0 l
0.47 0.04 l
0.47 0.04 l
0.48 0 l
0.47 0.24 l
0.47 0.48 l
0.48 0.25 l
0.47 0 l
0.47 0.16 l
0.48 0.26 l
0.47 0.04 l
0.47 0.09 l
0.48 0.40 l
0.47 0.31 l
0.47 0.03 l
0.48 0.02 l
0.47 0.32 l
0.47 0.20 l
0.48 0 l
0.47 0.03 l
0.47 0.08 l
0.48 0.05 l
0.47 0 l
0.47 0 l
0.48 0 l
0.47 0 l
0.47 0 l
0.48 0 l
0.47 0 l
0.47 0.43 l
0.48 0.25 l
0.47 0 l
0.47 0.39 l
0.48 0.73 l
0.47 0.55 l
0.47 0.17 l
0.48 0 l
0.47 0.05 l
0.47 0.14 l
0.48 0 l
0.47 0 l
219.96 106.89 lineto
0.48 0 l
0.47 0.02 l
0.47 0.01 l
0.48 0.04 l
0.47 0.03 l
0.47 0 l
0.48 0.01 l
0.47 0.01 l
0.47 0.01 l
0.48 0.01 l
0.47 0 l
0.47 0 l
0.48 0.01 l
0.47 0.05 l
0.47 0 l
0.48 0 l
0.47 0 l
0.47 0.02 l
0.48 0.01 l
0.47 0 l
0.47 0 l
0.48 0 l
0.47 0.06 l
0.47 0.08 l
0.48 0.12 l
0.47 0.16 l
0.47 0.02 l
0.48 0 l
0.47 0.07 l
0.48 0.05 l
0.47 0.02 l
0.47 0 l
0.48 0 l
0.47 0 l
0.47 0.05 l
0.48 0.10 l
0.47 0 l
0.47 0.01 l
0.48 0.03 l
0.47 0 l
0.47 0 l
0.48 0 l
0.47 0.04 l
0.47 0.02 l
0.48 0 l
0.47 0.03 l
0.47 0.03 l
0.48 0.04 l
0.47 0 l
0.47 0 l
0.48 0.03 l
0.47 0.12 l
0.47 0 l
0.48 0 l
0.47 0.01 l
0.47 0.01 l
0.48 0 l
0.47 0.13 l
0.47 0.13 l
0.48 0.03 l
0.47 0 l
0.47 0.08 l
0.48 0.62 l
0.47 0.44 l
0.47 0.05 l
0.48 0.12 l
0.47 0.56 l
0.47 0.38 l
0.48 0 l
0.47 0.01 l
0.47 0.04 l
0.48 0 l
0.47 0 l
0.47 0.07 l
0.48 0 l
0.47 0 l
0.47 0 l
0.48 0 l
0.47 0 l
0.47 0.14 l
0.48 0.05 l
0.47 0 l
0.47 0.02 l
0.48 0.07 l
0.47 0 l
0.47 0.13 l
0.48 0.26 l
0.47 0 l
0.47 0.18 l
0.48 0.80 l
0.47 0.66 l
0.47 0.02 l
0.48 0.05 l
0.47 0.48 l
0.47 0.38 l
0.48 0.07 l
0.47 0 l
0.47 0 l
0.48 0 l
267.30 114.19 lineto
0.47 0 l
0.48 0 l
0.47 0.09 l
0.47 0.09 l
0.48 0 l
0.47 0 l
0.47 0 l
0.48 0 l
0.47 0.01 l
0.47 0.57 l
0.48 0.66 l
0.47 0.27 l
0.47 0 l
0.48 0.04 l
0.47 0.06 l
0.47 0 l
0.48 0.02 l
0.47 0.16 l
0.47 0.08 l
0.48 0 l
0.47 0.03 l
0.47 0.12 l
0.48 0.08 l
0.47 0 l
0.47 0 l
0.48 0 l
0.47 0 l
0.47 0 l
0.48 0 l
0.47 0 l
0.47 0 l
0.48 0 l
0.47 0 l
0.47 0.01 l
0.48 0.08 l
0.47 0.15 l
0.47 0.08 l
0.48 0 l
0.47 0 l
0.47 0.01 l
0.48 0.04 l
0.47 0.02 l
0.47 0 l
0.48 0 l
0.47 0 l
0.48 0.01 l
0.47 0 l
0.47 0 l
0.48 0 l
0.47 0.30 l
0.47 0.77 l
0.48 0.40 l
0.47 0 l
0.47 0 l
0.48 0 l
0.47 0 l
0.47 0 l
0.48 0 l
0.47 0 l
0.47 0.05 l
0.48 0 l
0.47 0 l
0.47 0.04 l
0.48 0.21 l
0.47 0.09 l
0.47 0.03 l
0.48 0 l
0.47 0.03 l
0.47 0.04 l
0.48 0 l
0.47 0 l
0.47 0.17 l
0.48 0.48 l
0.47 0.03 l
0.47 0 l
0.48 0 l
0.47 0 l
0.47 0.10 l
0.48 0.10 l
0.47 0 l
0.47 0 l
0.48 0 l
0.47 0 l
0.47 0 l
0.48 0 l
0.47 0 l
0.47 0 l
0.48 0.03 l
0.47 0.03 l
0.47 0 l
0.48 0.01 l
0.47 0.19 l
0.47 0.22 l
0.48 0.04 l
0.47 0 l
0.47 0 l
0.48 0 l
0.47 0 l
0.47 0.04 l
314.64 120.32 lineto
0.47 0.01 l
0.47 0.22 l
0.48 0.28 l
0.47 0.02 l
0.47 0 l
0.48 0.87 l
0.47 0.77 l
0.47 0.12 l
0.48 0 l
0.47 0 l
0.47 0.02 l
0.48 0.03 l
0.47 0.47 l
0.47 0.71 l
0.48 0.30 l
0.47 0 l
0.47 0 l
0.48 0 l
0.47 0 l
0.47 0.01 l
0.48 0.03 l
0.47 0.01 l
0.47 0.05 l
0.48 0.18 l
0.47 0.12 l
0.47 0 l
0.48 0.17 l
0.47 0.43 l
0.47 0 l
0.48 0 l
0.47 0 l
0.47 0 l
0.48 0 l
0.47 0.37 l
0.47 0.52 l
0.48 0.08 l
0.47 0.01 l
0.47 0.44 l
0.48 0.74 l
0.47 0.21 l
0.47 0 l
0.48 0 l
0.47 0 l
0.47 0 l
0.48 0 l
0.47 0 l
0.47 0 l
0.48 0 l
0.47 0.01 l
0.47 0.02 l
0.48 0.02 l
0.47 0.14 l
0.47 0.12 l
0.48 0 l
0.47 0 l
0.47 0 l
0.48 0 l
0.47 0 l
0.47 0.21 l
0.48 0.26 l
0.47 0.02 l
0.48 0 l
0.47 0 l
0.47 0 l
0.48 0 l
0.47 0.10 l
0.47 0.12 l
0.48 0 l
0.47 0 l
0.47 0.21 l
0.48 0.07 l
0.47 0 l
0.47 0 l
0.48 0 l
0.47 0 l
0.47 0 l
0.48 0 l
0.47 0.11 l
0.47 0.09 l
0.48 0 l
0.47 0.01 l
0.47 0 l
0.48 0 l
0.47 0.25 l
0.47 0.02 l
0.48 0 l
0.47 0 l
0.47 0 l
0.48 0.12 l
0.47 0.01 l
0.47 0 l
0.48 0 l
0.47 0 l
0.47 0.03 l
0.48 0 l
0.47 0 l
0.47 0 l
0.48 0.01 l
0.47 0 l
361.97 129.46 lineto
0.48 0 l
0.47 0 l
0.47 0 l
0.48 0 l
0.47 0 l
0.47 0 l
0.48 0 l
0.47 0 l
0.47 0.01 l
0.48 0 l
0.47 0 l
0.47 0 l
0.48 0 l
0.47 0 l
0.47 0 l
0.48 0 l
0.47 0 l
0.47 0.01 l
0.48 0 l
0.47 0 l
0.47 0 l
0.48 0.07 l
0.47 0 l
0.47 0 l
0.48 0 l
0.47 0.21 l
0.47 0.02 l
0.48 0 l
0.47 0 l
0.47 0 l
0.48 0.01 l
0.47 0 l
0.47 0 l
0.48 0 l
0.47 0.01 l
0.47 0 l
0.48 0 l
0.47 0 l
0.47 0 l
0.48 0.01 l
0.47 0.06 l
0.47 0 l
0.48 0 l
0.47 0 l
0.47 0 l
0.48 0 l
0.47 0 l
0.47 0 l
0.48 0.03 l
0.47 0.21 l
0.47 0.26 l
0.48 0.02 l
0.47 0 l
0.47 0 l
0.48 0 l
0.47 0.29 l
0.47 0 l
0.48 0 l
0.47 0 l
0.47 0 l
0.48 0.35 l
0.47 0 l
0.47 0 l
0.48 0.08 l
0.47 0 l
0.47 0 l
0.48 0 l
0.47 0.33 l
0.47 0.38 l
0.48 0 l
0.47 0.16 l
0.47 0 l
0.48 0.05 l
0.47 0 l
0.47 0 l
0.48 0.01 l
0.47 0 l
0.48 0.06 l
0.47 0 l
0.47 0 l
0.48 0.34 l
0.47 0.72 l
0.47 0.36 l
0.48 0 l
0.47 0.57 l
0.47 1.29 l
0.48 1.02 l
0.47 0.25 l
0.47 0 l
0.48 0 l
0.47 0 l
0.47 0 l
0.48 0 l
0.47 0 l
0.47 0 l
0.48 0 l
0.47 0 l
0.47 0 l
0.48 0.04 l
409.31 136.77 lineto
0.47 0.10 l
0.48 0 l
0.47 0.01 l
0.47 0.05 l
0.48 0 l
0.47 0.01 l
0.47 0.04 l
0.48 0.28 l
0.47 0.26 l
0.47 0 l
0.48 0 l
0.47 0 l
0.47 0 l
0.48 0.02 l
0.47 0 l
0.47 0.01 l
0.48 0 l
0.47 0.20 l
0.47 0 l
0.48 0.01 l
0.47 0.06 l
0.47 0 l
0.48 0.01 l
0.47 0 l
0.47 0 l
0.48 0 l
0.47 0 l
0.47 0 l
0.48 0 l
0.47 0 l
0.47 0.01 l
0.48 0 l
0.47 0 l
0.47 0.16 l
0.48 0 l
0.47 0.01 l
0.47 0 l
0.48 0.01 l
0.47 0 l
0.47 0 l
0.48 0.07 l
0.47 0.08 l
0.47 0.02 l
0.48 0.01 l
0.47 0 l
0.47 0 l
0.48 0 l
0.47 0.02 l
0.47 0.08 l
0.48 0.10 l
0.47 0.03 l
0.47 0 l
0.48 0.28 l
0.47 0.37 l
0.47 0.12 l
0.48 0.01 l
0.47 0 l
0.47 0.01 l
0.48 0 l
0.47 0.01 l
0.47 0 l
0.48 0 l
0.47 0 l
0.47 0.09 l
0.48 0.08 l
0.47 0.04 l
0.47 0.02 l
0.48 0.01 l
0.47 0 l
0.47 0.76 l
0.48 0.18 l
0.47 0.03 l
0.47 0 l
0.48 0.02 l
0.47 0.04 l
0.47 0.01 l
0.48 0.01 l
0.47 0.01 l
0.47 0.11 l
0.48 0.08 l
0.47 0.01 l
0.47 0.26 l
0.48 0.50 l
0.47 0.30 l
0.47 0.03 l
0.48 0.01 l
0.47 0.03 l
0.47 0 l
0.48 0 l
0.47 0.01 l
0.47 0.13 l
0.48 0.03 l
0.47 0 l
0.47 0 l
0.48 0.30 l
0.47 0.73 l
0.48 0.56 l
0.47 0.11 l
0.47 0.02 l
456.65 143.94 lineto
0.47 0.23 l
0.47 0 l
0.48 0.03 l
0.47 0.01 l
0.47 0.17 l
0.48 0.46 l
0.47 0.03 l
0.47 0.01 l
0.48 0.01 l
0.47 0.14 l
0.47 0.32 l
0.48 0.17 l
0.47 0.01 l
0.47 0.01 l
0.48 0 l
0.47 0.10 l
0.47 0.23 l
0.48 0.06 l
0.47 0.06 l
0.47 0.42 l
0.48 0 l
0.47 0.02 l
0.47 0.15 l
0.48 0.27 l
0.47 0 l
0.47 0.36 l
0.48 0.83 l
0.47 0.27 l
0.47 0.14 l
0.48 0 l
0.47 0.14 l
0.47 0.14 l
0.48 0.56 l
0.47 0 l
0.47 0.01 l
0.48 0.06 l
0.47 0.52 l
0.47 1.12 l
0.48 0.06 l
0.47 0.01 l
0.47 0.19 l
0.48 0 l
0.47 0.07 l
0.47 0.40 l
0.48 0.24 l
0.47 0 l
0.47 0.01 l
0.48 0.02 l
0.47 0.10 l
0.47 0.08 l
0.48 0.40 l
0.47 0.25 l
0.47 0 l
0.48 0.16 l
0.47 0.28 l
0.47 0 l
0.48 0.01 l
0.47 0.10 l
0.47 0.10 l
0.48 0 l
0.47 0.06 l
0.47 0.22 l
0.48 0 l
0.47 0.16 l
0.47 0 l
0.48 0.18 l
0.47 0.42 l
0.47 0.10 l
0.48 0.53 l
0.47 0.01 l
0.47 0.16 l
0.48 0.01 l
0.47 0.11 l
0.47 0.05 l
0.48 0.04 l
0.47 0.10 l
0.47 0.01 l
0.48 0.01 l
0.47 0.01 l
0.47 0.03 l
0.48 0.20 l
0.47 0.18 l
0.47 0 l
0.48 0 l
0.47 0.89 l
0.47 0.55 l
0.48 0.01 l
0.47 0.01 l
0.47 0.55 l
0.48 0 l
0.47 0.01 l
0.47 0.22 l
0.48 0.13 l
0.47 0.02 l
0.47 0.43 l
0.48 0.70 l
0.47 0.31 l
0.47 0 l
0.48 0.19 l
503.98 160.47 lineto
0.47 0.25 l
0.48 0.05 l
0.47 0 l
0.47 0.09 l
0.48 0.16 l
0.47 0.18 l
0.47 0.09 l
0.48 0.01 l
0.47 0.04 l
0.47 0.20 l
0.48 0 l
0.47 0.16 l
0.48 0.04 l
0.47 0.01 l
0.47 0 l
0.48 0.05 l
0.47 0.18 l
0.47 0.38 l
0.48 0.44 l
0.47 0.18 l
0.47 0 l
0.48 0.22 l
0.47 0.35 l
0.47 0.09 l
0.48 0.04 l
0.47 0.33 l
0.47 0.28 l
0.48 0.01 l
0.47 0.15 l
0.47 0.31 l
0.48 0.08 l
0.47 0.07 l
0.47 0.45 l
0.48 0.41 l
0.47 0.04 l
0.47 0.11 l
0.48 0.42 l
0.47 0 l
0.47 0.11 l
0.48 0 l
0.47 0 l
0.47 0.01 l
0.48 0.01 l
0.47 0.10 l
0.47 0 l
0.48 0.33 l
0.47 0.12 l
0.47 0 l
0.48 0.18 l
0.47 0.30 l
0.47 0.13 l
0.48 0 l
0.47 0.09 l
0.47 0.17 l
0.48 0.12 l
0.47 0.04 l
0.47 0 l
0.48 0.02 l
0.47 0.09 l
0.47 0.14 l
0.48 0.12 l
0.47 0.04 l
0.47 0 l
0.48 0.02 l
0.47 0.01 l
0.47 0.01 l
0.48 0.09 l
0.47 0.15 l
0.47 0.05 l
0.48 0.01 l
0.47 0.13 l
0.47 0.25 l
0.48 0.17 l
0.47 0.05 l
0.47 0 l
0.48 0.04 l
0.47 0.15 l
0.47 0.25 l
0.48 0.25 l
0.47 0.10 l
0.47 0 l
0.48 0.19 l
0.47 0.37 l
0.47 0.22 l
0.48 0.01 l
0.47 0.08 l
0.47 0.20 l
0.48 0.14 l
0.47 0.04 l
0.47 0.03 l
0.48 0.05 l
0.47 0.13 l
0.47 0.09 l
0.48 0 l
0.47 0.14 l
0.47 0.28 l
0.48 0.11 l
0.47 0.01 l
0.47 0.16 l
o
0.00 0.00 600.00 600.00 cl
0 0 0 srgb
0.75 setlinewidth
[] 0 setdash
1 setlinecap
1 setlinejoin
10.00 setmiterlimit
np
77.48 73.44 m
473.36 0 l
o
np
77.48 73.44 m
0 -7.20 l
o
np
172.15 73.44 m
0 -7.20 l
o
np
266.83 73.44 m
0 -7.20 l
o
np
361.50 73.44 m
0 -7.20 l
o
np
456.17 73.44 m
0 -7.20 l
o
np
550.84 73.44 m
0 -7.20 l
o
/Font1 findfont 16 s
77.48 47.52 (0) .5 0 t
172.15 47.52 (200) .5 0 t
266.83 47.52 (400) .5 0 t
361.50 47.52 (600) .5 0 t
456.17 47.52 (800) .5 0 t
550.84 47.52 (1000) .5 0 t
np
59.04 90.76 m
0 381.96 l
o
np
59.04 90.76 m
-7.20 0 l
o
np
59.04 218.08 m
-7.20 0 l
o
np
59.04 345.40 m
-7.20 0 l
o
np
59.04 472.72 m
-7.20 0 l
o
41.76 90.76 (0.0) .5 90 t
41.76 218.08 (0.5) .5 90 t
41.76 345.40 (1.0) .5 90 t
41.76 472.72 (1.5) .5 90 t
np
59.04 73.44 m
510.72 0 l
0 467.52 l
-510.72 0 l
0 -467.52 l
o
0.00 0.00 600.00 600.00 cl
59.04 73.44 569.76 540.96 cl
0 0 1 srgb
0.75 setlinewidth
[] 0 setdash
1 setlinecap
1 setlinejoin
10.00 setmiterlimit
np
68.05 508.03 m
18.03 0 l
o
1 0 0 srgb
np
68.05 475.10 m
18.03 0 l
o
0 1 0 srgb
np
68.05 442.17 m
18.03 0 l
o
0 0 0 srgb
np
68.05 409.24 m
18.03 0 l
o
/Font1 findfont 12 s
95.09 503.72 (Y1) 0 0 t
95.09 470.79 (Y2) 0 0 t
95.09 434.89 (Y) 0 0 t
103.10 434.89 (2) 0 0 t
99.62 441.20 (^) 0 0 t
95.09 405.02 (Best combination) 0 0 t
ep
%%Trailer
%%Pages: 1
%%EOF
