%!PS-Adobe-3.0 EPSF-3.0
%%Creator: MATLAB, The MathWorks, Inc. Version 8.3.0.532 (R2014a). Operating System: Linux 3.13.0-32-generic #57-Ubuntu SMP Tue Jul 15 03:51:08 UTC 2014 x86_64.
%%Title: /home/louis/Desktop/signal/PH-integral.eps
%%CreationDate: 08/10/2014  15:55:30
%%DocumentNeededFonts: Helvetica
%%DocumentProcessColors: Cyan Magenta Yellow Black
%%LanguageLevel: 2
%%Pages: 1
%%BoundingBox:   100   241   509   549
%%EndComments

%%BeginProlog
% MathWorks dictionary
/MathWorks 160 dict begin
% definition operators
/bdef {bind def} bind def
/ldef {load def} bind def
/xdef {exch def} bdef
/xstore {exch store} bdef
% operator abbreviations
/c  /clip ldef
/cc /concat ldef
/cp /closepath ldef
/gr /grestore ldef
/gs /gsave ldef
/mt /moveto ldef
/np /newpath ldef
/cm /currentmatrix ldef
/sm /setmatrix ldef
/rm /rmoveto ldef
/rl /rlineto ldef
/s {show newpath} bdef
/sc {setcmykcolor} bdef
/sr /setrgbcolor ldef
/sg /setgray ldef
/w /setlinewidth ldef
/j /setlinejoin ldef
/cap /setlinecap ldef
/rc {rectclip} bdef
/rf {rectfill} bdef
% page state control
/pgsv () def
/bpage {/pgsv save def} bdef
/epage {pgsv restore} bdef
/bplot /gsave ldef
/eplot {stroke grestore} bdef
% orientation switch
/portraitMode 0 def /landscapeMode 1 def /rotateMode 2 def
% coordinate system mappings
/dpi2point 0 def
% font control
/FontSize 0 def
/FMS {/FontSize xstore findfont [FontSize 0 0 FontSize neg 0 0]
  makefont setfont} bdef
/reencode {exch dup where {pop load} {pop StandardEncoding} ifelse
  exch dup 3 1 roll findfont dup length dict begin
  { 1 index /FID ne {def}{pop pop} ifelse } forall
  /Encoding exch def currentdict end definefont pop} bdef
/isroman {findfont /CharStrings get /Agrave known} bdef
/FMSR {3 1 roll 1 index dup isroman {reencode} {pop pop} ifelse
  exch FMS} bdef
/csm {1 dpi2point div -1 dpi2point div scale neg translate
 dup landscapeMode eq {pop -90 rotate}
  {rotateMode eq {90 rotate} if} ifelse} bdef
% line types: solid, dotted, dashed, dotdash
/SO { [] 0 setdash } bdef
/DO { [.5 dpi2point mul 4 dpi2point mul] 0 setdash } bdef
/DA { [6 dpi2point mul] 0 setdash } bdef
/DD { [.5 dpi2point mul 4 dpi2point mul 6 dpi2point mul 4
  dpi2point mul] 0 setdash } bdef
% macros for lines and objects
/L {lineto stroke} bdef
/MP {3 1 roll moveto 1 sub {rlineto} repeat} bdef
/AP {{rlineto} repeat} bdef
/PDlw -1 def
/W {/PDlw currentlinewidth def setlinewidth} def
/PP {closepath eofill} bdef
/DP {closepath stroke} bdef
/MR {4 -2 roll moveto dup  0 exch rlineto exch 0 rlineto
  neg 0 exch rlineto closepath} bdef
/FR {MR stroke} bdef
/PR {MR fill} bdef
/L1i {{currentfile picstr readhexstring pop} image} bdef
/tMatrix matrix def
/MakeOval {newpath tMatrix currentmatrix pop translate scale
0 0 1 0 360 arc tMatrix setmatrix} bdef
/FO {MakeOval stroke} bdef
/PO {MakeOval fill} bdef
/PD {currentlinewidth 2 div 0 360 arc fill
   PDlw -1 eq not {PDlw w /PDlw -1 def} if} def
/FA {newpath tMatrix currentmatrix pop translate scale
  0 0 1 5 -2 roll arc tMatrix setmatrix stroke} bdef
/PA {newpath tMatrix currentmatrix pop	translate 0 0 moveto scale
  0 0 1 5 -2 roll arc closepath tMatrix setmatrix fill} bdef
/FAn {newpath tMatrix currentmatrix pop translate scale
  0 0 1 5 -2 roll arcn tMatrix setmatrix stroke} bdef
/PAn {newpath tMatrix currentmatrix pop translate 0 0 moveto scale
  0 0 1 5 -2 roll arcn closepath tMatrix setmatrix fill} bdef
/vradius 0 def /hradius 0 def /lry 0 def
/lrx 0 def /uly 0 def /ulx 0 def /rad 0 def
/MRR {/vradius xdef /hradius xdef /lry xdef /lrx xdef /uly xdef
  /ulx xdef newpath tMatrix currentmatrix pop ulx hradius add uly
  vradius add translate hradius vradius scale 0 0 1 180 270 arc 
  tMatrix setmatrix lrx hradius sub uly vradius add translate
  hradius vradius scale 0 0 1 270 360 arc tMatrix setmatrix
  lrx hradius sub lry vradius sub translate hradius vradius scale
  0 0 1 0 90 arc tMatrix setmatrix ulx hradius add lry vradius sub
  translate hradius vradius scale 0 0 1 90 180 arc tMatrix setmatrix
  closepath} bdef
/FRR {MRR stroke } bdef
/PRR {MRR fill } bdef
/MlrRR {/lry xdef /lrx xdef /uly xdef /ulx xdef /rad lry uly sub 2 div def
  newpath tMatrix currentmatrix pop ulx rad add uly rad add translate
  rad rad scale 0 0 1 90 270 arc tMatrix setmatrix lrx rad sub lry rad
  sub translate rad rad scale 0 0 1 270 90 arc tMatrix setmatrix
  closepath} bdef
/FlrRR {MlrRR stroke } bdef
/PlrRR {MlrRR fill } bdef
/MtbRR {/lry xdef /lrx xdef /uly xdef /ulx xdef /rad lrx ulx sub 2 div def
  newpath tMatrix currentmatrix pop ulx rad add uly rad add translate
  rad rad scale 0 0 1 180 360 arc tMatrix setmatrix lrx rad sub lry rad
  sub translate rad rad scale 0 0 1 0 180 arc tMatrix setmatrix
  closepath} bdef
/FtbRR {MtbRR stroke } bdef
/PtbRR {MtbRR fill } bdef
/stri 6 array def /dtri 6 array def
/smat 6 array def /dmat 6 array def
/tmat1 6 array def /tmat2 6 array def /dif 3 array def
/asub {/ind2 exch def /ind1 exch def dup dup
  ind1 get exch ind2 get sub exch } bdef
/tri_to_matrix {
  2 0 asub 3 1 asub 4 0 asub 5 1 asub
  dup 0 get exch 1 get 7 -1 roll astore } bdef
/compute_transform {
  dmat dtri tri_to_matrix tmat1 invertmatrix 
  smat stri tri_to_matrix tmat2 concatmatrix } bdef
/ds {stri astore pop} bdef
/dt {dtri astore pop} bdef
/db {2 copy /cols xdef /rows xdef mul dup 3 mul string
  currentfile 
  3 index 0 eq {/ASCIIHexDecode filter}
  {/ASCII85Decode filter 3 index 2 eq {/RunLengthDecode filter} if }
  ifelse exch readstring pop
  dup 0 3 index getinterval /rbmap xdef
  dup 2 index dup getinterval /gbmap xdef
  1 index dup 2 mul exch getinterval /bbmap xdef pop pop}bdef
/it {gs np dtri aload pop moveto lineto lineto cp c
  cols rows 8 compute_transform 
  rbmap gbmap bbmap true 3 colorimage gr}bdef
/il {newpath moveto lineto stroke}bdef
currentdict end def
%%EndProlog

%%BeginSetup
MathWorks begin

0 cap

end
%%EndSetup

%%Page: 1 1
%%BeginPageSetup
%%PageBoundingBox:   100   241   509   549
MathWorks begin
bpage
%%EndPageSetup

%%BeginObject: obj1
bplot

/dpi2point 12 def
portraitMode 1200 6588 csm

    0     0  4915  3687 rc
85 dict begin %Colortable dictionary
/c0 { 0.000000 0.000000 0.000000 sr} bdef
/c1 { 1.000000 1.000000 1.000000 sr} bdef
/c2 { 0.900000 0.000000 0.000000 sr} bdef
/c3 { 0.000000 0.820000 0.000000 sr} bdef
/c4 { 0.000000 0.000000 0.800000 sr} bdef
/c5 { 0.910000 0.820000 0.320000 sr} bdef
/c6 { 1.000000 0.260000 0.820000 sr} bdef
/c7 { 0.000000 0.820000 0.820000 sr} bdef
c0
1 j
1 sg
   0    0 4916 3688 rf
6 w
0 3004 3809 0 0 -3004 639 3281 4 MP
PP
-3809 0 0 3004 3809 0 0 -3004 639 3281 5 MP stroke
4 w
DO
SO
6 w
0 sg
 639 3281 mt 4448 3281 L
 639 3281 mt  639  277 L
 639 3281 mt  639 3242 L
%%IncludeResource: font Helvetica
/Helvetica /ISOLatin1Encoding 120 FMSR

 606 3426 mt 
(0) s
1183 3281 mt 1183 3242 L
1050 3426 mt 
(2000) s
1727 3281 mt 1727 3242 L
1594 3426 mt 
(4000) s
2271 3281 mt 2271 3242 L
2138 3426 mt 
(6000) s
2815 3281 mt 2815 3242 L
2682 3426 mt 
(8000) s
3359 3281 mt 3359 3242 L
3193 3426 mt 
(10000) s
3903 3281 mt 3903 3242 L
3737 3426 mt 
(12000) s
4448 3281 mt 4448 3242 L
4282 3426 mt 
(14000) s
 639 3281 mt  677 3281 L
 438 3325 mt 
(0.4) s
 639 2980 mt  677 2980 L
 438 3024 mt 
(0.6) s
 639 2680 mt  677 2680 L
 438 2724 mt 
(0.8) s
 639 2379 mt  677 2379 L
 538 2423 mt 
(1) s
 639 2079 mt  677 2079 L
 438 2123 mt 
(1.2) s
 639 1779 mt  677 1779 L
 438 1823 mt 
(1.4) s
 639 1478 mt  677 1478 L
 438 1522 mt 
(1.6) s
 639 1178 mt  677 1178 L
 438 1222 mt 
(1.8) s
 639  877 mt  677  877 L
 538  921 mt 
(2) s
 639  577 mt  677  577 L
 438  621 mt 
(2.2) s
 639  277 mt  677  277 L
 438  321 mt 
(2.4) s
gs 639 276 3810 3006 rc
0 j
gr

/c8 { 0.000000 0.687500 1.000000 sr} bdef
c8
  37   37  654 2388 FO
gs 639 276 3810 3006 rc
0 j
gr

/c9 { 0.000000 0.562500 1.000000 sr} bdef
c9
  37   37 1875 2452 FO
gs 639 276 3810 3006 rc
0 j
gr

/c10 { 0.000000 0.500000 1.000000 sr} bdef
c10
  37   37 2792 2503 FO
gs 639 276 3810 3006 rc
0 j
gr

/c11 { 0.000000 0.437500 1.000000 sr} bdef
c11
  37   37 3400 2538 FO
gs 639 276 3810 3006 rc
0 j
gr

/c12 { 0.000000 0.625000 1.000000 sr} bdef
c12
  37   37 1043 2408 FO
gs 639 276 3810 3006 rc
0 j
gr

  37   37  728 2397 FO
gs 639 276 3810 3006 rc
0 j
gr

c9
  37   37 1768 2446 FO
gs 639 276 3810 3006 rc
0 j
gr

c8
  37   37  679 2389 FO
gs 639 276 3810 3006 rc
0 j
gr

c9
  37   37 4068 2480 FO
gs 639 276 3810 3006 rc
0 j
gr

c12
  37   37  978 2406 FO
gs 639 276 3810 3006 rc
0 j
gr

  37   37  963 2403 FO
gs 639 276 3810 3006 rc
0 j
gr

  37   37 1201 2423 FO
gs 639 276 3810 3006 rc
0 j
gr

  37   37  668 2392 FO
gs 639 276 3810 3006 rc
0 j
gr

c8
  37   37  660 2388 FO
gs 639 276 3810 3006 rc
0 j
gr

c12
  37   37  949 2407 FO
gs 639 276 3810 3006 rc
0 j
gr

c11
  37   37 3553 2547 FO
gs 639 276 3810 3006 rc
0 j
gr

c12
  37   37  829 2416 FO
gs 639 276 3810 3006 rc
0 j
gr

/c13 { 0.000000 0.750000 1.000000 sr} bdef
c13
  37   37 1600 2309 FO
gs 639 276 3810 3006 rc
0 j
gr

c12
  37   37 1468 2430 FO
gs 639 276 3810 3006 rc
0 j
gr

/c14 { 0.500000 0.000000 0.000000 sr} bdef
c14
  37   37  918  278 FO
gs 639 276 3810 3006 rc
0 j
gr

c9
  37   37 1165 2441 FO
gs 639 276 3810 3006 rc
0 j
gr

c13
  37   37 2119 2339 FO
gs 639 276 3810 3006 rc
0 j
gr

c12
  37   37 1321 2432 FO
gs 639 276 3810 3006 rc
0 j
gr

  37   37 1134 2413 FO
gs 639 276 3810 3006 rc
0 j
gr

c8
  37   37 2939 2383 FO
gs 639 276 3810 3006 rc
0 j
gr

c12
  37   37 1529 2434 FO
gs 639 276 3810 3006 rc
0 j
gr

c8
  37   37 2971 2384 FO
gs 639 276 3810 3006 rc
0 j
gr

/c15 { 0.000000 0.000000 0.562500 sr} bdef
c15
  37   37  980 3218 FO
gs 639 276 3810 3006 rc
0 j
gr

c11
  37   37 3264 2530 FO
gs 639 276 3810 3006 rc
0 j
gr

c9
  37   37 1998 2459 FO
gs 639 276 3810 3006 rc
0 j
gr

  37   37 2406 2483 FO
gs 639 276 3810 3006 rc
0 j
gr

c8
  37   37 2513 2360 FO
gs 639 276 3810 3006 rc
0 j
gr

c10
  37   37 3226 2527 FO
gs 639 276 3810 3006 rc
0 j
gr

c12
  37   37  692 2393 FO
gs 639 276 3810 3006 rc
0 j
gr

c9
  37   37 2000 2458 FO
gs 639 276 3810 3006 rc
0 j
gr

c8
  37   37  665 2389 FO
gs 639 276 3810 3006 rc
0 j
gr

  37   37  672 2391 FO
gs 639 276 3810 3006 rc
0 j
gr

c12
  37   37  738 2394 FO
gs 639 276 3810 3006 rc
DA
/c16 { 1.000000 0.000000 0.000000 sr} bdef
c16
66 4 7 1 -1335 -82 1308 80 -2534 -155 713 44 107 6 408 25 
-1266 -78 2284 141 -1991 -123 1442 89 -1410 -87 1805 111 -187 -11 -798 -49 
954 58 247 15 -550 -33 -132 -8 771 47 -2724 -167 2604 159 289 18 
-8 0 -533 -33 238 15 -15 -1 -3090 -190 3389 208 -1089 -67 1040 64 
-315 -19 -2357 -145 608 37 917 57 1221 75 654 2328 38 MP stroke
gr

c16
DA
0 sg
1744 3569 mt 
(Integral of pre-pulse in trigger) s
 356 2110 mt  -90 rotate
(Pulse height) s
90 rotate
SO

end %%Color Dict

eplot
%%EndObject

epage
end

showpage

%%Trailer
%%EOF
