%!PS-Adobe-3.0 EPSF-3.0
%%Creator: MATLAB, The MathWorks, Inc. Version 8.3.0.532 (R2014a). Operating System: Linux 3.13.0-32-generic #57-Ubuntu SMP Tue Jul 15 03:51:08 UTC 2014 x86_64.
%%Title: /home/louis/Desktop/signal/pile-up.eps
%%CreationDate: 08/10/2014  09:46:25
%%DocumentNeededFonts: Helvetica
%%DocumentProcessColors: Cyan Magenta Yellow Black
%%LanguageLevel: 2
%%Pages: 1
%%BoundingBox:   104   242   505   548
%%EndComments

%%BeginProlog
% MathWorks dictionary
/MathWorks 160 dict begin
% definition operators
/bdef {bind def} bind def
/ldef {load def} bind def
/xdef {exch def} bdef
/xstore {exch store} bdef
% operator abbreviations
/c  /clip ldef
/cc /concat ldef
/cp /closepath ldef
/gr /grestore ldef
/gs /gsave ldef
/mt /moveto ldef
/np /newpath ldef
/cm /currentmatrix ldef
/sm /setmatrix ldef
/rm /rmoveto ldef
/rl /rlineto ldef
/s {show newpath} bdef
/sc {setcmykcolor} bdef
/sr /setrgbcolor ldef
/sg /setgray ldef
/w /setlinewidth ldef
/j /setlinejoin ldef
/cap /setlinecap ldef
/rc {rectclip} bdef
/rf {rectfill} bdef
% page state control
/pgsv () def
/bpage {/pgsv save def} bdef
/epage {pgsv restore} bdef
/bplot /gsave ldef
/eplot {stroke grestore} bdef
% orientation switch
/portraitMode 0 def /landscapeMode 1 def /rotateMode 2 def
% coordinate system mappings
/dpi2point 0 def
% font control
/FontSize 0 def
/FMS {/FontSize xstore findfont [FontSize 0 0 FontSize neg 0 0]
  makefont setfont} bdef
/reencode {exch dup where {pop load} {pop StandardEncoding} ifelse
  exch dup 3 1 roll findfont dup length dict begin
  { 1 index /FID ne {def}{pop pop} ifelse } forall
  /Encoding exch def currentdict end definefont pop} bdef
/isroman {findfont /CharStrings get /Agrave known} bdef
/FMSR {3 1 roll 1 index dup isroman {reencode} {pop pop} ifelse
  exch FMS} bdef
/csm {1 dpi2point div -1 dpi2point div scale neg translate
 dup landscapeMode eq {pop -90 rotate}
  {rotateMode eq {90 rotate} if} ifelse} bdef
% line types: solid, dotted, dashed, dotdash
/SO { [] 0 setdash } bdef
/DO { [.5 dpi2point mul 4 dpi2point mul] 0 setdash } bdef
/DA { [6 dpi2point mul] 0 setdash } bdef
/DD { [.5 dpi2point mul 4 dpi2point mul 6 dpi2point mul 4
  dpi2point mul] 0 setdash } bdef
% macros for lines and objects
/L {lineto stroke} bdef
/MP {3 1 roll moveto 1 sub {rlineto} repeat} bdef
/AP {{rlineto} repeat} bdef
/PDlw -1 def
/W {/PDlw currentlinewidth def setlinewidth} def
/PP {closepath eofill} bdef
/DP {closepath stroke} bdef
/MR {4 -2 roll moveto dup  0 exch rlineto exch 0 rlineto
  neg 0 exch rlineto closepath} bdef
/FR {MR stroke} bdef
/PR {MR fill} bdef
/L1i {{currentfile picstr readhexstring pop} image} bdef
/tMatrix matrix def
/MakeOval {newpath tMatrix currentmatrix pop translate scale
0 0 1 0 360 arc tMatrix setmatrix} bdef
/FO {MakeOval stroke} bdef
/PO {MakeOval fill} bdef
/PD {currentlinewidth 2 div 0 360 arc fill
   PDlw -1 eq not {PDlw w /PDlw -1 def} if} def
/FA {newpath tMatrix currentmatrix pop translate scale
  0 0 1 5 -2 roll arc tMatrix setmatrix stroke} bdef
/PA {newpath tMatrix currentmatrix pop	translate 0 0 moveto scale
  0 0 1 5 -2 roll arc closepath tMatrix setmatrix fill} bdef
/FAn {newpath tMatrix currentmatrix pop translate scale
  0 0 1 5 -2 roll arcn tMatrix setmatrix stroke} bdef
/PAn {newpath tMatrix currentmatrix pop translate 0 0 moveto scale
  0 0 1 5 -2 roll arcn closepath tMatrix setmatrix fill} bdef
/vradius 0 def /hradius 0 def /lry 0 def
/lrx 0 def /uly 0 def /ulx 0 def /rad 0 def
/MRR {/vradius xdef /hradius xdef /lry xdef /lrx xdef /uly xdef
  /ulx xdef newpath tMatrix currentmatrix pop ulx hradius add uly
  vradius add translate hradius vradius scale 0 0 1 180 270 arc 
  tMatrix setmatrix lrx hradius sub uly vradius add translate
  hradius vradius scale 0 0 1 270 360 arc tMatrix setmatrix
  lrx hradius sub lry vradius sub translate hradius vradius scale
  0 0 1 0 90 arc tMatrix setmatrix ulx hradius add lry vradius sub
  translate hradius vradius scale 0 0 1 90 180 arc tMatrix setmatrix
  closepath} bdef
/FRR {MRR stroke } bdef
/PRR {MRR fill } bdef
/MlrRR {/lry xdef /lrx xdef /uly xdef /ulx xdef /rad lry uly sub 2 div def
  newpath tMatrix currentmatrix pop ulx rad add uly rad add translate
  rad rad scale 0 0 1 90 270 arc tMatrix setmatrix lrx rad sub lry rad
  sub translate rad rad scale 0 0 1 270 90 arc tMatrix setmatrix
  closepath} bdef
/FlrRR {MlrRR stroke } bdef
/PlrRR {MlrRR fill } bdef
/MtbRR {/lry xdef /lrx xdef /uly xdef /ulx xdef /rad lrx ulx sub 2 div def
  newpath tMatrix currentmatrix pop ulx rad add uly rad add translate
  rad rad scale 0 0 1 180 360 arc tMatrix setmatrix lrx rad sub lry rad
  sub translate rad rad scale 0 0 1 0 180 arc tMatrix setmatrix
  closepath} bdef
/FtbRR {MtbRR stroke } bdef
/PtbRR {MtbRR fill } bdef
/stri 6 array def /dtri 6 array def
/smat 6 array def /dmat 6 array def
/tmat1 6 array def /tmat2 6 array def /dif 3 array def
/asub {/ind2 exch def /ind1 exch def dup dup
  ind1 get exch ind2 get sub exch } bdef
/tri_to_matrix {
  2 0 asub 3 1 asub 4 0 asub 5 1 asub
  dup 0 get exch 1 get 7 -1 roll astore } bdef
/compute_transform {
  dmat dtri tri_to_matrix tmat1 invertmatrix 
  smat stri tri_to_matrix tmat2 concatmatrix } bdef
/ds {stri astore pop} bdef
/dt {dtri astore pop} bdef
/db {2 copy /cols xdef /rows xdef mul dup 3 mul string
  currentfile 
  3 index 0 eq {/ASCIIHexDecode filter}
  {/ASCII85Decode filter 3 index 2 eq {/RunLengthDecode filter} if }
  ifelse exch readstring pop
  dup 0 3 index getinterval /rbmap xdef
  dup 2 index dup getinterval /gbmap xdef
  1 index dup 2 mul exch getinterval /bbmap xdef pop pop}bdef
/it {gs np dtri aload pop moveto lineto lineto cp c
  cols rows 8 compute_transform 
  rbmap gbmap bbmap true 3 colorimage gr}bdef
/il {newpath moveto lineto stroke}bdef
currentdict end def
%%EndProlog

%%BeginSetup
MathWorks begin

0 cap

end
%%EndSetup

%%Page: 1 1
%%BeginPageSetup
%%PageBoundingBox:   104   242   505   548
MathWorks begin
bpage
%%EndPageSetup

%%BeginObject: obj1
bplot

/dpi2point 12 def
portraitMode 1248 6576 csm

    0     0  4819  3667 rc
85 dict begin %Colortable dictionary
/c0 { 0.000000 0.000000 0.000000 sr} bdef
/c1 { 1.000000 1.000000 1.000000 sr} bdef
/c2 { 0.900000 0.000000 0.000000 sr} bdef
/c3 { 0.000000 0.820000 0.000000 sr} bdef
/c4 { 0.000000 0.000000 0.800000 sr} bdef
/c5 { 0.910000 0.820000 0.320000 sr} bdef
/c6 { 1.000000 0.260000 0.820000 sr} bdef
/c7 { 0.000000 0.820000 0.820000 sr} bdef
c0
1 j
1 sg
   0    0 4820 3668 rf
6 w
0 2989 3736 0 0 -2989 625 3264 4 MP
PP
-3736 0 0 2989 3736 0 0 -2989 625 3264 5 MP stroke
4 w
DO
SO
6 w
0 sg
 625 3264 mt 4361 3264 L
 625  275 mt 4361  275 L
 625 3264 mt  625  275 L
4361 3264 mt 4361  275 L
 625 3264 mt 4361 3264 L
 625 3264 mt  625  275 L
 625 3264 mt  625 3226 L
 625  275 mt  625  312 L
%%IncludeResource: font Helvetica
/Helvetica /ISOLatin1Encoding 120 FMSR

 592 3409 mt 
(0) s
1516 3264 mt 1516 3226 L
1516  275 mt 1516  312 L
1483 3409 mt 
(5) s
2407 3264 mt 2407 3226 L
2407  275 mt 2407  312 L
2341 3409 mt 
(10) s
3297 3264 mt 3297 3226 L
3297  275 mt 3297  312 L
3231 3409 mt 
(15) s
4188 3264 mt 4188 3226 L
4188  275 mt 4188  312 L
4122 3409 mt 
(20) s
 625 3264 mt  663 3264 L
4361 3264 mt 4323 3264 L
 525 3308 mt 
(0) s
 625 2765 mt  663 2765 L
4361 2765 mt 4323 2765 L
 425 2809 mt 
(0.5) s
 625 2267 mt  663 2267 L
4361 2267 mt 4323 2267 L
 525 2311 mt 
(1) s
 625 1769 mt  663 1769 L
4361 1769 mt 4323 1769 L
 425 1813 mt 
(1.5) s
 625 1271 mt  663 1271 L
4361 1271 mt 4323 1271 L
 525 1315 mt 
(2) s
 625  773 mt  663  773 L
4361  773 mt 4323  773 L
 425  817 mt 
(2.5) s
 625  275 mt  663  275 L
4361  275 mt 4323  275 L
 525  319 mt 
(3) s
 625  221 mt 
(x 10) s
%%IncludeResource: font Helvetica
/Helvetica /ISOLatin1Encoding 80 FMSR

 851  147 mt 
(4) s
 625 3264 mt 4361 3264 L
 625  275 mt 4361  275 L
 625 3264 mt  625  275 L
4361 3264 mt 4361  275 L
gs 626 275 3736 2990 rc
24 w
/c8 { 0.000000 0.000000 1.000000 sr} bdef
c8
1 -3 0 3 0 -2 1 2 0 -3 1 1 0 3 0 -4 
0 2 1 -1 0 2 0 -3 1 2 0 1 1 -1 0 2 
0 -3 0 1 1 -1 0 3 1 -3 0 2 0 -2 1 3 
0 -3 0 2 1 0 0 -1 0 1 1 -2 0 4 0 -3 
1 1 0 -1 0 1 1 1 0 -2 0 3 1 -2 0 -1 
0 2 1 -1 0 -1 1 1 0 2 0 -1 1 -3 0 2 
1 1 0 -3 0 2 1 1 0 -2 0 3 1 -3 0 2 
0 -1 1 1 0 1 0 -2 1 0 0 2 1 -1 0 0 
0 -2 0 2 1 -2 0 3 0 -4 1 1 0 2 0 -1 
1 2 0 -4 0 3 1 1 0 -3 0 2 1 -3 0 4 
0 -1 1 -1 1 0 0 3 0 -3 0 1 1 1 0 -3 
0 2 1 -1 0 1 0 -3 0 3 1 -2 0 -1 0 4 
1 -2 0 2 0 -4 0 2 1 0 0 1 0 -2 0 1 
1 1 0 1 0 -2 0 1 1 -1 0 0 0 1 1 -2 
0 3 0 -2 1 0 0 2 0 -3 1 1 0 1 0 -2 
1 1 0 -1 0 0 1 1 0 1 0 -2 0 1 1 2 
0 -3 0 1 1 1 0 1 0 -4 1 2 0 1 1 -1 
0 2 0 -3 0 1 1 -1 0 3 1 -1 0 2 0 -4 
0 2 1 0 0 0 0 -3 0 3 1 -2 0 4 0 -2 
1 -1 0 3 0 -3 1 -2 0 4 1 -1 0 1 0 -2 
0 1 1 -1 0 -2 0 4 1 -1 0 1 0 -2 0 1 
1 -1 0 1 0 -2 1 1 0 2 0 -2 0 1 1 -1 
0 2 0 -3 0 2 1 -1 0 2 0 -3 1 3 0 -4 
0 1 1 2 0 1 0 -3 1 1 0 -2 0 4 1 -2 
0 -1 0 3 1 -1 0 1 0 -3 1 1 0 1 0 -2 
1 -1 0 3 0 -1 1 -2 0 4 0 -1 1 -1 0 1 
0 -3 0 2 1 0 0 -2 0 3 1 -1 0 -2 0 3 
1 -2 0 1 0 -2 0 0 1 1 0 -1 0 3 1 -1 
0 1 0 -3 0 2 1 -1 0 1 0 -2 0 1 1 1 
0 -1 0 3 1 -3 0 1 0 -1 1 1 0 -2 1 1 
0 2 0 -2 0 1 1 -1 0 3 0 -3 1 0 0 -1 
0 4 1 -3 0 3 0 -2 1 2 0 0 0 -4 0 2 
1 1 0 0 0 -2 0 1 1 -2 0 0 0 2 1 -1 
0 2 0 -3 0 1 1 1 0 3 0 -3 0 0 1 -1 
0 2 0 -4 0 3 1 1 0 -2 1 1 0 -3 0 1 
1 1 0 0 0 2 1 -1 0 1 0 0 1 -1 0 1 
0 -3 0 2 1 1 0 -2 1 1 0 -1 0 1 1 1 
0 -3 0 1 1 1 4265 3148 300 MP stroke
0 -1 0 1 1 1 0 -3 1 1 0 2 0 -4 0 2 
1 -1 0 2 0 -3 0 2 1 1 0 0 0 -2 0 1 
1 -1 0 -2 0 3 1 -1 0 2 0 -2 1 1 0 1 
0 -3 0 1 1 1 0 1 0 -2 0 2 1 -1 0 3 
0 -4 0 1 1 1 0 2 0 -4 0 1 1 1 0 0 
0 -2 0 0 1 3 0 -3 1 2 0 0 0 -2 1 2 
0 -3 0 1 1 1 0 1 0 -2 0 1 1 1 0 -2 
0 2 1 -1 0 -2 0 3 1 -1 0 2 0 -4 0 3 
1 -2 0 2 0 -2 0 2 1 0 0 -3 0 2 1 -1 
0 3 0 -4 1 1 0 0 0 1 1 1 0 1 0 -2 
1 1 0 2 0 -3 0 0 1 1 0 -1 0 2 1 -3 
0 2 0 -1 1 1 0 0 0 -2 1 1 0 -1 0 0 
1 3 0 -3 0 1 1 -1 0 2 0 -1 1 1 0 -3 
0 1 1 1 0 1 0 -1 1 -1 0 2 0 -2 0 1 
1 -1 0 2 0 -2 1 1 0 1 0 -2 0 1 1 -1 
0 2 0 -3 1 2 0 1 0 -3 0 3 1 -1 0 -2 
0 3 1 -3 0 3 1 1 0 -3 1 1 0 2 0 -3 
1 1 0 -1 0 3 1 -3 0 3 1 -1 0 1 0 -3 
0 1 1 1 0 -1 0 1 1 -1 0 1 0 -2 0 1 
1 -1 0 3 1 -2 0 2 0 -3 0 3 1 -1 0 1 
0 -3 0 1 1 2 0 -2 1 -1 0 2 1 -1 0 2 
0 -3 1 0 0 2 0 -2 1 1 0 1 0 -2 0 0 
1 2 0 1 0 -2 0 0 1 1 0 1 0 -3 1 4 
0 -3 0 1 1 -2 0 4 0 -2 1 0 0 -1 0 1 
1 -1 0 3 0 -3 0 2 1 -2 0 1 0 -2 1 1 
0 3 0 -1 1 -1 0 -2 0 1 1 1 0 -2 0 2 
1 0 0 0 0 -3 0 2 1 -1 0 3 1 -1 0 -2 
0 1 1 1 0 2 0 -3 1 -2 0 5 0 -1 1 -2 
0 3 0 -3 1 2 0 1 0 -3 0 1 1 0 0 1 
0 -4 0 1 1 3 0 -2 0 1 1 1 0 -2 0 0 
1 1 0 -1 0 2 1 -1 0 -1 0 2 1 -1 0 -1 
0 1 1 -1 0 1 1 -1 0 2 0 -1 1 1 0 -2 
0 2 1 -3 0 4 0 -2 1 1 0 -2 0 2 1 -1 
0 2 0 -3 0 1 1 -1 0 3 1 -2 0 0 0 2 
1 -2 0 1 1 -1 0 1 0 -1 0 1 1 1 0 -3 
0 1 1 -1 0 3 0 -4 0 1 1 1 0 1 0 -3 
0 2 1 1 0 -3 0 1 1 2 0 1 0 -2 1 -1 
0 2 0 -2 0 2 4172 3147 300 MP stroke
1 1 0 -2 0 0 1 1 0 1 0 -3 1 0 0 2 
0 -3 0 2 1 1 0 -1 0 1 1 -1 0 2 0 -4 
0 1 1 1 0 2 0 -2 1 -1 0 3 0 -3 0 0 
1 1 0 2 0 -3 0 2 1 -1 0 2 0 -3 0 1 
1 2 0 -4 0 4 1 -2 0 -1 0 1 1 -2 0 3 
0 -3 0 2 1 0 0 2 0 -3 0 2 1 -1 0 1 
0 -2 1 1 0 1 0 -3 0 2 1 -1 0 -1 0 2 
1 1 0 0 0 -3 0 3 1 -2 0 1 1 1 0 -2 
1 2 0 -3 0 2 1 0 0 -2 0 2 1 -1 0 -1 
0 2 1 -1 0 1 1 -1 0 2 0 -4 1 1 0 2 
0 -2 1 1 0 -1 0 2 1 -1 0 1 0 -2 0 0 
1 0 0 4 0 -3 1 -1 0 2 0 -2 1 1 0 2 
0 -3 0 1 1 1 0 0 0 -2 0 1 1 1 0 1 
0 -3 0 2 1 -1 0 2 0 -3 0 1 1 1 0 -2 
0 1 1 1 1 -1 -1 0 2 0 0 1 0 -2 0 1 
1 -1 0 2 1 -1 0 2 0 -3 0 2 1 -1 0 2 
0 -2 1 -1 0 2 0 -2 1 0 0 3 1 -2 0 1 
0 -2 1 1 0 2 0 -3 1 0 0 3 0 -3 1 -1 
0 2 0 -1 1 1 0 1 0 -2 0 2 1 0 0 -2 
0 1 1 1 0 -2 0 2 1 -2 0 2 0 0 1 0 
0 1 0 -2 1 1 0 -3 0 3 1 -1 0 1 0 -3 
0 2 1 -1 0 1 0 -2 0 1 1 1 0 1 0 -2 
0 1 1 1 0 1 0 -4 1 2 0 1 0 -2 0 1 
1 1 0 -1 1 -3 0 4 0 -2 1 2 0 0 0 -2 
0 1 1 2 0 -4 0 0 1 3 0 -2 0 1 1 1 
0 -2 0 2 1 1 0 -4 0 2 1 -1 0 2 0 0 
1 -1 0 1 0 -2 0 1 1 -2 0 3 1 -1 0 3 
0 -3 1 1 0 -1 1 1 0 -1 0 1 1 -2 0 2 
0 -3 1 1 0 2 0 -2 1 1 0 1 0 -2 0 0 
1 1 0 -1 0 2 1 -1 0 2 0 -3 0 1 1 1 
0 2 0 -1 1 -3 0 4 0 -2 1 -1 0 2 0 0 
1 -1 0 -2 0 1 1 1 0 -3 0 3 1 -1 0 2 
0 -3 0 1 1 1 0 -2 1 1 0 2 0 -3 0 1 
1 1 0 0 0 -2 0 1 1 1 0 -1 0 2 1 -2 
0 1 1 -1 0 1 0 -2 0 1 1 2 0 -3 0 1 
1 2 0 -2 0 1 1 2 0 -5 0 2 1 1 0 -1 
0 3 1 -3 0 2 0 -2 0 1 1 -1 0 2 0 -2 
0 1 1 -1 0 3 4078 3146 300 MP stroke
0 -1 1 -2 0 3 0 -1 1 -1 0 2 0 -3 1 1 
0 1 0 -3 0 1 1 -1 0 2 1 1 0 -1 0 2 
1 -3 0 -2 0 4 1 -1 0 1 0 -1 1 1 0 1 
0 -4 1 2 0 1 0 -2 1 1 0 2 0 -3 0 1 
1 2 0 1 0 -5 0 2 1 1 0 -3 0 2 1 0 
0 2 0 -3 0 1 1 -1 0 3 0 0 1 -1 0 -2 
1 -1 0 3 0 -3 1 3 0 1 0 -3 1 1 0 -2 
0 4 1 -2 0 -2 0 4 1 -2 0 2 0 -3 0 1 
1 -1 0 3 0 -1 1 1 0 -3 0 2 1 -1 0 2 
0 -2 1 1 0 -1 0 1 1 -1 0 1 0 -3 0 2 
1 1 0 2 0 -3 1 2 0 1 0 -4 0 1 1 2 
0 -4 0 1 1 1 0 2 0 -3 1 1 0 -2 0 4 
1 -2 0 1 0 -3 1 3 0 1 0 -3 0 1 1 1 
0 2 0 -4 0 3 1 -3 0 2 0 -2 0 3 1 -3 
0 3 1 -1 0 0 0 -3 0 3 1 0 0 -2 0 1 
1 -2 0 3 0 0 1 -3 0 3 0 -2 1 0 0 2 
0 -3 0 2 1 1 0 0 0 -2 0 1 1 2 0 -3 
0 1 1 2 0 -4 0 1 1 1 0 2 0 -3 0 3 
1 -3 0 -1 0 3 1 -1 0 1 0 -2 1 1 0 1 
0 -3 0 2 1 1 0 -2 0 2 1 -1 0 1 0 -2 
0 1 1 1 0 -2 0 2 1 -1 0 1 0 -3 1 -1 
0 4 1 -1 0 1 0 -3 0 1 1 1 0 1 0 -2 
1 2 0 1 0 -2 0 1 1 -1 0 -1 0 3 1 -2 
0 2 0 -4 0 3 1 -1 0 0 0 1 1 -1 0 1 
0 -2 0 1 1 2 0 -4 0 1 1 2 0 -1 1 -1 
0 3 0 -4 0 2 1 -1 0 2 0 -3 0 2 1 0 
0 -2 0 3 1 -1 0 -2 0 3 1 -1 0 1 0 -2 
0 1 1 -1 0 3 0 -2 1 -2 0 4 0 -1 1 -2 
0 2 0 -1 1 1 0 -2 0 1 1 -1 0 1 0 -1 
1 1 0 1 0 -3 0 2 1 1 0 -3 0 2 1 -1 
0 2 0 -2 0 1 1 1 0 -2 0 3 1 -2 0 2 
0 -4 0 2 2 0 0 2 0 -4 0 1 1 1 0 1 
0 -2 0 1 1 -1 0 -1 0 3 1 -1 0 0 0 -2 
1 2 0 -2 0 3 1 -1 0 0 0 -1 1 1 0 -2 
0 3 1 -1 0 3 0 -5 0 2 1 1 0 1 0 -4 
0 1 1 1 0 2 1 0 0 -3 0 2 1 -1 0 2 
0 -3 0 2 1 -1 0 1 0 -2 1 1 0 1 0 -2 
1 1 0 1 0 -3 3986 3150 300 MP stroke
0 2 1 2 0 -3 0 2 1 -1 0 2 0 -4 0 1 
1 -1 0 3 0 0 1 -2 0 2 0 -3 0 1 1 1 
0 2 0 -3 0 1 1 2 0 -3 1 1 0 -2 0 2 
1 -1 0 2 0 -2 1 1 0 -2 0 1 1 -2 0 4 
1 -1 0 2 0 -4 0 3 1 -1 0 0 0 -2 0 1 
1 1 0 -2 0 1 1 -1 0 2 0 -2 0 2 1 -3 
0 3 0 -1 1 1 0 -2 0 1 1 -1 0 2 1 -1 
0 1 0 -2 0 1 1 1 0 1 0 -3 0 3 1 -3 
0 4 0 -4 0 1 1 1 0 1 0 -2 1 1 0 -2 
0 1 1 -1 0 3 0 -3 0 1 1 1 0 2 0 -4 
0 3 1 -1 0 1 0 -3 1 3 0 -2 1 3 0 0 
0 -2 1 1 0 1 0 -3 1 1 0 -1 0 3 1 -2 
0 -2 0 4 1 -1 0 -2 0 1 1 -1 1 1 0 2 
0 -3 0 1 1 -1 0 -1 0 4 1 -3 0 3 0 0 
1 -2 0 -2 0 4 1 -1 0 1 0 -4 0 3 1 -1 
0 1 0 -4 0 2 1 1 0 2 1 -2 0 2 0 -3 
0 2 1 -2 0 3 0 -4 1 2 0 2 0 -4 0 1 
1 1 0 1 0 -3 0 1 1 1 0 -2 0 3 1 -1 
0 2 0 -4 0 1 1 1 0 -2 0 3 1 -2 0 1 
1 -1 0 -1 0 3 1 -1 0 -2 1 3 0 1 0 -4 
1 3 0 -3 0 2 1 -1 0 2 0 -3 0 2 1 -1 
0 -1 0 2 1 -2 0 2 0 -3 0 1 1 2 0 2 
0 -4 0 2 1 0 0 1 0 -2 0 1 1 -1 0 2 
0 -3 0 2 1 -1 0 1 0 -3 0 1 1 3 0 0 
0 -4 0 2 1 1 0 1 0 -3 0 1 1 1 0 1 
0 -5 0 4 1 -1 0 -1 0 2 1 -3 0 4 1 -2 
0 0 0 3 1 -1 0 -3 0 1 1 1 0 2 0 -3 
0 1 1 -2 0 2 0 -1 1 1 0 -1 0 3 1 -3 
0 2 0 -3 0 2 1 1 0 -2 0 2 1 -1 0 0 
0 1 1 -1 0 -1 0 4 1 -3 0 3 0 -4 0 2 
1 -1 0 2 0 -3 0 1 1 -1 0 3 0 -1 1 -1 
0 2 0 -3 0 1 1 0 0 2 0 -3 1 1 0 1 
0 -2 1 1 0 -2 0 3 1 -1 0 1 0 -2 1 2 
0 -3 0 2 1 2 0 -3 0 2 1 -1 0 2 0 -1 
1 -1 0 -2 1 1 0 3 1 -2 0 2 0 -3 0 2 
1 -1 0 1 0 -2 0 1 1 -1 0 3 0 -3 1 2 
0 1 0 -3 0 1 1 1 0 1 0 -4 0 3 1 1 
0 -3 0 2 1 -1 3894 3148 300 MP stroke
0 1 1 -1 0 2 0 -3 0 2 1 -1 0 2 0 -4 
0 3 1 -1 0 0 0 1 1 1 0 -2 0 2 1 -1 
0 -2 1 1 0 1 0 -2 1 1 0 3 0 -3 1 2 
0 0 0 -3 0 1 1 2 0 -4 0 2 1 -1 0 -1 
0 3 1 -1 0 2 0 -3 1 1 0 -1 0 2 1 1 
0 -2 0 2 1 0 0 0 0 -3 0 2 1 -1 0 2 
0 -2 1 1 0 -2 0 4 1 -3 0 2 0 -3 1 1 
0 2 0 -2 0 2 1 -2 0 3 0 -4 0 1 1 1 
0 1 0 -2 0 1 1 -1 0 3 0 -4 0 2 1 -2 
0 3 0 -1 1 -1 0 2 0 -3 0 2 1 -1 0 0 
0 1 1 1 0 0 0 -3 0 2 1 1 0 -3 0 2 
1 0 0 -1 0 3 1 -2 0 -1 0 2 1 -1 0 1 
0 -3 0 1 1 2 0 -2 0 4 1 -4 0 2 0 -3 
0 3 1 -1 0 -1 0 2 1 -1 0 1 0 -2 0 1 
1 1 0 1 0 -4 1 3 0 -1 1 -1 0 2 0 -2 
0 2 1 -3 0 3 1 -2 0 2 1 -1 0 2 0 -3 
0 2 1 0 0 2 0 -4 0 2 1 0 0 1 0 -3 
0 2 1 0 0 -2 0 1 1 -1 0 3 0 -3 1 1 
0 2 0 -3 0 2 1 -1 0 3 0 -4 0 2 1 -1 
0 -1 0 3 1 0 0 -3 0 1 1 1 0 1 0 -3 
0 1 1 1 0 -2 0 2 1 2 0 -3 1 -1 0 2 
0 -1 1 -1 0 2 0 -1 1 1 0 0 0 -2 0 1 
1 1 0 -4 0 4 1 -1 0 2 0 -3 0 2 1 -2 
0 1 0 -1 1 1 0 1 0 -3 0 2 1 -1 0 2 
0 -2 1 1 0 2 0 -3 0 2 1 -1 0 1 0 -2 
1 1 0 -2 0 2 1 1 0 1 0 -3 1 2 0 -2 
0 0 1 1 0 -2 0 3 1 -1 0 -1 0 1 1 1 
0 -3 0 2 1 1 0 -2 0 1 1 1 0 -2 0 1 
1 1 0 -2 1 2 0 0 0 -1 1 1 0 -2 0 1 
1 1 0 1 0 -4 0 1 1 1 0 -1 0 1 1 1 
0 -2 1 1 0 1 0 -3 0 2 1 -1 0 -2 0 3 
1 2 0 -4 0 2 1 1 0 -2 0 2 1 -1 0 2 
0 -3 1 -1 0 5 0 -4 1 2 0 -2 0 2 1 -1 
0 2 0 -3 0 1 1 -1 0 2 0 -2 1 2 0 1 
0 -3 0 1 1 1 0 -4 0 3 1 0 0 1 0 -2 
0 1 1 1 0 -1 0 3 1 -4 0 3 0 -4 0 3 
1 -1 0 1 0 -2 1 1 0 -2 0 4 1 -3 0 3 
0 -4 0 1 1 1 3802 3147 300 MP stroke
0 2 0 -3 0 2 1 -1 0 2 0 -3 0 2 1 -2 
0 2 0 -1 1 1 0 -2 0 2 1 1 0 -2 0 3 
1 -2 0 2 0 -3 0 1 1 -1 0 1 1 1 0 0 
0 -2 1 1 0 0 0 1 1 -2 0 2 0 -3 1 2 
0 -2 0 3 1 -1 0 1 0 -3 1 2 0 1 0 -2 
0 1 1 -1 0 2 0 -2 1 1 0 0 0 1 1 -3 
0 -1 0 3 1 -1 0 3 0 -3 1 1 0 -1 0 1 
1 1 0 1 0 -4 0 2 1 -1 0 1 0 -3 0 1 
1 1 0 1 0 -2 1 1 0 1 0 -2 1 1 0 1 
0 -2 0 1 1 1 0 1 0 -3 0 2 1 -2 0 3 
0 -1 1 -2 0 2 0 -1 1 1 0 0 0 -2 0 2 
1 1 0 -1 0 1 1 -1 0 1 0 -2 1 1 0 -1 
1 1 0 1 0 -3 1 3 0 -3 0 1 1 1 0 1 
0 -2 0 0 1 1 0 0 0 -2 0 1 1 1 0 -2 
0 3 1 -1 0 -2 0 2 1 -1 0 3 1 -2 0 1 
0 -2 0 1 1 -1 0 1 0 -2 1 2 0 0 0 -2 
0 1 1 2 0 -1 0 2 1 -2 0 -1 0 2 1 -2 
0 2 0 -1 1 -1 0 2 1 -1 0 1 0 -2 0 1 
1 1 0 -1 0 2 1 -1 0 1 0 -3 1 1 0 1 
0 -1 1 -1 0 2 0 -2 1 1 0 -1 0 2 1 -1 
0 1 1 -1 0 -2 0 3 1 -1 0 -2 0 3 1 -1 
0 1 0 -2 0 1 1 -1 0 3 0 -1 1 -2 0 3 
0 -2 1 -1 0 1 0 -1 1 1 0 1 0 -1 1 1 
0 -1 0 3 1 -1 0 2 0 -5 0 2 1 -1 0 2 
0 -4 1 4 0 1 0 -5 0 2 1 1 0 2 0 -4 
0 3 1 -1 0 1 0 -4 0 2 2 0 0 1 0 -2 
1 1 0 0 0 2 1 -1 0 -1 1 1 0 1 0 -2 
0 1 1 -1 0 2 0 -4 0 1 1 1 0 0 0 -2 
0 1 1 1 0 1 0 -3 0 2 1 0 0 2 0 -4 
1 3 0 -2 1 1 0 -2 0 2 1 -1 0 -1 0 2 
1 -1 0 1 0 -2 0 1 1 -1 0 2 0 -1 1 1 
0 -2 0 2 1 1 0 -2 1 1 0 2 0 -4 0 2 
1 0 0 1 0 -2 1 2 0 -2 0 3 1 -1 0 1 
0 -4 0 2 1 -1 0 2 0 -1 1 1 0 -2 0 1 
1 1 0 1 0 -2 0 1 1 1 0 -3 1 1 0 -2 
1 2 0 -2 1 1 0 2 0 -2 0 1 1 -1 0 1 
0 -2 0 1 1 1 0 -2 0 2 1 -1 0 1 0 -2 
1 3 0 -3 0 2 3708 3146 300 MP stroke
1 -1 0 1 0 -2 0 2 1 -1 0 2 0 -3 1 2 
0 2 0 -4 0 2 1 -1 0 1 0 -2 1 1 0 1 
0 -2 1 2 0 -3 1 2 0 -1 0 1 1 1 0 -3 
0 1 1 1 0 1 0 -3 1 1 0 3 0 -3 0 2 
1 0 0 1 0 -3 0 1 1 -1 0 2 0 -2 0 1 
1 -1 0 2 1 0 0 -2 0 2 1 -2 0 2 0 -2 
0 1 1 1 0 -2 0 1 1 -1 0 4 0 -2 1 -2 
0 3 1 -1 0 1 0 -2 1 1 0 1 0 -3 0 1 
1 -1 0 -1 0 3 1 -1 0 -1 0 3 1 -3 0 2 
0 -2 0 1 1 -1 0 3 0 -1 1 1 0 -4 0 4 
1 -2 0 2 0 -2 1 1 0 2 0 -4 0 2 1 -2 
0 0 0 2 1 -2 0 2 0 -1 1 1 0 -2 0 4 
1 -2 0 0 0 -2 1 2 0 -3 0 2 1 1 0 1 
0 -4 0 2 1 3 0 -3 0 1 1 -1 0 3 0 -5 
0 2 1 1 0 1 0 -3 0 1 1 1 0 0 0 -2 
0 2 1 -1 0 2 0 -5 0 3 1 -1 0 2 0 -1 
1 2 0 -3 1 2 0 -2 0 2 1 -1 0 1 0 -2 
0 1 1 1 0 1 0 -3 0 2 1 -1 0 1 0 -2 
0 1 1 1 0 -2 0 1 1 1 0 -2 0 1 1 -1 
0 2 0 -2 1 1 0 2 0 -3 0 1 1 1 0 -2 
0 2 1 -1 0 1 0 -2 1 2 0 -2 0 1 1 1 
0 1 0 -3 0 2 1 -1 0 1 0 -2 0 1 1 1 
0 -2 0 1 1 -1 0 2 0 -2 0 0 1 1 0 1 
0 -2 0 0 1 1 0 -2 0 3 1 -2 0 2 0 -1 
1 -1 0 3 0 -2 1 1 0 0 0 -1 0 1 1 -2 
0 3 0 -2 1 2 0 -3 0 1 1 1 0 0 0 -2 
1 1 0 2 0 -3 0 2 1 -1 0 -1 0 2 1 -1 
0 -1 0 2 1 -1 0 1 0 -3 0 3 1 -1 0 1 
0 -4 0 2 1 3 0 -4 0 2 1 1 0 0 0 -2 
0 1 1 1 0 -2 0 2 1 -1 0 2 0 -3 0 1 
1 1 0 1 0 -2 0 0 1 1 0 2 0 -3 0 1 
1 -1 0 2 0 -1 1 1 0 -3 0 0 1 1 0 1 
1 -1 0 3 0 -4 0 0 1 1 0 1 0 -2 0 1 
1 1 0 1 0 -2 1 1 0 -1 0 1 1 -1 0 3 
0 -1 1 -1 0 -2 0 4 1 -1 0 1 0 -4 1 1 
0 -1 0 3 1 -1 0 -2 1 3 0 -3 0 3 1 -1 
0 -2 0 1 1 1 0 2 0 -4 1 2 0 1 0 -2 
1 1 0 0 0 -2 3617 3148 300 MP stroke
0 1 1 1 0 1 0 -2 1 2 0 -2 0 2 1 -1 
0 1 0 -2 0 1 1 -1 0 2 0 -2 1 1 0 -1 
0 2 1 -1 0 1 0 -2 1 -1 0 4 0 -2 1 1 
0 -3 0 1 1 1 0 -1 0 1 1 1 0 1 0 -2 
1 1 0 1 0 -3 0 1 1 1 0 1 0 -3 0 1 
1 1 0 -1 0 1 1 -1 0 1 0 -3 0 2 1 -1 
0 2 1 1 0 0 0 -3 1 1 0 2 1 -2 0 1 
0 -2 0 0 1 1 0 1 0 -1 1 -1 0 2 0 -3 
0 2 1 1 0 -3 0 3 1 -1 0 2 0 -3 1 1 
0 1 0 -1 1 -1 0 3 1 -3 0 2 0 -1 1 1 
0 2 0 -4 0 2 1 -1 0 2 0 -3 0 1 1 -1 
0 1 1 2 0 -2 0 1 1 -1 0 2 0 -2 0 1 
1 -1 0 2 0 1 1 -3 0 -1 0 3 1 -2 0 2 
0 -4 0 2 1 2 0 -2 0 2 1 -1 0 1 0 -2 
0 0 1 1 0 2 0 -2 1 -1 0 2 0 -3 0 1 
1 2 0 -2 1 2 0 1 0 -3 0 2 1 -2 0 2 
0 -1 1 -1 0 1 0 -2 0 1 1 1 0 1 0 -4 
0 4 1 -2 0 2 0 0 1 -2 0 3 0 -2 1 1 
0 -2 0 1 1 -2 0 3 0 -2 1 0 0 2 0 -3 
0 1 1 1 0 2 0 -4 0 3 1 -1 0 -1 0 2 
1 -2 0 2 0 -2 1 1 0 1 0 -3 0 1 1 0 
0 3 0 -4 0 2 1 1 0 -4 0 2 1 2 0 -2 
0 1 1 -1 0 -2 0 3 1 -1 0 2 0 -2 1 2 
0 0 0 -3 1 1 0 -1 0 3 1 -1 0 1 0 -4 
0 3 1 1 0 -2 0 2 1 -2 0 3 0 -2 1 -1 
0 2 0 -3 1 2 0 -1 0 1 1 -1 0 2 0 -1 
1 1 0 0 0 -3 0 1 1 2 0 -4 0 3 1 1 
0 -4 0 3 1 -1 0 2 0 -2 0 1 1 -1 0 1 
0 -1 0 1 1 -1 0 0 0 2 1 -2 0 1 0 -2 
0 1 1 1 0 1 0 -2 1 1 0 1 0 -2 0 1 
1 1 0 0 0 -2 1 1 0 1 0 -1 1 -1 0 2 
0 -1 1 -1 0 2 0 -3 0 3 1 -1 0 1 0 -3 
0 1 1 2 0 -2 1 1 0 -2 1 1 0 2 0 -1 
1 -1 0 0 0 2 1 -1 0 1 0 -2 1 1 0 1 
0 -3 0 1 1 1 0 0 0 -1 0 0 1 -2 0 4 
0 -3 1 2 0 -2 0 1 1 2 0 -3 0 2 1 -1 
0 2 0 -1 1 1 0 1 0 -3 1 1 0 1 1 -1 
0 -3 0 4 1 -1 3524 3145 300 MP stroke
0 1 0 -1 1 1 0 -2 0 2 1 -1 0 2 0 -3 
1 2 0 -2 0 1 1 1 0 1 0 -3 0 1 1 -1 
0 2 1 -1 0 -1 0 2 1 -1 0 2 0 -3 0 1 
1 -1 0 -1 0 3 1 -1 0 1 0 -2 1 1 0 2 
0 -4 0 3 1 -1 0 1 0 -2 0 0 1 2 0 0 
0 -2 0 1 1 3 0 -4 0 2 1 -3 0 4 1 -1 
0 1 0 -4 1 3 0 1 0 -3 0 2 1 -2 0 2 
0 -3 0 2 1 1 0 0 0 -1 0 0 1 -1 0 2 
0 -1 1 -1 0 3 1 -1 0 -1 1 -1 0 3 1 -1 
0 -1 1 1 0 -2 1 1 0 3 0 -4 0 1 1 1 
0 1 0 -2 1 1 0 3 0 -1 1 -3 0 0 0 2 
1 -1 0 2 0 -4 1 3 0 -2 0 1 1 1 0 1 
0 -4 1 0 0 4 1 -3 0 3 0 -3 1 1 0 -1 
0 2 1 -1 0 2 0 -4 1 1 0 3 0 -1 1 -2 
0 3 0 -1 1 -1 0 -2 0 1 1 1 0 2 0 -1 
1 -1 0 -1 0 3 1 -2 0 2 0 -3 1 2 0 0 
0 -2 0 1 1 1 0 -3 0 3 1 -1 0 1 0 -1 
1 1 0 0 0 -2 1 1 0 2 0 -3 0 0 1 1 
0 -1 0 2 1 -1 0 2 0 -4 0 2 1 0 0 -1 
0 2 1 -1 0 -1 0 2 1 -1 0 2 0 -1 1 -1 
0 1 0 -3 0 2 1 2 0 -3 0 1 1 1 0 1 
0 -3 1 1 0 -1 0 2 1 -1 0 0 0 1 1 -1 
0 2 0 -2 1 -1 0 2 0 -1 1 1 0 -2 0 3 
1 -1 0 -2 0 3 1 -1 0 -1 0 2 1 -2 0 1 
0 -1 1 1 0 1 0 -1 1 -1 0 2 0 0 1 -1 
0 -2 0 3 1 -1 0 -1 0 3 1 -1 0 -3 0 4 
1 -2 0 3 0 -2 1 -1 0 3 0 -4 0 2 1 -2 
0 2 0 -3 0 2 1 1 0 1 0 -2 1 1 0 0 
0 -3 0 1 1 1 0 1 0 -3 0 2 1 1 0 -2 
0 2 1 -1 0 1 0 -3 0 1 1 1 0 1 0 -2 
0 2 1 -1 0 2 0 -4 1 2 0 1 0 -3 1 2 
0 2 0 -3 0 0 1 2 0 -3 0 4 1 -1 0 -3 
0 1 1 2 0 -3 0 1 1 2 0 -1 1 -1 0 2 
0 -1 1 1 0 -2 0 2 1 -2 0 2 0 -1 1 1 
0 -4 0 2 1 0 0 2 1 -1 0 1 0 -2 0 1 
1 -1 0 2 1 -1 0 -2 0 3 1 -2 0 2 0 -2 
1 1 0 -1 0 3 1 -1 0 1 0 -3 0 2 1 1 
0 -3 0 2 1 -1 3428 3143 300 MP stroke
0 2 0 -4 0 1 1 3 0 -4 1 1 0 -1 0 3 
1 -2 0 2 0 -4 0 2 1 0 0 2 0 -3 0 1 
1 1 0 1 0 -2 0 1 1 -1 0 4 0 -1 1 -2 
0 1 0 -3 0 2 1 -1 0 2 0 -2 1 1 0 1 
0 -3 0 1 1 -2 0 3 0 -1 1 1 0 1 0 -2 
0 1 1 -1 0 2 0 -3 0 1 1 1 0 1 0 -2 
0 1 1 1 0 -3 1 2 0 1 0 -2 0 2 1 -1 
0 1 0 -2 0 1 1 1 0 1 0 -3 0 2 1 -2 
0 2 0 -3 0 2 1 0 0 -1 0 2 1 -2 0 3 
0 -1 1 -2 0 2 0 0 1 -2 0 2 0 -2 1 2 
0 -1 1 -1 0 4 0 -6 0 2 1 1 0 2 0 -3 
1 0 0 2 0 -3 0 1 1 2 0 -2 0 3 1 -3 
0 2 0 -2 0 1 1 -1 0 3 0 -2 1 -1 0 2 
0 0 1 -1 0 1 0 -2 1 1 0 1 0 -1 1 -1 
0 3 0 -2 1 1 0 -3 0 4 1 -3 0 -1 0 4 
1 -2 0 -1 0 3 1 -1 0 1 0 -2 0 1 1 -1 
0 1 0 -3 1 1 0 4 0 -2 1 1 0 -3 1 1 
0 1 0 -2 0 1 1 1 0 -4 0 3 1 1 0 -2 
0 0 1 2 0 0 0 -3 0 2 1 -1 0 2 0 -2 
1 1 0 1 0 -2 1 1 0 -2 0 3 1 -1 0 -1 
0 2 1 -1 0 -1 0 2 1 1 0 -2 0 2 1 -1 
0 -2 1 1 0 3 0 -4 0 2 1 -1 0 1 0 -2 
0 1 1 1 0 1 0 -2 0 1 1 -1 0 -2 0 4 
1 -1 0 2 0 -3 0 2 1 -1 0 0 0 -2 0 2 
1 -1 0 -1 0 1 2 -1 0 4 0 -2 1 0 0 2 
0 -5 0 3 1 1 0 -2 0 1 1 1 0 -2 0 1 
1 1 0 -2 0 1 1 -1 0 2 0 -1 1 -2 0 2 
1 1 0 1 0 -4 1 2 0 2 0 -3 1 0 0 2 
0 -2 0 1 1 -1 0 1 0 -2 1 1 0 1 0 -2 
0 1 1 1 0 -1 0 1 1 -1 0 1 1 -1 0 3 
0 -4 0 1 1 1 0 -2 0 2 1 1 0 1 0 -3 
1 1 0 -1 0 0 1 1 0 2 0 -4 0 1 1 1 
0 -2 0 3 1 -2 0 2 0 -3 0 1 1 1 0 1 
0 -3 1 1 0 -1 0 3 1 -1 0 2 0 -1 1 -1 
0 -2 0 2 1 1 0 -3 1 1 0 2 0 -3 0 2 
1 1 0 -3 0 3 1 -1 0 3 0 -3 0 2 1 -1 
0 -2 0 3 1 -2 0 2 0 -2 1 1 0 -3 0 1 
1 3 0 -3 1 1 3335 3142 300 MP stroke
0 1 0 -2 0 2 1 -1 0 1 0 -2 0 2 1 -1 
0 2 0 -3 1 2 0 -1 0 1 1 -1 0 1 0 -3 
0 1 1 2 0 1 0 -2 1 1 0 1 0 -3 0 1 
1 1 0 1 0 -3 0 1 1 3 0 -3 0 0 1 1 
0 -1 0 2 1 -1 0 -1 0 4 1 -2 0 0 0 -2 
0 0 1 1 0 1 0 -3 0 1 1 0 0 2 0 -3 
0 1 1 -2 0 3 1 -1 0 1 0 -4 0 3 1 2 
0 -2 1 2 0 -1 1 -1 0 3 0 -3 1 1 0 -1 
0 3 1 -2 0 1 1 1 0 -2 1 1 0 -1 1 1 
0 2 0 -4 1 2 0 -2 0 0 1 2 0 -3 0 3 
1 -2 0 3 0 -2 1 2 0 -3 1 2 0 -2 0 1 
1 1 0 0 0 -2 1 2 0 1 0 -3 0 1 1 1 
0 1 0 -2 0 1 1 -2 0 4 0 -2 1 0 0 1 
1 -1 0 1 0 1 1 -3 0 1 0 -2 0 1 1 -2 
0 2 1 1 0 -2 1 0 0 3 0 -2 1 -1 0 2 
0 0 1 -1 0 2 0 -3 1 1 0 2 0 -3 0 2 
1 -1 0 -1 0 2 1 -1 0 1 0 -1 1 1 0 -3 
0 3 1 -1 0 -1 0 2 1 1 0 -3 1 2 0 -2 
0 3 1 -2 0 3 0 -4 0 2 1 -1 0 2 0 -3 
1 1 0 1 0 -2 1 2 0 1 0 -3 0 2 1 -2 
0 2 1 -1 0 2 0 -3 0 2 1 -2 0 2 1 -1 
0 1 0 -3 0 3 1 0 0 -1 0 3 1 -2 0 0 
0 -2 0 2 1 -1 0 2 0 -3 1 1 0 1 0 -2 
0 0 1 1 0 2 0 -2 0 2 1 -1 0 1 0 -3 
1 1 0 -1 0 2 1 0 0 2 0 -3 0 1 1 -1 
0 -1 0 3 1 -2 0 2 0 -3 1 1 0 -1 0 3 
1 -1 0 1 0 -3 0 0 1 2 0 2 0 -3 1 1 
0 -2 0 1 1 1 0 0 0 -2 1 2 0 -1 1 -1 
0 4 0 -4 0 0 1 1 0 2 0 -3 0 2 1 -2 
0 4 0 -1 1 -1 0 -1 1 1 0 2 0 -2 1 1 
0 0 0 -2 1 3 0 -3 1 1 0 -1 1 1 0 2 
0 -3 0 1 1 1 0 1 0 -2 0 1 1 -2 0 2 
1 -1 0 2 0 -3 1 1 0 2 0 -2 1 2 0 1 
0 -3 0 2 1 -2 0 2 0 -2 1 1 0 1 0 -3 
1 1 0 1 0 0 1 -1 0 2 0 -3 0 1 1 1 
0 0 0 -2 1 1 0 1 0 -1 1 1 0 2 0 -4 
0 2 1 1 0 -2 0 1 1 -1 0 2 0 -1 1 1 
0 -2 0 2 1 -1 3239 3139 300 MP stroke
0 -1 0 2 1 -1 0 -1 1 1 0 -1 0 1 1 -1 
0 2 0 -1 1 -1 0 2 0 -1 1 -1 0 -1 0 3 
1 -2 0 1 1 -1 0 2 0 -3 0 2 1 1 0 -2 
0 2 1 1 0 -3 0 2 1 -1 0 2 0 -5 0 3 
1 -1 0 2 1 -1 0 -2 0 3 1 -1 0 1 0 -2 
0 2 1 -1 0 1 0 -3 0 2 1 1 0 -3 0 2 
1 1 0 1 0 -4 0 1 1 1 0 0 0 -2 0 1 
1 3 0 -3 0 1 1 -1 0 0 0 1 1 1 0 -2 
0 2 1 -2 0 3 0 -1 1 -1 0 -1 0 2 1 -1 
0 1 0 -2 0 1 1 -1 0 2 0 -2 1 1 0 3 
1 -2 0 1 0 -2 0 1 1 -1 0 2 0 -3 1 1 
0 -1 0 2 1 -2 0 4 0 -2 1 0 0 1 0 -3 
0 2 1 2 0 -4 0 2 1 -1 0 2 0 -2 0 1 
1 1 0 -3 0 3 1 -1 0 -2 0 2 1 -1 0 2 
0 -3 0 1 1 1 0 -2 0 3 1 -1 0 -1 0 2 
1 -1 0 -1 0 1 1 1 0 1 0 -3 0 1 1 -1 
0 2 0 -3 0 2 1 1 0 -1 0 2 1 -2 0 2 
0 -1 1 -1 0 2 0 -1 1 -1 0 2 0 -2 1 1 
0 1 0 -2 0 1 1 -1 0 1 1 -1 0 4 0 -5 
0 3 1 -1 0 1 0 -2 1 1 0 1 0 -3 1 3 
0 -2 0 0 1 1 0 2 0 -4 0 3 1 -1 0 1 
0 -3 0 2 1 -2 0 2 0 -1 1 1 0 1 0 -3 
0 1 1 0 0 1 0 -3 0 1 1 1 0 2 0 -3 
1 1 0 -1 0 1 1 1 0 -1 0 1 1 -1 0 2 
1 -1 0 1 0 -2 0 0 1 -1 0 2 0 -1 1 1 
0 1 0 -2 0 1 1 -1 0 2 1 -1 0 1 0 -2 
0 1 1 -2 0 2 0 -1 1 2 0 1 0 -3 1 1 
0 2 0 -1 1 -1 0 1 0 -2 1 1 0 3 0 -4 
0 2 1 -1 0 -1 0 2 1 0 0 1 0 -3 0 1 
1 1 0 -1 0 2 1 -1 0 2 0 -3 0 2 1 -2 
0 3 0 -2 1 -1 0 0 0 4 1 -1 0 0 0 -2 
0 0 1 -1 0 3 0 -1 1 1 0 0 0 -2 1 1 
0 -1 0 1 1 2 0 -5 0 3 1 1 0 -3 0 1 
1 1 0 1 0 -3 0 2 1 -1 0 1 0 -1 0 0 
1 2 0 1 0 -3 0 1 1 0 0 2 0 -3 0 0 
1 2 0 1 0 -3 1 1 0 -2 0 4 1 -1 0 1 
0 -1 1 -2 0 0 0 3 1 -2 0 2 0 -3 1 2 
0 -2 0 1 1 1 3147 3134 300 MP stroke
0 0 0 -2 0 2 1 0 0 0 0 -2 0 0 1 2 
0 -2 1 1 0 1 0 -3 1 1 0 2 0 -2 1 1 
0 1 0 -2 0 1 1 -1 0 2 0 -2 1 1 0 1 
0 -3 1 3 0 -2 0 1 1 1 0 0 0 -3 0 2 
1 1 0 -1 0 2 1 -1 0 0 0 -2 0 2 1 -1 
0 1 0 -2 0 0 1 2 0 1 0 -3 0 1 1 1 
0 1 1 -1 0 0 0 -2 0 1 1 2 0 -3 0 2 
1 -2 0 2 0 -1 1 1 0 1 0 -4 1 2 0 3 
0 -2 1 -1 0 2 0 -3 0 2 1 -1 0 -1 0 3 
1 -1 0 -2 0 2 1 -2 0 4 0 -2 1 -1 0 2 
0 -2 1 1 0 2 0 -4 0 2 1 -1 0 3 0 -3 
1 2 0 1 0 -2 1 1 0 -3 0 5 1 -4 0 4 
0 -3 1 2 0 -3 1 1 0 2 0 -3 1 2 0 -2 
0 2 1 -1 0 2 0 -3 0 1 1 -2 0 4 0 -1 
1 -1 0 2 0 -2 1 0 0 2 0 -1 1 -1 0 2 
0 -3 0 1 1 0 0 2 0 -3 0 1 1 1 0 -3 
0 6 1 -3 0 1 0 -2 0 1 1 -1 0 3 0 -2 
1 -1 0 2 0 -2 1 0 0 3 0 -3 1 0 0 2 
1 -2 0 2 0 0 1 1 0 -2 0 1 1 1 0 -5 
0 3 1 -1 0 2 0 -3 0 1 1 1 0 1 0 -2 
0 1 1 -2 0 3 0 -1 1 -1 0 3 1 -3 0 3 
1 -2 0 2 0 -3 0 2 1 -1 0 2 0 -3 0 1 
1 -1 0 3 0 -1 1 -1 0 1 0 -2 0 1 1 3 
0 -2 0 1 1 -1 0 2 0 -3 0 1 1 -1 0 1 
0 -2 0 0 1 1 0 2 0 -3 0 2 1 1 0 1 
0 -3 0 2 1 -2 0 2 0 -1 1 1 0 1 0 -4 
0 1 1 2 0 1 0 -2 0 0 1 1 0 1 0 -3 
1 1 0 2 1 -2 0 2 0 -3 0 1 1 3 0 -4 
1 2 0 1 0 -2 0 1 1 -2 0 3 0 -2 1 1 
0 2 0 -4 1 1 0 2 0 -1 1 -1 0 2 0 -2 
0 0 1 2 0 -2 0 0 1 1 0 2 0 -3 0 1 
1 -1 0 2 1 -1 0 2 0 -5 1 4 0 2 0 -5 
0 3 1 -2 0 2 0 -2 1 2 0 0 0 -2 0 1 
1 1 0 -1 0 1 1 -1 0 1 0 -1 1 1 0 1 
0 -3 0 3 1 -2 0 2 0 -1 1 -1 0 0 0 1 
1 -1 0 0 1 3 0 0 0 -4 0 3 1 -1 0 -1 
0 3 1 -1 0 -3 1 2 0 -2 0 3 1 -1 0 2 
0 -3 0 1 1 2 3055 3128 300 MP stroke
0 1 0 -4 0 2 1 -1 0 1 0 -2 0 1 1 2 
0 0 0 -2 1 -1 0 3 0 -2 1 1 0 1 0 -2 
1 1 0 3 0 -4 0 2 1 2 0 -4 0 2 1 1 
0 -1 0 2 1 -1 0 -2 1 3 0 -3 1 1 0 1 
0 -3 1 1 0 3 0 -1 1 -1 0 3 0 -4 0 1 
1 -1 0 1 0 -1 1 1 0 0 0 -3 0 3 1 -1 
0 1 0 -2 0 1 1 1 0 1 0 -3 0 2 1 0 
0 2 0 -3 1 1 0 2 0 -4 0 1 1 1 0 1 
0 -2 0 1 1 -2 0 2 1 -2 0 2 1 -1 0 -1 
0 3 1 -1 0 -1 0 2 1 -2 0 3 0 -4 0 2 
1 1 0 0 0 -1 1 -1 0 2 0 -1 1 -1 0 1 
0 -1 1 1 0 -1 0 1 1 2 0 -3 0 1 1 1 
0 1 0 -3 0 2 1 -1 0 1 0 -3 0 2 1 2 
0 -2 0 1 1 -1 0 2 0 -3 1 0 0 3 0 -4 
0 1 1 1 0 2 0 -3 1 1 0 2 0 -3 0 1 
1 0 0 -2 0 4 1 -2 0 1 0 -2 1 1 0 2 
0 -2 1 1 0 1 0 -3 1 1 0 2 0 -3 0 1 
1 1 0 1 0 -2 0 1 1 1 0 -2 0 2 1 -3 
0 2 0 -1 1 1 0 1 0 -2 0 1 1 -1 0 2 
0 -1 1 -1 0 2 0 -3 0 2 1 1 0 1 0 -3 
0 3 1 -2 0 -1 0 2 1 -1 0 2 0 -3 0 2 
1 1 0 2 0 -4 1 1 0 2 0 -4 0 3 1 -1 
0 2 0 -1 1 1 0 -2 0 0 1 1 0 1 0 -1 
1 -1 0 3 0 -2 1 1 0 -2 0 2 1 -2 0 2 
1 -2 0 2 0 -2 0 2 1 -1 0 1 0 -3 1 3 
0 2 0 -3 0 1 1 -2 0 4 0 -2 1 1 0 -2 
0 1 1 1 0 1 0 -3 0 1 1 1 0 1 0 -2 
0 1 1 -2 0 3 1 -3 0 2 1 -1 0 1 0 -2 
1 1 0 2 0 -1 1 1 0 -3 1 2 0 -3 0 4 
1 -1 0 1 0 -3 1 2 0 2 0 -3 1 1 0 1 
0 -2 0 1 1 1 0 -2 0 2 1 -1 0 -1 0 1 
1 1 0 -1 0 2 1 -3 0 2 0 -1 1 1 0 0 
0 -2 0 1 1 1 0 -2 1 2 0 0 0 -1 1 1 
0 0 0 -2 0 1 1 -1 0 3 1 1 0 -4 1 2 
0 -1 1 -1 0 3 0 -2 1 1 0 2 0 -3 0 1 
1 0 0 2 0 -3 0 2 1 -2 0 2 0 -1 1 2 
0 -4 0 1 1 1 0 -1 0 2 1 -1 0 2 0 -3 
0 2 1 -1 0 -1 2962 3123 300 MP stroke
0 4 1 -3 0 4 0 -3 1 -1 0 2 0 -2 1 1 
0 1 0 -2 0 2 1 0 0 0 0 -2 0 2 1 -2 
0 0 0 4 1 -3 0 2 0 -1 1 -1 0 -1 0 2 
1 1 0 -2 0 1 1 -2 0 3 0 -3 1 2 0 0 
0 -2 0 1 1 1 0 1 0 -3 0 1 1 1 0 -1 
0 2 1 -1 0 3 0 -4 0 1 1 1 0 1 0 -2 
0 1 1 1 0 -4 0 1 1 1 0 2 0 -3 0 1 
1 1 0 1 0 -3 1 1 0 2 0 -1 1 -1 0 1 
1 -1 0 2 0 -1 1 1 0 -2 0 2 1 -1 0 -1 
0 2 1 -4 0 5 0 -1 1 -1 0 1 0 -2 0 1 
1 1 0 -2 0 1 1 -1 0 4 0 -4 1 1 0 2 
0 -1 1 -2 0 4 1 -3 0 2 0 -3 0 1 1 3 
0 -4 0 1 1 1 0 0 0 -2 0 1 1 1 0 1 
0 -2 0 2 1 -2 0 3 0 -1 1 -1 0 2 0 -3 
0 3 1 -1 0 -2 0 3 1 1 0 -3 0 2 1 -1 
0 3 0 -4 0 1 1 1 0 1 0 -2 0 0 1 1 
0 -2 0 2 1 -1 0 2 0 -3 0 1 1 1 0 1 
0 -2 1 1 0 2 0 -3 1 1 0 2 0 -2 1 -1 
0 2 0 -3 0 2 1 2 0 -4 0 1 1 1 0 1 
0 -3 1 2 0 1 0 -2 1 1 0 2 0 -3 1 2 
0 1 0 -3 1 2 0 1 0 -3 0 1 1 -1 0 3 
0 -3 1 1 0 2 0 -2 1 1 0 -1 0 2 1 -1 
0 2 0 -3 0 1 1 -1 0 2 0 -1 1 2 0 -3 
0 3 1 -3 0 3 0 -2 1 1 0 1 0 -3 0 2 
1 -1 0 2 0 -1 1 -1 0 3 0 -3 0 2 1 1 
0 -3 0 2 1 1 0 1 0 -3 0 2 1 -1 0 1 
0 -2 1 2 0 -2 0 2 1 -2 0 2 1 -1 0 1 
0 -3 0 2 1 1 0 -2 0 2 1 -1 0 -1 0 3 
1 -1 0 1 0 -3 0 1 1 1 0 2 0 -4 0 3 
1 -1 0 -2 0 2 1 -1 0 1 0 -1 0 0 1 1 
0 2 0 -3 1 2 0 1 0 -2 0 2 1 -1 0 1 
0 -2 0 1 1 -1 0 -1 0 3 1 -2 0 -1 0 3 
1 -2 0 2 1 -1 0 1 0 -1 1 1 0 -2 0 1 
1 1 0 1 0 -3 1 1 0 1 1 1 0 -3 0 3 
1 -1 0 2 1 -1 0 1 0 -3 0 2 1 1 0 0 
0 -1 0 0 1 -1 0 2 1 -1 0 2 0 -3 0 2 
1 0 0 -3 0 2 1 1 0 1 0 -4 0 2 1 1 
0 -2 0 4 1 -1 2870 3107 300 MP stroke
0 -2 0 2 1 -1 0 1 0 -2 0 1 1 1 0 -2 
0 2 1 -1 0 2 0 -2 1 1 0 1 0 -2 1 1 
0 -2 0 2 1 -1 0 3 0 -3 1 1 0 3 0 -5 
0 1 1 1 0 3 0 -4 0 1 1 1 0 1 0 -3 
0 0 1 2 0 -2 0 2 1 -2 0 3 0 -1 1 1 
0 1 0 -3 0 2 1 -1 0 1 0 -2 0 0 1 1 
0 1 0 -3 0 2 1 -1 0 2 1 -1 0 1 0 -2 
0 2 1 -1 0 2 0 -1 1 -1 0 2 0 -1 1 -1 
0 2 0 -1 1 1 0 -2 0 3 1 -1 0 1 0 -3 
0 0 1 2 0 0 0 -2 0 2 1 -1 0 1 0 -2 
1 1 0 -1 0 3 1 -1 0 -3 0 5 1 -4 0 3 
0 -3 1 1 0 2 0 -1 1 1 0 0 0 -3 0 2 
1 1 0 2 0 -4 1 0 0 3 0 -1 1 -1 0 1 
0 -2 1 1 0 2 0 -3 0 1 1 -1 0 3 1 -3 
0 3 0 -2 1 2 0 1 0 -2 0 1 1 -1 0 1 
0 -3 0 2 1 -1 0 3 1 -1 0 3 0 -4 0 2 
1 -2 0 2 0 -3 0 2 1 -2 0 3 1 -1 0 2 
0 -2 1 1 0 1 0 -3 0 1 1 1 0 -1 0 2 
1 -1 0 1 0 -3 0 3 1 -1 0 2 0 -3 0 1 
1 0 0 2 0 -4 0 1 1 1 0 -1 0 3 1 -1 
0 2 0 -3 0 1 1 0 0 -1 0 2 1 -1 0 -1 
0 2 1 -1 0 1 0 -2 0 1 1 2 0 -2 0 1 
1 -1 0 3 0 -4 0 1 1 1 0 1 1 -1 0 2 
0 -4 0 2 1 0 0 -1 0 2 1 0 0 -2 0 2 
1 1 0 -2 0 1 1 -1 0 2 1 -2 0 3 0 -1 
1 1 0 -2 0 1 2 0 0 2 0 -3 0 1 1 0 
0 2 0 -3 0 2 1 -2 0 2 0 -2 1 1 0 2 
0 -3 1 1 0 2 0 -1 1 -1 0 2 0 0 1 -1 
0 2 0 -4 0 2 1 -1 0 2 0 -2 1 -1 0 3 
0 -2 1 1 0 1 0 -3 0 3 1 0 0 1 0 -3 
0 2 1 0 0 1 0 -3 1 1 0 -1 0 2 1 1 
0 -1 0 2 1 0 0 0 0 -2 0 1 1 -1 0 2 
0 -2 1 1 0 2 0 -2 0 1 1 -2 0 3 0 -2 
1 3 0 -2 1 1 0 2 0 -3 0 2 1 -3 0 2 
0 -3 0 3 1 1 0 -3 0 2 1 -1 0 2 0 -3 
0 1 1 2 0 0 0 -1 0 1 1 -2 0 3 0 -3 
1 1 0 3 0 -4 0 2 1 0 0 -1 0 1 1 1 
0 -2 0 2 1 -1 2779 3091 300 MP stroke
0 -1 0 3 1 -1 0 -1 0 2 1 -1 0 -1 0 2 
1 -1 0 2 0 -3 0 2 1 2 0 -3 0 1 1 1 
0 0 0 -2 1 1 0 1 0 -3 1 0 0 3 0 -1 
1 1 0 1 0 -2 0 0 1 1 0 1 0 -2 0 1 
1 -2 0 3 0 -2 1 0 0 2 0 -1 1 1 0 -1 
0 2 1 -3 0 2 0 -2 1 3 0 -1 0 2 1 -1 
0 -2 1 1 0 2 0 -3 1 1 0 -1 0 0 1 3 
0 -3 0 1 1 1 0 2 0 -3 0 2 1 -2 0 -1 
0 4 1 -3 0 4 0 -2 1 1 0 1 0 -3 0 1 
1 0 0 0 0 1 1 1 0 1 0 -3 0 2 1 -1 
0 1 0 -3 0 2 1 3 0 -3 1 1 0 1 0 -2 
0 1 1 1 0 1 0 -4 0 3 1 -1 0 2 0 -3 
0 1 1 2 0 1 0 -3 0 1 1 2 0 -2 1 3 
0 -2 0 1 1 -1 0 -1 1 -1 0 5 0 -2 1 1 
0 0 0 -2 0 1 1 -1 0 2 1 1 0 -4 0 3 
1 -1 0 -1 0 1 1 1 0 -2 0 1 1 1 0 2 
0 -3 0 1 1 1 0 -3 0 3 1 -1 0 2 0 -3 
0 1 1 0 0 3 0 -3 1 1 0 -1 0 2 1 1 
0 -3 0 1 1 1 1 0 -1 -1 0 1 2 0 0 2 
0 -4 0 2 1 0 0 2 0 -2 1 1 0 2 0 -3 
0 1 1 1 0 -2 1 1 0 2 0 -3 0 2 1 -1 
0 -1 0 3 1 -1 0 1 0 -2 0 1 1 1 0 1 
0 -2 1 1 0 1 0 -3 0 3 1 -2 0 3 0 -3 
1 0 0 3 0 -1 1 1 0 -2 1 1 0 -2 0 2 
1 1 0 1 0 -3 0 2 1 -1 0 1 0 0 1 -1 
0 2 0 -1 1 1 0 -2 0 3 1 -1 0 3 0 -4 
1 1 0 3 0 -3 0 2 1 -1 0 1 0 -2 0 2 
1 -2 0 4 0 -3 1 1 0 -2 0 3 1 1 0 -2 
1 -2 0 4 1 -1 0 -1 0 2 1 -1 0 1 0 -1 
1 1 0 1 0 -2 1 1 0 -1 0 2 1 1 0 1 
0 -3 0 0 1 1 0 1 0 -2 0 1 1 -2 0 1 
1 1 0 -1 0 1 1 1 0 2 0 -4 0 2 1 -1 
0 3 0 -1 1 -1 0 2 0 -2 0 1 1 -1 0 3 
0 -3 1 -1 0 3 1 -2 0 3 0 -3 1 2 0 1 
0 -3 0 2 1 1 0 -3 0 3 1 -1 0 1 0 -2 
0 1 1 1 0 1 0 -1 1 1 0 -1 1 -1 0 3 
0 -2 1 1 0 2 0 -3 0 2 1 -1 0 -2 0 4 
1 -4 0 3 1 1 2684 3059 300 MP stroke
0 -3 0 1 1 2 0 1 0 -3 0 2 1 -1 0 1 
0 -1 0 1 1 -2 0 2 1 0 0 -2 0 3 1 -1 
0 -1 0 2 1 -1 0 2 0 -3 1 1 0 2 1 -1 
0 3 0 -2 1 1 0 1 0 -3 0 1 1 1 0 1 
0 -1 1 -1 0 3 0 -1 1 -1 0 2 0 -2 1 2 
0 1 0 -3 0 1 1 1 0 -3 0 3 1 1 0 -2 
0 1 1 1 0 -2 0 3 1 -1 0 1 0 -1 0 0 
1 1 0 1 0 -2 1 1 0 1 0 -2 0 1 1 1 
0 -2 0 2 1 -1 0 2 0 -3 0 1 1 1 0 2 
0 -4 0 2 1 0 0 -1 0 3 1 -1 0 1 0 -2 
1 1 0 1 0 -3 0 2 1 1 0 2 0 -4 0 2 
1 1 0 1 0 -4 0 3 1 -2 0 3 1 1 0 -3 
0 1 1 -1 0 0 0 3 1 -1 0 -1 0 2 1 -2 
0 3 1 -1 0 1 0 -2 0 1 1 1 0 -1 0 2 
1 -1 0 2 0 -4 0 3 1 1 0 -3 1 2 0 2 
0 -3 1 2 0 1 0 -4 0 1 1 3 0 0 0 -4 
0 3 1 -1 0 2 0 -2 1 3 0 1 0 -2 0 0 
1 1 0 -2 0 2 1 1 0 0 0 -2 0 1 1 1 
0 -2 0 2 1 -1 0 -1 0 3 1 -1 0 -2 0 1 
1 1 0 0 0 2 1 -1 0 1 0 -2 0 2 1 -1 
0 3 0 -1 1 -2 0 -1 0 4 1 0 0 1 0 -3 
1 0 0 0 0 3 1 -2 0 1 0 -2 0 1 1 1 
0 -1 0 2 1 -2 0 3 1 -1 0 -1 0 2 1 -2 
0 4 1 -1 0 0 0 -3 0 1 1 1 0 -2 0 4 
1 -1 0 2 0 -3 0 2 1 -2 0 3 0 -1 1 -2 
0 2 0 -1 1 1 0 2 0 -4 0 3 1 2 0 -3 
0 1 1 -1 0 3 0 -2 1 -1 0 5 1 -2 0 1 
0 -2 0 1 1 -1 0 4 0 -4 0 0 1 1 0 3 
0 -3 1 1 0 -1 0 2 1 -2 0 3 1 -2 0 2 
0 -1 1 1 0 -1 0 3 1 -1 0 -1 0 2 1 -1 
0 1 0 -2 1 2 0 1 0 -2 1 2 0 0 0 -2 
1 1 0 -1 0 3 1 -2 0 2 0 -1 1 2 0 1 
0 -3 0 2 1 -1 0 2 1 -1 0 2 0 -3 0 2 
1 0 0 -2 0 3 1 -1 0 2 0 -1 1 1 0 -2 
0 3 1 -1 0 0 0 -2 0 1 1 -1 0 3 0 -2 
1 1 0 -1 0 3 1 -1 0 2 0 -3 0 1 1 1 
0 1 0 -2 0 1 1 1 0 2 0 -3 1 2 0 -1 
0 2 1 0 0 1 2591 3012 300 MP stroke
0 -3 0 2 1 -1 0 2 0 -1 1 1 0 -2 0 2 
1 -2 0 2 0 -1 1 1 0 -1 0 2 1 -1 0 -1 
0 2 1 1 0 -2 0 2 1 -1 0 3 0 -1 1 -1 
0 -1 0 3 1 -2 0 1 0 -1 1 1 0 2 0 -3 
0 1 1 -1 0 0 0 3 1 -1 0 2 0 -3 0 1 
1 1 0 3 0 -4 0 3 1 -1 0 2 0 -4 0 2 
1 0 0 2 0 -2 1 1 0 2 0 -3 0 2 1 2 
0 -4 0 4 1 -1 0 1 0 -2 0 1 1 1 0 2 
0 -3 1 1 0 2 0 -3 0 1 1 1 0 3 0 -4 
0 2 1 -2 0 3 0 -3 0 2 1 2 0 -2 0 2 
1 -1 0 1 0 -3 1 2 0 2 0 -3 0 1 1 2 
0 1 0 -3 0 1 1 3 0 -3 1 2 0 0 0 -2 
0 1 1 2 0 1 0 -4 0 1 1 2 0 2 0 -3 
0 1 1 1 0 1 0 -3 0 1 1 2 0 1 0 -5 
0 4 1 -1 0 1 0 -1 1 2 0 1 0 -2 1 1 
0 0 0 1 1 -1 0 -1 1 3 0 1 0 -2 0 1 
1 1 0 0 0 -2 0 2 1 1 0 -1 1 1 0 1 
0 -1 0 0 1 1 0 1 0 -3 1 2 0 2 0 -3 
0 2 1 1 0 -2 1 1 0 3 0 -3 0 2 1 -1 
0 3 0 -4 1 2 0 -1 0 1 1 1 0 2 0 -4 
0 2 1 0 0 2 0 -3 0 2 1 1 0 1 0 -4 
0 2 1 1 0 0 0 -2 1 2 0 2 1 -2 0 4 
0 -1 1 -1 0 2 1 -1 0 -1 0 3 1 -2 0 3 
0 -1 1 -1 0 2 0 0 1 -1 0 3 0 -3 1 1 
0 3 0 -3 0 1 1 1 0 1 0 -3 0 0 1 2 
0 0 0 1 1 -1 0 2 0 -2 0 1 1 2 0 -3 
0 3 1 -1 0 3 0 -3 1 1 0 2 0 -3 0 1 
1 1 0 -1 0 3 1 -2 0 3 0 -3 1 1 0 3 
0 -1 1 -1 0 3 0 -3 1 2 0 2 0 -2 1 1 
0 2 0 -4 0 2 1 1 0 1 0 -2 1 2 0 1 
0 -2 0 0 1 -1 0 4 0 -3 1 2 0 1 0 -3 
0 2 1 1 0 -1 0 0 1 2 0 2 0 -1 1 -1 
0 -1 0 3 1 -2 0 3 0 -1 1 1 0 -2 0 3 
1 -1 0 1 0 -2 1 2 0 2 0 -4 0 3 1 1 
0 2 0 -4 1 1 0 3 0 -3 0 1 1 3 0 -3 
0 2 1 -2 0 3 1 1 0 -2 0 0 1 1 0 2 
1 -1 0 1 1 1 0 -3 0 4 1 -1 0 2 0 -3 
0 1 1 2 0 -1 2500 2946 300 MP stroke
1 2 0 1 0 -3 0 1 1 0 0 4 0 -2 1 -1 
0 -1 0 4 1 -1 0 -1 0 3 1 -2 0 3 0 -1 
1 1 0 -2 0 2 1 -1 0 0 0 4 1 -1 0 -2 
0 4 1 -2 0 -1 0 3 1 -3 0 -1 0 4 1 -1 
0 -1 0 2 1 -1 0 3 0 -1 1 1 0 -3 0 2 
1 1 0 1 0 -2 0 1 1 1 0 2 0 -4 0 2 
1 1 0 -2 0 3 1 -1 0 3 0 -4 0 2 1 2 
0 -2 0 1 1 1 0 2 0 -2 1 1 0 -1 0 1 
1 1 0 3 0 -3 1 2 0 -2 0 1 1 1 0 -1 
0 1 1 1 0 1 1 1 0 -2 0 2 1 1 0 -2 
0 2 1 -1 0 -1 0 4 1 -1 0 1 0 -2 0 2 
1 -1 0 3 0 -3 1 1 0 2 0 -1 1 1 0 -1 
0 2 1 -1 0 3 0 -3 1 3 0 -2 0 1 1 1 
0 -1 1 1 0 2 0 -1 1 1 0 -1 0 4 1 -1 
0 -2 0 3 1 -1 0 2 0 -1 1 1 0 0 0 -1 
1 1 0 2 1 -1 0 3 0 -2 1 -1 0 4 1 -2 
0 2 0 -2 0 2 1 -2 0 4 0 0 1 -1 0 1 
0 -3 0 3 1 -2 0 4 1 -1 0 -1 0 2 1 -1 
0 3 0 -1 1 -1 0 1 0 -1 1 1 0 3 1 1 
0 -4 0 4 1 -1 0 3 0 -2 1 0 0 3 0 -1 
1 -1 0 2 0 -1 1 1 0 2 0 -2 1 2 0 1 
0 -1 1 -1 0 3 0 -1 1 1 0 0 0 2 1 -1 
0 -1 0 1 1 1 0 2 0 -3 0 2 1 1 0 -1 
0 3 1 -1 0 -2 0 3 1 1 0 2 0 -3 0 0 
1 1 0 -1 0 2 1 -1 0 3 1 -1 0 -1 0 3 
1 -1 0 2 0 -3 1 3 0 2 0 -3 0 1 1 3 
0 -2 1 1 0 1 0 -2 0 2 1 1 0 -3 0 3 
1 1 0 -2 0 0 1 1 0 3 1 -1 0 3 1 -1 
0 2 0 -3 1 2 0 3 0 -1 1 -3 0 5 0 -4 
1 2 0 2 0 -3 0 1 1 1 0 4 0 -5 0 2 
1 1 0 2 0 -2 1 1 0 -1 0 3 1 2 0 -3 
0 1 1 2 0 -2 0 3 1 -1 0 4 1 -1 0 -1 
0 2 1 -1 0 3 1 -1 0 -1 0 3 1 -1 0 -2 
0 4 1 -1 0 -1 0 2 1 1 0 1 0 -2 0 1 
1 1 0 2 0 -4 0 3 1 1 0 2 0 -4 0 2 
1 1 0 2 0 -4 0 3 1 1 0 -3 0 3 1 1 
0 1 1 1 0 0 0 -2 0 1 1 1 0 -2 0 4 
2 0 0 3 1 -1 2400 2833 300 MP stroke
0 2 1 -1 0 2 1 -1 0 3 0 -1 1 1 0 3 
0 -2 1 1 0 -3 0 3 1 -1 0 3 1 -1 0 3 
0 -2 1 1 0 2 0 -1 1 2 0 2 0 -4 0 2 
1 0 0 2 1 1 0 1 0 -2 1 2 0 2 1 -1 
0 3 0 -4 0 3 1 -1 0 -1 0 4 1 -1 0 3 
1 1 0 0 0 -1 0 1 1 -1 0 3 0 -1 1 -1 
0 4 0 -2 1 2 0 1 0 -3 0 1 1 1 0 2 
1 1 0 -2 0 4 1 -1 0 2 0 -4 0 2 1 2 
0 2 0 -2 1 1 0 3 0 -4 0 2 1 2 0 -2 
0 1 1 1 0 0 0 4 1 -2 0 -1 0 2 1 1 
0 -1 0 4 1 -1 0 2 0 -2 1 3 0 2 0 -5 
0 2 1 -1 0 4 0 -1 1 1 0 2 0 -3 0 2 
1 1 0 3 0 -4 0 2 1 0 0 2 1 2 0 -1 
0 1 2 2 0 -2 0 3 1 -1 0 3 0 -1 1 -1 
0 4 0 -1 1 2 0 -3 0 3 1 -1 0 -1 0 5 
1 -1 0 3 0 -4 0 1 1 1 0 1 0 -2 0 1 
1 1 0 -1 0 4 1 -1 0 -1 0 3 1 -1 0 4 
0 -2 1 0 0 -1 0 3 1 -2 0 5 1 -2 0 3 
0 -2 1 0 0 0 0 3 1 -1 0 4 0 -3 1 3 
0 -3 0 4 1 -1 0 2 0 -2 0 1 1 1 0 2 
0 -2 0 1 1 1 0 1 1 1 0 3 0 -3 0 2 
1 1 0 -1 0 3 1 -1 0 2 0 -3 0 1 1 2 
0 -2 0 3 1 1 0 2 0 -3 0 1 1 2 0 2 
1 -1 0 3 0 -4 0 2 1 0 0 4 0 0 1 1 
0 0 0 -3 0 3 1 1 0 1 0 -3 0 2 1 1 
0 2 0 -2 0 2 1 -1 0 3 0 -1 1 1 0 2 
1 -1 0 -1 0 4 1 1 0 2 0 -3 0 2 1 -1 
0 3 0 -4 0 2 1 1 0 3 0 -4 0 2 1 2 
0 -1 0 3 1 -1 0 3 1 -1 0 3 0 -2 1 1 
0 2 0 -1 1 1 0 -1 0 3 1 1 0 2 0 -4 
0 3 1 1 0 1 0 -2 0 2 1 1 0 -2 0 4 
1 -2 0 0 0 4 1 -1 0 2 0 -1 1 1 0 3 
0 -1 1 1 0 2 1 -1 0 3 1 0 0 2 0 -3 
0 1 1 3 0 -1 0 3 1 -1 0 2 0 0 1 1 
0 -1 0 2 1 1 0 1 0 -4 0 3 1 2 0 -1 
0 3 1 1 0 -2 0 3 1 -1 0 3 1 1 0 -1 
0 2 1 -1 0 -1 0 3 1 1 0 0 0 2 1 -2 
0 3 1 1 0 3 2303 2656 300 MP stroke
1 -1 0 3 0 -2 1 1 0 -1 0 5 1 -1 0 3 
0 -2 1 0 0 4 0 -1 1 -1 0 1 1 3 0 2 
1 1 0 1 0 -3 0 2 1 1 0 2 1 -1 0 3 
1 0 0 3 1 1 0 -1 0 3 1 -2 0 3 1 2 
0 1 0 -3 0 2 1 1 0 3 1 -2 0 5 0 -1 
1 0 0 -1 0 3 1 1 0 2 0 -3 0 3 1 -1 
0 2 1 1 0 2 1 1 0 1 0 -2 0 2 1 1 
0 2 0 -3 0 2 1 2 0 1 1 -1 0 3 1 1 
0 3 1 -1 0 4 0 -4 0 2 1 2 0 2 1 -2 
0 6 1 -1 0 1 0 -1 1 1 0 3 0 -1 1 1 
0 3 0 -1 1 2 0 0 0 -2 0 2 1 1 0 2 
0 -3 0 2 1 1 0 -1 0 3 1 1 0 -1 0 3 
1 1 0 -1 0 2 1 1 0 -1 0 3 1 1 0 2 
0 -4 0 3 1 2 0 1 0 -2 1 0 0 3 1 3 
0 1 1 3 0 1 0 -3 0 2 1 1 0 2 0 -3 
0 3 1 2 0 -2 0 2 1 1 0 -1 0 3 1 1 
0 2 0 -3 0 1 1 1 0 4 0 -1 1 2 0 2 
0 -1 1 1 0 2 1 -3 0 5 1 -1 0 5 0 -4 
1 2 0 6 0 -3 1 3 0 -2 0 3 1 -1 0 3 
1 1 0 2 0 -3 0 2 1 1 0 3 0 -1 1 1 
0 1 1 1 0 5 1 -1 0 3 0 -4 0 2 1 2 
0 2 0 -4 0 3 1 1 0 4 0 -2 1 0 0 4 
1 -2 0 5 1 -1 0 1 0 -1 1 3 0 3 1 -1 
0 0 0 4 2 2 0 4 0 -2 1 2 0 3 0 -3 
1 5 0 -4 0 3 1 1 0 3 1 2 0 2 0 -3 
0 2 1 1 0 2 1 1 0 3 0 -3 0 1 1 1 
0 4 1 -1 0 4 0 -2 1 2 0 -1 0 3 1 1 
0 3 1 -1 0 5 1 -2 0 4 1 -1 0 -1 0 4 
1 2 0 -2 0 4 1 1 0 -2 0 4 1 2 0 -1 
1 2 0 -1 0 3 1 -1 0 5 1 -1 0 4 1 0 
0 3 0 -4 0 2 1 1 0 5 1 -1 0 4 1 -1 
0 3 1 3 0 1 0 -4 0 4 1 0 0 3 0 -1 
1 1 0 3 0 -1 1 -1 0 6 0 -2 1 1 0 3 
0 -1 1 1 0 3 1 -1 0 5 0 -2 1 2 0 -1 
0 3 1 1 0 3 0 -2 1 3 0 2 1 1 0 3 
0 -3 1 2 0 4 1 -2 0 6 1 1 0 -2 0 4 
1 1 0 1 0 -2 0 1 1 3 0 -2 0 3 1 2 
0 -1 0 5 1 -1 2195 2361 300 MP stroke
0 4 0 -5 0 3 1 1 0 4 1 -1 0 3 1 1 
0 3 0 -1 1 1 0 0 0 1 1 3 0 4 1 -1 
0 4 0 -2 1 2 0 4 1 -1 0 3 1 2 0 4 
0 -7 0 5 1 1 0 4 1 -2 0 4 0 -1 1 2 
0 3 1 1 0 4 0 -2 1 2 0 3 1 1 0 3 
0 -4 0 2 1 2 0 3 1 1 0 3 0 -1 1 2 
0 -2 0 4 1 1 0 -1 0 3 1 1 0 4 1 -1 
0 3 1 1 0 0 0 5 1 -1 0 4 0 -1 1 1 
0 2 1 1 0 5 1 -1 0 4 0 -1 1 2 0 -1 
0 3 1 1 0 4 1 -1 0 4 0 -1 1 1 0 6 
0 -3 1 1 0 5 0 -1 1 1 0 5 0 -2 1 2 
0 -1 0 3 1 1 0 1 1 3 0 3 0 -2 1 2 
0 5 1 1 0 -2 0 4 1 2 0 -1 0 3 1 2 
0 -2 0 2 1 4 0 -2 0 4 1 1 0 1 1 3 
0 4 1 -1 0 5 1 1 0 -1 0 4 1 1 0 4 
0 -4 0 3 1 1 0 4 1 2 0 -1 0 1 1 3 
0 3 0 -4 0 3 1 2 0 3 0 -4 0 2 1 4 
0 -1 0 3 1 1 0 -1 0 5 1 -1 0 0 0 5 
1 0 0 5 1 -1 0 4 1 -1 0 5 0 -1 1 1 
0 3 1 3 0 3 0 -4 0 2 1 2 0 5 0 -1 
1 2 0 -1 0 3 1 1 0 4 1 1 0 5 1 -2 
0 5 1 0 0 6 0 -1 1 -1 0 4 1 2 0 4 
0 -1 1 2 0 3 1 1 0 2 0 -1 1 3 0 5 
1 -1 0 3 1 1 0 5 0 -1 1 2 0 -1 0 5 
1 -1 0 4 1 -1 0 7 1 1 0 3 0 0 1 -1 
0 6 0 -1 1 -1 0 6 0 -2 1 2 0 6 1 -1 
0 2 1 3 0 -1 0 6 1 -1 0 5 1 1 0 0 
0 4 1 1 0 5 0 -6 0 4 1 1 0 5 1 2 
0 -1 0 3 1 1 0 4 0 -5 0 3 1 2 0 4 
1 1 0 4 1 1 0 5 0 -1 1 2 0 3 1 1 
0 4 0 -1 1 1 0 4 1 1 0 5 1 1 0 5 
0 -1 1 1 0 -1 0 5 1 0 0 5 1 1 0 3 
0 -4 0 2 1 4 0 -1 0 6 1 -1 0 3 0 -4 
0 3 1 2 0 6 0 -1 1 3 0 -1 0 2 1 3 
0 5 1 2 0 -3 0 8 1 -2 0 4 1 1 0 5 
1 -1 0 5 1 2 0 -2 0 5 1 1 0 3 1 1 
0 5 1 1 0 6 1 1 0 -1 0 5 1 1 0 -1 
0 2 1 3 0 3 2083 1875 300 MP stroke
1 1 0 3 1 4 0 5 0 -5 0 4 1 3 0 3 
1 1 0 4 1 0 0 7 1 1 0 -2 0 5 1 1 
0 -1 0 7 1 -1 0 5 0 -1 1 1 0 5 0 -1 
1 2 0 3 1 1 0 7 0 -1 1 1 0 5 1 2 
0 -1 0 7 1 -2 0 -2 0 8 1 -1 0 5 1 2 
0 5 1 2 0 -1 0 3 1 1 0 6 1 1 0 3 
1 2 0 6 1 -1 0 6 1 1 0 -1 0 5 1 1 
0 4 0 0 1 1 0 7 1 -1 0 6 1 1 0 6 
1 -1 0 6 0 -2 1 2 0 8 1 -1 0 5 1 1 
0 6 0 -7 0 5 1 2 0 6 1 0 0 5 1 -1 
0 6 0 0 1 1 0 -1 0 9 1 -1 0 6 1 0 
0 5 1 1 0 8 1 -1 0 6 1 1 0 -1 0 5 
1 2 0 -2 0 6 1 1 0 8 1 -1 0 7 1 1 
0 -1 0 4 1 3 0 -1 0 6 1 1 0 -1 0 8 
1 -2 0 7 1 3 0 -2 0 7 1 1 0 1 1 4 
0 5 0 -1 1 2 0 6 1 1 0 7 0 -8 0 6 
1 3 0 4 0 -4 0 2 1 2 0 7 1 1 0 6 
0 -1 1 2 0 6 1 2 0 6 0 -1 1 1 0 7 
1 -1 0 7 1 4 0 -1 0 5 1 1 0 7 1 -1 
0 6 1 -1 0 10 1 -1 0 7 1 3 0 -1 0 6 
1 2 0 -2 0 6 1 2 0 6 1 -1 0 7 0 -1 
1 3 0 -3 0 8 1 0 0 8 0 -1 1 1 0 7 
1 -1 0 10 1 2 0 -1 0 7 1 1 0 -2 0 8 
1 2 0 6 0 -2 1 0 0 7 1 1 0 8 1 1 
0 7 1 -1 0 9 1 1 0 6 1 1 0 8 1 1 
0 7 0 -1 1 1 0 6 1 1 0 7 1 1 0 8 
1 -1 0 8 1 1 0 9 0 -1 1 -1 0 8 1 1 
0 6 1 1 0 -2 0 9 1 1 0 7 1 1 0 -1 
0 7 1 3 0 4 1 3 0 8 1 -2 0 9 1 1 
0 6 1 1 0 6 1 2 0 7 1 1 0 8 1 -2 
0 12 0 -1 1 2 0 -1 0 8 1 -2 0 8 0 -2 
1 2 0 9 1 -1 0 8 1 1 0 8 1 1 0 6 
1 2 0 6 1 3 0 -2 0 8 1 1 0 9 0 -1 
1 1 0 8 0 -1 1 2 0 -1 0 6 1 2 0 6 
1 3 0 -1 0 8 1 1 0 -1 0 6 1 3 0 7 
1 1 0 7 1 2 0 8 1 -1 0 7 1 2 0 7 
1 1 0 7 1 1 0 9 1 -1 0 10 1 -1 0 9 
1 1 0 6 1 2 1959 1009 300 MP stroke
0 8 1 1 0 -1 0 8 1 1 0 7 0 -1 1 3 
0 7 1 2 0 8 0 -1 1 2 0 6 1 1 0 9 
0 -2 1 1 0 9 0 -1 1 2 0 7 1 1 0 8 
1 1 0 10 1 -1 0 9 1 2 0 5 1 1 0 9 
1 1 0 10 1 -1 0 8 1 2 0 7 1 2 0 -1 
0 7 1 3 0 7 1 -1 0 10 1 2 0 4 1 4 
0 6 0 0 1 1 0 10 0 -3 1 4 0 0 0 6 
1 3 0 8 1 1 0 7 0 -1 1 2 0 10 1 1 
0 5 1 3 0 9 1 2 0 7 1 3 0 -1 0 7 
1 1 0 8 1 3 0 8 1 2 0 5 1 3 0 -2 
0 11 1 0 0 7 1 2 0 0 0 9 1 1 0 6 
1 1 0 10 1 1 0 7 1 3 0 6 1 2 0 8 
1 -2 0 14 1 -1 0 8 1 3 0 8 1 1 0 7 
1 1 0 11 1 1 0 5 1 1 0 7 1 2 0 11 
1 2 0 6 1 1 0 9 1 1 0 10 1 0 0 7 
0 -9 0 8 1 4 0 -1 0 9 1 -1 0 9 1 2 
0 7 1 2 0 8 1 0 0 9 1 2 0 7 1 1 
0 8 1 1 0 9 1 2 0 -1 0 5 1 3 0 9 
1 -1 0 10 1 -1 0 8 1 2 0 -1 0 8 1 2 
0 7 0 -2 1 4 0 -1 0 8 1 1 0 0 0 7 
1 0 0 5 0 -1 1 2 0 9 0 -1 1 1 0 6 
1 3 0 -1 0 4 1 2 0 2 1 3 0 5 1 -1 
0 6 1 1 0 6 1 -3 0 7 0 -1 1 -1 0 5 
1 -1 0 4 0 -2 1 2 0 2 0 -4 0 2 1 2 
0 1 0 -1 0 0 1 2 0 -2 0 2 1 -1 0 -2 
0 1 1 1 0 -2 1 -3 0 1 0 -2 1 -1 0 -6 
0 1 1 1 0 -6 1 -3 0 -7 1 -1 0 -11 1 -1 
0 -11 1 -2 0 -13 1 -2 0 -17 1 -3 0 -21 1 -2 
0 -23 1 -2 0 -23 1 -4 0 -30 1 -4 0 -32 1 -7 
0 -38 1 -4 0 -40 1 -7 0 -47 1 -8 0 -57 1 -8 
0 -63 1 -7 0 -74 1 -10 0 -73 1 -10 0 -93 1 -13 
0 -104 1 -15 0 -123 1 -16 0 -116 1 -18 0 -155 1 -20 
0 -175 1 -24 0 -197 1 -27 0 -167 0 1 1 1 0 6 
1 -2 0 4 1 2 0 2 0 -3 0 1 1 3 0 3 
1 1 0 -1 0 5 1 -1 0 5 0 -5 0 2 1 3 
0 -1 0 5 1 -1 0 4 1 1 0 2 0 -1 1 3 
0 5 1 1 0 -1 0 4 1 0 0 4 0 -5 0 4 
1 1 0 3 0 0 1833 2201 300 MP stroke
1 1 0 5 1 -1 0 4 0 -1 1 1 0 7 1 -3 
0 5 0 -1 1 1 0 2 1 1 0 4 1 2 0 2 
0 -3 0 2 1 1 0 5 0 -1 1 1 0 4 1 1 
0 1 1 3 0 -1 0 4 1 1 0 3 1 1 0 3 
1 3 0 4 1 -1 0 2 1 3 0 -1 0 2 1 3 
0 3 0 -4 0 3 1 2 0 5 0 -2 1 1 0 6 
1 0 0 -1 0 5 1 -2 0 6 0 -3 1 2 0 6 
0 -3 1 3 0 -2 0 7 1 -2 0 2 1 3 0 5 
0 -1 1 1 0 -1 0 7 1 -2 0 2 1 2 0 4 
1 1 0 4 1 0 0 6 0 -6 0 4 1 1 0 4 
1 1 0 -1 0 5 1 1 0 0 0 4 1 -1 0 3 
1 3 0 5 1 -1 0 6 1 -1 0 -2 0 6 1 2 
0 3 0 -1 1 3 0 5 1 -1 0 3 1 1 0 6 
0 -1 1 2 0 5 0 -7 0 5 1 1 0 4 1 -1 
0 6 1 0 0 1 1 3 0 6 1 2 0 3 0 -4 
0 3 1 1 0 5 1 0 0 6 1 -4 0 9 1 -1 
0 4 1 3 0 -2 0 4 1 1 0 5 1 2 0 -1 
0 2 1 1 0 6 1 1 0 -1 0 6 1 -1 0 6 
1 1 0 -1 0 3 1 1 0 3 0 0 1 2 0 4 
1 1 0 5 1 2 0 6 1 -1 0 1 1 3 0 3 
1 1 0 8 0 -1 1 1 0 4 0 -1 1 1 0 5 
1 -1 0 -1 0 9 1 -2 0 7 1 -1 0 7 1 -1 
0 4 1 1 0 6 1 1 0 0 0 4 1 1 0 -1 
0 4 1 1 0 7 1 1 0 2 0 -1 1 2 0 4 
1 3 0 3 1 1 0 7 1 1 0 -2 0 4 1 3 
0 -1 0 6 1 -2 0 6 1 2 0 2 1 4 0 4 
0 -1 1 1 0 5 0 -1 1 3 0 4 1 2 0 4 
1 1 0 5 1 1 0 6 0 -1 1 2 0 -2 0 7 
1 -1 0 6 1 2 0 4 1 1 0 4 1 2 0 -1 
0 5 1 1 0 9 0 -3 1 1 0 -1 0 6 1 1 
0 4 1 3 0 6 1 -3 0 7 1 1 0 6 1 1 
0 5 1 1 0 3 0 -4 0 4 1 3 0 -2 0 6 
1 2 0 -1 0 8 1 -2 0 7 1 -1 0 6 1 1 
0 5 1 -1 0 8 1 1 0 7 1 -1 0 7 1 -2 
0 8 0 -1 1 2 0 5 1 2 0 -1 0 5 1 1 
0 7 1 1 0 6 1 -1 0 7 1 -1 0 9 1 -1 
0 8 1 0 0 5 1 1 0 5 1 1 0 4 1 3 
0 8 1 -1 0 7 1710 1546 300 MP stroke
0 0 1 3 0 -2 0 6 1 1 0 -1 0 6 1 2 
0 -1 0 7 1 -2 0 10 0 -2 1 1 0 6 1 2 
0 3 1 3 0 6 0 -1 1 3 0 5 0 -1 1 4 
0 -2 0 8 1 -1 0 5 1 3 0 6 1 1 0 7 
1 2 0 6 1 -1 0 8 1 1 0 -1 0 5 1 2 
0 5 1 1 0 10 1 1 0 7 1 -1 0 3 1 6 
0 -1 0 6 1 2 0 -1 0 7 1 1 0 9 1 1 
0 5 0 -6 0 5 1 3 0 6 1 1 0 7 1 2 
0 -1 0 8 1 -1 0 5 1 3 0 7 1 1 0 6 
1 1 0 8 1 2 0 -1 0 5 1 3 0 7 1 1 
0 7 0 -1 1 2 0 8 1 1 0 7 1 2 0 3 
1 4 0 -1 0 8 1 2 0 6 1 1 0 8 1 0 
0 8 1 2 0 4 1 3 0 9 1 1 0 6 1 1 
0 8 1 1 0 7 1 1 0 6 1 2 0 9 1 0 
0 7 1 2 0 8 1 -1 0 7 1 1 0 7 1 2 
0 6 1 3 0 7 1 1 0 7 1 1 0 9 1 1 
0 7 0 -8 0 7 1 3 0 -1 0 9 1 -1 0 7 
0 -2 1 3 0 8 1 2 0 0 0 8 1 -1 0 10 
1 0 0 7 1 2 0 7 1 -1 0 11 1 -2 0 6 
1 4 0 10 1 -1 0 9 1 0 0 -1 0 10 1 1 
0 5 1 3 0 7 0 -1 1 3 0 5 1 3 0 6 
1 3 0 -1 0 10 1 -3 0 11 1 2 0 6 1 2 
0 8 1 2 0 -1 0 6 1 2 0 10 1 2 0 -2 
0 7 1 1 0 8 1 1 0 7 1 2 0 9 0 -1 
1 1 0 7 1 2 0 10 1 -1 0 8 1 0 0 5 
1 4 0 8 1 2 0 9 1 -1 0 9 1 1 0 7 
1 0 0 8 0 -1 1 1 0 10 1 2 0 6 1 3 
0 -2 0 8 1 0 0 9 0 -1 1 4 0 -2 0 8 
1 -3 0 10 1 1 0 7 1 3 0 6 0 -1 1 3 
0 5 1 1 0 8 1 1 0 5 1 2 0 7 0 -1 
1 1 0 8 0 -2 1 2 0 6 0 -1 1 1 0 6 
1 1 0 5 1 1 0 5 1 -1 0 7 1 2 0 -1 
0 5 1 0 0 3 0 -1 1 1 0 -1 0 2 1 3 
0 4 0 -1 1 1 0 3 1 -1 0 3 0 -3 0 1 
1 1 0 2 0 -2 1 1 0 1 0 -3 0 1 1 -1 
0 3 0 -4 0 2 1 1 0 -5 0 1 1 1 0 -4 
0 1 1 -1 0 -6 1 1 0 -8 1 2 0 -7 1 -3 
0 -9 1 -3 0 -8 1585 687 300 MP stroke
1 -2 0 -15 1 -1 0 -16 1 -2 0 -20 1 -1 0 -20 
1 0 0 -27 1 -3 0 -27 1 -4 0 -33 1 -3 0 -29 
1 -6 0 -39 1 -7 0 -46 1 -6 0 -51 1 -6 0 -56 
1 -10 0 -55 1 -9 0 -72 1 -9 0 -82 1 -10 0 -91 
1 -10 0 -94 1 -11 0 -119 1 -16 0 -130 1 -18 0 -148 
1 -16 0 -148 1 -20 0 -184 1 -24 0 -211 1 -28 0 -231 
1 -33 0 -262 1 -3 0 -1 0 2 1 -1 0 -1 0 2 
1 -1 0 1 0 -2 1 2 0 -2 0 1 1 1 0 -2 
0 1 1 -1 0 1 1 1 0 1 0 -3 0 2 1 -2 
0 2 0 -4 1 2 0 2 0 0 1 -2 0 2 0 -2 
1 2 0 -1 1 1 0 -2 0 3 1 -1 0 1 0 -4 
0 1 1 1 0 -2 0 3 1 -2 0 2 0 -3 0 2 
1 -1 0 2 0 -2 1 -2 0 4 0 0 1 -2 0 2 
0 -1 1 -2 0 3 1 -1 0 -2 0 4 1 0 0 1 
0 -3 0 1 1 1 0 -3 0 3 1 -4 0 3 0 -1 
1 -1 0 2 0 -1 1 -1 0 2 0 -4 0 2 1 2 
0 1 0 -3 0 2 1 -1 0 2 0 -1 1 -1 0 -1 
0 2 1 -3 0 3 0 -2 1 1 0 1 0 -2 0 0 
1 1 1 -1 -1 0 2 0 0 2 0 -1 1 -1 0 -1 
0 4 1 -1 0 1 0 -3 1 2 0 -2 0 0 1 2 
0 0 0 -2 1 1 0 1 0 -5 0 3 1 -1 0 3 
1 -1 0 2 0 -3 0 2 1 1 0 -4 0 2 1 -1 
0 2 0 -1 1 -2 0 3 0 -2 1 1 0 1 0 -2 
1 4 0 -4 0 3 1 -1 0 -2 0 1 1 1 0 1 
0 -3 0 2 1 -2 0 0 0 3 1 -1 0 1 0 -2 
0 1 1 -1 0 1 0 -2 0 1 1 1 0 -2 0 1 
1 1 0 -2 0 1 1 -1 0 2 1 -3 0 3 0 -3 
0 1 1 1 0 2 0 -4 0 1 1 2 0 -3 0 2 
1 -1 0 1 0 -2 1 1 0 1 0 -2 0 1 1 1 
0 0 0 -3 0 3 1 -1 0 2 0 -2 1 1 0 -2 
0 1 1 1 0 1 0 -2 0 1 1 -1 0 -1 0 3 
1 -1 0 2 0 -3 0 1 1 -1 0 2 0 -3 0 2 
1 1 0 -2 0 1 1 -1 0 1 0 -1 1 1 0 1 
0 -2 0 2 1 -1 0 1 0 -3 0 2 1 -1 0 2 
0 -3 1 3 0 -3 1 1 0 1 0 -1 1 2 0 -4 
0 1 1 1 0 3 0 -4 0 2 1 -1 0 2 0 -2 
2 0 0 2 0 -3 0 1 1 2 0 -3 0 2 1 -1 
0 1 1 -1 0 1 1480 3151 300 MP stroke
0 -1 1 -1 0 2 1 -1 0 1 0 -3 1 1 0 2 
0 -2 1 2 0 -3 0 1 1 -1 0 1 1 1 0 -2 
0 3 1 -1 0 0 0 -2 0 1 1 1 0 -2 1 2 
0 -1 1 1 0 1 0 -3 0 2 1 -1 0 2 0 -2 
0 1 1 -1 0 -1 0 3 1 -1 0 -2 0 2 1 -1 
0 -2 0 5 1 -1 0 1 0 -3 0 1 1 -1 0 2 
1 -1 0 1 0 -2 0 1 1 1 0 -3 1 2 0 2 
0 -3 0 2 1 -1 0 2 0 -4 0 3 1 1 0 -2 
0 1 1 -1 0 2 0 -3 0 1 1 2 0 0 0 -2 
0 1 1 -1 0 2 0 -3 1 1 0 1 0 -1 1 1 
0 -1 0 1 1 -1 0 -2 0 3 1 -3 0 3 0 -2 
1 1 0 2 1 -1 0 1 0 -3 1 3 0 -3 0 2 
1 -1 0 2 0 -3 1 1 0 0 0 1 1 -1 0 0 
0 2 1 -1 1 -1 -1 0 2 0 0 1 0 -3 1 1 
0 3 0 -2 1 1 0 -2 0 2 1 1 0 -2 1 1 
0 -1 0 1 1 -1 0 2 0 -2 0 1 1 -1 0 2 
1 -2 0 -2 0 2 1 1 0 2 0 -3 0 1 1 -1 
0 2 0 -3 0 2 1 1 0 -3 0 2 1 1 0 0 
0 -2 0 2 1 -1 0 1 0 -4 0 2 1 1 0 1 
0 -3 1 2 0 1 0 -2 0 2 1 -2 0 3 0 -4 
0 1 1 2 0 -2 0 1 1 -1 0 3 0 -3 1 -1 
0 3 0 -3 1 1 0 2 0 -3 1 1 0 -1 0 3 
1 -2 0 2 0 -3 0 1 1 0 0 -2 0 4 1 -1 
0 2 0 -4 0 1 1 1 0 -2 1 1 0 3 0 -4 
0 2 1 0 0 1 0 -2 0 1 1 1 0 0 0 -4 
0 3 1 -1 0 1 0 -1 0 1 1 -1 0 2 0 -2 
1 1 0 -1 0 0 1 -2 0 4 0 -3 1 3 0 -2 
0 1 1 -2 0 2 1 -1 0 0 0 2 1 -1 0 -1 
0 3 1 -3 0 0 0 2 1 -2 0 2 0 0 1 -1 
0 -2 0 3 1 -2 0 4 0 -4 1 1 0 -1 0 2 
1 -1 0 2 0 -3 0 1 1 -1 0 -1 0 3 1 -1 
0 -1 0 3 1 -1 0 1 0 -3 0 2 1 -1 0 1 
0 -2 0 1 1 1 0 0 0 -2 0 2 1 -1 0 2 
0 -3 0 1 1 -1 0 1 0 -2 1 2 0 2 0 -3 
0 1 1 -1 0 2 0 -1 1 -1 0 2 0 -4 0 1 
1 1 0 3 0 -3 1 0 0 2 0 -3 0 2 1 -2 
0 2 0 -3 0 2 1 -1 0 3 1 -1 0 -2 0 3 
1 -1 0 2 0 -5 1386 3154 300 MP stroke
0 2 1 1 0 -3 0 1 1 1 0 2 0 -2 1 3 
0 -3 1 0 0 4 0 -3 1 1 0 0 0 -2 0 1 
1 1 0 1 0 -2 0 2 1 -3 0 4 0 -3 1 1 
0 0 0 -2 0 1 1 -1 0 2 0 -1 1 -1 0 3 
0 0 1 -2 0 3 0 -3 0 1 1 1 0 -3 0 2 
1 0 0 1 0 -2 0 0 1 1 0 1 0 -5 0 2 
1 2 0 0 0 -3 0 1 1 1 0 1 0 -2 0 1 
1 1 0 -3 0 3 1 -2 0 2 0 0 1 -2 0 2 
0 -3 0 2 1 -1 0 2 0 -3 0 2 1 -1 0 0 
0 1 1 -1 0 1 0 -1 1 1 0 -1 0 3 1 -2 
0 -1 0 0 1 1 0 1 0 -3 0 1 1 1 0 2 
0 -4 0 3 1 -2 0 3 0 -3 0 0 1 1 0 2 
0 -4 0 1 1 1 0 -1 0 1 1 -3 0 4 0 -1 
1 -1 0 -1 0 2 1 -1 0 3 1 -3 0 1 0 -2 
1 3 0 -4 0 3 1 -1 0 2 0 -4 0 2 1 1 
0 1 0 -4 1 2 0 2 0 -3 0 2 1 -1 0 -2 
0 2 1 -1 0 1 0 -2 1 3 0 -2 0 3 1 -2 
0 2 0 -2 1 2 0 -3 0 1 1 0 0 1 0 -3 
0 2 1 -1 0 2 0 -3 0 1 1 -1 0 4 0 -2 
1 -1 0 -1 0 3 1 -1 0 -1 0 1 1 1 0 -3 
0 2 1 1 0 -2 0 2 1 -1 0 1 0 -3 1 4 
0 0 0 -3 0 2 1 -1 0 -1 0 3 1 -2 0 2 
0 -3 0 1 1 0 0 2 0 -3 0 1 1 2 0 -2 
0 2 1 -2 0 2 0 -3 0 2 1 1 0 1 0 -3 
1 1 0 1 0 -3 0 2 1 -2 0 2 0 -2 1 2 
0 2 0 -4 0 3 1 -2 0 -2 0 4 1 -2 0 -1 
0 2 1 -1 0 2 0 -3 0 1 1 -2 0 4 0 -3 
1 1 0 2 0 -3 0 2 1 0 0 -1 0 1 1 1 
0 -2 1 1 0 -1 0 1 1 -1 0 2 1 -2 0 2 
0 -3 0 0 1 1 0 1 0 -2 0 2 1 -1 0 1 
0 -2 0 1 1 -1 0 2 0 -3 0 2 1 1 0 1 
0 -3 1 0 0 3 0 -1 1 -1 0 2 0 -3 0 1 
1 -1 0 2 0 -1 1 1 0 -1 0 1 1 -1 0 2 
0 -3 0 2 1 -2 0 2 0 -2 0 1 1 -1 0 3 
0 -2 1 1 0 -3 0 4 1 -2 0 2 0 -4 0 3 
1 -1 0 3 0 -3 1 1 0 1 0 -3 0 1 1 1 
0 -3 0 4 1 -2 0 -2 0 4 1 -2 0 2 0 0 
1 0 0 -2 0 1 1297 3151 300 MP stroke
1 -1 0 2 0 -2 0 2 1 -3 0 3 0 0 1 -1 
0 1 0 -3 1 2 0 1 0 -4 0 2 1 2 0 0 
0 -2 1 1 0 1 0 -3 0 1 1 2 0 -2 0 2 
1 -1 0 -1 0 1 1 1 0 0 0 -2 0 1 1 1 
0 -2 0 2 1 -1 0 1 0 -2 1 2 0 -2 1 1 
0 1 0 -3 1 1 0 2 1 -2 0 2 0 -3 1 1 
0 3 0 -3 0 0 1 0 0 2 0 -4 0 3 1 0 
0 3 0 -4 0 1 1 1 0 -2 0 1 1 -2 0 3 
0 -1 1 1 0 -3 1 2 0 -1 0 2 1 -2 0 3 
0 -5 0 4 1 -1 0 1 0 -2 0 2 1 -1 0 1 
1 -1 0 0 0 -1 0 0 1 1 0 2 0 -3 0 2 
1 -2 0 1 0 0 1 1 0 0 0 -2 0 1 1 -1 
0 3 0 -4 0 2 1 -1 0 0 0 2 1 -1 0 2 
0 -3 0 2 1 -1 0 2 0 -3 1 0 0 2 0 -1 
1 -1 0 2 0 -2 1 1 0 1 0 -3 0 1 1 1 
0 -1 0 2 1 -2 0 2 1 -1 0 2 0 -3 0 1 
1 -1 0 3 0 -5 0 2 1 2 0 -4 0 2 1 0 
0 2 0 -1 1 1 0 -2 0 1 1 1 0 1 0 -2 
0 0 1 2 0 -3 0 2 1 0 0 2 0 -4 0 1 
1 1 0 -1 0 0 1 1 0 -1 0 1 1 1 0 0 
0 -2 0 1 1 -1 0 1 0 -1 1 -1 0 2 0 -3 
0 3 1 -2 0 0 0 2 1 -1 0 3 0 -2 1 -1 
0 -1 0 2 1 2 0 -2 0 0 1 -2 0 4 0 -3 
1 1 0 2 0 -3 0 1 1 1 0 -2 0 0 1 1 
0 2 0 -1 1 -1 0 2 0 -4 0 2 1 -2 0 0 
0 3 1 -1 0 2 0 -4 0 0 1 3 0 -2 1 1 
0 -1 0 2 1 -1 0 -2 0 3 1 -1 0 1 0 -2 
0 1 1 -1 0 2 0 -2 1 -1 0 2 0 -1 1 1 
0 2 0 -4 1 2 0 -2 0 3 1 -1 0 -2 1 1 
0 -2 0 3 1 1 0 1 0 -3 0 1 1 -2 0 2 
1 -1 0 2 0 -3 0 2 1 -1 0 2 0 -3 0 1 
1 1 0 -3 0 1 1 0 0 2 0 -2 1 2 0 -1 
0 0 1 1 0 0 0 -2 0 2 1 0 0 -3 1 1 
0 2 0 -1 1 1 0 1 0 -3 1 0 0 4 0 -4 
1 2 0 1 0 -3 0 2 1 -1 0 2 0 -3 0 1 
1 -1 0 -1 0 4 1 -1 0 2 0 -4 0 1 1 0 
0 2 0 -2 0 1 1 -1 0 2 0 -2 1 -2 0 3 
0 0 1 0 0 -2 1205 3152 300 MP stroke
0 2 1 -2 0 2 0 -2 1 2 0 1 0 -3 0 1 
1 1 0 0 0 -2 0 0 1 3 0 -2 1 1 0 -3 
0 2 1 1 0 1 0 -3 0 2 1 -2 0 2 0 0 
1 -1 0 2 0 -2 1 2 0 -2 0 2 1 -1 0 1 
0 -2 1 -1 0 0 0 2 1 0 0 -2 0 1 1 -1 
0 2 0 -1 1 -1 0 2 0 -2 1 1 0 1 0 -2 
1 2 0 1 0 -3 1 1 0 1 0 -1 1 1 0 1 
0 -4 0 3 1 -1 0 1 0 -3 0 1 1 1 0 -2 
0 3 1 -2 0 0 0 1 1 1 0 1 0 -3 0 2 
1 -2 0 2 0 -1 1 -1 0 2 0 1 1 -3 0 2 
0 -2 1 1 0 -1 0 1 1 1 0 0 0 -3 0 3 
1 -1 0 1 0 -2 0 0 1 2 0 1 0 -2 0 1 
1 -2 0 2 0 0 1 -1 0 2 0 -3 1 3 0 -3 
0 2 1 -1 0 1 0 -1 1 1 0 -2 0 3 1 -2 
0 2 0 -3 0 2 1 -2 0 3 0 -2 1 2 0 -2 
1 1 0 2 0 -4 1 2 0 1 0 -2 0 1 1 -2 
0 3 1 -1 0 1 0 -3 0 1 1 1 0 -1 0 3 
1 -2 0 -2 0 2 1 -2 0 3 1 -1 0 -2 0 3 
1 -1 0 -2 0 3 1 -1 0 1 0 -3 0 2 1 -1 
0 2 0 0 1 -1 0 0 0 1 1 -1 0 2 0 -3 
0 1 1 -1 0 2 0 -2 1 3 0 -4 0 4 1 -3 
0 3 0 -4 1 2 0 1 0 -1 1 1 0 0 0 -2 
1 1 0 -2 1 2 0 -2 0 2 1 -1 0 1 0 -2 
0 1 1 1 0 -1 0 1 1 -2 0 2 1 -2 0 3 
0 -2 1 1 0 -1 0 1 1 -1 0 2 0 -2 0 0 
1 2 0 -2 0 1 1 -1 0 2 0 -3 1 1 0 0 
0 1 1 -2 0 3 0 -4 0 3 1 -2 0 2 0 -1 
1 1 0 0 0 -2 0 2 1 -1 0 3 0 -4 1 1 
0 1 0 -2 1 1 0 3 0 -4 0 2 1 0 0 2 
0 -3 0 1 1 1 0 -2 1 1 0 -2 0 3 1 -1 
0 -2 0 4 1 -2 0 -1 0 2 1 -1 0 -1 0 1 
1 -1 0 2 0 -3 0 1 1 1 0 -2 0 3 1 -1 
0 1 0 -2 1 2 0 -3 0 1 1 1 0 -2 0 3 
1 -3 0 3 1 -2 0 1 0 -2 0 1 1 2 0 -3 
0 2 1 1 0 -3 0 2 1 -1 0 1 0 -2 0 2 
1 0 0 -3 0 1 1 2 0 -1 1 -1 0 0 0 2 
1 -1 0 2 0 -3 1 2 0 -2 1 2 0 -4 0 2 
1 2 0 -2 0 2 1110 3150 300 MP stroke
1 -1 0 1 0 -3 1 1 0 1 1 -1 0 2 0 0 
1 -2 0 3 0 -1 1 -1 0 2 0 -3 0 1 1 1 
0 -2 0 2 1 -1 0 1 0 -1 1 1 0 -2 0 3 
1 -2 0 2 1 -2 0 3 0 -4 0 1 1 1 0 2 
0 -4 0 3 1 -2 0 1 0 -2 0 1 1 1 0 1 
0 -3 0 2 1 -1 0 2 0 -3 0 2 1 1 0 -3 
1 1 0 2 0 -3 1 1 0 2 0 -3 0 0 1 2 
0 1 0 -2 0 1 1 -1 0 3 0 -4 0 1 1 1 
0 1 0 -2 0 1 1 -1 0 2 0 0 1 -3 0 3 
1 -1 0 1 0 -3 0 3 1 -1 0 1 0 -2 0 0 
1 1 0 -3 1 3 0 2 0 -3 0 1 1 -2 0 3 
1 -1 0 -1 0 2 1 -1 0 1 0 -3 0 1 1 1 
0 -2 0 3 1 -3 0 4 1 -3 0 1 0 -2 1 2 
0 1 0 -2 1 2 0 1 0 -3 0 1 1 0 0 1 
0 -2 0 1 1 -2 0 4 1 -1 0 -3 1 1 0 1 
0 -2 0 1 1 1 0 2 0 -2 1 1 0 -5 0 4 
1 1 0 -3 0 2 1 -1 0 2 0 -3 0 2 1 1 
0 1 0 -2 0 1 1 -1 0 1 0 -1 1 1 0 -3 
0 4 1 -2 0 2 0 -3 0 1 1 1 0 1 0 -4 
0 2 1 0 0 -2 0 2 1 -1 0 2 0 -1 1 -1 
0 0 0 1 1 -1 0 1 0 -2 0 2 1 -1 0 0 
0 2 1 -1 0 1 0 -3 0 1 1 1 0 2 0 -4 
0 2 1 0 0 1 0 -3 0 2 1 -1 0 -1 0 0 
1 1 0 1 0 -2 0 0 1 1 0 1 0 -3 0 3 
1 -1 0 -2 0 3 1 -1 0 1 0 -1 0 1 1 -1 
0 2 0 -3 0 1 1 0 0 3 0 -4 1 2 0 -2 
0 1 1 1 0 -3 0 3 1 -1 0 2 0 -2 1 -1 
0 3 0 -1 1 -2 0 2 0 -2 0 2 1 -1 0 -1 
0 3 1 -1 0 -3 0 2 1 1 0 1 0 -4 0 2 
1 1 0 0 0 -2 1 -1 0 3 0 -2 1 1 0 1 
0 -2 0 1 1 -1 0 2 0 -2 1 1 0 -1 0 -1 
1 3 0 0 0 -1 1 -1 0 2 0 -2 1 1 0 1 
0 -3 0 2 1 1 0 -2 1 1 0 1 0 -2 1 2 
0 -2 1 1 0 1 0 -3 1 1 0 2 0 -3 1 1 
0 2 0 -3 0 1 1 1 0 1 0 -2 0 0 1 0 
0 -1 0 2 1 -1 0 1 0 -2 0 1 1 -1 0 2 
0 -3 0 2 1 0 0 1 0 -2 0 2 1 -1 0 -2 
0 4 1 -2 0 -1 1019 3153 300 MP stroke
0 3 1 -3 0 2 1 -1 0 2 0 -4 0 2 1 0 
0 2 0 -3 1 1 0 0 0 -1 0 0 1 1 0 2 
1 -2 0 2 0 -1 1 -1 0 2 0 -4 1 3 0 1 
0 -2 1 1 0 0 0 -1 0 0 1 -2 0 4 0 -3 
1 1 0 0 0 2 1 -1 0 1 0 -3 0 1 1 1 
0 -2 0 3 1 -2 0 2 0 -3 0 2 1 -1 0 -1 
0 4 1 -2 0 2 0 -3 1 1 0 1 0 -2 1 2 
0 -2 0 1 1 1 0 0 0 -4 0 2 1 1 0 -1 
0 4 1 -2 0 -1 1 1 0 -2 0 1 1 -1 0 2 
0 -2 0 2 1 -2 0 2 1 -3 0 3 1 -1 0 0 
0 -1 0 0 1 -1 0 3 0 0 1 -1 0 -1 0 2 
1 -1 0 -1 0 2 1 -2 0 2 0 -1 1 1 0 1 
0 -3 0 1 1 0 0 1 0 -1 1 -1 0 2 0 -1 
1 1 0 1 0 -3 0 2 1 -1 0 1 0 -2 1 1 
0 2 0 -4 0 2 1 1 0 -2 1 1 0 1 0 -2 
0 1 1 1 0 -2 0 1 1 1 0 -2 0 2 1 -2 
0 2 0 -1 1 1 0 -2 0 2 1 1 0 -3 0 0 
1 2 0 -2 0 1 1 1 0 -2 1 1 0 2 0 -2 
1 1 0 0 0 -2 1 -1 0 3 0 -2 1 1 0 1 
0 -2 1 2 0 1 0 -3 0 2 1 -1 0 2 0 -1 
1 -1 0 3 0 -3 1 1 0 -3 0 4 1 -1 0 1 
0 -2 1 1 0 1 0 -1 1 -4 0 4 0 -1 1 1 
0 -2 1 2 0 1 0 -3 0 2 1 0 0 0 0 -1 
1 -1 0 3 1 -1 0 -1 0 1 1 -1 0 -2 0 3 
1 -1 0 1 0 -2 0 1 1 1 0 1 0 -3 0 1 
1 1 0 -2 0 3 1 -2 0 -1 0 3 1 1 0 -3 
0 1 1 -1 0 1 0 -2 1 2 0 1 0 -3 0 2 
1 1 0 0 0 -2 0 1 1 -1 0 3 0 -2 1 -1 
0 1 0 -2 1 3 0 -2 0 0 1 1 0 0 0 -2 
1 3 0 -3 0 1 1 1 0 -1 1 1 0 -2 0 2 
1 -1 0 2 0 -3 1 1 0 2 1 -1 0 1 0 -2 
1 2 0 -3 1 3 1 -1 0 1 0 -3 0 2 1 -1 
0 1 0 -2 1 1 0 1 0 -1 1 1 0 -1 0 1 
1 -1 0 1 0 0 1 -2 0 4 0 -4 0 1 1 1 
0 -2 0 3 1 -1 0 2 0 -5 1 1 0 4 0 -2 
1 -1 0 2 0 -3 0 2 1 -2 0 2 0 -1 1 -1 
0 2 0 -1 1 1 0 2 0 -4 0 2 1 1 0 0 
0 -2 0 1 1 -1 922 3151 300 MP stroke
0 2 0 -1 1 -1 0 1 0 -2 1 2 0 1 0 -2 
1 1 0 2 0 -4 0 2 1 0 0 -2 1 1 0 -1 
0 2 1 1 0 -3 0 1 1 1 0 0 0 -2 0 1 
1 1 0 0 0 -1 1 -1 0 2 1 -1 0 1 0 -2 
0 1 1 1 0 -2 1 0 0 0 0 4 1 -2 0 0 
0 -1 1 -1 0 2 0 -1 1 1 0 -3 0 2 1 1 
0 1 0 -3 0 2 1 -1 0 2 0 -4 0 1 1 1 
0 1 0 -2 0 1 1 1 0 -1 1 1 0 1 0 -3 
0 2 1 -1 0 2 0 -2 1 0 0 1 0 -2 0 1 
1 1 0 0 0 -1 1 -1 0 2 0 0 1 0 0 -2 
0 1 1 -1 0 2 0 -1 1 -1 0 2 0 0 1 -1 
0 1 0 -1 1 2 0 -4 1 1 0 1 0 -1 1 2 
0 -3 0 2 1 1 0 0 0 -2 0 1 1 -1 0 -1 
0 3 1 1 0 -3 0 1 1 1 0 0 0 -3 0 3 
1 -2 0 2 1 -1 0 1 0 -2 0 1 1 1 0 0 
0 -3 0 2 1 -1 0 2 0 -1 1 -1 0 2 0 -2 
0 1 1 -1 0 2 0 -2 1 -1 0 3 0 -3 1 1 
0 -1 0 3 1 0 0 -3 0 2 1 1 0 -3 1 1 
0 2 0 -2 0 1 1 -1 0 3 1 -1 0 1 0 -3 
0 1 1 -2 0 4 0 -2 1 1 0 1 0 -3 1 1 
0 -2 0 2 1 -1 0 0 0 2 1 1 0 0 0 -5 
0 4 1 -1 0 2 0 -2 1 1 0 2 0 -4 0 1 
1 1 0 -2 0 2 1 -1 0 1 0 -2 0 1 1 -1 
0 2 0 0 1 0 0 -2 0 2 1 -1 0 -1 0 0 
1 3 0 -3 1 1 0 2 0 -3 0 1 1 1 0 -2 
0 1 1 -1 0 3 0 -3 0 1 1 1 0 -2 0 3 
1 -3 0 2 0 -3 0 2 1 1 0 -2 0 1 1 -1 
0 1 0 -1 1 2 0 -1 0 1 1 -1 0 1 0 -1 
0 0 1 -1 0 2 0 -1 1 -1 0 2 0 -1 1 2 
0 -3 0 1 1 -1 0 2 0 -4 0 2 1 0 0 2 
0 -2 1 2 0 -3 1 3 0 0 0 -3 1 1 0 2 
0 -2 1 -1 0 2 0 -1 1 1 0 2 0 -4 0 1 
1 1 0 1 0 -3 0 1 1 2 0 0 0 -2 0 2 
1 -1 0 1 0 -3 1 1 0 1 0 -2 0 1 1 1 
0 1 0 -3 1 1 0 2 0 0 1 -1 0 1 0 -2 
1 1 0 -2 0 2 1 -1 0 0 0 2 1 -2 0 -1 
1 1 0 2 0 -3 0 1 1 1 0 -1 0 1 1 -1 
0 2 0 -2 0 1 829 3151 300 MP stroke
1 1 0 0 0 -3 0 2 1 1 0 0 0 -3 0 1 
1 2 0 -1 0 2 1 -2 0 -2 0 3 1 -1 0 -2 
0 2 1 -1 0 2 0 -2 0 1 1 1 0 -3 0 1 
1 -1 0 3 1 -2 0 1 0 -1 1 1 0 -1 0 2 
1 -2 0 2 0 -2 1 0 0 -1 0 3 1 -2 0 2 
0 -1 1 -1 0 2 0 -4 1 2 0 -2 0 3 1 -1 
0 -1 0 2 1 -1 0 2 0 -3 0 2 1 1 0 -2 
0 1 1 -1 0 -2 0 1 1 1 0 1 0 -2 0 1 
1 2 0 -3 0 0 1 2 0 2 0 -4 1 1 0 1 
0 -3 0 2 1 0 0 2 0 -2 1 1 0 1 0 -3 
0 2 1 1 0 -2 0 1 1 -1 0 1 0 -2 0 1 
1 1 0 -1 1 2 0 0 0 -3 0 2 1 -1 0 2 
0 -4 0 3 1 -1 0 1 1 -1 0 3 0 -2 1 1 
0 1 0 -4 1 3 0 -4 0 3 1 -1 0 2 0 -2 
0 1 1 -1 0 2 1 -1 0 -2 0 2 1 1 0 -3 
0 2 1 -1 0 -2 0 1 1 1 0 2 0 -1 1 1 
0 0 0 -2 0 1 1 -1 0 2 0 -2 0 1 1 -2 
0 3 0 -1 1 1 0 -3 0 1 1 1 0 1 0 -2 
0 0 1 1 0 1 0 -2 1 1 0 -1 0 2 1 -1 
0 2 0 -2 1 1 0 1 0 -4 0 4 1 -3 0 3 
0 -2 1 1 0 -3 0 3 1 -1 0 3 0 -1 1 -1 
0 1 0 -2 0 1 1 -1 0 2 0 -1 1 2 0 -3 
1 1 0 1 0 -3 0 0 1 1 0 1 0 -2 0 1 
1 2 0 -2 0 3 1 -2 0 -2 0 2 1 1 0 -3 
0 1 1 1 0 2 0 -2 1 0 0 2 0 -4 1 2 
0 2 0 -3 0 2 1 -1 0 2 0 -2 0 1 1 -1 
0 -2 0 2 1 0 0 1 0 -2 1 2 0 -2 0 3 
1 -1 0 -1 0 1 1 -1 0 2 0 -3 0 1 1 1 
0 1 0 -4 1 2 0 -1 1 1 0 1 0 -2 0 1 
1 -1 0 1 1 -1 0 1 0 -2 0 2 1 0 0 -1 
1 -1 0 2 0 -2 0 1 1 -1 0 2 0 -3 0 1 
1 1 0 -1 0 2 1 -4 0 4 0 -2 1 1 0 1 
0 -2 1 1 0 2 0 -4 0 2 1 -1 0 2 0 -4 
1 2 0 1 0 -2 0 0 1 1 0 -1 0 2 1 -1 
0 2 0 -2 0 1 1 -2 0 3 0 -2 1 1 0 -2 
0 1 1 1 0 1 0 -3 1 1 0 -1 0 3 1 -3 
0 3 1 -2 0 -1 0 2 1 1 0 -2 0 1 1 -1 
0 2 0 0 1 -1 735 3151 300 MP stroke
0 0 0 -1 1 1 0 -1 0 0 1 1 0 1 0 -3 
1 2 0 -2 0 2 1 -1 0 2 0 -3 0 2 1 -1 
0 2 0 -3 1 3 0 -2 1 0 0 2 0 -2 1 2 
0 0 0 -2 0 0 1 2 0 -2 0 2 1 -1 0 -2 
0 3 1 -2 0 1 0 -2 1 1 0 -1 0 2 1 -1 
0 3 0 -2 1 -1 0 1 1 -2 0 3 0 -1 1 -1 
0 2 0 -3 0 3 1 -1 0 1 0 -3 0 2 1 -2 
0 2 0 -2 1 1 0 2 1 -2 0 -1 0 3 1 -3 
0 2 0 -2 1 1 0 1 0 -2 0 1 1 1 0 1 
0 -2 0 1 1 -1 0 1 0 -3 0 1 1 1 0 0 
0 -2 0 1 1 1 0 -1 0 1 1 1 0 -2 1 1 
0 0 0 2 1 -4 0 4 0 -2 1 1 0 1 0 -2 
1 -1 0 2 0 -1 1 1 0 1 0 0 1 -1 0 -2 
0 1 1 -1 0 3 1 -2 0 0 0 1 1 1 0 -3 
0 2 1 -1 0 2 0 -1 1 -1 0 2 0 -3 0 2 
1 -1 0 2 0 -1 1 -1 0 2 0 -1 1 1 0 0 
0 -2 0 1 1 -1 0 2 0 0 1 -1 0 2 0 -2 
0 1 1 -1 0 1 0 -2 0 2 1 -2 0 2 0 -1 
1 1 0 -2 1 2 0 -2 0 1 1 1 0 0 0 -2 
0 1 1 -1 0 1 0 -2 0 1 1 1 0 2 0 -3 
0 1 1 1 0 -2 0 1 1 1 0 -3 0 2 1 -1 
0 3 0 -2 1 -2 0 4 0 -3 1 2 0 -2 1 1 
0 2 0 -4 0 3 1 -1 0 -1 0 1 1 1 0 -3 
0 4 1 -1 0 1 0 -4 0 1 1 1 0 -3 0 3 
1 -1 0 1 1 -1 0 2 0 -4 0 1 1 1 0 -1 
0 1 1 1 0 -2 0 1 1 -1 0 1 1 1 0 1 
0 -2 1 0 0 -1 0 3 1 -2 0 1 0 -1 1 -1 
0 2 0 -1 1 2 0 -4 0 2 1 1 0 1 0 -3 
1 1 0 2 0 -3 1 1 0 0 0 2 1 -1 0 1 
0 -2 0 0 1 1 0 1 0 -2 0 0 1 2 0 -3 
0 2 1 1 0 1 0 -4 0 1 1 1 0 1 0 -3 
0 2 1 -1 0 1 0 -2 1 2 0 -2 0 3 1 -1 
0 1 0 -2 0 0 1 1 0 -2 1 2 0 -1 0 2 
1 -1 0 1 0 -2 1 1 0 1 0 -2 0 2 1 -1 
0 1 0 -2 0 1 1 -1 0 2 0 -3 1 2 0 -1 
0 3 1 -1 0 0 0 -2 0 1 1 2 0 0 0 -3 
0 2 1 -1 0 2 0 -3 1 1 0 1 0 -2 0 1 
1 -1 0 2 0 -1 642 3151 300 MP stroke
1 1 0 -3 0 2 1 1 0 -2 0 1 1 -1 0 2 
1 1 0 -3 1 1 0 -1 0 2 1 -2 0 2 0 -2 
0 1 1 2 0 -3 0 0 1 2 0 -2 0 0 1 1 
0 1 0 -3 0 1 1 1 0 0 0 -1 0 0 1 -1 
0 3 0 -3 1 5 0 -4 1 -1 0 3 0 -2 1 -1 
0 2 0 0 1 -1 0 2 0 -3 0 2 1 -1 0 2 
0 -4 0 3 626 3151 51 MP stroke
gr

24 w
c8
0 sg
%%IncludeResource: font Helvetica
/Helvetica /ISOLatin1Encoding 120 FMSR

1925  180 mt 
(Pile-up of two pulses) s
2242 3552 mt 
(time \(ms\)) s
 343 2297 mt  -90 rotate
(Drop in TES current) s
90 rotate
6 w

end %%Color Dict

eplot
%%EndObject

epage
end

showpage

%%Trailer
%%EOF
