%!PS-Adobe-3.0 EPSF-3.0
%%Creator: MATLAB, The MathWorks, Inc. Version 8.3.0.532 (R2014a). Operating System: Linux 3.13.0-32-generic #57-Ubuntu SMP Tue Jul 15 03:51:08 UTC 2014 x86_64.
%%Title: /home/louis/Desktop/signal/pulse-tail.eps
%%CreationDate: 08/10/2014  09:46:46
%%DocumentNeededFonts: Helvetica
%%DocumentProcessColors: Cyan Magenta Yellow Black
%%LanguageLevel: 2
%%Pages: 1
%%BoundingBox:   100   241   509   549
%%EndComments

%%BeginProlog
% MathWorks dictionary
/MathWorks 160 dict begin
% definition operators
/bdef {bind def} bind def
/ldef {load def} bind def
/xdef {exch def} bdef
/xstore {exch store} bdef
% operator abbreviations
/c  /clip ldef
/cc /concat ldef
/cp /closepath ldef
/gr /grestore ldef
/gs /gsave ldef
/mt /moveto ldef
/np /newpath ldef
/cm /currentmatrix ldef
/sm /setmatrix ldef
/rm /rmoveto ldef
/rl /rlineto ldef
/s {show newpath} bdef
/sc {setcmykcolor} bdef
/sr /setrgbcolor ldef
/sg /setgray ldef
/w /setlinewidth ldef
/j /setlinejoin ldef
/cap /setlinecap ldef
/rc {rectclip} bdef
/rf {rectfill} bdef
% page state control
/pgsv () def
/bpage {/pgsv save def} bdef
/epage {pgsv restore} bdef
/bplot /gsave ldef
/eplot {stroke grestore} bdef
% orientation switch
/portraitMode 0 def /landscapeMode 1 def /rotateMode 2 def
% coordinate system mappings
/dpi2point 0 def
% font control
/FontSize 0 def
/FMS {/FontSize xstore findfont [FontSize 0 0 FontSize neg 0 0]
  makefont setfont} bdef
/reencode {exch dup where {pop load} {pop StandardEncoding} ifelse
  exch dup 3 1 roll findfont dup length dict begin
  { 1 index /FID ne {def}{pop pop} ifelse } forall
  /Encoding exch def currentdict end definefont pop} bdef
/isroman {findfont /CharStrings get /Agrave known} bdef
/FMSR {3 1 roll 1 index dup isroman {reencode} {pop pop} ifelse
  exch FMS} bdef
/csm {1 dpi2point div -1 dpi2point div scale neg translate
 dup landscapeMode eq {pop -90 rotate}
  {rotateMode eq {90 rotate} if} ifelse} bdef
% line types: solid, dotted, dashed, dotdash
/SO { [] 0 setdash } bdef
/DO { [.5 dpi2point mul 4 dpi2point mul] 0 setdash } bdef
/DA { [6 dpi2point mul] 0 setdash } bdef
/DD { [.5 dpi2point mul 4 dpi2point mul 6 dpi2point mul 4
  dpi2point mul] 0 setdash } bdef
% macros for lines and objects
/L {lineto stroke} bdef
/MP {3 1 roll moveto 1 sub {rlineto} repeat} bdef
/AP {{rlineto} repeat} bdef
/PDlw -1 def
/W {/PDlw currentlinewidth def setlinewidth} def
/PP {closepath eofill} bdef
/DP {closepath stroke} bdef
/MR {4 -2 roll moveto dup  0 exch rlineto exch 0 rlineto
  neg 0 exch rlineto closepath} bdef
/FR {MR stroke} bdef
/PR {MR fill} bdef
/L1i {{currentfile picstr readhexstring pop} image} bdef
/tMatrix matrix def
/MakeOval {newpath tMatrix currentmatrix pop translate scale
0 0 1 0 360 arc tMatrix setmatrix} bdef
/FO {MakeOval stroke} bdef
/PO {MakeOval fill} bdef
/PD {currentlinewidth 2 div 0 360 arc fill
   PDlw -1 eq not {PDlw w /PDlw -1 def} if} def
/FA {newpath tMatrix currentmatrix pop translate scale
  0 0 1 5 -2 roll arc tMatrix setmatrix stroke} bdef
/PA {newpath tMatrix currentmatrix pop	translate 0 0 moveto scale
  0 0 1 5 -2 roll arc closepath tMatrix setmatrix fill} bdef
/FAn {newpath tMatrix currentmatrix pop translate scale
  0 0 1 5 -2 roll arcn tMatrix setmatrix stroke} bdef
/PAn {newpath tMatrix currentmatrix pop translate 0 0 moveto scale
  0 0 1 5 -2 roll arcn closepath tMatrix setmatrix fill} bdef
/vradius 0 def /hradius 0 def /lry 0 def
/lrx 0 def /uly 0 def /ulx 0 def /rad 0 def
/MRR {/vradius xdef /hradius xdef /lry xdef /lrx xdef /uly xdef
  /ulx xdef newpath tMatrix currentmatrix pop ulx hradius add uly
  vradius add translate hradius vradius scale 0 0 1 180 270 arc 
  tMatrix setmatrix lrx hradius sub uly vradius add translate
  hradius vradius scale 0 0 1 270 360 arc tMatrix setmatrix
  lrx hradius sub lry vradius sub translate hradius vradius scale
  0 0 1 0 90 arc tMatrix setmatrix ulx hradius add lry vradius sub
  translate hradius vradius scale 0 0 1 90 180 arc tMatrix setmatrix
  closepath} bdef
/FRR {MRR stroke } bdef
/PRR {MRR fill } bdef
/MlrRR {/lry xdef /lrx xdef /uly xdef /ulx xdef /rad lry uly sub 2 div def
  newpath tMatrix currentmatrix pop ulx rad add uly rad add translate
  rad rad scale 0 0 1 90 270 arc tMatrix setmatrix lrx rad sub lry rad
  sub translate rad rad scale 0 0 1 270 90 arc tMatrix setmatrix
  closepath} bdef
/FlrRR {MlrRR stroke } bdef
/PlrRR {MlrRR fill } bdef
/MtbRR {/lry xdef /lrx xdef /uly xdef /ulx xdef /rad lrx ulx sub 2 div def
  newpath tMatrix currentmatrix pop ulx rad add uly rad add translate
  rad rad scale 0 0 1 180 360 arc tMatrix setmatrix lrx rad sub lry rad
  sub translate rad rad scale 0 0 1 0 180 arc tMatrix setmatrix
  closepath} bdef
/FtbRR {MtbRR stroke } bdef
/PtbRR {MtbRR fill } bdef
/stri 6 array def /dtri 6 array def
/smat 6 array def /dmat 6 array def
/tmat1 6 array def /tmat2 6 array def /dif 3 array def
/asub {/ind2 exch def /ind1 exch def dup dup
  ind1 get exch ind2 get sub exch } bdef
/tri_to_matrix {
  2 0 asub 3 1 asub 4 0 asub 5 1 asub
  dup 0 get exch 1 get 7 -1 roll astore } bdef
/compute_transform {
  dmat dtri tri_to_matrix tmat1 invertmatrix 
  smat stri tri_to_matrix tmat2 concatmatrix } bdef
/ds {stri astore pop} bdef
/dt {dtri astore pop} bdef
/db {2 copy /cols xdef /rows xdef mul dup 3 mul string
  currentfile 
  3 index 0 eq {/ASCIIHexDecode filter}
  {/ASCII85Decode filter 3 index 2 eq {/RunLengthDecode filter} if }
  ifelse exch readstring pop
  dup 0 3 index getinterval /rbmap xdef
  dup 2 index dup getinterval /gbmap xdef
  1 index dup 2 mul exch getinterval /bbmap xdef pop pop}bdef
/it {gs np dtri aload pop moveto lineto lineto cp c
  cols rows 8 compute_transform 
  rbmap gbmap bbmap true 3 colorimage gr}bdef
/il {newpath moveto lineto stroke}bdef
currentdict end def
%%EndProlog

%%BeginSetup
MathWorks begin

0 cap

end
%%EndSetup

%%Page: 1 1
%%BeginPageSetup
%%PageBoundingBox:   100   241   509   549
MathWorks begin
bpage
%%EndPageSetup

%%BeginObject: obj1
bplot

/dpi2point 12 def
portraitMode 1200 6588 csm

    0     0  4915  3687 rc
85 dict begin %Colortable dictionary
/c0 { 0.000000 0.000000 0.000000 sr} bdef
/c1 { 1.000000 1.000000 1.000000 sr} bdef
/c2 { 0.900000 0.000000 0.000000 sr} bdef
/c3 { 0.000000 0.820000 0.000000 sr} bdef
/c4 { 0.000000 0.000000 0.800000 sr} bdef
/c5 { 0.910000 0.820000 0.320000 sr} bdef
/c6 { 1.000000 0.260000 0.820000 sr} bdef
/c7 { 0.000000 0.820000 0.820000 sr} bdef
c0
1 j
1 sg
   0    0 4916 3688 rf
6 w
0 3004 3810 0 0 -3004 638 3281 4 MP
PP
-3810 0 0 3004 3810 0 0 -3004 638 3281 5 MP stroke
4 w
DO
SO
6 w
0 sg
 638 3281 mt 4448 3281 L
 638  277 mt 4448  277 L
 638 3281 mt  638  277 L
4448 3281 mt 4448  277 L
 638 3281 mt 4448 3281 L
 638 3281 mt  638  277 L
 638 3281 mt  638 3242 L
 638  277 mt  638  315 L
%%IncludeResource: font Helvetica
/Helvetica /ISOLatin1Encoding 120 FMSR

 605 3426 mt 
(0) s
1547 3281 mt 1547 3242 L
1547  277 mt 1547  315 L
1514 3426 mt 
(5) s
2455 3281 mt 2455 3242 L
2455  277 mt 2455  315 L
2389 3426 mt 
(10) s
3363 3281 mt 3363 3242 L
3363  277 mt 3363  315 L
3297 3426 mt 
(15) s
4271 3281 mt 4271 3242 L
4271  277 mt 4271  315 L
4205 3426 mt 
(20) s
 638 3281 mt  677 3281 L
4448 3281 mt 4409 3281 L
 538 3325 mt 
(0) s
 638 2780 mt  677 2780 L
4448 2780 mt 4409 2780 L
 438 2824 mt 
(0.5) s
 638 2279 mt  677 2279 L
4448 2279 mt 4409 2279 L
 538 2323 mt 
(1) s
 638 1779 mt  677 1779 L
4448 1779 mt 4409 1779 L
 438 1823 mt 
(1.5) s
 638 1278 mt  677 1278 L
4448 1278 mt 4409 1278 L
 538 1322 mt 
(2) s
 638  777 mt  677  777 L
4448  777 mt 4409  777 L
 438  821 mt 
(2.5) s
 638  277 mt  677  277 L
4448  277 mt 4409  277 L
 538  321 mt 
(3) s
 638  223 mt 
(x 10) s
%%IncludeResource: font Helvetica
/Helvetica /ISOLatin1Encoding 80 FMSR

 864  149 mt 
(4) s
 638 3281 mt 4448 3281 L
 638  277 mt 4448  277 L
 638 3281 mt  638  277 L
4448 3281 mt 4448  277 L
gs 639 277 3810 3005 rc
24 w
/c8 { 0.000000 0.000000 1.000000 sr} bdef
c8
1 -1 0 -2 0 2 1 -1 0 -2 0 3 1 -1 0 1 
0 -2 1 1 0 1 0 -3 0 2 1 -2 0 3 0 -2 
1 -1 0 3 0 -1 1 -1 0 2 0 -4 0 3 1 -1 
0 -2 0 4 1 -3 0 -1 0 3 1 -1 0 2 0 -1 
1 -2 0 2 1 -1 0 -1 0 3 1 -1 0 0 0 -4 
0 1 1 2 0 0 0 -2 1 1 0 3 0 -4 0 3 
1 -1 1 1 0 1 0 -2 1 0 0 -1 0 2 1 -1 
0 2 0 -3 0 1 2 0 0 2 0 -4 0 1 1 1 
0 1 0 -2 1 1 0 2 0 -2 2 0 0 1 0 -3 
0 3 1 -1 0 2 0 -4 0 2 1 -1 0 1 0 -1 
1 1 0 2 1 -2 0 2 0 -3 0 1 1 -1 0 2 
0 -2 0 0 1 2 0 -2 1 2 0 1 0 -3 0 1 
1 0 0 1 0 -2 0 1 1 -1 0 3 0 -1 1 -1 
0 2 0 -1 1 -1 0 -1 0 3 1 -2 0 1 0 -2 
0 2 1 -1 0 2 0 -4 0 3 1 -1 0 -2 0 1 
1 1 0 1 0 -3 0 2 1 -1 0 3 0 -4 0 1 
1 1 0 1 0 -2 1 -1 0 2 1 -1 0 2 0 -3 
0 2 1 -1 0 1 0 -1 1 -1 0 4 0 -1 1 -3 
0 3 0 -3 0 2 1 -1 0 -2 0 2 1 2 0 -3 
0 1 1 1 0 -3 0 3 1 0 0 0 0 -3 1 3 
0 0 0 -1 0 1 1 -2 0 2 0 -2 1 3 0 1 
0 -4 0 1 1 3 0 -4 0 1 1 1 0 -3 0 2 
1 1 0 -2 1 1 0 -1 0 3 1 -1 0 1 1 -3 
0 2 1 -3 0 5 0 -2 1 -1 0 3 0 -4 0 2 
1 1 0 -3 0 2 1 0 0 1 0 -3 0 2 1 0 
0 -1 0 2 1 -1 0 -3 1 3 0 -2 0 2 1 0 
0 1 0 -4 1 3 0 -2 0 1 1 1 0 -2 1 2 
0 -1 0 3 1 -4 0 4 1 -2 0 1 0 -3 0 2 
1 -1 0 2 0 -3 1 1 0 2 0 -2 1 1 0 -1 
0 1 1 1 0 0 0 -3 0 1 1 0 0 2 0 -3 
0 2 1 0 0 1 0 -3 0 1 1 3 0 -4 0 2 
1 1 0 -1 0 0 1 1 0 -2 0 2 1 -1 0 2 
0 -1 1 -1 0 2 0 -3 0 2 1 1 0 -2 0 1 
1 -1 0 2 0 -3 0 2 1 -1 0 2 0 -3 1 1 
0 2 0 -3 0 1 1 -1 0 1 0 -2 1 4 0 -3 
0 2 1 -1 0 2 0 -5 0 1 1 3 0 -2 0 1 
1 -1 0 2 0 -3 0 2 1 0 0 1 1 -3 0 2 
0 -1 1 1 0 2 4352 3164 300 MP stroke
0 -3 0 1 1 -1 0 2 0 -3 0 2 1 1 0 1 
0 -2 1 2 0 0 0 -2 0 1 1 -1 0 -1 0 1 
1 1 0 0 0 -2 0 1 1 2 0 -4 0 3 1 -1 
0 2 0 -3 0 2 1 -1 0 2 0 -4 0 3 1 -1 
0 2 0 -3 1 1 0 1 1 -1 0 -1 0 3 1 -1 
0 1 0 -3 0 1 1 -1 0 2 1 1 0 -2 0 1 
1 1 0 0 0 -2 1 1 0 2 0 -3 0 1 1 1 
0 -2 0 2 1 -2 0 0 0 2 1 -1 0 1 0 -3 
0 1 1 1 0 0 0 -1 1 1 0 1 0 -2 0 1 
1 1 0 -2 0 2 1 -2 0 2 1 -2 0 -1 0 3 
1 -1 0 1 0 -2 0 1 1 -2 0 3 1 -2 0 2 
1 0 0 0 0 -2 0 1 1 1 0 -1 0 3 1 -4 
0 2 0 -4 0 2 1 0 0 2 0 -2 0 2 1 0 
0 -2 0 2 1 0 0 -3 0 3 1 -1 0 -1 0 3 
1 -2 0 -1 0 2 1 -1 0 2 0 -2 1 1 0 0 
0 -3 0 2 1 1 0 -3 0 3 1 -2 0 2 0 -4 
0 1 1 1 0 2 0 -2 1 1 0 -2 0 2 1 -2 
0 3 0 -1 1 -1 0 2 0 -4 0 2 1 0 0 2 
0 -3 0 1 1 -1 0 3 0 -2 1 1 0 1 0 -2 
1 1 0 1 0 -2 0 1 1 -1 0 -1 0 2 1 -1 
0 2 0 -2 0 0 1 -1 0 -1 0 3 1 -2 0 1 
0 -1 1 3 0 -3 1 1 0 1 0 -3 0 1 1 1 
0 -2 0 3 1 -1 0 2 0 -2 1 1 0 -2 0 2 
1 -1 0 2 0 -4 0 3 1 -1 0 2 0 -3 0 2 
1 -3 0 2 0 -1 1 1 0 2 1 -3 0 3 0 -2 
1 -1 0 3 1 -2 0 1 0 -2 0 1 1 1 0 -1 
1 2 0 -3 0 3 1 -2 0 -1 0 2 1 -2 0 2 
0 -3 0 1 1 1 0 1 0 -3 0 2 1 -1 0 2 
0 -1 1 1 0 1 0 -3 0 2 1 -1 0 -2 0 3 
1 -1 0 1 0 -3 0 2 1 -1 0 2 0 -3 1 1 
0 2 0 -3 0 1 1 1 0 -1 1 2 0 -4 0 3 
1 -1 0 1 0 -3 1 2 0 2 0 -3 0 1 1 1 
0 0 0 -2 0 1 1 1 0 -3 0 2 1 -1 0 2 
0 -1 1 -2 0 3 0 -3 1 2 0 2 0 -4 1 2 
0 2 0 -3 0 2 1 -3 0 3 0 -2 1 1 0 -1 
0 2 1 0 0 -2 0 3 1 -1 0 -2 0 2 1 -2 
0 3 0 -3 1 0 0 2 0 -1 1 1 0 -2 0 2 
1 -2 0 1 1 1 4259 3166 300 MP stroke
0 -2 1 2 0 1 0 -4 0 3 1 0 1 2 0 -4 
0 3 1 -2 0 1 0 -1 1 1 0 2 0 -3 0 2 
1 -1 0 1 0 -3 0 2 1 -2 0 4 0 -2 1 2 
0 -3 1 1 0 1 0 -3 0 1 1 -1 0 3 1 -1 
0 1 0 -3 1 1 0 1 0 -2 1 2 0 -2 0 1 
1 -1 0 3 0 -2 1 -1 0 3 1 -2 0 2 0 -2 
1 1 0 -2 1 2 0 0 0 -2 0 2 1 -1 0 1 
0 -4 0 3 1 -1 0 3 1 -2 0 2 0 -4 0 2 
1 1 0 -2 0 3 1 -3 0 3 0 -3 1 2 0 -2 
0 3 1 -1 0 1 0 -3 0 2 1 0 0 -1 0 2 
1 -2 0 2 0 -2 1 2 0 1 0 -3 0 1 1 0 
0 0 0 -2 0 1 1 2 0 -3 1 1 0 0 0 1 
1 1 0 -3 0 2 1 -1 0 3 0 -3 1 0 0 -1 
0 2 1 1 0 -3 0 2 1 0 0 -2 0 1 1 1 
0 -2 0 3 1 1 0 -3 0 1 1 1 0 1 0 -2 
1 0 0 1 0 -2 1 1 0 -1 0 2 1 -1 0 -1 
0 2 1 -1 0 2 0 -3 1 -1 0 4 0 -2 1 -2 
0 2 1 1 0 -2 1 1 0 2 0 -3 0 2 1 -1 
0 -2 0 3 1 -2 0 3 0 -2 1 -1 0 -1 0 3 
1 -1 0 -2 0 1 1 1 0 -2 0 1 1 1 0 -2 
0 3 1 -2 0 2 0 -3 1 2 0 1 0 -2 0 2 
1 -1 0 2 0 -4 0 2 1 -1 0 3 0 -2 1 1 
0 -2 0 1 1 -1 0 2 0 -1 1 -2 0 2 0 0 
1 -2 0 2 0 -1 1 1 0 1 0 -2 0 0 1 1 
0 0 0 -2 0 0 1 2 0 1 0 -3 0 2 1 -1 
0 3 0 -4 0 1 1 1 0 2 0 -3 0 2 1 -1 
0 2 0 -5 1 1 0 3 0 -1 1 -1 0 2 0 -3 
0 3 1 -1 0 2 0 -3 0 2 1 -1 0 3 0 -3 
0 0 1 1 0 1 0 -3 0 1 1 2 0 2 0 -4 
0 2 1 0 0 -3 0 3 1 -1 0 1 0 -3 0 2 
1 -1 0 -1 0 3 1 -2 0 2 0 -2 1 1 0 1 
0 -2 1 1 0 -1 1 -1 0 3 0 -3 0 1 1 1 
0 -2 0 1 1 1 0 1 0 -2 1 1 0 -3 0 2 
1 1 0 1 0 -3 0 1 1 -2 0 2 0 -1 1 1 
0 -2 0 2 1 1 0 -2 0 1 1 2 0 -2 0 1 
1 -2 0 2 0 -2 0 1 1 1 0 -2 0 2 1 0 
0 -1 0 1 1 -1 0 2 0 -1 1 -2 0 2 1 -1 
0 1 0 -1 0 0 4165 3166 300 MP stroke
1 2 0 -2 0 1 1 -1 0 2 0 -2 1 1 0 1 
0 -2 0 1 1 -1 0 -2 1 2 0 2 0 -3 0 2 
1 -1 0 1 0 -2 1 1 0 2 0 -3 1 1 0 -2 
0 3 1 -1 0 2 0 -2 0 1 1 -2 0 2 0 -3 
0 2 1 -1 0 1 0 -2 1 2 0 1 0 -3 0 2 
1 1 0 -2 0 1 1 1 0 1 0 -2 0 2 1 -2 
0 1 0 -2 1 1 0 2 0 -1 1 -1 0 2 0 -4 
0 3 1 -1 0 2 0 -2 1 -1 0 2 0 -1 1 -1 
0 3 0 -4 0 3 1 -1 0 2 0 -1 1 -1 0 1 
0 -2 1 2 0 2 0 -5 0 1 1 3 0 -3 0 1 
1 1 0 -3 0 2 2 0 0 2 0 -3 1 2 0 1 
0 -4 0 3 1 -1 0 2 0 -3 0 2 1 -1 0 2 
0 -3 0 1 1 1 0 -3 1 4 0 -3 0 2 1 -1 
0 2 0 -1 1 -1 0 1 1 -1 0 2 0 -2 0 1 
1 -1 0 3 0 -1 1 -1 0 1 0 -3 0 3 1 1 
0 -3 0 1 1 -1 0 -2 0 3 1 -1 0 2 0 -2 
0 1 1 -1 0 2 0 -3 0 1 1 2 0 0 0 -4 
0 2 1 1 0 1 0 0 1 -1 0 1 0 -2 0 0 
1 1 0 -1 0 1 1 -1 0 4 0 -3 1 -1 0 2 
0 -2 0 0 1 1 0 -2 0 2 1 1 0 -2 0 0 
1 -1 0 3 1 -3 0 3 0 -4 0 3 1 -2 0 2 
1 -1 0 2 0 -3 0 1 1 1 0 -2 0 2 1 -2 
0 3 1 -2 0 -1 0 2 1 -1 0 1 0 -3 1 3 
0 0 0 -3 0 2 1 1 0 1 0 -3 1 2 0 -3 
0 2 1 1 0 1 0 -2 0 0 1 1 0 1 0 -2 
0 0 1 1 0 -1 0 0 1 2 0 -2 0 3 1 -1 
0 1 0 -3 0 1 1 -1 0 -1 0 3 1 -1 0 1 
0 -2 1 1 0 1 0 -3 0 2 1 -1 0 2 0 -2 
1 0 0 1 0 -2 0 1 1 1 0 1 0 -1 1 -1 
0 1 1 -1 0 -2 0 3 1 -1 0 -2 1 2 1 2 
0 -4 0 3 1 -1 0 2 0 -3 0 2 1 -1 1 2 
0 0 0 -3 1 1 0 -2 0 2 1 1 0 0 0 -2 
1 2 0 1 0 -3 1 1 0 2 0 -4 0 1 1 1 
0 2 0 -3 1 2 0 -3 0 3 1 -1 0 -2 0 3 
1 -1 0 -1 0 3 1 -1 0 -2 0 2 1 -1 0 1 
0 -2 1 1 0 3 1 -3 0 1 0 -2 1 1 0 1 
0 0 1 -1 0 2 0 -3 1 1 0 -1 0 2 1 1 
0 -1 1 -1 0 2 4069 3164 300 MP stroke
0 -3 0 1 1 1 0 -2 0 1 1 2 0 -2 1 2 
0 -3 0 2 1 -1 0 2 0 -3 0 2 1 -1 0 2 
0 -3 0 1 1 1 0 -3 0 2 1 1 0 -2 0 0 
1 1 0 2 0 -3 0 0 1 -1 0 5 0 -3 1 0 
0 1 0 -2 0 1 1 -1 0 2 0 0 1 -1 0 1 
0 -2 0 1 1 -2 0 4 0 -1 1 1 0 -2 1 1 
0 -3 0 4 1 -1 0 -2 1 1 0 2 0 -2 0 1 
1 1 0 -2 0 0 1 0 0 -1 0 2 1 -1 0 -2 
0 1 1 2 0 1 0 -4 0 2 1 0 0 -1 0 3 
1 -1 0 2 0 -3 0 1 1 -2 0 3 0 -1 1 1 
0 -3 0 3 1 -2 0 1 0 -2 1 1 0 -1 1 1 
0 2 0 -2 1 0 0 -2 0 3 1 -3 0 4 0 -1 
1 -1 0 3 0 -3 0 0 1 1 0 -2 0 1 1 2 
0 -3 0 2 1 -1 0 2 0 -3 0 2 1 -1 0 2 
0 -3 1 2 0 -3 1 1 0 2 1 -1 0 -2 0 1 
1 1 0 2 0 -2 1 2 0 -2 0 1 1 1 0 -2 
0 0 1 0 0 2 0 -2 0 1 1 1 0 -2 0 1 
1 -1 0 -1 0 2 1 -1 0 2 0 -2 1 3 0 -4 
0 3 1 -1 0 2 0 -3 0 2 1 -1 0 -2 0 3 
1 -1 0 1 0 -2 0 0 1 2 0 1 0 -3 0 1 
1 1 0 -2 0 2 1 -1 0 -1 0 2 1 -1 0 2 
0 -4 0 2 1 1 0 -3 1 1 0 2 0 -3 0 1 
1 1 0 1 0 -2 0 2 1 -1 0 1 0 -3 1 2 
0 1 0 -3 0 2 1 -1 0 2 0 -2 1 1 0 -1 
0 2 1 -1 0 2 0 -3 1 2 0 1 0 -3 1 1 
0 2 0 -1 1 -2 0 3 0 -2 1 1 0 -2 0 1 
1 1 0 0 0 -2 0 1 1 1 0 -2 0 1 1 -2 
0 3 0 -2 1 2 0 -3 1 1 0 2 0 -2 1 1 
0 -1 0 2 1 -3 0 -1 0 3 1 0 0 1 0 -2 
1 1 0 1 0 -2 0 1 1 -1 0 2 0 -3 0 2 
1 0 0 -1 0 2 1 -1 0 1 0 -2 0 1 1 1 
0 -3 1 2 0 1 0 -2 0 2 1 -1 0 1 0 -3 
1 1 0 2 0 -3 0 2 1 1 0 -2 0 2 1 -1 
0 1 0 -2 1 1 0 1 0 -1 1 -1 0 2 0 -3 
0 1 1 1 0 1 0 -3 0 3 1 -2 0 2 0 -2 
1 1 0 1 0 -3 0 2 1 -1 0 1 1 -1 0 2 
0 -3 0 2 1 1 0 1 0 -3 0 1 1 -1 0 0 
0 1 1 1 0 0 3976 3164 300 MP stroke
0 -2 1 -1 0 4 0 -3 1 1 0 -1 0 -1 1 3 
0 -2 0 0 1 2 0 -3 1 1 0 3 0 -4 0 2 
1 -1 0 3 0 -4 1 1 0 2 0 -2 1 2 0 -2 
1 1 0 1 0 -2 1 0 0 2 0 -3 0 1 1 1 
0 1 0 -3 0 3 1 -1 0 1 0 -3 0 2 1 1 
0 -2 0 1 1 -1 0 0 0 1 1 2 0 -4 0 1 
1 1 0 1 0 -2 1 3 0 -3 0 2 1 -1 0 -2 
0 1 2 2 0 -3 0 3 1 -1 0 0 0 -1 1 1 
0 1 0 -2 1 1 0 2 0 -3 0 1 1 1 0 -3 
0 1 1 1 0 -1 0 0 1 1 0 0 0 -3 0 2 
1 -1 0 4 0 -4 0 0 1 2 0 -1 0 2 1 -1 
0 2 0 -4 0 2 1 -1 0 -1 0 2 1 1 0 -2 
1 1 0 1 0 -2 1 2 0 -3 0 4 1 -1 0 -2 
1 1 0 2 0 -3 0 2 1 -3 0 3 1 1 0 -4 
1 1 0 2 0 -1 1 3 0 -4 1 1 0 1 0 -2 
0 1 1 1 0 1 0 -3 0 2 1 0 0 -2 0 2 
1 -1 0 -1 0 2 1 -2 0 0 0 1 1 1 0 -2 
0 1 1 -1 0 1 0 -2 0 1 1 1 0 1 0 -2 
0 0 1 2 0 -2 0 1 1 -1 0 -1 0 3 1 -1 
0 1 0 -3 0 2 1 -1 0 2 0 -3 0 1 1 2 
0 -1 1 -1 0 2 0 -4 0 2 1 -1 0 3 0 -2 
1 1 0 -2 0 1 1 -2 0 4 0 -1 1 -1 0 -1 
0 3 1 -2 0 3 0 -4 1 2 0 1 0 -2 1 -2 
0 4 0 -4 1 2 0 2 0 -4 0 1 1 1 0 1 
0 -2 0 1 1 1 0 -2 0 2 1 -1 0 2 0 -3 
0 1 1 1 0 1 0 -2 1 2 0 -2 0 1 1 1 
0 -2 1 1 0 1 0 -2 0 1 1 1 0 -2 0 1 
1 1 0 1 0 -3 0 2 1 -1 0 2 0 -4 1 1 
0 2 0 -1 1 -1 0 2 1 -2 0 2 1 1 0 0 
0 -2 1 2 0 -3 1 2 0 -2 0 2 1 -1 0 2 
0 -2 1 -1 0 3 0 -1 1 1 0 1 0 -4 0 2 
1 -1 0 2 0 -3 0 1 1 -1 0 2 1 -2 0 2 
0 -1 1 1 0 1 0 -3 1 2 0 0 0 -2 0 1 
1 1 0 2 0 -4 0 2 1 -1 0 1 0 -1 1 1 
0 -1 0 1 1 -1 0 -2 0 3 1 -1 0 -2 0 3 
1 -1 0 2 0 -3 0 2 1 -1 0 1 0 -2 1 2 
0 -2 1 1 0 1 0 -3 0 3 1 -1 0 3 0 -4 
0 2 1 -2 0 3 3880 3163 300 MP stroke
0 -4 1 1 0 3 1 -2 0 1 0 -2 1 2 0 0 
0 -2 0 2 1 -2 0 3 0 -1 1 -2 0 3 0 -3 
1 2 0 -2 0 1 1 1 0 -2 0 2 1 1 0 1 
0 -3 0 1 1 0 0 2 0 -4 1 2 0 0 0 -2 
1 2 0 1 1 -1 0 1 0 -3 0 2 1 1 0 1 
0 -3 1 2 0 1 0 -3 0 1 1 -1 0 2 0 -1 
1 1 0 -1 0 1 1 -1 0 2 0 -4 1 2 0 1 
0 -1 1 -2 0 4 0 -3 1 0 0 2 1 -1 0 -1 
0 1 1 1 0 -2 1 1 0 1 0 -1 1 1 0 -3 
0 4 1 -3 0 3 0 -4 0 2 1 -2 0 2 0 -2 
1 2 0 -1 0 1 1 -1 0 2 0 -3 0 2 1 -1 
0 1 0 -2 1 2 0 1 0 -3 0 1 1 -1 0 2 
0 -3 0 1 1 1 0 1 0 -2 0 1 1 -1 0 4 
0 -4 0 2 1 -1 0 2 0 -3 0 1 1 0 0 1 
0 -1 1 -1 0 2 0 0 1 -2 0 2 1 2 0 -2 
0 1 1 -1 0 2 0 -3 0 1 1 0 0 -2 0 3 
1 -1 0 0 0 1 1 -1 0 1 0 -3 0 1 1 1 
0 2 0 -3 0 1 1 1 0 1 0 -2 0 1 1 -2 
0 -2 0 3 1 0 0 -2 0 2 1 0 0 -3 0 1 
1 2 0 -2 0 3 1 -1 0 1 0 -5 1 2 0 2 
1 -1 0 2 0 -3 1 1 0 1 0 -2 0 1 1 2 
0 -3 0 1 1 1 0 1 0 -4 0 3 1 2 0 -4 
0 0 1 -1 0 3 0 -1 1 3 0 -4 0 0 1 2 
0 1 0 -3 1 1 0 1 0 -2 1 1 0 -1 0 1 
1 1 0 0 0 -2 0 2 1 -2 0 3 0 -1 1 -1 
0 1 0 -2 0 0 1 2 0 -1 1 -1 0 2 0 -2 
1 1 0 2 0 -3 0 2 1 -2 0 2 0 -2 1 1 
0 1 0 -2 0 2 1 -1 1 1 -1 0 2 0 0 0 
0 -2 0 1 1 -2 0 3 0 -1 1 1 0 -1 1 1 
0 -1 1 1 0 1 0 -3 0 2 1 -1 0 -2 0 2 
1 -1 0 0 0 2 1 -1 0 -1 0 2 1 -1 0 2 
0 -1 1 -2 0 2 0 -1 1 -1 0 2 0 -1 1 1 
0 0 0 -2 0 1 1 -1 0 2 0 -1 1 -1 0 3 
0 -4 0 1 1 2 0 -2 0 1 1 -1 0 1 0 -2 
0 1 1 2 0 0 0 -2 0 1 1 1 0 -4 0 4 
1 -1 0 1 0 -4 0 2 1 0 0 2 0 -1 1 1 
0 -3 0 2 1 -1 0 2 1 -1 0 -1 0 1 1 1 
0 1 0 -4 0 1 3786 3166 300 MP stroke
1 2 0 -4 0 4 1 -2 0 0 0 1 1 -1 0 2 
0 -3 0 1 1 2 0 0 0 -2 0 1 1 -2 0 3 
0 -2 1 1 0 1 0 -2 0 2 1 -2 0 2 0 -1 
1 1 0 0 0 -2 0 1 1 -1 0 2 1 -1 0 2 
0 -1 1 -1 0 1 0 -2 1 1 0 1 0 -2 0 1 
1 -1 0 1 1 -1 0 2 1 -1 0 1 0 -2 0 1 
1 -1 0 2 0 -1 1 1 0 -2 1 2 0 0 0 -2 
1 2 0 -2 0 1 1 1 0 2 0 -3 0 1 1 -2 
0 3 0 -2 1 1 0 -1 1 -1 0 2 0 -1 1 1 
0 -3 0 3 1 -1 0 1 0 -2 0 1 1 1 0 1 
0 -2 1 1 0 -2 0 2 1 -1 0 2 0 -3 0 1 
1 1 0 1 0 -3 0 2 1 1 0 0 0 -2 0 2 
1 1 0 -3 0 2 1 0 0 1 0 -2 0 0 1 0 
0 2 0 -3 0 1 1 -1 0 2 1 1 0 -2 1 2 
0 -4 0 2 1 0 0 -2 0 3 1 -1 0 -2 1 3 
0 -2 0 1 2 0 0 2 0 -4 0 1 1 1 0 -1 
1 1 0 -1 0 2 1 -1 0 1 0 0 1 -3 0 3 
1 -1 0 2 0 -3 0 2 1 -1 0 -1 0 2 1 -2 
0 1 0 -2 0 1 1 1 0 -3 0 4 1 -3 0 2 
0 -3 0 3 1 -1 0 2 0 -3 0 0 1 2 0 -2 
0 2 1 -1 0 1 0 -3 0 1 1 1 0 1 0 -2 
0 2 1 1 0 -3 0 1 1 -1 0 2 0 -2 1 2 
0 1 0 -2 0 1 1 1 0 -5 0 4 2 0 0 -2 
0 1 1 -1 0 3 0 -3 0 2 1 -2 0 2 0 -3 
0 1 1 0 0 2 0 -2 1 1 0 1 0 -2 0 2 
1 0 0 -1 0 2 1 -3 0 2 0 -3 1 1 0 2 
0 -2 1 1 0 1 0 -2 0 0 1 2 0 -3 1 2 
0 1 0 -5 0 5 1 -2 0 -1 0 2 1 -2 0 2 
1 -1 0 -1 0 2 1 -1 0 1 0 -2 1 -1 0 4 
0 -2 1 1 0 -2 0 2 1 -1 0 2 0 -4 1 1 
0 3 0 -4 0 2 1 0 0 -1 0 2 1 -1 0 2 
1 -1 0 1 0 -4 1 1 0 2 0 -2 1 1 0 3 
0 -2 1 1 0 -2 0 2 1 -2 0 2 0 -3 1 3 
0 -2 0 2 1 -2 0 3 0 -4 1 2 0 1 1 -1 
0 1 0 -3 0 1 1 1 0 1 0 -2 0 0 1 1 
0 1 0 -2 0 1 1 -1 0 2 0 -2 1 1 0 -1 
0 2 1 -2 0 2 1 -2 0 2 0 -2 1 1 0 1 
0 -3 0 1 1 -1 3689 3167 300 MP stroke
0 3 0 -2 1 0 0 1 0 -2 1 2 0 1 0 -2 
0 1 1 -1 0 2 0 -1 1 -1 0 3 0 -3 1 0 
0 2 0 -3 0 1 1 1 0 1 0 -2 1 -1 0 3 
0 -2 1 1 0 1 0 -2 1 2 0 -2 0 2 1 -2 
0 1 0 -2 0 1 1 1 0 1 0 -2 0 0 1 2 
0 0 0 -3 0 2 1 1 0 1 0 -3 0 1 1 1 
0 1 0 -2 0 0 1 -1 0 2 0 -2 0 1 1 1 
0 1 0 -2 0 0 1 0 0 -1 0 1 1 -1 0 2 
0 -1 1 2 0 -3 1 1 0 1 0 -3 0 2 1 -1 
0 -1 0 2 1 -1 0 2 0 -3 0 1 1 2 0 0 
0 -2 0 2 1 -1 0 1 0 -2 0 0 1 2 0 1 
0 -4 0 3 1 -2 0 3 0 -4 1 3 0 0 0 -2 
0 2 1 -1 0 1 0 -2 0 0 1 2 0 -2 0 1 
1 1 0 -3 0 1 1 1 0 1 0 -2 0 1 1 1 
0 -2 0 1 1 -1 0 2 0 -2 1 2 0 -2 0 1 
1 -1 0 3 0 -3 1 2 0 -2 1 1 0 1 0 -2 
1 2 0 -2 0 1 1 -1 0 2 0 -2 1 1 0 -1 
0 2 1 1 0 -3 0 3 1 -2 0 2 0 -1 1 -1 
0 2 0 -2 1 1 0 2 0 -6 0 4 1 -2 0 3 
1 -3 0 3 0 -1 1 -1 0 1 0 -1 0 0 1 1 
0 -2 1 1 0 1 1 -1 0 -1 0 3 1 -3 0 3 
0 -3 0 2 1 0 0 0 0 -2 1 1 0 -1 0 2 
1 2 0 -4 0 2 1 1 0 -3 0 1 1 1 0 0 
0 -1 0 1 1 1 0 -3 0 0 1 1 0 3 0 -3 
0 1 1 -2 0 3 0 -3 0 1 1 -1 0 2 0 -1 
1 1 0 1 0 -2 1 -1 0 3 0 -4 0 3 1 0 
0 -1 0 2 1 -1 0 -3 0 3 1 -2 0 -1 0 4 
1 -1 0 -2 0 2 1 -1 0 1 0 -1 1 1 0 1 
0 -3 0 1 1 1 0 -1 0 1 1 -1 0 3 0 -4 
0 2 1 -2 0 4 0 -3 1 1 0 1 0 -2 0 2 
1 -1 0 1 0 -2 0 1 1 -1 0 2 0 -3 0 2 
1 -1 0 3 0 -4 0 3 1 -2 0 3 0 -4 0 3 
1 -1 0 2 0 0 1 -1 0 1 0 -2 1 -2 0 2 
1 0 0 1 0 -3 0 1 1 1 0 -2 0 3 1 -1 
0 -1 0 2 1 -1 0 1 0 -3 0 1 1 1 0 -1 
0 2 1 -1 0 -2 1 2 0 1 0 -3 1 3 0 -3 
0 3 1 -1 0 2 0 -3 0 1 1 -2 0 2 0 -1 
1 1 0 2 0 -4 3599 3166 300 MP stroke
0 1 1 1 0 -1 0 2 1 -1 0 -2 0 0 1 1 
0 1 0 -2 0 1 1 1 0 1 0 -2 0 1 1 1 
0 1 0 -3 0 1 1 -2 0 3 1 -1 0 2 0 -2 
1 2 0 -4 0 2 1 1 0 -2 0 0 1 1 0 -2 
0 0 1 1 0 2 0 -2 0 1 1 -2 0 4 0 -3 
1 1 0 2 0 -5 0 2 1 1 0 -2 0 2 1 0 
0 1 0 -3 0 1 1 1 0 2 0 -3 0 2 1 -1 
0 -3 0 3 1 -1 0 1 0 -2 0 1 1 1 0 -2 
0 3 1 -1 0 1 0 -2 0 0 1 1 0 0 0 -2 
0 2 1 0 0 1 0 -2 0 1 1 1 0 -2 1 1 
0 2 0 -4 0 1 1 1 0 -2 0 2 1 2 0 -3 
0 3 1 -1 0 -3 0 2 1 -1 0 1 0 -2 1 1 
0 2 0 -3 0 2 1 -1 0 3 0 -2 1 1 0 1 
0 -3 0 1 1 -1 0 2 1 -1 0 2 0 -2 0 1 
1 -1 0 1 0 -2 0 1 1 -1 0 1 0 -2 1 2 
0 -2 0 3 1 -1 0 -1 1 1 0 1 0 -3 0 2 
1 -2 0 2 1 0 0 -3 0 2 1 -1 0 2 0 -1 
1 -1 0 2 0 -3 0 2 1 1 0 -1 0 1 1 -1 
0 3 0 -3 0 0 1 2 0 -2 1 1 0 1 0 -3 
0 1 1 1 0 1 1 1 0 -3 0 3 1 -2 0 2 
0 -4 0 3 1 -1 0 2 0 -2 1 0 0 -1 0 2 
1 -1 0 -2 0 3 1 -2 0 2 1 -1 0 2 0 -3 
0 1 1 1 0 -2 0 2 1 -1 0 2 0 -4 1 1 
0 3 0 -1 1 -1 0 -1 0 3 1 -1 0 -2 0 3 
1 -2 0 -2 0 3 1 -1 0 2 0 -4 1 2 0 -2 
0 3 1 -1 0 2 1 -2 0 1 0 -4 0 3 1 0 
0 1 1 -1 0 2 0 -4 0 2 1 -1 0 2 0 -3 
0 2 1 1 0 0 0 -3 0 2 1 -2 0 2 0 -1 
1 1 0 1 0 -2 0 1 1 -1 0 3 0 -4 0 2 
1 1 0 -1 0 1 1 -1 0 2 0 -3 0 1 1 1 
0 -2 0 1 1 1 0 -3 0 1 1 1 0 1 0 -1 
1 1 0 1 0 -3 1 1 0 2 0 -3 0 2 1 -1 
0 2 0 -2 0 0 1 1 0 1 0 -4 0 2 1 1 
0 -2 1 1 0 1 0 -3 1 1 0 -1 0 1 1 1 
0 -2 0 1 1 -1 0 2 0 -1 1 -1 0 2 0 -1 
1 -1 0 3 0 -3 1 3 0 -2 1 1 0 2 0 -3 
0 1 1 1 0 -2 0 1 1 1 0 -2 0 3 1 -1 
0 1 0 -3 1 1 3506 3164 300 MP stroke
0 1 0 -3 0 1 1 1 0 1 0 -3 1 2 0 -2 
0 2 1 0 0 1 0 -3 0 1 1 1 0 -1 0 2 
1 -2 0 1 0 -2 0 1 1 1 0 2 0 -3 1 1 
0 2 0 -5 0 2 1 2 0 -3 0 1 1 1 0 1 
0 -1 1 1 0 -3 0 3 1 -1 0 -1 0 3 1 -3 
0 -1 0 4 1 -1 0 1 0 -3 0 2 1 -1 0 1 
0 -1 1 1 0 -3 0 2 1 0 0 1 0 -3 1 2 
0 -1 0 2 1 -1 0 1 1 1 0 -3 0 2 1 -1 
0 2 0 -4 1 4 0 0 0 -2 0 1 1 -2 0 2 
0 -1 1 1 0 -3 0 2 1 1 0 1 0 -2 0 0 
1 -1 0 4 0 -2 1 0 0 -2 0 1 1 1 0 1 
0 -1 1 -1 0 3 0 -3 1 1 0 -1 0 1 1 1 
0 -2 0 2 1 -2 0 0 0 2 1 -2 0 2 0 -2 
0 1 1 -1 0 2 0 -2 1 1 0 1 0 -3 1 2 
0 0 0 -2 0 1 1 1 0 1 0 -2 1 1 0 -1 
1 1 0 -1 0 2 1 -1 0 -1 0 2 1 -2 0 3 
0 -1 1 -2 0 1 1 -1 0 1 0 0 1 -1 0 2 
0 -2 0 2 1 0 0 -2 0 0 1 -1 0 3 0 -2 
1 1 0 1 0 -2 0 0 1 0 0 2 0 -2 1 -2 
0 5 1 -1 0 -1 1 -1 0 3 0 -3 1 2 0 -3 
0 3 1 -1 0 1 0 -2 1 1 0 1 0 -3 1 3 
0 -3 0 1 1 1 0 -1 0 1 1 1 0 -3 0 1 
1 1 0 1 0 -2 0 1 1 -1 0 3 0 -4 0 2 
1 -1 0 2 0 -4 0 2 1 2 0 -3 1 -1 0 5 
0 -3 1 0 0 2 0 -2 1 0 0 2 0 -3 0 1 
1 -1 0 3 0 -4 0 2 1 1 0 -2 0 4 1 -1 
0 -2 0 0 1 0 0 2 0 -4 0 3 1 1 0 -3 
1 1 0 2 0 -1 1 2 0 -4 0 3 1 -2 0 2 
0 0 1 -1 0 -1 0 3 1 -4 0 2 1 -1 0 -1 
0 3 1 -3 0 3 1 -1 0 1 0 -4 0 2 1 1 
0 2 0 -4 0 1 1 1 0 0 0 -3 0 3 1 -2 
0 3 0 -2 1 1 0 -1 0 1 1 -1 0 0 0 1 
1 -2 0 3 0 -3 1 1 0 -1 0 2 1 -3 0 2 
1 -1 0 2 0 -3 0 2 1 1 0 -3 0 3 1 -1 
0 -1 1 1 0 -2 0 3 1 -2 0 3 0 -4 0 2 
1 0 0 2 0 -3 1 1 0 2 1 -1 0 1 0 -3 
0 1 1 1 0 1 0 -4 0 3 1 -1 0 1 0 -1 
1 1 0 1 0 -2 3411 3164 300 MP stroke
1 1 0 2 0 -2 1 -1 0 2 0 -2 0 1 1 -1 
0 3 0 -3 0 1 1 -1 0 0 0 2 1 -2 0 2 
0 -3 0 2 1 1 0 -2 0 3 1 -2 0 1 0 -2 
0 1 1 2 0 -4 0 2 1 -1 0 -2 0 4 1 -1 
0 -1 0 2 1 -2 0 2 0 -3 0 2 1 1 0 -4 
0 4 1 -2 0 -1 0 3 1 -1 0 -1 0 2 1 -2 
0 2 0 -2 0 0 1 -1 0 2 0 0 1 -1 0 1 
0 -3 0 0 1 1 0 3 0 -4 0 1 1 1 0 2 
0 -4 0 3 1 1 0 -2 0 1 1 -1 0 2 0 -2 
0 1 1 1 0 -3 1 1 0 2 0 -3 1 1 0 2 
0 -4 1 2 0 2 0 -3 0 1 1 2 0 -3 0 2 
1 -1 0 1 0 -3 1 3 0 -2 0 2 1 -1 0 1 
0 -2 0 2 1 -1 0 2 0 -3 0 1 1 2 0 -3 
1 1 0 -1 0 3 1 -2 0 0 0 -2 0 2 1 -1 
0 1 0 -2 0 1 1 1 0 -2 1 2 0 2 1 -1 
0 -1 1 1 0 -3 0 1 1 1 0 3 1 -3 0 2 
0 -2 1 1 0 1 0 -2 0 1 1 -1 0 2 0 -3 
0 2 1 -1 0 2 0 -3 1 1 0 2 0 -1 1 -1 
0 0 0 2 1 -2 0 2 0 -3 0 1 1 1 0 1 
0 -2 0 1 1 -1 0 1 0 -2 1 1 0 -2 0 1 
1 1 0 2 0 -1 1 -1 0 2 0 -3 1 1 0 -1 
1 1 0 0 0 -1 1 1 0 2 0 -4 0 1 1 1 
0 2 0 -3 0 1 1 -1 0 3 0 -4 0 2 1 0 
0 1 0 -1 1 2 0 -3 0 1 1 1 0 -3 0 3 
1 -1 0 -2 1 2 0 -3 0 3 1 -2 0 5 0 -3 
1 1 0 -1 1 -1 0 3 0 -2 1 0 0 2 0 -5 
0 3 1 -1 0 3 0 -3 1 2 0 1 0 -4 0 1 
1 2 0 1 0 -4 0 3 1 -2 0 2 0 -3 0 1 
1 1 0 -1 0 2 1 -3 0 4 0 -1 1 -1 0 1 
0 -2 0 2 1 -4 0 5 0 -2 2 0 0 -1 0 1 
1 1 0 1 0 -3 0 1 1 1 0 -3 0 1 1 1 
0 1 0 -2 0 1 1 1 0 -3 0 1 1 1 0 1 
1 -2 -1 0 2 0 0 2 0 -1 1 -1 0 2 1 -1 
0 1 0 -3 0 1 1 1 0 1 0 -2 1 1 0 2 
0 -3 1 1 0 -1 1 1 0 -1 0 1 1 1 0 -1 
0 1 1 -1 0 2 0 -3 1 1 0 1 0 -2 1 3 
0 -4 0 2 1 2 0 -2 1 -1 0 1 0 -2 0 2 
1 0 0 -2 0 1 3316 3165 300 MP stroke
1 1 0 1 0 -2 0 1 1 -2 0 4 0 -2 1 -1 
0 -1 0 3 1 -1 0 -1 0 2 1 -1 0 1 1 -2 
0 2 0 -2 1 1 0 2 0 -1 1 1 0 -2 0 1 
1 -1 0 2 0 -2 1 1 0 1 0 -2 0 1 1 -1 
0 2 1 -2 0 2 0 -3 0 2 1 1 0 0 0 -2 
0 2 1 -1 0 2 0 -3 0 3 1 -1 0 0 0 -1 
1 2 0 -3 0 1 1 1 0 2 0 -3 0 1 1 1 
0 1 0 -4 0 1 1 2 0 1 0 -3 1 -1 0 3 
1 -1 0 0 0 -1 1 -1 0 3 0 -2 1 -1 0 3 
0 -2 1 1 0 1 0 -2 0 1 1 -1 0 2 0 -3 
1 1 0 1 0 -2 0 2 1 -2 0 3 0 -1 1 1 
0 -2 1 -1 0 3 0 -4 0 1 1 2 0 -1 1 -1 
0 2 0 -1 1 1 0 0 0 -2 0 0 1 -1 0 3 
0 -1 1 1 0 -2 0 1 1 1 0 1 0 -2 0 1 
1 1 0 0 0 -2 0 1 1 -2 0 3 0 -4 0 3 
1 0 0 0 0 -2 0 2 1 -1 0 3 0 -4 0 0 
1 1 0 -1 0 3 1 -1 0 -1 0 2 1 -2 0 1 
0 -2 0 0 1 1 0 2 0 -4 0 1 1 2 0 -2 
0 3 1 -2 0 -1 0 3 1 -1 0 -1 0 2 1 -1 
0 2 0 -4 1 1 0 2 1 -3 0 4 0 -4 0 2 
1 -2 0 3 1 -2 0 1 0 -2 0 2 1 -2 0 3 
0 -1 1 -2 0 4 0 -3 1 1 0 1 0 -3 0 3 
1 -1 0 2 0 -2 0 0 1 1 0 -3 0 1 1 1 
0 1 0 -3 0 1 1 1 0 -2 1 1 0 2 0 -4 
0 2 1 1 0 1 0 -1 1 -1 0 2 0 -2 1 1 
0 3 0 -5 0 1 1 1 0 1 0 -3 0 1 1 2 
0 1 0 -4 0 2 1 -2 0 3 0 -1 1 -1 0 3 
0 -2 1 0 0 -2 1 2 0 2 0 -3 0 2 1 -1 
0 2 0 -4 0 2 1 -2 0 4 0 -1 1 -1 0 2 
0 -3 0 1 1 -2 0 3 0 0 1 -1 0 1 0 -1 
1 1 0 2 0 -3 1 1 0 2 0 -4 1 1 0 0 
0 1 1 -1 0 1 0 -2 1 3 0 -2 0 2 1 -2 
0 -1 0 2 1 1 0 -4 0 3 1 -1 0 -1 1 1 
0 -2 0 3 1 -1 0 1 0 -3 0 1 1 1 0 0 
0 -2 0 1 1 1 0 -1 0 2 1 -1 0 2 0 -3 
0 2 1 -1 0 1 0 -2 0 1 1 1 0 1 1 -2 
-1 0 2 0 0 2 0 -3 1 1 0 2 0 -2 1 0 
0 3 0 -3 1 2 3223 3160 300 MP stroke
0 -2 1 1 0 1 0 -2 0 1 1 -1 0 2 0 -3 
0 0 1 1 0 2 0 -4 1 2 0 2 0 -3 1 1 
0 2 0 -3 0 2 1 -1 0 2 0 -2 1 -1 0 2 
1 -1 0 1 0 -2 0 1 1 -2 0 3 0 0 1 1 
0 1 0 -4 0 1 1 1 0 1 0 -4 0 3 1 -1 
0 2 0 -2 0 0 1 1 0 -2 0 1 1 1 0 1 
0 -4 1 1 0 2 0 -2 1 1 0 1 0 -1 0 0 
1 1 0 1 0 -4 0 1 1 1 0 2 0 -3 0 1 
1 -1 0 3 0 -4 0 3 1 -1 0 -1 0 2 1 -2 
0 3 1 -2 0 -1 0 3 1 -1 0 -2 0 1 1 2 
0 -2 0 1 1 -1 0 -1 0 3 1 -2 0 -2 0 2 
1 -1 0 4 0 -2 1 -1 0 2 0 -2 1 1 0 1 
0 -2 1 0 0 2 0 -3 0 2 1 -1 0 1 1 1 
0 0 0 -2 0 2 1 -1 0 1 0 -2 1 1 0 -3 
0 4 1 -1 0 3 0 -4 0 2 1 -1 0 1 0 -2 
0 1 1 1 0 2 0 -5 0 1 1 1 0 2 0 -4 
1 2 0 1 0 -2 1 1 0 1 0 -2 0 2 1 -2 
0 2 0 -2 0 1 1 1 0 -2 0 1 1 -1 0 0 
0 2 1 -2 0 2 0 -1 1 -1 0 2 0 -4 0 2 
1 1 0 1 0 -3 0 0 1 1 0 1 0 -1 1 2 
0 0 0 -2 0 2 1 -2 0 1 0 -3 0 2 1 1 
0 0 0 -2 0 2 1 -1 0 2 0 -3 0 2 1 -1 
0 2 1 -1 0 -3 0 4 1 -1 0 1 0 -1 1 -1 
0 3 0 -2 1 -1 0 3 0 -1 1 1 0 -3 0 1 
1 -1 0 2 0 -3 0 1 1 2 0 0 0 -2 1 1 
0 -1 1 -1 0 3 0 -2 1 1 0 1 0 -2 1 2 
0 -1 0 2 1 -1 0 -2 0 1 1 -1 0 2 1 -1 
0 1 0 -1 1 -2 0 2 0 -1 1 1 0 0 0 -1 
1 2 0 0 0 -3 0 2 1 -1 0 2 0 -3 0 1 
1 2 0 -2 1 1 0 1 0 -3 0 3 1 -1 0 -1 
0 -1 1 4 0 -3 0 1 1 -1 0 3 0 -1 1 -1 
0 1 0 -2 0 1 1 1 0 1 0 -3 0 2 1 -1 
0 1 0 0 1 1 0 -3 1 2 0 0 0 -2 1 1 
0 1 0 -3 0 2 1 1 0 0 0 -2 0 1 1 -1 
0 2 0 -1 1 1 0 -2 1 1 0 2 0 -3 0 1 
1 -1 0 4 0 -4 0 3 1 -1 0 -4 0 4 1 0 
0 -2 1 1 0 -1 0 3 1 -1 0 1 0 -4 0 4 
1 -3 0 3 1 -2 3131 3161 300 MP stroke
0 2 0 -3 0 1 1 1 0 2 0 -4 0 2 1 0 
0 -2 1 2 0 1 0 -2 0 1 1 1 0 -2 1 1 
0 1 0 -3 0 2 1 -1 0 2 0 -3 0 2 1 1 
0 -2 1 -1 0 4 0 -5 0 3 1 0 0 1 0 -3 
1 2 0 1 0 -3 1 1 0 3 0 -4 0 2 1 -1 
0 2 0 -3 1 1 0 3 0 -3 0 1 1 -2 0 2 
0 -2 0 1 1 2 0 1 0 -3 1 -1 0 4 0 -4 
0 1 1 0 0 4 0 -1 1 -2 0 1 0 -3 0 2 
1 2 0 -2 0 1 1 -1 0 2 0 -2 1 -1 0 2 
0 -3 0 2 1 0 0 -2 0 3 1 -2 0 2 0 -3 
0 -1 1 3 0 -2 0 2 1 -1 0 2 0 -3 0 2 
1 0 0 1 0 -3 0 2 1 -1 0 3 0 -4 0 3 
1 -1 0 2 0 -3 0 2 1 -1 0 -2 0 2 1 2 
0 -2 0 1 1 -1 0 2 0 -3 0 1 1 1 0 1 
0 -3 0 1 1 1 0 1 0 -3 0 2 1 -1 0 2 
0 0 1 -3 0 -1 0 3 1 -1 0 2 0 -3 0 2 
1 -1 0 -1 0 2 1 -1 0 2 0 -3 0 2 1 -1 
0 2 0 -4 1 2 0 2 0 -1 1 -1 0 2 0 -2 
0 1 1 1 0 -2 0 1 1 1 0 -2 0 2 1 -2 
0 2 0 -1 1 -1 0 1 0 -2 0 1 1 1 0 1 
0 -4 0 2 1 0 0 3 0 -3 1 1 0 1 0 -3 
0 1 1 2 0 -3 0 3 1 -1 0 2 0 -3 0 2 
1 -1 0 1 0 -2 0 0 1 1 0 2 0 -1 1 -1 
0 2 0 -3 1 2 0 1 0 -3 0 2 1 -1 0 2 
0 -3 1 1 0 2 0 -3 1 2 0 -3 0 4 1 -1 
0 1 0 -2 1 -1 0 2 0 -3 0 1 1 1 0 1 
0 -3 0 1 1 2 0 0 0 -2 0 2 1 -1 0 -1 
0 4 1 -2 0 1 0 -3 0 2 1 -1 0 2 0 -3 
0 2 1 -1 0 1 0 -2 0 1 1 2 0 1 0 -4 
0 1 1 1 0 -2 0 2 1 -2 0 2 0 0 1 -1 
0 -2 0 2 1 1 0 -2 0 0 1 1 0 1 0 -1 
0 1 1 -2 0 2 0 0 1 -1 0 2 0 -3 1 1 
0 1 0 -2 1 -1 0 3 0 -1 1 -1 0 2 0 -4 
1 3 0 1 1 -1 0 2 0 -3 0 2 1 -1 0 1 
0 -2 0 1 1 -1 0 1 1 1 0 1 0 -3 1 0 
0 2 0 -2 0 2 1 -1 0 1 0 -2 1 0 0 2 
0 -3 0 2 1 1 0 -2 1 1 0 0 0 -1 0 0 
1 1 0 2 0 -3 3044 3160 300 MP stroke
1 0 0 2 0 -1 1 -1 0 2 0 -4 0 2 1 1 
0 -1 0 2 1 -1 0 1 0 -2 0 0 1 2 0 -3 
0 2 1 1 0 -3 1 1 0 2 0 -2 1 -1 0 4 
1 -3 0 1 0 -2 1 1 0 1 0 0 1 -1 0 2 
0 -3 0 1 1 1 0 -2 0 3 1 -2 0 4 0 -3 
1 1 0 -2 0 2 1 -1 0 1 1 -1 0 3 0 -5 
0 2 1 1 0 0 0 -4 0 2 1 1 0 -1 0 2 
1 1 0 -3 1 0 0 4 0 -2 1 -2 0 2 0 -2 
0 1 1 -1 0 2 0 -2 1 1 0 3 0 -3 0 2 
1 -1 0 -1 1 1 0 0 0 -2 0 0 1 2 0 -2 
0 2 1 -1 0 2 1 -1 0 -2 0 4 1 -2 0 -3 
0 4 1 -1 0 1 0 -2 0 1 1 1 0 -2 0 1 
1 -2 0 2 0 0 1 -1 0 1 0 -1 1 1 0 2 
0 -4 0 2 1 2 0 -3 0 1 1 -1 0 2 0 -2 
1 1 0 -1 1 1 0 -1 0 3 1 -2 0 -2 0 3 
1 -1 0 2 0 -3 0 2 1 -1 0 -1 0 2 1 -1 
0 1 0 -2 1 1 0 2 0 -3 1 -1 0 4 0 -2 
1 1 0 -1 0 1 1 -2 0 2 0 -1 1 1 0 1 
0 -3 0 1 1 1 0 -1 0 2 1 -1 0 -2 0 1 
1 -1 0 1 0 -1 1 2 0 1 0 -3 0 2 1 -1 
0 2 0 -3 0 1 1 1 0 1 0 -3 1 3 0 0 
0 -2 0 0 1 2 0 -2 0 2 1 -1 0 1 0 -2 
0 2 1 -2 0 2 0 -2 0 0 1 0 0 2 0 -2 
1 2 0 -3 1 1 0 1 0 -3 0 2 1 0 0 -1 
0 2 1 -1 0 2 0 -2 0 1 1 -1 0 2 0 -3 
0 2 1 1 0 -2 0 1 1 -1 0 -2 0 3 1 -1 
0 -1 0 3 1 -1 0 -3 0 1 1 1 0 2 0 -2 
1 0 0 0 0 1 1 -1 0 0 0 -2 0 2 1 -1 
0 3 0 -1 1 1 0 -3 1 3 0 -3 0 1 1 -1 
0 3 0 -2 1 1 0 -2 1 -1 0 3 0 -2 1 1 
0 2 0 -2 0 1 1 -1 0 -1 0 2 1 1 0 -2 
0 1 1 -1 0 1 0 -2 0 1 1 1 0 -2 0 1 
1 1 0 1 0 -2 0 1 1 1 0 -2 1 1 0 -1 
0 2 1 -2 0 2 0 -2 0 1 1 -2 0 2 0 -3 
1 3 0 -1 0 2 1 0 0 0 0 -2 0 1 1 -1 
0 1 0 -2 0 1 1 1 0 0 0 -2 0 1 1 1 
0 1 0 -2 0 1 1 1 0 0 0 -2 0 1 1 -1 
0 1 0 -3 1 4 2950 3156 300 MP stroke
0 0 0 -2 1 1 0 -3 0 3 1 -1 0 4 0 -4 
1 1 0 1 0 -2 0 1 1 -1 0 3 0 -4 1 2 
0 -2 0 3 1 -1 0 1 0 -4 0 2 1 1 0 2 
0 -3 0 2 1 -1 0 1 0 -3 0 1 1 1 0 2 
0 -2 1 0 0 1 0 -2 0 1 1 1 0 1 0 -2 
0 1 1 -1 0 2 0 -3 0 1 1 1 0 -2 0 1 
1 1 0 -2 0 1 1 2 0 1 0 -5 0 2 1 1 
0 1 0 -3 0 1 1 1 0 1 0 -3 0 1 1 1 
0 -2 0 3 1 -1 0 2 0 -3 0 2 1 -1 0 1 
0 -3 0 2 1 1 0 0 0 -4 0 3 1 -1 0 2 
1 -1 0 -2 0 4 1 -2 0 0 0 2 1 -3 0 3 
0 -1 1 -1 0 2 0 -2 1 0 0 2 0 -1 1 -1 
0 2 0 -3 0 1 1 1 0 1 0 -3 0 1 1 -1 
0 3 0 -1 1 -1 0 -1 0 1 1 1 0 2 0 -4 
0 1 1 2 0 0 0 -2 0 2 1 -1 0 1 0 -2 
0 1 1 -1 0 2 0 -2 1 -1 0 2 0 -1 1 1 
0 1 0 -2 1 1 0 1 0 -4 0 2 1 1 0 -1 
1 -2 0 3 0 -1 1 1 0 -1 1 1 0 2 0 -3 
1 1 0 -1 0 2 1 -1 0 1 0 -3 0 1 1 1 
0 -1 0 2 1 -1 0 2 0 -3 0 1 1 1 0 -3 
0 4 1 -3 0 3 0 -1 1 -1 0 2 0 -3 1 1 
0 3 0 -4 0 1 1 1 0 -2 0 2 1 0 0 -2 
0 4 1 -3 0 3 0 -2 1 1 0 -2 0 2 1 -1 
0 -2 0 2 1 -1 0 2 0 -2 1 0 0 -1 0 3 
1 1 0 -3 0 2 1 -1 0 -2 0 3 1 -1 0 -2 
0 3 1 -1 0 2 0 -3 0 2 1 -3 0 4 0 -4 
1 2 0 1 0 -3 0 2 1 1 0 -2 0 2 1 -3 
0 4 0 -2 1 0 0 0 0 2 1 -1 0 1 0 -2 
1 2 0 -3 0 2 1 -1 0 -1 0 3 1 -2 0 2 
0 -2 1 0 0 1 0 -1 1 2 0 -2 1 1 0 -2 
0 3 1 -1 0 1 0 -2 1 1 0 2 0 -3 1 0 
0 -1 0 3 1 -1 0 -1 0 0 1 3 0 -3 0 2 
1 1 0 0 0 -2 1 -1 0 3 0 -1 1 -1 0 1 
0 -3 1 2 0 2 0 -2 1 1 0 2 0 -4 0 0 
1 1 0 2 0 -4 0 2 1 1 0 2 0 -2 0 1 
1 -1 0 2 0 -3 0 1 1 0 0 2 0 -3 1 1 
0 -2 0 4 1 -1 0 -2 0 1 1 1 0 -2 0 2 
1 -1 0 -1 0 3 2859 3150 300 MP stroke
1 0 0 -3 0 2 1 -1 0 2 0 -2 1 -1 0 3 
0 -1 1 -1 0 1 1 -1 0 2 0 -3 0 2 1 -2 
0 3 0 -4 0 2 1 1 0 1 0 -3 1 3 0 -2 
0 1 1 -1 0 0 0 2 1 -2 0 1 1 1 0 0 
0 -2 1 1 0 1 0 -2 1 1 0 1 0 1 1 -3 
0 2 0 -2 1 2 0 -2 0 2 1 -1 0 1 0 -2 
0 0 1 1 0 1 0 -4 0 4 1 2 0 -5 0 2 
1 -1 0 2 0 -1 1 1 1 -1 0 -1 0 2 1 -3 
0 3 0 -2 1 1 0 -1 0 2 1 -1 0 -1 0 2 
1 -1 0 1 0 -4 0 3 1 -1 0 2 0 -2 0 0 
1 1 0 1 0 -2 1 1 0 -2 0 3 1 -1 0 1 
0 -4 0 2 1 1 0 1 0 -2 0 1 1 1 0 -2 
0 2 1 -1 0 2 0 -4 1 1 0 2 0 -1 1 -1 
0 -1 0 3 1 -3 0 3 1 -1 0 -2 0 3 1 -1 
0 -2 0 1 1 1 0 2 0 -3 1 2 0 -2 0 1 
1 1 0 2 0 -3 1 -1 0 2 0 -1 1 -1 0 3 
0 -3 1 2 0 -2 0 2 1 -2 0 2 0 -3 0 1 
1 2 0 -2 0 3 1 -1 0 1 0 -3 0 1 1 0 
0 1 0 -2 0 1 1 1 0 1 0 -4 0 2 1 1 
0 1 0 -3 0 1 1 1 0 -2 0 1 1 1 0 1 
0 -2 1 1 0 -2 0 3 1 -2 0 2 0 -3 0 1 
1 1 0 1 0 -2 0 1 1 1 0 1 0 -3 1 2 
0 2 0 -4 0 0 1 2 0 -2 0 3 1 -1 0 -2 
0 3 1 -1 0 1 0 -3 0 2 1 -1 0 0 0 1 
1 1 0 -2 0 1 1 1 0 0 0 -2 0 1 1 -1 
0 2 0 -1 1 -1 0 3 0 -3 0 1 1 -3 0 4 
0 -2 1 0 0 0 0 1 1 -1 0 2 0 -3 0 1 
1 -1 0 3 0 -1 1 2 0 -5 0 4 1 -2 0 -1 
0 2 1 1 0 1 0 -3 0 2 1 -1 0 1 0 -2 
0 2 1 -1 0 -1 0 2 1 -1 0 2 0 -1 1 -1 
0 2 0 -2 1 -1 0 2 0 0 1 -1 0 2 0 -1 
1 1 0 -2 0 2 1 -1 0 2 0 -3 0 2 1 -2 
0 2 0 -2 0 1 1 -1 0 -1 0 3 1 1 0 -3 
0 1 1 1 0 0 0 -4 0 3 1 -1 0 2 0 -3 
0 2 1 -2 0 2 0 -2 0 0 1 1 0 3 0 -1 
1 -1 0 2 0 -4 1 2 0 1 0 -2 1 1 0 -2 
0 2 1 0 0 1 0 -3 0 2 1 1 0 0 0 -3 
1 3 0 -3 0 3 2767 3147 300 MP stroke
1 -1 0 1 1 -1 0 -1 1 1 0 2 0 -3 0 0 
1 4 0 -4 0 1 1 0 0 -2 0 3 1 -1 0 1 
0 -2 1 1 0 1 0 -2 1 3 0 0 0 -2 1 -1 
0 3 0 -3 1 1 0 3 0 -3 1 2 0 1 0 -3 
0 2 1 -1 0 2 0 -3 0 1 1 1 0 1 0 -3 
0 1 1 1 0 -2 0 3 1 -1 0 1 0 -3 1 2 
0 2 0 -3 0 0 1 2 0 -3 0 3 1 -1 0 2 
0 -3 0 1 1 2 0 -4 0 1 1 1 0 -1 0 2 
1 -1 0 2 1 -2 0 1 0 -3 0 3 1 -2 0 3 
1 -2 0 1 1 -1 0 2 0 -3 0 2 1 0 0 1 
0 -3 0 1 1 -1 0 3 1 -2 0 3 1 -1 0 -2 
1 1 0 1 0 -1 1 -1 0 2 0 -3 0 1 1 1 
0 -1 0 2 1 -1 0 -2 0 3 1 0 0 2 0 -5 
1 1 0 3 0 -3 1 1 0 1 0 -3 0 2 1 1 
0 1 0 -3 0 1 1 1 0 1 0 -3 0 1 1 -1 
0 2 0 -3 0 1 1 0 0 2 1 -1 0 3 0 -4 
0 2 1 -1 0 -1 0 2 1 -1 0 -1 0 1 1 -1 
0 2 0 -1 1 1 0 1 0 -2 0 1 1 -1 0 3 
0 -3 1 2 0 -2 0 2 1 -1 0 1 0 -2 0 1 
1 1 0 1 0 -4 0 3 1 -1 0 2 0 -4 0 1 
1 1 0 2 0 -3 1 -1 0 4 0 -1 1 -1 0 1 
0 -3 0 2 1 1 0 -2 0 1 1 -1 0 3 0 -2 
1 1 0 -2 0 3 1 -1 0 1 0 -3 0 1 1 1 
0 1 0 -3 1 3 0 -3 1 2 0 1 0 -4 0 4 
1 0 0 1 0 -3 1 2 0 1 0 -3 1 2 0 -2 
0 1 1 2 0 -3 0 2 1 -1 0 2 0 -3 0 1 
1 1 0 1 0 -2 1 1 0 -1 0 1 1 1 0 -3 
0 1 1 1 0 2 0 -4 0 2 1 1 0 -3 0 1 
1 2 0 0 0 -3 0 3 1 -2 0 2 1 -2 0 3 
0 -4 0 3 1 -1 0 2 0 -1 1 -2 0 3 1 0 
0 -4 0 3 1 -1 0 3 0 -5 0 4 1 -1 0 1 
0 -2 0 1 1 -1 0 3 0 -3 0 1 1 -1 0 2 
0 -3 1 1 0 -1 1 3 0 -2 0 2 1 -1 0 1 
0 -2 1 3 0 0 0 -2 1 2 0 -2 0 1 1 1 
0 1 0 -2 0 1 1 -1 0 -2 0 4 1 -2 0 2 
0 -2 0 1 1 1 0 -2 0 1 1 -2 0 4 0 -2 
1 -1 0 -1 0 2 1 -1 0 2 0 -2 1 1 0 2 
0 -3 1 1 0 2 2673 3137 300 MP stroke
0 -3 0 1 1 2 0 -3 0 2 1 -2 0 2 0 -1 
1 1 0 1 0 -2 1 1 0 -2 0 3 1 -1 0 1 
0 -2 0 1 1 -1 0 3 1 -1 0 0 0 -2 0 1 
1 -1 0 3 1 0 0 -2 0 1 1 -1 0 2 0 -3 
0 2 1 -1 0 2 0 -4 0 2 1 1 0 1 0 -2 
0 1 1 -2 0 0 0 4 1 -2 0 1 0 -2 1 1 
0 2 0 -3 1 2 0 -3 0 1 1 3 0 -4 0 2 
1 -1 0 2 0 -1 1 1 0 1 0 -2 0 1 1 -1 
0 -2 0 3 1 2 0 -4 0 2 1 -2 0 2 1 1 
0 1 0 -3 0 2 1 -1 0 1 0 -3 0 2 1 -1 
0 2 1 -2 0 3 0 -2 1 2 0 -2 0 0 1 1 
0 -2 0 1 1 1 0 1 0 -2 1 1 0 1 0 -2 
1 2 0 -3 1 1 0 0 0 2 1 -1 0 1 0 -2 
0 2 1 -1 0 1 1 -2 0 3 0 -1 1 -1 0 2 
0 -4 0 3 1 0 0 -2 0 3 1 -3 0 3 0 -1 
1 -1 0 2 0 -1 1 -1 0 2 0 -3 0 2 1 -1 
0 2 0 -1 1 -1 0 3 1 -2 0 2 0 -3 0 2 
1 -1 0 2 0 -3 0 2 1 -1 0 1 0 -3 0 1 
1 1 0 1 0 -2 1 1 0 2 0 -3 0 1 1 1 
0 1 0 -3 0 0 1 3 0 -3 0 0 1 3 0 1 
0 -3 1 1 0 -2 0 2 1 -1 0 2 0 -3 0 3 
1 -3 0 4 0 -2 1 -1 0 2 0 0 1 -1 0 1 
0 -3 1 1 0 4 0 -3 1 1 0 -3 0 2 1 1 
0 -3 0 1 1 2 0 -2 0 2 1 -1 0 -1 0 4 
1 -3 0 2 1 -1 0 2 0 -4 0 3 1 -1 0 2 
0 -3 1 1 0 2 0 -3 0 1 1 1 0 2 0 -3 
0 1 1 1 0 -2 1 1 0 2 0 -3 0 2 1 -1 
0 -1 0 1 1 2 0 -3 1 2 0 1 0 -2 1 -1 
0 4 0 -2 1 1 0 1 0 -2 0 0 1 1 0 1 
0 -4 1 3 0 -1 0 2 1 -1 1 1 0 1 0 -2 
0 1 1 -1 0 -2 0 3 1 -1 0 1 0 -2 0 2 
1 -1 0 2 0 -3 0 1 1 -1 0 3 0 -1 1 1 
0 -3 0 1 1 2 0 2 0 -3 0 1 1 1 0 -3 
0 2 1 -1 0 -2 0 3 1 1 0 1 0 -2 0 1 
1 -2 0 1 0 -2 0 1 1 1 0 -1 0 2 1 -1 
0 -2 0 2 1 1 0 -4 0 4 1 -2 0 2 0 -2 
1 2 0 -1 0 1 1 -1 0 3 0 -4 0 1 1 1 
0 1 0 -2 0 1 2580 3126 300 MP stroke
1 -1 0 1 0 -1 1 -1 0 3 0 -2 1 0 0 2 
0 -2 0 2 1 -1 0 1 0 -3 0 2 1 0 0 2 
0 -2 1 1 0 -2 0 3 1 -1 0 -3 0 2 1 1 
0 1 0 -3 0 0 1 -1 0 4 1 -2 0 1 0 -2 
0 1 1 2 0 -3 0 2 1 1 0 1 0 -4 0 3 
1 -3 0 4 1 -2 0 2 0 -3 1 -1 0 4 0 -1 
1 1 0 -3 0 2 1 1 0 -3 1 1 0 2 0 -4 
0 2 1 1 0 1 0 -2 1 1 0 1 0 -2 1 1 
0 1 0 -2 0 1 1 1 0 -1 1 -1 0 -1 0 3 
1 -2 0 2 0 0 1 -2 0 4 0 -1 1 1 0 -2 
0 2 1 -1 0 1 0 -3 0 2 1 1 0 0 0 -2 
0 2 1 -1 0 2 0 -2 1 1 0 -1 0 1 1 1 
0 -3 0 2 1 1 0 -2 1 2 0 1 0 -3 0 2 
1 -1 0 -1 0 2 1 1 0 -4 0 3 1 0 0 1 
0 -2 0 1 1 -1 0 2 1 -1 0 2 0 -3 0 2 
1 -1 0 -1 0 2 1 2 0 -4 0 3 1 -1 0 1 
0 -3 1 -1 0 4 0 0 1 -2 0 0 0 2 1 -1 
0 2 0 -3 0 2 1 1 0 -3 0 2 1 2 0 -3 
0 1 1 -1 0 2 0 -2 1 0 0 2 0 -1 1 1 
0 0 0 -2 0 2 1 -1 0 -1 0 2 1 1 0 1 
0 -2 1 1 0 1 0 -3 0 1 1 1 0 -1 0 2 
1 -1 0 -1 0 2 1 -2 0 3 0 -1 1 -2 0 2 
0 -2 1 1 0 2 0 -2 1 1 0 1 0 -2 0 1 
1 -1 0 2 0 -3 0 2 1 1 0 1 0 -4 0 3 
1 -1 0 2 0 -3 0 2 1 0 0 1 0 -2 0 0 
1 -1 0 3 0 -2 1 2 0 -2 0 3 1 -1 0 -2 
0 2 1 0 0 -1 0 2 1 -1 0 2 0 -3 1 1 
0 2 0 -3 0 1 1 0 0 1 0 -2 0 1 1 -1 
0 3 0 0 1 0 0 -3 1 1 0 1 0 -2 0 2 
1 -1 0 3 0 -5 0 3 1 -1 0 2 0 -1 1 -1 
0 2 0 -1 1 2 0 -3 0 2 1 -1 0 2 0 -2 
1 0 0 2 0 -3 1 1 0 2 0 -1 1 1 0 -3 
0 3 1 -1 0 2 0 -3 0 2 1 0 0 -1 0 1 
1 -1 0 2 0 -2 0 1 1 -1 0 3 0 -4 0 2 
1 1 0 1 0 -3 0 2 1 -1 0 2 0 -3 0 3 
1 -1 0 1 0 -2 0 1 1 2 0 -3 0 1 1 -1 
0 3 0 -2 1 1 0 1 0 -3 0 1 1 1 0 1 
0 -3 0 1 1 1 2488 3108 300 MP stroke
0 1 0 -3 0 3 1 0 0 -2 0 2 1 0 0 -1 
0 2 1 -2 0 2 0 -5 0 3 1 0 0 -1 0 3 
1 -1 0 -1 0 3 1 -2 0 2 0 -2 0 0 1 1 
0 1 0 -3 0 0 1 1 0 2 1 -1 0 1 0 -3 
0 2 1 -1 0 3 0 0 1 -1 0 1 0 -2 0 0 
1 1 0 1 0 -3 0 1 1 1 0 -1 0 3 1 -2 
0 -1 0 3 1 -2 0 -2 0 4 1 -1 0 -2 1 1 
0 3 0 -3 0 2 1 -2 0 2 0 -3 0 3 1 -1 
0 2 0 -3 0 1 1 2 0 -2 0 3 1 -2 0 -3 
0 2 1 1 0 1 0 -1 1 1 0 1 0 -3 1 2 
0 1 0 -3 0 3 1 -1 0 1 0 -1 0 0 1 -1 
0 3 0 -3 0 2 1 0 0 1 0 -3 0 1 1 1 
0 -1 0 2 1 -1 0 2 0 -3 0 2 1 -1 0 1 
0 -2 0 1 1 1 0 1 0 -3 0 1 1 2 0 -3 
1 1 0 2 0 0 1 -2 0 2 0 -1 1 -1 0 3 
0 -1 1 1 0 -3 0 2 1 -1 0 2 0 -1 1 1 
0 -2 0 3 1 -1 0 1 0 -2 0 1 1 1 0 -2 
1 -1 0 3 0 -1 1 1 0 -2 0 1 1 -1 0 3 
0 -3 0 1 1 1 0 -2 0 3 1 -1 0 1 0 -3 
0 2 1 -1 0 2 0 -4 0 3 1 1 0 0 0 -2 
1 1 0 2 0 -2 1 1 0 1 0 -3 0 2 1 -1 
0 0 0 3 1 -1 0 2 1 -4 0 3 1 -1 0 1 
0 -3 0 2 1 1 0 -1 0 0 1 1 0 1 0 -3 
0 1 1 1 0 -1 0 2 1 -1 0 -1 0 3 1 -1 
0 0 0 -2 0 1 1 1 0 0 0 -1 0 0 1 1 
0 1 0 -3 0 3 1 -1 0 2 0 -1 1 -1 0 2 
0 -2 1 -2 0 5 0 -2 1 0 0 2 0 -2 1 1 
0 1 0 -2 0 1 1 -1 0 3 1 -1 0 2 0 -3 
0 2 1 -2 0 3 0 -2 1 -1 0 3 0 -3 1 1 
0 3 0 -3 0 2 1 -2 0 3 0 -2 1 2 0 -2 
1 3 0 -3 0 1 1 1 0 -2 0 3 1 -1 0 -2 
0 3 1 -1 0 2 0 -2 1 0 0 2 0 -3 0 3 
1 -1 0 1 0 -2 0 1 1 1 0 -2 0 3 1 -1 
0 -1 0 2 1 -1 0 1 0 -2 0 1 1 2 0 -2 
0 1 1 -1 0 3 0 -2 1 1 0 1 0 -2 1 1 
0 1 0 -3 0 2 1 -1 0 4 1 -2 0 2 0 -3 
0 2 1 -1 0 -1 0 4 1 -2 0 -1 0 2 1 -1 
0 2 0 -1 1 1 2397 3079 300 MP stroke
0 -2 0 1 1 1 0 -2 0 3 1 -3 0 2 0 -2 
0 0 1 1 0 4 0 -5 0 3 1 -1 0 2 0 -4 
0 2 1 1 0 -1 0 2 1 -3 0 3 0 -1 1 -2 
0 3 1 -2 0 2 0 -1 1 1 0 1 0 -2 1 3 
0 -4 0 1 1 1 0 2 0 -5 0 3 1 0 0 2 
0 -2 1 2 0 -3 0 1 1 1 0 -3 0 3 1 -1 
0 4 0 -2 1 -2 0 0 0 3 1 -1 0 1 0 -3 
1 2 0 2 0 -3 0 1 1 0 0 1 0 -1 0 1 
1 1 0 -2 0 2 1 -2 0 3 0 -3 1 1 0 3 
0 -3 1 2 0 1 0 -3 0 2 1 1 0 1 0 -3 
0 3 1 -2 0 1 0 -1 1 -1 0 3 1 -1 0 1 
0 -3 0 2 1 -1 0 3 1 -2 0 -1 0 2 1 1 
0 1 0 -3 0 1 1 1 0 -2 0 3 1 -1 0 0 
0 3 1 -2 0 1 0 -4 0 2 1 1 0 -2 0 3 
1 0 0 1 0 -2 0 2 1 -1 0 2 0 -3 0 1 
1 1 1 -1 0 2 1 -1 0 -1 0 2 1 0 0 1 
0 -3 0 2 1 1 0 -1 0 0 1 2 0 -2 0 3 
1 -2 0 1 1 1 0 1 0 -2 0 0 1 1 0 1 
0 -2 0 1 1 2 0 -4 0 2 1 -2 0 3 1 -1 
0 3 0 -2 1 -1 0 0 0 1 1 2 0 -2 1 1 
0 -1 0 3 1 -1 0 1 0 -3 0 1 1 -1 0 4 
0 -1 1 1 0 -4 0 2 1 -1 0 3 0 -1 1 -1 
0 2 1 2 0 -4 0 1 1 1 0 1 0 -3 0 2 
1 1 0 1 0 -3 0 1 1 2 0 -2 0 1 1 1 
0 1 0 -2 1 1 0 -1 0 3 1 -1 0 2 0 -3 
0 2 1 1 0 -3 0 2 1 1 0 1 0 -3 0 2 
1 -1 0 3 0 -1 1 -2 0 2 1 -1 0 3 0 -3 
1 2 0 1 0 -2 1 1 0 1 0 -2 0 1 1 1 
0 -1 0 1 1 2 0 -4 0 2 1 1 0 1 0 -2 
0 1 1 -1 0 -1 0 3 1 -1 0 2 1 -1 0 -1 
0 2 1 -1 0 2 0 -2 1 1 0 3 0 -6 0 2 
1 1 0 -1 0 3 1 -1 0 1 0 -3 0 3 1 -1 
0 1 0 -3 0 2 1 1 0 -2 0 4 1 -1 0 1 
1 -1 0 1 0 -2 0 1 1 2 0 -2 1 2 0 -2 
0 1 1 2 0 -3 0 2 1 1 0 -1 1 2 0 -1 
0 1 1 -1 0 1 1 1 0 -1 0 1 1 1 0 0 
0 -3 1 1 0 4 0 -1 1 -1 0 2 0 -1 1 -1 
0 3 0 -2 1 0 2301 3036 300 MP stroke
0 1 1 1 0 -2 0 3 1 -2 0 2 1 -3 0 2 
1 1 0 -1 0 2 1 -1 0 2 0 -2 1 1 0 1 
0 -1 1 2 0 -3 0 2 1 -1 0 4 1 -2 0 1 
0 -3 0 1 1 1 1 1 0 2 0 -3 0 1 1 1 
0 -2 0 4 1 -1 0 2 0 -3 0 2 1 -2 0 3 
0 -3 1 1 0 2 0 -3 0 1 1 0 0 2 0 -1 
1 1 0 2 0 -3 0 1 1 2 0 -3 0 2 1 1 
0 -2 0 1 1 -1 0 2 1 2 0 0 0 -3 1 2 
0 -1 0 2 1 -2 0 0 0 2 1 -1 0 -2 0 4 
1 1 0 -4 0 2 1 0 0 2 0 -2 1 0 0 2 
1 1 0 0 0 -4 0 2 1 1 0 2 0 -1 1 -1 
0 -2 0 4 1 -1 0 3 0 -4 0 2 1 -1 0 3 
0 -4 0 1 1 2 0 2 0 -3 0 1 1 1 0 2 
0 -4 0 1 1 -1 0 4 0 -1 1 -1 0 1 0 -1 
1 2 0 -2 0 1 1 1 0 2 0 -3 0 2 1 -2 
0 3 0 -1 1 1 0 2 0 -3 0 2 1 -1 0 2 
0 -3 1 1 0 2 0 -3 0 1 1 3 0 -2 0 2 
1 -1 0 2 1 -2 0 3 0 -1 1 1 0 1 0 -3 
0 2 1 -1 0 3 1 -3 0 3 0 -1 1 1 0 1 
0 -2 0 1 1 1 0 -1 0 2 1 -1 0 -2 0 1 
1 1 0 1 0 -2 0 1 1 1 0 -1 0 1 1 1 
0 1 0 -2 1 1 0 1 0 -1 1 2 0 -2 0 2 
1 1 0 -1 0 1 1 -2 0 3 1 -1 0 2 0 -1 
1 1 0 1 0 -2 0 0 1 1 0 -1 0 3 1 -2 
0 1 0 -1 1 1 0 -1 0 4 1 -1 0 -1 0 1 
1 1 0 -1 0 1 1 -1 0 2 0 -3 0 2 1 1 
0 -2 0 1 1 1 0 2 0 -3 0 2 1 1 0 1 
0 -3 1 2 0 1 0 -3 0 1 1 1 0 2 0 -1 
1 1 0 2 1 -2 0 3 0 -3 1 2 0 3 0 -4 
0 2 1 -1 0 4 1 -4 0 2 0 -2 1 2 0 -2 
0 3 1 -1 0 2 1 -2 0 3 1 1 0 -3 0 4 
1 -1 0 -2 0 1 1 -1 0 4 0 -1 1 -1 0 3 
0 -2 1 0 0 2 0 -3 0 2 1 -1 0 3 0 -1 
1 -2 0 4 0 -1 1 -1 0 2 0 -1 1 1 0 2 
0 -2 1 0 0 3 0 -1 1 -1 0 2 0 -2 1 2 
0 -1 0 3 1 -2 0 -2 0 3 1 1 0 1 0 -2 
0 2 1 -2 0 3 0 -1 1 1 0 -2 0 3 1 -1 
0 2 0 -1 1 1 2204 2965 300 MP stroke
0 -1 0 2 1 -1 0 0 0 2 1 -1 0 2 0 -2 
0 1 1 -1 0 3 0 -2 1 1 0 1 0 -3 1 2 
0 2 0 -2 0 1 1 1 0 2 0 -4 0 2 1 1 
0 1 0 -2 0 1 1 -1 0 4 0 -2 1 -1 0 3 
0 0 1 -1 0 1 0 0 1 1 0 1 0 -2 0 1 
1 -1 0 1 1 1 0 2 0 -4 0 2 1 2 0 0 
0 -2 0 1 1 1 0 -1 0 3 1 -1 0 2 0 -3 
0 2 1 -1 0 -2 0 4 1 -2 0 2 0 -1 1 1 
0 -1 0 1 1 2 0 1 0 -2 0 1 1 -1 0 3 
0 -1 1 -1 0 3 0 -1 1 -2 0 3 0 -1 1 2 
0 -3 0 3 1 1 0 2 0 -4 0 2 1 -1 0 2 
0 -1 1 2 0 0 0 -2 0 2 1 0 0 2 0 -3 
1 1 0 4 0 -3 1 1 0 0 0 2 1 -1 0 1 
0 -2 0 1 1 2 0 1 0 -1 1 1 0 1 0 -2 
1 1 0 2 0 -1 1 1 0 -2 0 3 1 -1 0 2 
0 -3 0 1 1 1 0 3 0 -1 1 -1 0 2 0 -1 
1 2 0 -3 0 4 1 -2 0 3 0 -3 1 -1 0 2 
1 3 0 0 0 -2 0 1 1 1 0 -2 0 1 1 1 
0 3 0 -4 0 3 1 -1 0 2 1 -1 0 2 1 -1 
0 2 1 1 0 -2 0 4 1 -2 0 2 0 -4 0 3 
1 -1 0 3 0 -1 1 1 0 -2 0 3 1 0 0 2 
0 -3 1 3 0 1 0 -3 0 1 1 1 0 -2 0 4 
1 -1 0 1 0 -2 0 1 1 1 0 -1 0 3 1 -1 
0 3 1 -1 0 3 1 -3 0 3 0 -1 1 1 0 1 
0 -2 1 1 0 1 1 1 0 1 0 -2 0 1 1 1 
0 2 0 -3 0 2 1 1 0 -3 0 2 1 2 0 1 
0 -2 1 2 0 -1 0 2 1 1 0 1 0 -4 0 2 
1 0 0 2 0 -2 1 2 0 -1 0 3 1 -1 0 2 
0 -3 0 2 1 -1 0 3 0 -3 0 1 1 0 0 -1 
0 5 1 -2 0 2 1 0 0 -2 0 2 1 1 0 -2 
0 3 1 1 0 2 0 -5 0 2 1 2 0 -1 0 2 
1 1 0 1 0 -3 0 2 1 -1 0 3 0 0 1 0 
0 1 0 -1 1 3 0 -3 0 2 1 -2 0 4 0 -2 
1 1 0 3 0 -4 0 2 1 2 0 -1 0 4 1 -3 
0 2 0 -2 0 2 1 1 0 1 0 -2 1 1 0 4 
0 -5 0 1 1 1 0 2 0 -2 1 1 0 2 0 -3 
0 2 1 -1 0 4 1 -1 0 1 1 1 0 -1 0 1 
1 1 0 3 0 -4 2111 2864 300 MP stroke
0 1 1 2 0 -2 0 2 1 1 0 -2 0 3 1 1 
0 1 1 -1 0 2 0 -1 1 1 0 2 0 -3 0 1 
1 2 0 2 0 -4 0 2 1 0 0 3 0 -2 1 -1 
0 4 1 -1 0 3 0 -1 1 -1 0 2 0 0 1 2 
0 -2 1 1 0 3 0 -1 1 2 0 1 0 -3 0 2 
1 -1 0 -1 0 5 1 -1 0 1 0 -3 0 2 1 1 
0 1 0 0 1 1 0 -2 0 3 1 1 0 -2 0 1 
1 1 0 0 0 2 1 -1 0 4 0 -3 1 2 0 -1 
0 3 1 -2 0 3 1 -1 0 2 0 -2 0 1 1 1 
0 3 0 -4 0 2 1 -1 0 0 1 3 0 2 0 -3 
1 1 0 3 1 1 0 -2 0 3 1 -2 0 3 0 -3 
0 2 1 2 0 1 0 -3 0 2 1 1 0 2 0 -3 
1 1 0 4 0 -3 1 2 0 -1 0 3 1 -1 0 -1 
0 3 1 -1 0 -1 0 2 1 0 0 4 1 -2 0 2 
0 0 1 -1 0 3 0 -2 1 1 0 -1 0 2 1 2 
0 -2 0 2 1 1 0 -1 0 1 1 2 0 -1 0 2 
1 -1 0 3 0 -1 1 1 0 -2 0 3 1 1 0 -2 
0 4 1 -2 0 3 0 -2 1 1 0 2 0 -2 1 2 
0 2 0 -1 1 1 0 1 1 1 0 1 0 -3 0 2 
1 1 0 -1 0 3 1 -1 0 0 0 3 1 -1 0 2 
0 -3 0 2 1 2 0 -1 1 2 0 -1 0 3 1 -1 
0 2 1 -1 0 3 0 -2 1 1 0 4 1 -1 0 -1 
0 3 1 -1 0 3 1 1 0 -2 0 1 1 1 0 2 
1 -1 0 3 2 2 0 2 0 -2 0 1 1 1 0 -1 
0 3 1 -1 0 1 0 -2 1 4 0 2 0 -4 0 3 
1 1 0 -1 0 2 1 -2 0 3 0 -1 1 1 0 3 
0 -1 1 2 0 -2 0 2 1 0 0 3 0 -1 1 1 
0 -1 0 3 1 -2 0 -1 0 4 1 0 0 2 0 -3 
0 3 1 -2 0 4 0 -3 1 3 0 1 0 -2 0 0 
1 1 0 3 1 -1 0 4 1 1 0 -1 0 2 1 0 
0 2 0 0 1 0 0 1 0 -1 1 2 0 2 0 -1 
1 1 0 2 0 -3 0 2 1 -2 0 5 1 -1 0 5 
1 -4 0 3 1 1 0 2 0 -3 0 1 1 1 0 3 
1 -1 0 4 0 -2 1 0 0 -1 0 4 1 -1 0 3 
0 0 1 -1 0 4 0 -1 1 -2 0 4 2 0 0 3 
0 -1 1 1 0 2 0 -1 1 2 0 2 1 -1 0 4 
0 -1 1 -2 0 4 1 -2 0 0 0 3 1 2 0 2 
0 -3 0 2 1 -2 2007 2687 300 MP stroke
0 4 1 1 0 1 0 -2 0 1 1 2 0 -2 0 4 
1 -1 0 3 1 1 0 -1 0 2 1 0 0 2 0 -1 
1 1 0 4 0 -2 1 1 0 3 0 -4 0 2 1 1 
0 -1 0 3 1 1 0 -2 0 3 1 1 0 2 0 -3 
0 3 1 2 0 -2 0 2 1 -1 0 3 0 -1 1 1 
0 4 0 -1 1 -1 0 3 1 -1 0 3 0 0 1 0 
0 3 0 -1 1 -1 0 4 0 -1 1 -1 0 4 1 0 
0 3 0 -2 1 1 0 3 0 -3 1 1 0 3 0 -1 
1 1 0 2 0 -1 1 -1 0 5 0 -1 1 1 0 -1 
0 3 1 -1 0 3 1 1 0 2 1 -2 0 5 0 -2 
1 1 0 2 0 -4 0 4 1 -1 0 3 0 -1 1 1 
0 4 1 -1 0 3 0 -4 0 2 1 2 0 2 1 1 
0 3 0 -5 0 3 1 2 0 -1 0 3 1 1 0 -2 
0 3 1 1 0 3 0 -4 0 2 1 1 0 -1 0 5 
1 -1 0 -2 0 5 1 1 0 -3 0 3 1 1 0 3 
0 -4 0 1 1 1 0 4 1 -1 0 3 1 -2 0 6 
0 -3 1 1 0 3 0 -1 1 1 0 0 0 3 1 -1 
0 2 0 0 1 2 0 2 1 -1 0 3 1 -1 0 4 
0 -1 1 1 0 0 0 4 1 -1 0 3 0 -1 1 1 
0 3 1 -1 0 3 0 -1 1 3 0 -1 0 2 1 -1 
0 3 0 -1 1 1 0 0 0 2 1 0 0 3 0 -1 
1 3 0 1 0 -4 0 3 1 1 0 -1 0 3 1 1 
0 -1 0 4 1 -2 0 3 1 1 0 3 0 -4 0 2 
1 1 0 5 1 -2 0 4 1 -1 0 3 0 -1 1 4 
0 -2 0 3 1 -2 0 4 0 -1 1 1 0 -1 0 1 
1 4 0 -1 0 3 1 -2 0 4 0 -1 1 1 0 3 
1 1 0 2 0 -4 0 2 1 1 0 -1 0 4 1 1 
0 -1 0 2 1 3 0 -2 0 2 1 3 0 1 0 -2 
0 1 1 1 0 3 1 1 0 1 0 -2 0 1 1 1 
0 3 1 1 0 3 1 -1 0 4 1 -1 0 5 1 -2 
0 4 1 -1 0 4 1 -1 0 2 1 1 0 3 1 -1 
0 5 1 -1 0 5 0 -2 1 2 0 -2 0 5 1 -1 
0 3 0 -1 1 1 0 -1 0 5 1 -1 0 5 1 -1 
0 2 1 1 0 4 0 -5 0 4 1 -1 0 -1 0 4 
1 1 0 3 0 -2 1 2 0 -2 0 6 1 -1 0 4 
1 -1 0 3 1 1 0 3 1 -1 0 0 0 3 1 1 
0 0 0 3 1 -1 0 5 1 -1 0 4 0 0 1 0 
0 4 1 -2 0 4 1901 2399 300 MP stroke
0 -2 1 3 0 1 0 -2 0 1 1 1 0 4 1 -1 
0 5 1 -1 0 -1 0 4 1 1 0 3 1 -1 0 5 
0 -2 1 2 0 2 0 -2 0 1 1 3 0 2 0 -4 
0 4 1 1 0 3 0 -4 0 3 1 1 0 -1 0 3 
1 1 0 0 0 2 1 1 0 4 1 -1 0 5 1 -1 
0 -1 0 5 1 1 0 3 0 -4 0 3 1 -1 0 6 
0 -1 1 1 0 -1 0 3 1 1 0 -2 0 4 1 1 
0 4 0 -2 1 1 0 3 0 0 1 1 0 3 1 1 
0 2 0 -1 1 1 0 4 1 1 0 3 1 1 0 -1 
0 3 1 2 0 -1 0 4 1 1 0 -2 0 4 1 1 
0 -1 0 3 1 1 0 4 0 -1 1 1 0 4 0 -2 
1 2 0 3 0 -4 0 2 1 2 0 3 0 -1 1 3 
0 -2 0 4 1 1 0 3 1 2 0 -2 0 4 1 1 
0 4 0 -5 0 2 1 1 0 5 0 -2 1 1 0 6 
0 -2 1 1 0 4 1 2 0 -4 0 7 1 1 0 -2 
0 3 1 2 0 2 1 1 0 4 0 -5 0 5 1 1 
0 -1 0 4 1 1 0 1 1 3 0 3 0 -5 0 5 
1 2 0 -1 0 4 1 -1 0 7 1 -1 0 -1 0 5 
1 1 0 -1 0 3 1 1 0 -1 0 3 1 1 0 4 
1 1 0 -1 0 5 1 1 0 4 0 -2 1 2 0 3 
1 1 0 4 0 -5 0 3 1 1 0 5 1 1 0 -1 
0 3 1 -1 0 6 1 2 0 -1 0 2 1 2 0 3 
1 -2 0 5 0 -1 1 2 0 3 1 2 0 -2 0 5 
1 1 0 -1 0 3 1 1 0 6 1 2 0 -3 0 4 
1 1 0 2 1 1 0 5 1 1 0 4 0 -5 0 4 
1 1 0 5 0 -6 0 5 1 1 0 5 1 -1 0 0 
0 5 1 -1 0 5 1 1 0 2 0 -3 0 3 1 2 
0 3 1 1 0 5 1 -1 0 5 0 -1 1 1 0 4 
1 1 0 5 1 -1 0 5 0 0 1 2 0 2 0 -2 
0 1 1 1 0 5 1 2 0 -1 0 3 1 1 0 3 
1 1 0 4 1 1 0 -1 0 5 1 1 0 -1 0 6 
1 -1 0 5 1 1 0 3 1 1 0 4 1 1 0 5 
0 -2 1 -1 0 5 1 1 0 5 1 1 0 6 1 -2 
0 4 0 -1 1 1 0 7 0 -2 1 0 0 6 1 -3 
0 8 1 -1 0 4 0 -1 1 1 0 6 1 1 0 3 
1 2 0 4 1 3 0 -2 0 5 1 0 0 1 1 1 
0 7 1 -1 0 5 1 1 0 3 1 1 0 6 1 -2 
0 7 1 -1 0 6 1790 1936 300 MP stroke
1 1 0 5 1 -2 0 5 1 2 0 -1 0 5 1 0 
0 5 0 -1 1 2 0 -1 0 2 1 3 0 6 1 2 
0 -1 0 2 1 3 0 5 0 -1 1 1 0 5 1 -1 
0 5 1 1 0 5 0 -2 1 3 0 4 1 -1 0 7 
1 -1 0 3 1 3 0 6 1 2 0 3 0 -5 0 4 
1 1 0 4 1 1 0 0 0 3 1 3 0 6 1 -2 
0 6 1 2 0 4 1 2 0 4 1 1 0 5 1 2 
0 4 1 1 0 3 0 -4 0 2 1 1 0 7 0 -1 
1 3 0 6 1 0 0 -2 0 6 1 -1 0 5 1 1 
0 6 1 1 0 7 0 -2 1 1 0 5 1 1 0 5 
1 0 0 6 0 -1 1 1 0 6 0 -1 1 -1 0 6 
1 3 0 5 0 -1 1 1 0 6 1 -1 0 4 1 3 
0 4 1 2 0 -2 0 8 1 2 0 4 0 -5 0 4 
1 1 0 6 0 -2 1 1 0 6 1 3 0 -2 0 4 
1 1 0 7 1 0 0 6 1 0 0 4 1 4 0 6 
0 -2 1 1 0 6 1 0 0 8 1 -1 0 5 1 2 
0 5 0 -1 1 1 0 9 0 -2 1 3 0 4 1 1 
0 4 0 -1 1 3 0 4 1 2 0 8 1 1 0 5 
0 -1 1 1 0 8 1 -1 0 7 0 -3 1 3 0 6 
1 2 0 7 1 1 0 -2 0 5 1 3 0 5 1 1 
0 -1 0 6 1 2 0 6 0 -1 1 1 0 -1 0 7 
1 2 0 6 0 -1 1 1 0 7 1 1 0 5 1 2 
0 7 1 0 0 6 1 1 0 7 1 -1 0 5 1 3 
0 7 0 -1 1 3 0 -1 0 5 1 1 0 7 1 2 
0 -2 0 8 1 1 0 -1 0 3 1 3 0 9 1 -1 
0 8 1 1 0 -2 0 9 1 -1 0 7 1 1 0 0 
0 7 1 -2 0 9 1 1 0 8 1 0 0 7 1 -1 
0 8 1 3 0 -1 0 6 1 1 0 8 1 -1 0 7 
1 1 0 6 1 2 0 7 1 1 0 6 1 2 0 7 
1 2 0 7 0 -1 1 3 0 -1 0 8 1 -1 0 8 
1 1 0 -1 0 7 1 1 0 8 0 -1 1 4 0 5 
0 -7 0 6 1 1 0 7 1 1 0 9 1 1 0 7 
1 -1 0 9 1 2 0 6 0 -1 1 1 0 9 1 0 
0 9 0 -2 1 1 0 10 1 -1 0 8 1 1 0 4 
1 3 0 5 1 3 0 9 1 1 0 6 0 -1 1 3 
0 7 0 -8 0 6 1 2 0 6 1 2 0 5 1 3 
0 10 1 -1 0 8 1 1 0 7 1 2 0 7 1 1 
0 7 0 -1 1 1 1666 1100 300 MP stroke
0 9 1 1 0 7 1 3 0 6 1 1 0 9 0 -2 
1 3 0 5 1 1 0 8 1 1 0 6 1 2 0 9 
1 1 0 7 1 1 0 7 1 1 0 7 1 1 0 5 
1 4 0 9 1 -1 0 7 1 1 0 7 1 3 0 -1 
0 7 1 2 0 5 1 3 0 7 1 2 0 8 1 -1 
0 6 1 1 0 7 1 1 0 5 1 4 0 6 0 -2 
1 4 0 -1 0 7 1 1 0 6 1 -1 0 8 1 1 
0 6 1 -1 0 9 1 0 0 -1 0 7 1 2 0 3 
0 -5 0 4 1 2 0 7 1 -1 0 5 1 1 0 6 
1 0 0 6 0 -2 1 0 0 5 0 -1 1 1 0 -1 
0 1 1 3 0 3 1 1 0 2 0 -3 0 1 1 1 
0 4 1 -1 0 3 0 -3 1 1 0 2 0 -3 1 1 
0 1 0 -2 1 3 0 -5 0 3 1 0 0 -5 1 2 
0 -7 1 1 0 -5 1 -1 0 -6 0 3 1 -2 0 -7 
1 -2 0 -11 1 -1 0 -10 1 0 0 -15 1 0 0 -16 
1 0 0 -20 1 -2 0 -20 1 -4 0 -21 1 -3 0 -28 
1 -2 0 -27 1 -4 0 -35 1 -3 0 -40 1 -4 0 -37 
1 -6 0 -49 1 -7 0 -45 1 -9 0 -58 1 -10 0 -65 
1 -7 0 -65 1 -10 0 -83 1 -10 0 -81 1 -12 0 -103 
1 -16 0 -116 1 -14 0 -115 1 -16 0 -145 1 -21 0 -142 
1 -21 0 -180 1 -24 0 -202 1 -26 0 -200 1 -30 0 -115 
0 3 1 -1 0 -2 0 4 1 -2 0 2 0 0 1 -1 
0 1 0 -2 0 1 1 -1 0 3 0 -2 1 1 0 1 
0 -4 0 1 1 1 0 -2 0 3 1 -1 0 1 0 -1 
1 -1 0 3 0 -1 1 -2 0 3 0 -1 1 -1 0 1 
0 -1 0 1 1 2 0 -5 0 3 1 1 0 -3 1 1 
0 2 0 -3 0 2 1 -3 0 4 0 -2 1 1 0 1 
0 -3 0 2 1 -2 0 2 0 -2 0 1 1 -1 0 -1 
0 3 1 -1 0 1 0 -2 1 1 0 1 0 -3 0 2 
1 1 0 -2 0 3 1 -1 0 -3 1 2 0 2 0 -3 
0 2 1 0 0 1 0 -3 0 1 1 1 0 1 0 -3 
0 1 1 1 0 3 0 -4 0 1 1 0 0 2 0 -3 
0 2 1 -1 0 2 0 -3 1 1 0 2 0 -3 0 2 
1 1 0 0 0 -2 0 1 1 1 0 -3 1 1 0 2 
0 -3 1 2 0 1 0 -2 0 1 1 -1 0 2 0 -2 
1 2 0 -2 0 1 1 1 0 -3 0 4 1 -3 0 2 
0 -2 0 2 1 1 0 -2 0 2 1 -1 0 -4 0 3 
1 -1 0 1 0 -2 1552 3153 300 MP stroke
0 1 1 1 0 2 0 -3 0 2 1 -2 0 2 0 -2 
1 1 0 2 0 -3 1 0 0 2 1 -1 0 -1 0 3 
1 -1 0 1 0 -3 0 2 1 1 0 2 0 -2 1 -1 
0 2 0 -2 0 1 1 -3 0 3 1 -1 0 2 0 -4 
0 3 1 -1 0 2 0 -3 0 2 1 -1 0 2 0 -4 
0 2 1 1 0 1 0 -2 1 1 0 -3 0 4 1 -2 
0 2 0 -3 0 2 1 -1 0 3 0 -5 0 4 1 -3 
0 2 1 -1 0 2 0 -1 1 -1 0 1 0 -1 1 2 
0 -2 0 1 1 1 0 0 0 -2 0 1 1 1 0 -2 
0 0 1 1 0 -1 0 3 1 -1 0 1 0 -2 1 1 
0 1 0 -3 0 1 1 1 0 -1 1 2 0 -3 0 1 
1 1 0 -2 0 1 1 1 0 1 0 -3 0 1 1 -1 
0 4 1 -4 0 2 0 -1 1 1 0 1 1 -1 0 1 
0 -3 0 1 1 1 0 -1 0 2 1 -1 0 2 0 -3 
0 1 1 0 0 1 0 -2 0 1 1 1 0 -3 0 2 
1 1 0 1 0 -3 0 3 1 -1 0 -3 0 2 1 0 
0 2 0 -2 1 1 0 -3 0 3 1 -1 0 -2 0 4 
1 -1 0 1 0 -3 0 2 1 -1 0 2 0 -3 1 1 
0 1 0 -3 0 1 1 1 0 2 0 -3 0 1 1 1 
0 1 0 -4 0 1 1 2 0 1 0 -2 1 2 0 -4 
0 4 1 -2 0 2 0 -3 0 2 1 1 0 1 0 -3 
0 2 1 0 0 -4 0 3 1 -2 0 3 0 -1 1 1 
0 1 0 -3 0 1 1 -1 0 2 0 -4 0 2 1 2 
0 -2 0 1 1 2 0 -3 1 1 0 1 0 -2 1 2 
0 0 0 -3 0 1 1 1 0 1 0 -3 1 3 0 -2 
0 1 1 2 0 -4 0 2 1 -1 0 2 0 -1 1 1 
0 -2 0 1 1 -1 0 2 1 -1 0 -1 0 3 1 -2 
0 2 0 -1 1 -1 0 2 0 -4 0 3 1 -1 0 2 
0 -3 1 1 0 3 0 -4 0 3 2 -3 0 4 0 -3 
1 1 0 2 0 -3 0 2 1 -2 0 3 0 -4 0 2 
1 1 0 0 0 -1 1 1 0 1 0 -2 0 1 1 -2 
0 4 0 -3 1 2 0 0 0 -2 1 2 0 1 0 -4 
1 2 0 1 0 -1 1 1 0 1 0 -3 0 2 1 -1 
0 -1 0 2 1 2 0 0 0 -3 0 2 1 -2 0 2 
0 -1 1 -1 0 -1 0 2 1 -1 0 1 0 -1 1 3 
0 -4 0 2 1 1 0 1 0 -4 0 1 1 1 0 -2 
0 2 1 1 0 1 0 -4 0 3 1 -1 0 2 0 -3 
0 1 1 1 0 -2 1460 3145 300 MP stroke
0 1 1 -2 0 4 0 -4 0 1 1 1 0 2 0 -4 
1 2 0 -2 0 1 1 1 0 1 0 -2 0 2 1 -1 
0 1 1 -1 0 1 0 -3 1 2 0 -1 1 1 0 1 
0 -1 0 0 1 -2 0 4 0 -3 1 1 0 2 1 -2 
0 2 1 -2 0 2 0 -2 1 1 0 -2 0 3 1 -1 
0 1 0 -2 0 1 1 -1 0 2 1 -1 0 -2 0 1 
1 1 0 1 0 -4 0 3 1 -2 0 0 0 3 1 -2 
0 2 0 -2 1 1 0 1 0 -2 0 1 1 1 0 1 
0 -2 0 1 1 -1 0 2 1 -1 0 2 0 -3 1 1 
0 2 0 0 1 -2 0 2 0 -1 1 -1 0 2 0 -3 
0 1 1 1 0 -3 0 1 1 1 0 -1 0 3 1 -1 
0 -1 0 2 1 -1 0 2 0 -3 0 1 1 -1 0 2 
0 -1 1 -1 0 2 0 -2 0 2 1 -1 0 2 0 -3 
0 1 1 1 0 -2 0 4 1 -2 0 -2 0 3 1 -1 
0 2 0 -3 0 1 1 1 0 -3 0 2 1 1 0 -1 
0 1 1 1 0 -2 0 2 1 -2 0 2 0 -1 1 -1 
0 2 0 -2 0 0 1 2 0 -2 0 1 1 1 0 -2 
0 1 1 1 0 1 0 -3 0 1 1 1 0 -2 0 3 
1 -1 0 1 0 -4 0 2 1 1 0 1 0 -2 0 1 
1 -2 0 3 0 -1 1 -1 0 -1 0 3 1 -1 0 -2 
0 3 1 -1 0 -1 0 1 1 -1 0 3 0 -4 0 3 
1 -1 0 2 0 -4 0 1 1 1 0 1 0 -2 1 1 
0 -2 0 1 1 1 0 -2 1 1 0 3 0 -2 1 1 
0 -2 0 2 1 -1 0 2 0 -4 1 3 0 -2 0 2 
1 1 0 -3 0 2 1 -1 0 2 0 -3 0 2 1 -1 
0 3 0 -1 1 1 0 -3 0 1 1 -1 0 3 0 0 
1 -1 0 1 0 -2 0 1 1 -1 0 3 1 -2 0 1 
0 -2 0 1 1 1 0 -3 0 2 1 -1 0 3 0 -3 
1 1 0 1 1 -1 0 2 0 -3 0 3 1 -1 0 1 
0 -4 1 3 0 1 0 -2 0 1 1 1 0 1 0 -3 
0 1 1 1 0 1 0 -3 0 2 1 -1 0 1 0 -2 
0 0 1 0 0 1 0 0 1 2 0 0 0 -2 1 1 
0 1 0 -3 0 2 1 -1 0 3 1 -2 0 -2 0 4 
1 -2 0 2 0 -3 1 1 0 0 0 -1 0 0 1 1 
0 2 0 -3 0 1 1 1 0 1 0 -3 0 2 1 1 
0 -2 0 1 1 1 0 1 0 -3 0 2 1 2 0 -4 
0 1 1 -1 0 2 0 -1 1 1 0 0 0 -2 0 1 
1 1 0 3 0 -2 1368 3131 300 MP stroke
1 -1 0 1 0 -2 1 1 0 -2 0 3 1 -1 0 -2 
0 2 1 0 0 1 0 -3 0 2 1 -2 0 4 0 -2 
1 2 0 1 0 -4 0 1 1 0 0 1 0 -2 0 2 
1 -1 0 3 0 -3 1 1 0 2 0 -2 1 -1 0 3 
0 -3 0 2 1 -2 0 3 0 -3 0 1 1 2 0 -2 
0 2 1 -1 0 2 0 -3 0 2 1 -2 0 3 1 -4 
0 3 0 -1 1 1 0 -2 0 2 1 1 0 -1 2 0 
0 1 0 -1 1 -2 0 4 0 -2 1 -2 0 2 0 -2 
1 1 0 4 0 -6 0 3 1 1 0 -2 0 2 1 -1 
0 2 0 -3 0 1 1 2 0 -2 0 1 1 -1 0 2 
0 -2 0 0 1 2 0 -3 0 1 1 1 0 1 0 -2 
0 2 1 -1 0 2 0 -5 1 2 0 2 0 -2 0 1 
1 -1 0 2 0 -4 0 4 1 -2 0 -1 0 3 1 1 
0 -2 0 1 1 1 0 -2 0 1 1 -1 0 -1 0 3 
1 -1 0 1 0 -3 0 2 1 -2 0 3 0 -1 1 1 
0 -1 0 1 1 -1 0 -2 0 3 1 1 0 0 0 -2 
1 2 0 -2 0 2 1 1 0 -2 1 1 0 1 0 -2 
0 1 1 -2 0 0 0 4 1 0 0 -3 0 1 1 1 
0 -2 0 3 1 -2 0 1 0 -3 0 3 1 0 0 -2 
0 1 1 1 0 2 0 -3 0 2 1 -1 0 1 1 -1 
0 1 0 -2 0 0 1 1 0 2 0 -3 0 2 1 -2 
0 2 0 -1 1 2 0 -2 0 1 1 -3 0 5 0 -1 
1 -1 0 1 1 -1 0 -1 0 2 1 -1 0 2 0 -1 
1 -1 0 0 0 2 1 -1 0 1 0 -2 0 1 1 1 
0 -3 0 3 1 0 0 -3 0 1 1 1 0 1 0 -3 
0 2 1 -1 0 4 0 -3 1 1 0 0 0 -3 0 3 
1 0 0 2 0 -5 0 2 1 1 0 -2 0 3 1 -1 
0 2 0 -3 0 1 1 -1 0 2 0 -3 0 1 1 1 
0 2 0 -3 1 1 0 -2 0 3 1 -1 0 1 0 -2 
0 0 1 2 0 1 0 -2 1 2 0 -2 1 2 0 -1 
1 1 0 0 0 -3 0 2 1 1 0 1 0 -3 0 2 
1 -1 0 2 0 -3 0 1 1 1 0 -1 0 2 1 -1 
0 -2 0 2 1 1 0 -3 0 4 1 -1 0 1 0 -2 
1 1 0 1 0 -2 0 1 1 -1 0 2 0 0 1 1 
0 -3 0 1 1 1 0 2 0 -4 0 1 1 1 0 -1 
0 2 1 -1 0 2 0 -4 0 2 1 0 0 1 0 -3 
0 2 1 -1 0 2 1 -1 0 4 0 -4 0 1 1 1 
0 -3 0 1 1 2 1275 3115 300 MP stroke
0 2 0 -4 0 2 1 -2 0 2 0 -3 1 1 0 3 
0 -3 1 3 0 -3 1 2 0 2 0 -3 1 1 0 2 
0 -3 1 1 0 2 0 -2 0 0 1 -2 0 5 0 -2 
1 1 0 -3 0 2 1 -1 0 2 0 -3 0 1 1 2 
0 -2 0 1 1 -1 0 2 0 -1 1 -1 0 2 0 0 
1 -1 0 1 0 -2 1 -1 0 3 0 -2 1 2 0 2 
0 -4 1 1 0 3 0 -4 0 -1 1 3 0 2 0 -3 
0 0 1 1 0 1 1 -1 0 -2 0 4 1 -2 0 3 
0 -1 1 -1 0 1 0 -2 0 0 1 1 0 1 0 0 
1 -1 0 2 0 -4 0 4 1 -1 0 1 0 -2 0 1 
1 1 0 -2 1 2 0 -2 0 1 1 1 0 -1 0 2 
1 -1 0 2 0 -3 0 2 1 -2 0 3 0 -3 0 1 
1 1 0 -1 0 2 1 -1 0 -2 0 1 1 1 0 1 
0 -2 0 1 1 -1 0 2 0 -2 0 1 1 -1 0 -1 
0 3 1 -1 0 2 0 -2 1 -1 0 3 0 -2 1 2 
0 -2 0 1 1 2 0 -1 1 -1 0 0 0 2 1 -2 
0 1 0 -2 1 2 0 2 0 -2 1 -1 0 -1 0 3 
1 -1 0 1 0 -2 0 1 1 -1 0 3 1 -1 0 1 
0 -2 1 2 0 -3 0 2 1 -1 0 2 0 -1 1 -1 
0 2 0 -1 1 -1 0 4 0 -1 1 -1 0 2 0 -1 
1 -1 0 -1 0 1 1 1 0 1 0 -3 0 -1 1 3 
0 1 0 -3 0 3 1 -2 0 3 0 -1 1 -1 0 3 
0 -2 1 1 0 -2 0 1 1 -1 0 2 0 -1 1 2 
0 -2 1 1 0 2 0 -3 0 1 1 1 0 1 0 -2 
0 1 1 -1 0 -1 0 2 1 -1 0 3 0 0 1 -4 
0 3 0 -1 1 1 0 1 0 -3 1 3 0 -3 0 1 
1 0 0 2 0 -3 1 1 0 2 0 -3 0 1 1 1 
0 1 0 -2 0 2 1 -2 0 2 0 -3 0 3 1 -2 
0 0 0 4 1 -2 0 2 0 -4 0 4 1 -4 0 0 
0 2 1 0 0 2 0 -3 1 1 0 2 0 -3 1 3 
0 -2 0 2 1 -1 0 -1 0 1 1 1 0 1 0 -4 
0 2 1 1 0 0 0 -1 1 1 0 1 0 -3 0 2 
1 1 0 1 0 -2 0 1 1 1 0 -3 0 3 1 -1 
0 -1 0 3 1 -1 0 -2 0 2 1 0 0 -2 0 1 
1 1 0 1 0 -1 1 1 0 -2 0 3 1 -3 0 2 
0 0 1 -1 0 3 1 -1 0 1 0 -2 1 1 1 0 
-1 -1 0 1 2 0 0 0 0 2 1 -2 0 2 0 -3 
1 3 0 1 0 -4 1181 3094 300 MP stroke
0 3 1 -1 0 1 0 -2 0 1 1 1 0 2 0 -3 
0 1 1 -1 0 -1 0 3 1 -2 0 2 0 0 1 1 
0 -3 0 5 1 -3 0 1 0 -2 1 1 0 2 0 -2 
1 2 0 1 0 -3 1 1 0 2 0 -4 0 3 1 1 
0 -4 0 4 1 -1 0 1 0 -3 0 3 1 1 0 -3 
0 2 1 1 0 1 0 -2 0 1 1 -1 0 0 0 2 
1 -1 0 1 0 -2 1 2 0 1 0 -3 0 2 1 -2 
0 3 0 -2 1 1 0 2 1 -2 0 2 0 -3 0 1 
1 1 0 -1 0 2 1 0 0 -1 0 1 1 -1 0 -1 
0 3 1 -1 0 -2 0 1 1 1 0 -1 0 3 1 -3 
0 3 0 -1 1 1 0 1 0 -1 1 1 0 1 0 -2 
0 1 1 -1 0 2 0 -1 1 1 0 1 0 -3 1 2 
0 -2 0 1 1 1 0 1 0 -2 0 1 1 -1 0 3 
0 -2 1 1 0 -3 0 4 1 -1 0 -1 1 1 0 -1 
0 2 1 -1 0 0 0 1 1 -1 0 3 0 -3 1 2 
0 -1 0 2 1 -2 0 3 0 -1 1 -1 0 2 0 -1 
1 -1 0 3 0 -4 0 4 1 -2 0 2 0 -3 0 1 
1 1 0 1 0 -2 1 1 0 -1 0 2 1 -1 0 2 
0 -3 0 2 1 -2 0 3 0 -2 1 1 0 2 0 -1 
1 -1 0 2 0 -3 0 1 1 1 0 -1 0 1 1 -1 
0 2 0 -1 1 2 0 0 0 -2 1 -1 0 3 1 1 
0 -2 0 2 1 1 0 1 0 -3 0 2 1 -1 0 1 
0 -3 0 2 1 1 0 1 0 -3 0 3 1 -1 0 1 
0 -2 0 1 1 -1 0 2 0 -2 1 1 0 1 0 -2 
0 2 1 1 0 0 0 -2 1 1 0 1 0 -1 0 1 
1 -1 0 2 0 -3 0 2 1 -1 0 2 1 -1 0 1 
0 -1 1 -1 0 2 0 -1 1 1 0 1 0 -2 0 1 
1 -1 0 3 1 -1 0 1 0 -2 0 1 1 -1 0 2 
0 -2 1 2 0 -2 0 3 1 -1 0 0 0 2 1 -1 
0 -2 0 1 1 1 0 2 0 -5 0 3 1 1 0 1 
0 -2 1 1 0 -2 0 3 1 -1 0 0 0 1 1 -1 
0 2 0 -2 1 1 0 2 1 -2 0 2 0 -3 0 2 
1 0 0 2 0 -3 0 1 1 1 0 1 0 -3 0 1 
1 2 0 1 0 -3 1 1 0 3 0 -4 0 2 1 1 
0 1 0 -2 0 1 1 -1 0 -1 0 1 1 1 0 1 
0 -1 1 1 0 2 1 -2 0 -1 0 3 1 -2 0 2 
0 -2 0 1 1 -1 0 3 1 -1 0 1 0 -2 0 1 
1 -1 0 3 0 -1 1089 3052 300 MP stroke
1 1 0 -2 0 2 1 -1 0 2 0 -3 0 1 1 1 
0 1 0 -2 1 1 0 2 0 -2 0 1 1 -1 0 3 
1 -2 0 1 1 1 0 -2 0 1 1 2 0 -3 0 1 
1 0 0 2 0 -3 0 1 1 1 0 -1 0 3 1 -3 
0 4 1 0 0 -2 0 3 1 -2 0 1 0 -1 1 1 
0 -2 0 4 1 -2 0 0 0 1 1 -1 0 2 0 -1 
1 -3 0 5 0 -1 1 -1 0 1 0 -3 0 2 1 1 
0 1 1 -1 0 2 1 -2 0 2 0 -1 1 -1 0 3 
0 -1 1 -1 0 2 0 -1 1 1 0 1 0 -2 1 2 
0 -1 0 3 1 -2 0 2 0 -4 0 2 1 1 0 -2 
0 2 1 1 0 -2 0 1 1 -1 0 2 0 -1 1 1 
0 1 0 -2 0 2 1 -1 0 2 0 -1 1 -1 0 1 
1 1 0 -1 0 2 1 -1 0 2 0 -2 0 0 1 1 
0 2 0 -2 1 -1 0 5 0 -2 1 -1 0 2 0 -2 
0 1 1 -1 0 2 0 -1 1 -1 0 3 0 -2 1 1 
0 1 0 -2 1 1 0 2 0 -3 1 1 0 4 1 -3 
0 2 0 -3 0 2 1 1 0 2 0 -3 0 1 1 1 
0 1 0 -3 1 2 0 1 0 -3 0 1 1 2 0 2 
0 -4 0 2 1 -1 0 0 0 2 1 -1 0 -1 0 2 
1 -1 0 3 0 -3 1 1 0 1 0 -2 0 2 1 -1 
0 3 0 -3 0 2 1 -2 0 4 0 -1 1 1 0 -2 
0 1 1 1 0 1 0 -3 0 2 1 -1 0 -1 0 2 
1 -1 0 3 0 -2 1 1 0 1 0 -2 1 3 0 0 
0 -1 1 -1 0 3 0 -4 0 2 1 1 0 2 0 -3 
0 2 1 -1 0 1 0 -1 0 0 1 1 0 2 0 -3 
0 1 1 -2 0 4 0 -2 1 1 0 2 0 -2 0 1 
1 -1 0 2 0 -2 1 1 0 2 0 -3 0 2 1 1 
0 -2 1 2 0 -1 0 3 1 -1 0 2 0 -3 0 1 
1 1 0 2 0 -3 0 1 1 -2 0 5 0 -2 1 -1 
0 3 1 -1 0 2 0 -2 1 2 0 -2 0 2 1 1 
0 2 0 -4 0 1 1 2 0 0 0 -2 0 1 1 1 
0 1 0 -3 0 1 1 2 0 -3 0 3 1 -1 0 2 
1 0 0 -2 0 1 1 1 0 2 0 -2 0 1 1 -1 
0 2 0 -2 1 1 0 2 0 -2 1 1 0 2 0 -3 
0 1 1 0 0 3 0 -2 1 -1 0 4 1 0 0 1 
0 -3 0 2 1 1 0 1 0 -3 1 1 0 -1 0 3 
1 1 0 -2 0 1 1 -1 0 2 0 -1 1 -1 0 3 
0 -3 1 3 0 4 995 2989 300 MP stroke
0 -5 0 1 1 0 0 3 0 -3 0 1 1 1 0 -1 
0 1 1 1 0 -1 0 2 1 -1 0 1 0 -2 1 3 
0 1 0 -4 0 2 1 0 0 3 0 -4 0 3 1 -2 
0 2 0 -2 1 2 0 2 0 -4 0 2 1 -1 0 2 
0 -1 1 1 0 3 0 -5 0 3 1 -1 0 3 0 -2 
1 -1 0 3 0 -1 1 1 0 -1 1 1 0 2 1 -2 
0 3 1 -1 0 3 0 -1 1 0 0 1 0 -2 0 1 
1 -1 0 -1 0 3 1 1 0 -2 0 1 1 1 0 2 
0 -3 0 1 1 1 0 -1 0 3 1 -1 0 3 0 -3 
1 1 0 3 0 -4 0 3 1 -1 0 1 0 -2 0 1 
1 1 0 1 0 -3 0 2 1 1 0 -2 0 3 1 -1 
0 -1 0 3 1 1 0 -2 0 1 1 1 0 -2 0 3 
1 1 0 -3 0 2 1 -1 0 3 0 -1 1 -1 0 3 
0 -4 0 3 1 -1 0 2 0 -1 1 1 0 1 0 -1 
1 2 0 -1 1 1 0 2 1 -1 0 2 1 -3 0 4 
1 -2 0 2 0 -2 1 -1 0 5 0 -1 1 -1 0 2 
0 -3 0 1 1 2 0 1 1 -1 0 2 0 -1 1 -1 
0 4 0 -2 1 0 0 1 0 -2 0 1 1 1 0 1 
0 -2 0 1 1 -1 0 3 1 -2 0 3 0 0 1 1 
0 -3 0 1 1 1 0 2 0 -3 0 1 1 1 0 2 
0 -3 0 2 1 1 0 1 0 -3 0 2 1 -1 0 3 
0 -2 1 1 0 -1 0 3 1 -2 0 0 0 3 1 -1 
0 -1 0 2 1 1 0 0 0 -1 1 -1 0 -1 0 4 
1 -1 0 4 0 -1 1 -1 0 1 1 1 0 -2 0 3 
1 -1 0 2 0 -1 1 1 0 1 0 -3 1 3 0 2 
0 -3 0 1 1 1 0 2 0 -1 1 1 0 -1 0 2 
1 0 0 1 0 -2 0 1 1 1 0 2 0 -3 0 2 
1 -1 0 2 0 0 1 -1 0 3 1 -1 0 -1 0 0 
1 1 0 2 1 -1 0 1 0 -2 0 2 1 -1 0 0 
0 2 1 0 0 2 0 -2 0 1 1 1 0 0 0 -2 
0 2 1 1 0 1 0 -2 0 1 1 -1 0 3 0 -3 
0 2 1 1 0 -1 0 2 1 -1 0 1 0 -1 0 1 
1 1 0 1 0 -2 0 2 1 -1 0 2 0 -1 1 1 
0 -1 0 3 1 -1 0 -1 0 2 1 -1 0 2 0 -2 
1 1 0 3 1 -1 0 -1 0 3 1 0 0 -2 0 3 
1 -1 0 2 1 1 0 -2 0 0 1 1 0 -1 0 4 
1 -1 0 2 0 -3 0 2 1 -2 0 0 0 3 1 -3 
0 4 0 -1 1 1 900 2902 300 MP stroke
0 1 0 -2 0 1 1 2 0 1 0 -2 1 1 0 1 
0 -2 0 1 1 1 0 1 0 -1 1 2 0 1 0 -2 
0 1 1 1 0 -1 0 2 1 -2 0 3 1 1 0 2 
0 -3 0 1 1 1 0 3 1 -2 0 2 0 -2 1 1 
0 2 0 -1 1 1 0 1 0 -2 0 2 1 -1 0 3 
1 -2 0 2 0 -1 1 1 0 -1 0 2 1 1 0 2 
0 -2 1 1 0 -1 0 2 1 1 0 2 0 -4 0 2 
1 1 0 2 0 -1 1 -1 0 3 0 -4 1 3 0 2 
0 -3 0 2 1 2 0 -2 0 2 1 -1 0 4 0 0 
1 -1 0 -2 0 4 1 -1 0 2 0 -3 1 1 0 3 
0 -2 1 2 0 1 0 -4 0 2 1 1 0 1 1 1 
0 2 0 -4 0 2 1 1 0 2 0 -1 1 2 0 1 
0 -3 0 1 1 -1 0 4 1 1 0 -2 0 3 1 0 
0 -1 0 1 1 -1 0 3 0 -3 1 1 0 3 1 1 
0 -2 0 4 1 -1 0 2 0 -1 1 1 0 -2 0 1 
1 2 0 1 0 -2 0 1 1 2 0 1 0 -2 1 2 
0 1 0 -2 1 0 0 4 1 0 0 -1 0 3 1 -1 
0 1 0 -2 1 2 0 2 0 -1 1 -1 0 2 1 -1 
0 -1 0 4 1 1 0 -1 0 -1 1 3 0 -1 0 2 
1 1 0 -1 0 2 1 -1 0 3 1 -1 0 3 0 -5 
0 3 1 1 0 -1 0 3 1 -1 0 3 0 -2 1 1 
1 1 0 3 0 -2 1 1 0 -1 0 1 1 -1 0 4 
0 -1 1 1 0 1 0 -2 0 1 1 -1 0 5 0 -2 
1 1 0 -2 0 4 1 -3 0 4 0 -1 1 2 0 2 
0 -3 0 1 1 -1 0 5 0 -1 1 -1 0 4 1 -1 
0 2 1 -1 0 3 0 -1 1 1 0 1 0 -3 0 2 
1 1 0 2 1 -1 0 2 0 -2 0 0 1 2 0 3 
0 -1 1 -2 0 5 0 -1 1 -1 0 -1 0 6 1 -2 
0 -2 0 3 1 -1 0 2 0 -3 0 1 1 3 0 1 
0 -2 0 1 1 3 0 0 0 -2 0 0 1 1 0 3 
0 -4 0 2 1 1 0 2 0 -3 0 2 1 1 0 -1 
0 3 1 -1 0 2 0 -3 0 1 1 3 0 1 0 -2 
0 0 1 3 0 -2 0 4 1 -2 0 0 0 2 1 1 
0 -2 0 3 1 -1 0 2 0 -1 1 1 0 4 1 -2 
0 1 0 -2 0 1 1 2 0 2 0 -2 0 0 1 2 
0 2 0 -3 0 1 1 1 0 2 1 -1 0 5 1 -1 
0 2 0 -3 0 2 1 -2 0 6 1 -1 0 -2 0 3 
1 0 0 -1 0 2 804 2757 300 MP stroke
1 1 0 -2 0 4 1 1 0 -3 0 2 1 1 0 2 
1 1 0 1 0 -2 1 1 0 3 0 -2 1 2 0 -1 
0 3 1 -2 0 3 0 0 1 1 0 -1 0 3 1 -1 
0 3 0 -4 0 2 1 1 0 -2 0 3 1 1 0 -1 
0 3 1 -1 0 2 0 -1 1 1 0 3 0 -2 1 1 
0 2 1 2 0 -2 0 1 1 1 0 3 0 -2 1 1 
0 2 0 -2 1 3 0 1 0 -2 0 1 1 1 0 3 
1 1 0 -2 0 2 1 2 0 -2 0 1 1 1 0 2 
0 -3 0 1 1 2 0 -1 0 3 1 -1 0 4 0 -4 
0 2 1 0 0 4 1 1 0 1 0 -3 0 2 1 2 
0 -2 0 1 1 1 0 3 0 -1 1 -1 0 -1 0 5 
1 1 0 1 0 -3 1 4 0 -1 0 3 1 -2 0 4 
0 -2 1 2 0 -3 0 4 1 1 0 -1 0 2 1 -1 
0 5 1 -2 0 -1 0 2 1 -1 0 4 1 -1 0 3 
0 -1 1 2 0 1 0 -2 1 3 0 -1 0 1 1 1 
0 4 0 -2 1 1 0 2 1 2 0 -3 0 3 1 1 
0 -1 0 3 1 -1 0 3 0 -2 1 3 0 3 0 -5 
0 3 1 2 0 -2 0 2 1 2 0 -2 0 2 1 1 
0 2 0 -1 1 1 0 3 1 -2 0 3 1 1 0 1 
0 -2 0 2 1 1 0 3 0 -4 0 3 1 -1 0 4 
1 -1 0 -1 0 4 1 -1 0 5 1 -2 0 4 0 -3 
1 1 0 3 1 -1 0 3 1 2 0 -3 0 5 1 -3 
0 5 1 -1 0 -1 0 3 1 -1 0 4 0 -1 1 1 
0 -1 0 3 1 0 0 3 0 -1 1 1 0 2 0 -3 
0 2 1 -1 0 5 0 -2 1 1 0 3 0 -2 1 1 
0 4 1 -1 0 0 0 1 1 1 0 3 0 -4 0 3 
1 1 0 4 1 -3 0 5 1 -1 0 2 0 -2 0 1 
1 1 0 4 0 -3 1 2 0 -1 0 4 1 0 0 2 
0 -4 0 3 1 1 0 3 0 -2 1 1 0 3 0 0 
1 1 0 2 0 -1 1 1 0 -1 0 3 1 1 0 1 
0 0 1 1 0 3 0 -2 1 3 0 -1 0 4 1 -2 
0 3 0 -1 1 2 0 -1 0 4 1 -1 0 2 1 1 
0 1 0 -1 1 1 0 3 0 -1 1 3 0 -1 0 1 
1 3 0 -3 0 4 1 1 0 -1 0 3 1 1 0 -1 
0 2 1 2 0 0 0 -2 0 2 1 1 0 3 0 0 
1 0 0 3 1 -2 0 6 0 -2 1 -1 0 3 1 1 
0 -1 0 3 1 1 0 -1 0 2 1 1 0 4 1 -1 
0 3 1 1 0 4 701 2518 300 MP stroke
0 -3 1 0 0 3 1 1 0 1 1 1 0 4 1 -2 
0 4 1 -1 0 6 0 -2 1 0 0 3 0 -1 1 1 
0 4 1 -2 0 5 0 -2 1 1 0 0 0 3 1 -1 
0 4 0 -1 1 2 0 -1 0 3 1 -1 0 4 0 -1 
1 1 0 3 0 -1 1 3 0 -3 0 4 1 -2 0 6 
1 -2 0 3 1 1 0 2 0 -3 0 2 1 1 0 2 
1 1 0 5 0 -3 1 -1 0 6 1 -1 0 4 1 -1 
0 3 1 -1 0 6 0 -2 1 2 0 -1 0 2 1 1 
0 5 0 -4 1 2 0 5 1 -1 0 2 0 -3 0 2 
1 3 0 -2 0 3 1 1 0 3 0 -1 1 2 0 -1 
0 4 1 -2 0 3 1 1 0 2 0 -1 1 2 0 1 
1 2 0 3 1 1 0 1 0 0 1 2 0 -1 0 3 
1 1 0 4 1 -4 0 6 1 2 0 1 0 -3 0 2 
1 2 0 -1 0 3 1 0 0 4 0 -1 1 0 0 4 
1 -1 0 3 1 1 0 0 0 4 1 -2 0 6 1 -1 
0 2 1 2 0 -1 0 2 1 3 0 2 0 -3 0 1 
1 3 0 -1 0 4 1 2 0 -2 0 1 1 1 0 4 
1 -1 0 4 0 -1 1 1 0 3 0 -1 1 3 0 2 
1 1 0 3 0 -2 1 2 0 5 1 -3 0 6 1 -2 
0 5 1 1 0 -2 0 4 1 -1 0 4 0 -1 1 3 
0 0 0 2 1 -1 0 6 639 2322 165 MP stroke
gr

24 w
c8
0 sg
%%IncludeResource: font Helvetica
/Helvetica /ISOLatin1Encoding 120 FMSR

1862  182 mt 
(Pulse tail in the pretrigger) s
2292 3569 mt 
(time \(ms\)) s
 356 2307 mt  -90 rotate
(Drop in TES current) s
90 rotate
6 w

end %%Color Dict

eplot
%%EndObject

epage
end

showpage

%%Trailer
%%EOF
