\relax 
\@writefile{lof}{\contentsline {figure}{\numberline {1}{\ignorespaces Optimal $\alpha (t)$ for the convex combination with monotonous decreasing constraint.}}{1}}
\newlabel{fig:step_alpha}{{1}{1}{Optimal $\alpha (t)$ for the convex combination with monotonous decreasing constraint}{}{}}
\@writefile{lof}{\contentsline {figure}{\numberline {2}{\ignorespaces Cumulative $L^2$ norm of the characteristic function for small noise sample (blue), corrected sample (green) and convex combination sample (black) with stepwise $\alpha (t)$.}}{1}}
\newlabel{fig:step_l2}{{2}{1}{Cumulative $L^2$ norm of the characteristic function for small noise sample (blue), corrected sample (green) and convex combination sample (black) with stepwise $\alpha (t)$}{}{}}
